00000000 W __heap_end
00000000 a __tmp_reg__
00000000 a __tmp_reg__
00000000 a __tmp_reg__
00000000 a __tmp_reg__
00000000 a __tmp_reg__
00000000 a __tmp_reg__
00000000 W __vector_default
00000000 T __vectors
00000001 a __zero_reg__
00000001 a __zero_reg__
00000001 a __zero_reg__
00000001 a __zero_reg__
00000001 a __zero_reg__
00000001 a __zero_reg__
00000034 a __CCP__
00000034 a __CCP__
00000034 a __CCP__
00000034 a __CCP__
00000034 a __CCP__
00000034 a __CCP__
0000003d a __SP_L__
0000003d a __SP_L__
0000003d a __SP_L__
0000003d a __SP_L__
0000003d a __SP_L__
0000003d a __SP_L__
0000003e a __SP_H__
0000003e a __SP_H__
0000003e a __SP_H__
0000003e a __SP_H__
0000003e a __SP_H__
0000003e a __SP_H__
0000003f a __SREG__
0000003f a __SREG__
0000003f a __SREG__
0000003f a __SREG__
0000003f a __SREG__
0000003f a __SREG__
00000098 t descriptor_list
000000c2 t endpoint_config_table
000000cc t device_descriptor
000000de t config1_descriptor
00000121 t string0
00000125 t string1
00000145 t string2
0000015d t string3
00000172 T __ctors_end
00000172 T __ctors_start
00000172 T __dtors_end
00000172 T __dtors_start
00000172 W __init
00000172 T __trampolines_end
00000172 T __trampolines_start
0000017e T __do_copy_data
00000198 T __do_clear_bss
000001a0 t .do_clear_bss_loop
000001a2 t .do_clear_bss_start
000001ac T __bad_interrupt
000001ac W __vector_1
000001ac W __vector_12
000001ac W __vector_13
000001ac W __vector_14
000001ac W __vector_15
000001ac W __vector_16
000001ac W __vector_17
000001ac W __vector_18
000001ac W __vector_19
000001ac W __vector_2
000001ac W __vector_20
000001ac W __vector_21
000001ac W __vector_22
000001ac W __vector_23
000001ac W __vector_24
000001ac W __vector_25
000001ac W __vector_26
000001ac W __vector_27
000001ac W __vector_28
000001ac W __vector_29
000001ac W __vector_3
000001ac W __vector_30
000001ac W __vector_31
000001ac W __vector_32
000001ac W __vector_33
000001ac W __vector_34
000001ac W __vector_35
000001ac W __vector_36
000001ac W __vector_37
000001ac W __vector_4
000001ac W __vector_5
000001ac W __vector_6
000001ac W __vector_7
000001ac W __vector_8
000001ac W __vector_9
000001ae T MPU6050_init
000001fa T MPU6050_get_accz
00000238 T i2c_send_speed
00000274 T send_str1
0000028a T recv_str
000003a8 T parse_and_execute_command
000003de T main
00000460 t usb_wait_in_ready
0000046a T usb_init
0000049c T usb_configured
000004a2 T usb_serial_getchar
000004ea T usb_serial_flush_input
00000510 T usb_serial_putchar
00000594 T usb_serial_get_control
0000059a T __vector_10
0000060e T __vector_11
000008de T i2c_init
000008ea T i2c_start
00000934 T i2c_stop
00000944 T i2c_write
00000966 T i2c_readNak
0000097a T sprintf
000009d8 T vfprintf
00000dde T strnlen_P
00000df4 T strnlen
00000e0a T fputc
00000e62 T __ultoa_invert
00000f1e T _exit
00000f1e W exit
00000f20 t __stop_program
00000f22 A __data_load_start
00000f22 T _etext
00000f5a A __data_load_end
000020ff W __stack
00800100 D __data_start
0080012e D localEcho
00800130 D speed
00800131 d cdc_line_coding
00800138 B __bss_start
00800138 D __data_end
00800138 D _edata
00800138 B gyroY
0080013a B accZH
0080013b B accZL
0080013c B accYH
0080013d B accYL
0080013e B accXH
0080013f B accXL
00800140 B gyroyH
00800141 B gyroyL
00800142 b usb_configuration
00800143 b cdc_line_rtsdtr
00800144 b transmit_flush_timer
00800145 b transmit_previous_timeout
00800146 B __bss_end
00800146 N _end
00810000 N __eeprom_end
