   1               		.file	"twimaster.c"
   2               	__SREG__ = 0x3f
   3               	__SP_H__ = 0x3e
   4               	__SP_L__ = 0x3d
   5               	__CCP__ = 0x34
   6               	__tmp_reg__ = 0
   7               	__zero_reg__ = 1
  15               	.Ltext0:
  16               		.section	.text.i2c_init,"ax",@progbits
  17               	.global	i2c_init
  19               	i2c_init:
  20               	.LFB0:
  21               	.LSM0:
  22               	/* prologue: function */
  23               	/* frame size = 0 */
  24               	/* stack size = 0 */
  25               	.L__stack_usage = 0
  26               	.LSM1:
  27 0000 1092 B900 		sts 185,__zero_reg__
  28               	.LSM2:
  29 0004 8CE0      		ldi r24,lo8(12)
  30 0006 8093 B800 		sts 184,r24
  31               	/* epilogue start */
  32               	.LSM3:
  33 000a 0895      		ret
  34               	.LFE0:
  36               		.section	.text.i2c_start,"ax",@progbits
  37               	.global	i2c_start
  39               	i2c_start:
  40               	.LFB1:
  41               	.LSM4:
  42               	.LVL0:
  43               	/* prologue: function */
  44               	/* frame size = 0 */
  45               	/* stack size = 0 */
  46               	.L__stack_usage = 0
  47               	.LSM5:
  48 0000 94EA      		ldi r25,lo8(-92)
  49 0002 9093 BC00 		sts 188,r25
  50               	.L3:
  51               	.LSM6:
  52 0006 9091 BC00 		lds r25,188
  53 000a 97FF      		sbrs r25,7
  54 000c 00C0      		rjmp .L3
  55               	.LSM7:
  56 000e 9091 B900 		lds r25,185
  57 0012 987F      		andi r25,lo8(-8)
  58               	.LVL1:
  59               	.LSM8:
  60 0014 9830      		cpi r25,lo8(8)
  61 0016 01F0      		breq .L4
  62               	.LSM9:
  63 0018 9031      		cpi r25,lo8(16)
  64 001a 01F4      		brne .L8
  65               	.L4:
  66               	.LSM10:
  67 001c 8093 BB00 		sts 187,r24
  68               	.LSM11:
  69 0020 84E8      		ldi r24,lo8(-124)
  70               	.LVL2:
  71 0022 8093 BC00 		sts 188,r24
  72               	.L6:
  73               	.LSM12:
  74 0026 8091 BC00 		lds r24,188
  75 002a 87FF      		sbrs r24,7
  76 002c 00C0      		rjmp .L6
  77               	.LSM13:
  78 002e 9091 B900 		lds r25,185
  79               	.LVL3:
  80 0032 987F      		andi r25,lo8(-8)
  81               	.LVL4:
  82               	.LSM14:
  83 0034 9831      		cpi r25,lo8(24)
  84 0036 01F0      		breq .L9
  85               	.LSM15:
  86 0038 81E0      		ldi r24,lo8(1)
  87 003a 9034      		cpi r25,lo8(64)
  88 003c 01F4      		brne .L5
  89 003e 80E0      		ldi r24,lo8(0)
  90 0040 0895      		ret
  91               	.LVL5:
  92               	.L8:
  93               	.LSM16:
  94 0042 81E0      		ldi r24,lo8(1)
  95               	.LVL6:
  96 0044 0895      		ret
  97               	.LVL7:
  98               	.L9:
  99               	.LSM17:
 100 0046 80E0      		ldi r24,lo8(0)
 101               	.L5:
 102               	.LSM18:
 103 0048 0895      		ret
 104               	.LFE1:
 106               		.section	.text.i2c_start_wait,"ax",@progbits
 107               	.global	i2c_start_wait
 109               	i2c_start_wait:
 110               	.LFB2:
 111               	.LSM19:
 112               	.LVL8:
 113               	/* prologue: function */
 114               	/* frame size = 0 */
 115               	/* stack size = 0 */
 116               	.L__stack_usage = 0
 117               	.LSM20:
 118 0000 44EA      		ldi r20,lo8(-92)
 119               	.LSM21:
 120 0002 34E8      		ldi r19,lo8(-124)
 121               	.LSM22:
 122 0004 24E9      		ldi r18,lo8(-108)
 123               	.L26:
 124               	.LSM23:
 125 0006 4093 BC00 		sts 188,r20
 126               	.L14:
 127               	.LSM24:
 128 000a 9091 BC00 		lds r25,188
 129 000e 97FF      		sbrs r25,7
 130 0010 00C0      		rjmp .L14
 131               	.LSM25:
 132 0012 9091 B900 		lds r25,185
 133 0016 987F      		andi r25,lo8(-8)
 134               	.LVL9:
 135               	.LSM26:
 136 0018 9830      		cpi r25,lo8(8)
 137 001a 01F0      		breq .L15
 138               	.LSM27:
 139 001c 9031      		cpi r25,lo8(16)
 140 001e 01F4      		brne .L26
 141               	.L15:
 142               	.LSM28:
 143 0020 8093 BB00 		sts 187,r24
 144               	.LSM29:
 145 0024 3093 BC00 		sts 188,r19
 146               	.LVL10:
 147               	.L17:
 148               	.LSM30:
 149 0028 9091 BC00 		lds r25,188
 150 002c 97FF      		sbrs r25,7
 151 002e 00C0      		rjmp .L17
 152               	.LSM31:
 153 0030 9091 B900 		lds r25,185
 154 0034 987F      		andi r25,lo8(-8)
 155               	.LVL11:
 156               	.LSM32:
 157 0036 9032      		cpi r25,lo8(32)
 158 0038 01F0      		breq .L18
 159               	.LSM33:
 160 003a 9835      		cpi r25,lo8(88)
 161 003c 01F4      		brne .L12
 162               	.L18:
 163               	.LSM34:
 164 003e 2093 BC00 		sts 188,r18
 165               	.LVL12:
 166               	.L20:
 167               	.LSM35:
 168 0042 9091 BC00 		lds r25,188
 169 0046 94FD      		sbrc r25,4
 170 0048 00C0      		rjmp .L20
 171 004a 00C0      		rjmp .L26
 172               	.LVL13:
 173               	.L12:
 174 004c 0895      		ret
 175               	.LFE2:
 177               		.section	.text.i2c_rep_start,"ax",@progbits
 178               	.global	i2c_rep_start
 180               	i2c_rep_start:
 181               	.LFB3:
 182               	.LSM36:
 183               	.LVL14:
 184               	/* prologue: function */
 185               	/* frame size = 0 */
 186               	/* stack size = 0 */
 187               	.L__stack_usage = 0
 188               	.LSM37:
 189 0000 0E94 0000 		call i2c_start
 190               	.LVL15:
 191               	/* epilogue start */
 192               	.LSM38:
 193 0004 0895      		ret
 194               	.LFE3:
 196               		.section	.text.i2c_stop,"ax",@progbits
 197               	.global	i2c_stop
 199               	i2c_stop:
 200               	.LFB4:
 201               	.LSM39:
 202               	/* prologue: function */
 203               	/* frame size = 0 */
 204               	/* stack size = 0 */
 205               	.L__stack_usage = 0
 206               	.LSM40:
 207 0000 84E9      		ldi r24,lo8(-108)
 208 0002 8093 BC00 		sts 188,r24
 209               	.L29:
 210               	.LSM41:
 211 0006 8091 BC00 		lds r24,188
 212 000a 84FD      		sbrc r24,4
 213 000c 00C0      		rjmp .L29
 214               	/* epilogue start */
 215               	.LSM42:
 216 000e 0895      		ret
 217               	.LFE4:
 219               		.section	.text.i2c_write,"ax",@progbits
 220               	.global	i2c_write
 222               	i2c_write:
 223               	.LFB5:
 224               	.LSM43:
 225               	.LVL16:
 226               	/* prologue: function */
 227               	/* frame size = 0 */
 228               	/* stack size = 0 */
 229               	.L__stack_usage = 0
 230               	.LSM44:
 231 0000 8093 BB00 		sts 187,r24
 232               	.LSM45:
 233 0004 84E8      		ldi r24,lo8(-124)
 234               	.LVL17:
 235 0006 8093 BC00 		sts 188,r24
 236               	.L32:
 237               	.LSM46:
 238 000a 8091 BC00 		lds r24,188
 239 000e 87FF      		sbrs r24,7
 240 0010 00C0      		rjmp .L32
 241               	.LSM47:
 242 0012 9091 B900 		lds r25,185
 243               	.LVL18:
 244 0016 987F      		andi r25,lo8(-8)
 245               	.LVL19:
 246               	.LSM48:
 247 0018 81E0      		ldi r24,lo8(1)
 248 001a 9832      		cpi r25,lo8(40)
 249 001c 01F4      		brne .L33
 250 001e 80E0      		ldi r24,lo8(0)
 251               	.L33:
 252               	.LSM49:
 253 0020 0895      		ret
 254               	.LFE5:
 256               		.section	.text.i2c_readAck,"ax",@progbits
 257               	.global	i2c_readAck
 259               	i2c_readAck:
 260               	.LFB6:
 261               	.LSM50:
 262               	/* prologue: function */
 263               	/* frame size = 0 */
 264               	/* stack size = 0 */
 265               	.L__stack_usage = 0
 266               	.LSM51:
 267 0000 84EC      		ldi r24,lo8(-60)
 268 0002 8093 BC00 		sts 188,r24
 269               	.L36:
 270               	.LSM52:
 271 0006 8091 BC00 		lds r24,188
 272 000a 87FF      		sbrs r24,7
 273 000c 00C0      		rjmp .L36
 274               	.LSM53:
 275 000e 8091 BB00 		lds r24,187
 276               	/* epilogue start */
 277               	.LSM54:
 278 0012 0895      		ret
 279               	.LFE6:
 281               		.section	.text.i2c_readNak,"ax",@progbits
 282               	.global	i2c_readNak
 284               	i2c_readNak:
 285               	.LFB7:
 286               	.LSM55:
 287               	/* prologue: function */
 288               	/* frame size = 0 */
 289               	/* stack size = 0 */
 290               	.L__stack_usage = 0
 291               	.LSM56:
 292 0000 84E8      		ldi r24,lo8(-124)
 293 0002 8093 BC00 		sts 188,r24
 294               	.L39:
 295               	.LSM57:
 296 0006 8091 BC00 		lds r24,188
 297 000a 87FF      		sbrs r24,7
 298 000c 00C0      		rjmp .L39
 299               	.LSM58:
 300 000e 8091 BB00 		lds r24,187
 301               	/* epilogue start */
 302               	.LSM59:
 303 0012 0895      		ret
 304               	.LFE7:
 386               	.Letext0:
DEFINED SYMBOLS
                            *ABS*:00000000 twimaster.c
     /tmp/ccyeAmmO.s:2      *ABS*:0000003f __SREG__
     /tmp/ccyeAmmO.s:3      *ABS*:0000003e __SP_H__
     /tmp/ccyeAmmO.s:4      *ABS*:0000003d __SP_L__
     /tmp/ccyeAmmO.s:5      *ABS*:00000034 __CCP__
     /tmp/ccyeAmmO.s:6      *ABS*:00000000 __tmp_reg__
     /tmp/ccyeAmmO.s:7      *ABS*:00000001 __zero_reg__
     /tmp/ccyeAmmO.s:19     .text.i2c_init:00000000 i2c_init
     /tmp/ccyeAmmO.s:39     .text.i2c_start:00000000 i2c_start
     /tmp/ccyeAmmO.s:109    .text.i2c_start_wait:00000000 i2c_start_wait
     /tmp/ccyeAmmO.s:180    .text.i2c_rep_start:00000000 i2c_rep_start
     /tmp/ccyeAmmO.s:199    .text.i2c_stop:00000000 i2c_stop
     /tmp/ccyeAmmO.s:222    .text.i2c_write:00000000 i2c_write
     /tmp/ccyeAmmO.s:259    .text.i2c_readAck:00000000 i2c_readAck
     /tmp/ccyeAmmO.s:284    .text.i2c_readNak:00000000 i2c_readNak

NO UNDEFINED SYMBOLS
