0,3893
0.004992,3896
0.0099921,3892
0.014992,3891
0.019993,3900
0.024993,3891
0.029998,3890
0.034993,3902
0.039992,3895
0.044993,3890
0.049992,3900
0.054993,3901
0.059993,3890
0.064993,3895
0.069993,3900
0.074993,3891
0.079993,3893
0.084993,3898
0.089993,3891
0.094994,3891
0.099994,3899
0.10499,3891
0.10999,3889
0.11499,3899
0.11999,3896
0.12499,3889
0.12999,3897
0.13499,3899
0.13999,3890
0.145,3895
0.15,3897
0.155,3891
0.16,3892
0.165,3897
0.17,3892
0.175,3890
0.18,3897
0.185,3889
0.19,3890
0.195,3898
0.2,3895
0.205,3890
0.21,3897
0.215,3898
0.22,3890
0.225,3893
0.23001,3897
0.235,3892
0.24,3892
0.245,3894
0.25,3892
0.255,3890
0.26,3898
0.265,3891
0.27,3891
0.275,3897
0.28,3893
0.285,3888
0.29,3894
0.295,3897
0.3,3878
0.305,3870
0.31,3870
0.315,3875
0.32,3885
0.325,3893
0.33,3891
0.335,3891
0.34,3895
0.345,3887
0.35,3873
0.355,3872
0.36,3867
0.365,3880
0.37,3892
0.375,3897
0.38,3891
0.385,3897
0.39,3901
0.395,3893
0.4,3898
0.405,3902
0.41,3890
0.415,3896
0.42,3902
0.425,3891
0.43,3889
0.435,3901
0.44,3893
0.445,3888
0.45,3899
0.455,3897
0.46,3922
0.465,3945
0.47,3955
0.475,3937
0.48001,3933
0.485,3926
0.49,3895
0.495,3880
0.5,3876
0.505,3869
0.51,3883
0.515,3898
0.52,3892
0.525,3888
0.53,3898
0.535,3895
0.54,3890
0.545,3894
0.55,3897
0.555,3891
0.56,3895
0.565,3897
0.57,3890
0.575,3894
0.58,3900
0.585,3889
0.59001,3889
0.59501,3899
0.60001,3892
0.60501,3888
0.61001,3896
0.61501,3895
0.62001,3890
0.62501,3894
0.63001,3896
0.63501,3891
0.64001,3896
0.64501,3896
0.65001,3890
0.65501,3893
0.66001,3896
0.66501,3890
0.67001,3889
0.67501,3898
0.68001,3893
0.68501,3889
0.69001,3896
0.69501,3896
0.70001,3890
0.70501,3895
0.71001,3896
0.71501,3892
0.72001,3893
0.72501,3896
0.73002,3891
0.73501,3894
0.74001,3899
0.74501,3888
0.75001,3891
0.75501,3900
0.76001,3892
0.76501,3889
0.77001,3901
0.77501,3895
0.78001,3889
0.78501,3900
0.79001,3894
0.79501,3890
0.80001,3901
0.80501,3899
0.81001,3888
0.81501,3897
0.82001,3901
0.82501,3888
0.83001,3892
0.83501,3900
0.84001,3894
0.84501,3888
0.85001,3898
0.85501,3893
0.86001,3891
0.86501,3897
0.87001,3894
0.87501,3891
0.88001,3894
0.88501,3897
0.89001,3888
0.89501,3897
0.90001,3899
0.90501,3890
0.91001,3891
0.91501,3900
0.92001,3892
0.92501,3888
0.93001,3896
0.93501,3894
0.94001,3889
0.94501,3895
0.95001,3893
0.95501,3892
0.96001,3896
0.96501,3894
0.97001,3889
0.97501,3895
0.98002,3898
0.98501,3888
0.99001,3891
0.99501,3899
1,3892
1.005,3888
1.01,3895
1.015,3893
1.02,3890
1.025,3894
1.03,3895
1.035,3925
1.04,3946
1.045,3950
1.05,3934
1.055,3930
1.06,3926
1.065,3918
1.07,3921
1.075,3906
1.08,3896
1.085,3891
1.09,3895
1.095,3893
1.1,3889
1.105,3894
1.11,3893
1.115,3890
1.12,3897
1.125,3895
1.13,3888
1.135,3899
1.14,3902
1.145,3889
1.15,3898
1.155,3903
1.16,3892
1.165,3894
1.17,3900
1.175,3888
1.18,3873
1.185,3869
1.19,3846
1.195,3873
1.2,3891
1.205,3893
1.21,3887
1.215,3899
1.22,3899
1.225,3888
1.23,3894
1.235,3901
1.24,3892
1.245,3891
1.25,3897
1.255,3893
1.26,3890
1.265,3898
1.27,3892
1.275,3891
1.28,3898
1.285,3894
1.29,3889
1.295,3897
1.3,3898
1.305,3888
1.31,3894
1.315,3900
1.32,3891
1.325,3892
1.33,3897
1.335,3891
1.34,3890
1.345,3896
1.35,3892
1.355,3890
1.36,3896
1.365,3893
1.37,3923
1.375,3948
1.38,3953
1.385,3934
1.39,3929
1.395,3911
1.4,3896
1.405,3893
1.41,3896
1.415,3892
1.42,3891
1.425,3895
1.43,3892
1.435,3891
1.44,3897
1.445,3893
1.45,3889
1.455,3896
1.46,3896
1.465,3888
1.47,3894
1.475,3897
1.48,3892
1.485,3893
1.49,3899
1.495,3893
1.5,3893
1.505,3901
1.51,3891
1.515,3890
1.52,3902
1.525,3892
1.53,3890
1.535,3902
1.54,3896
1.545,3889
1.55,3898
1.555,3900
1.56,3891
1.565,3894
1.57,3899
1.575,3891
1.58,3893
1.585,3899
1.59,3890
1.595,3890
1.6,3898
1.605,3892
1.61,3888
1.615,3899
1.62,3897
1.625,3889
1.63,3895
1.635,3899
1.64,3891
1.645,3894
1.65,3897
1.655,3890
1.66,3892
1.665,3895
1.67,3891
1.675,3892
1.68,3898
1.685,3890
1.69,3889
1.695,3897
1.7,3894
1.705,3888
1.71,3895
1.715,3898
1.72,3890
1.725,3892
1.73,3896
1.735,3892
1.74,3892
1.745,3896
1.75,3890
1.755,3892
1.76,3897
1.765,3892
1.77,3889
1.775,3897
1.78,3893
1.785,3889
1.79,3894
1.795,3896
1.8,3891
1.805,3893
1.81,3896
1.815,3884
1.82,3873
1.825,3858
1.83,3841
1.835,3836
1.84,3839
1.845,3840
1.85,3871
1.855,3890
1.86,3893
1.865,3888
1.87,3897
1.875,3896
1.88,3890
1.885,3899
1.89,3901
1.895,3891
1.9,3899
1.905,3900
1.91,3907
1.915,3940
1.92,3955
1.925,3947
1.93,3946
1.935,3961
1.94,3951
1.945,3932
1.95,3926
1.955,3909
1.96,3896
1.965,3899
1.97,3900
1.975,3891
1.98,3896
1.985,3897
1.99,3891
1.995,3893
2,3899
2.005,3890
2.01,3890
2.015,3898
2.02,3892
2.025,3889
2.03,3896
2.035,3895
2.04,3891
2.045,3896
2.05,3896
2.055,3891
2.06,3896
2.065,3897
2.07,3889
2.075,3892
2.08,3898
2.085,3891
2.09,3889
2.095,3897
2.1,3894
2.105,3889
2.11,3896
2.115,3896
2.12,3891
2.125,3894
2.13,3895
2.135,3890
2.14,3894
2.145,3896
2.15,3889
2.155,3893
2.16,3898
2.165,3889
2.17,3889
2.175,3898
2.18,3894
2.185,3889
2.19,3895
2.195,3895
2.2,3890
2.205,3893
2.21,3896
2.215,3891
2.22,3896
2.225,3896
2.23,3891
2.235,3895
2.24,3900
2.245,3889
2.25,3893
2.255,3902
2.26,3892
2.265,3889
2.27,3901
2.275,3895
2.28,3889
2.285,3901
2.29,3895
2.295,3891
2.3,3898
2.305,3899
2.31,3915
2.315,3944
2.32,3955
2.325,3940
2.33,3931
2.335,3919
2.34,3899
2.345,3892
2.35,3899
2.355,3895
2.36,3890
2.365,3897
2.37,3894
2.375,3892
2.38,3898
2.385,3896
2.39,3889
2.395,3896
2.4,3898
2.405,3910
2.41,3936
2.415,3952
2.42,3945
2.425,3928
2.43,3918
2.435,3900
2.44,3894
2.445,3898
2.45,3894
2.455,3889
2.46,3897
2.465,3898
2.47,3889
2.475,3895
2.4801,3897
2.485,3889
2.49,3890
2.495,3897
2.5,3892
2.505,3889
2.51,3896
2.515,3894
2.52,3889
2.525,3894
2.53,3892
2.535,3891
2.54,3897
2.545,3896
2.55,3891
2.555,3895
2.56,3897
2.565,3889
2.57,3892
2.575,3899
2.58,3890
2.585,3890
2.59,3896
2.595,3893
2.6,3892
2.605,3895
2.61,3893
2.615,3890
2.62,3900
2.625,3895
2.63,3890
2.635,3902
2.64,3902
2.645,3887
2.65,3897
2.655,3901
2.66,3891
2.665,3894
2.67,3898
2.675,3891
2.68,3889
2.685,3898
2.69,3893
2.695,3891
2.7001,3899
2.7051,3895
2.7101,3889
2.7151,3897
2.7201,3900
2.7251,3889
2.7301,3892
2.7351,3901
2.7401,3913
2.7451,3937
2.7501,3951
2.7551,3945
2.7601,3932
2.7651,3916
2.7701,3899
2.7751,3895
2.7801,3899
2.7851,3895
2.7901,3890
2.7951,3896
2.8001,3898
2.8051,3888
2.8101,3892
2.8151,3898
2.8201,3891
2.8251,3892
2.8301,3896
2.8351,3890
2.8401,3892
2.8451,3896
2.8501,3892
2.8551,3889
2.8601,3897
2.8651,3893
2.8701,3890
2.8751,3896
2.8801,3898
2.8851,3889
2.8901,3893
2.8951,3899
2.9001,3891
2.9051,3890
2.9101,3895
2.9151,3891
2.9201,3890
2.9251,3895
2.9301,3891
2.9351,3891
2.9401,3896
2.9451,3893
2.9501,3888
2.9551,3897
2.9601,3897
2.9651,3888
2.9701,3893
2.9751,3901
2.9801,3891
2.9851,3893
2.9901,3901
2.9951,3891
3.0001,3896
3.0051,3901
3.0101,3890
3.0151,3891
3.0201,3902
3.0251,3893
3.0301,3888
3.0351,3901
3.0401,3897
3.0451,3889
3.0501,3895
3.0551,3901
3.0601,3891
3.0651,3895
3.0701,3897
3.0751,3891
3.0801,3893
3.0851,3899
3.0901,3891
3.0951,3890
3.1001,3900
3.1051,3893
3.1101,3889
3.1151,3897
3.1201,3896
3.1251,3890
3.1301,3894
3.1351,3897
3.1401,3890
3.1451,3893
3.1501,3896
3.1551,3890
3.1601,3893
3.1651,3897
3.1701,3892
3.1751,3891
3.1801,3899
3.1851,3891
3.1901,3889
3.1951,3898
3.2001,3895
3.2051,3888
3.2101,3894
3.2151,3896
3.2201,3890
3.2251,3894
3.2301,3897
3.2351,3893
3.2401,3892
3.2451,3896
3.2501,3890
3.2551,3892
3.2601,3897
3.2651,3892
3.2701,3888
3.2751,3896
3.2801,3895
3.2851,3889
3.2901,3895
3.2951,3897
3.3001,3891
3.3051,3893
3.3101,3895
3.3151,3891
3.3201,3895
3.3251,3895
3.3301,3887
3.3351,3890
3.3401,3900
3.3451,3891
