0,4080
0.004993,4086
0.0099931,4095
0.014994,4076
0.019993,4006
0.024995,4020
0.030021,4006
0.034993,4003
0.039994,4013
0.044994,4013
0.049993,4005
0.054994,4007
0.059994,4000
0.064994,4006
0.069994,4001
0.074994,4000
0.079994,4000
0.084995,4008
0.089995,4003
0.094996,4001
0.099995,4006
0.105,4005
0.10999,4004
0.115,4004
0.12,4004
0.125,4003
0.13,4005
0.135,4003
0.14,4003
0.145,4008
0.15,4005
0.155,4000
0.16,4000
0.165,4008
0.17,4003
0.175,4075
0.18,4083
0.185,4082
0.19,4076
0.195,4003
0.2,4004
0.205,4002
0.21,4005
0.215,4003
0.22,4000
0.225,4082
0.23,4085
0.235,4077
0.24,4003
0.245,4010
0.25,4003
0.255,4000
0.26,4004
0.265,4006
0.27,4001
0.275,4003
0.28,4004
0.285,4003
0.29,4082
0.295,4081
0.3,4079
0.305,4006
0.31,4013
0.315,4000
0.32,4003
0.325,4009
0.33,4038
0.335,4000
0.34,4006
0.345,4073
0.35,4002
0.355,4004
0.36,4073
0.365,4003
0.37,4006
0.375,4070
0.38,4066
0.385,3946
0.39,4006
0.395,3991
0.4,4004
0.405,4034
0.41,4038
0.415,4000
0.42,4007
0.425,4029
0.43,3999
0.435,3944
0.44,3960
0.445,3948
0.45,4006
0.455,4016
0.46,4009
0.465,3947
0.47,3950
0.475,3951
0.48,4004
0.485,3999
0.49,4002
0.495,4077
0.50001,4086
0.505,4082
0.51,4040
0.515,4004
0.52,4006
0.525,4004
0.53001,4003
0.53501,4003
0.54,4000
0.54501,4007
0.55001,4006
0.55501,3999
0.56001,4004
0.56501,4008
0.57001,4002
0.57501,4001
0.58001,4007
0.58501,4004
0.59001,4001
0.59501,4004
0.60001,4006
0.60501,4005
0.61001,4082
0.61501,4080
0.62001,4080
0.62501,4007
0.63001,4004
0.63501,4000
0.64001,3947
0.64501,3948
0.65001,3943
0.65501,4079
0.66001,4085
0.66501,4082
0.67001,4001
0.67501,4004
0.68001,4004
0.68501,4003
0.69001,4003
0.69501,4003
0.70001,4002
0.70501,4009
0.71001,4004
0.71501,3999
0.72001,4003
0.72501,4012
0.73001,4000
0.73501,4000
0.74001,4007
0.74501,4004
0.75001,4078
0.75501,4082
0.76001,4096
0.76501,4078
0.77001,4081
0.77501,4145
0.78001,4078
0.78501,4009
0.79001,4072
0.79501,4068
0.80001,4005
0.80501,4071
0.81001,4070
0.81501,4001
0.82001,4052
0.82501,4058
0.83001,4000
0.83501,4004
0.84001,4044
0.84501,4002
0.85001,4004
0.85501,4029
0.86001,4009
0.86501,4007
0.87001,4019
0.87501,4014
0.88001,4005
0.88501,4024
0.89001,4014
0.89501,4003
0.90001,4001
0.90501,4012
0.91001,4002
0.91501,4004
0.92001,4010
0.92501,4001
0.93001,4006
0.93501,4002
0.94001,4006
0.94501,4005
0.95001,4004
0.95501,3998
0.96001,4004
0.96501,4006
0.97002,4001
0.97501,3942
0.98002,3945
0.98501,3944
0.99002,4000
0.99501,4004
1,4005
1.005,4003
1.01,4005
1.015,4003
1.02,4004
1.025,4007
1.03,4005
1.035,4001
1.04,4005
1.045,4007
1.05,4001
1.055,4079
1.06,4085
1.065,4080
1.07,4002
1.075,4004
1.08,4004
1.085,4003
1.09,4004
1.095,4002
1.1,4001
1.105,4006
1.11,4004
1.115,4000
1.12,4007
1.125,4007
1.13,4001
1.135,4003
1.14,4011
1.145,4004
1.15,4002
1.155,4007
1.16,4005
1.165,4003
1.17,4005
1.175,4003
1.18,4003
1.185,3948
1.19,3944
1.195,3940
1.2,4082
1.205,4144
1.21,4145
1.215,4002
1.22,4071
1.225,4071
1.23,4002
1.235,4057
1.24,4073
1.245,4003
1.25,4006
1.255,4062
1.26,4001
1.265,4007
1.27,4048
1.275,4003
1.28,4006
1.285,4035
1.29,4027
1.295,4003
1.3,4020
1.305,4024
1.31,4001
1.315,4005
1.32,4018
1.325,4005
1.33,4007
1.335,4014
1.34,4000
1.345,4006
1.35,4013
1.355,4001
1.36,4005
1.365,4006
1.37,4000
1.375,4004
1.38,4006
1.385,4003
1.39,4003
1.395,3999
1.4,4003
1.405,4004
1.41,4007
1.415,4001
1.42,4003
1.425,4009
1.43,4004
1.435,4000
1.44,4005
1.445,4006
1.45,4001
1.455,3945
1.46,3949
1.465,3944
1.47,4003
1.475,4006
1.48,4003
1.485,4080
1.49,4082
1.495,4077
1.5,4002
1.505,4008
1.51,4004
1.515,4000
1.52,4008
1.525,4006
1.53,3999
1.535,4001
1.54,4008
1.545,4003
1.55,4002
1.555,4006
1.56,4001
1.565,4003
1.57,4006
1.575,3999
1.58,4004
1.585,4008
1.59,4001
1.595,3999
1.6,4006
1.605,4005
1.61,3998
1.615,4005
1.62,4007
1.625,4040
1.63,4004
1.635,4054
1.64,4070
1.645,4004
1.65,4064
1.655,4070
1.66,4002
1.665,4008
1.67,4069
1.675,3999
1.68,4008
1.685,4066
1.69,4003
1.695,4004
1.7,4055
1.705,4038
1.71,4002
1.715,4034
1.72,4029
1.725,4081
1.73,4087
1.735,4093
1.74,4003
1.745,4007
1.75,4016
1.755,3999
1.76,4007
1.765,4016
1.77,4002
1.775,4082
1.78,4085
1.785,4079
1.79,4004
1.795,4002
1.8,4004
1.805,4004
1.81,4001
1.815,4002
1.82,4004
1.825,4007
1.83,4002
1.8351,4001
1.84,4007
1.845,4005
1.85,4002
1.855,4004
1.86,4006
1.865,4004
1.87,4004
1.875,4005
1.88,4002
1.885,4082
1.89,4080
1.895,4078
1.9,4004
1.905,4009
1.91,4001
1.915,3999
1.92,4007
1.925,4004
1.93,4000
1.935,4005
1.94,4006
1.945,4003
1.95,3943
1.955,3945
1.96,3943
1.965,4006
1.97,4006
1.975,4001
1.98,4003
1.985,4009
1.99,4000
1.995,4001
2,4009
2.005,4005
2.01,3999
2.015,4004
2.02,4008
2.025,4001
2.03,4004
2.035,4004
2.04,4003
2.045,4005
2.05,4010
2.055,4002
2.06,4006
2.065,4035
2.07,4065
2.075,4001
2.08,4009
2.085,4073
2.09,3999
2.095,4007
2.1,4072
2.105,4004
2.11,4005
2.115,4072
2.12,4058
2.125,4006
2.13,4054
2.135,4041
2.14,4005
2.145,4025
2.15,4029
2.155,4001
2.16,4010
2.165,4027
2.17,3999
2.175,4004
2.18,4027
2.185,4007
2.19,4003
2.195,4014
2.2,4015
2.205,3947
2.21,3949
2.215,3948
2.22,4006
2.225,4000
2.23,4000
2.235,4001
2.24,4009
2.245,4004
2.25,4001
2.255,4005
2.26,4005
2.265,4003
2.27,4004
2.275,4003
2.28,4003
2.285,4083
2.29,4081
2.295,4079
2.3,4005
2.305,4006
2.31,4001
2.315,4001
2.32,4010
2.325,4004
2.33,4002
2.335,4005
2.34,4006
2.345,4002
2.35,4002
2.355,4005
2.36,4002
2.365,4083
2.37,4081
2.375,4079
2.38,4004
2.385,4008
2.39,4000
2.395,4001
2.4,4007
2.405,4003
2.41,4000
2.415,4007
2.42,4008
2.425,4003
2.43,4004
2.435,4005
2.44,4003
2.445,4007
2.45,4004
2.455,4000
2.46,4007
2.465,4011
2.47,4000
2.475,4004
2.48,4008
2.485,4004
2.49,3999
2.495,4006
2.5,4058
2.505,4000
2.51,4004
2.515,4072
2.52,4003
2.525,3948
2.5301,4012
2.535,4010
2.54,4005
2.545,4070
2.55,4062
2.555,3943
2.5601,3984
2.565,3989
2.5701,4000
2.5751,4006
2.58,4037
2.585,4001
2.59,4004
2.595,4026
2.6,4007
2.6051,3946
2.6101,3962
2.6151,3954
2.62,4007
2.6251,4015
2.6301,4013
2.6351,4002
2.6401,3998
2.6451,4009
2.6501,4000
2.6551,4006
2.6601,4013
2.6651,4000
2.6701,4002
2.6751,4003
2.6801,4004
2.6851,4006
2.6901,4004
2.6951,4000
2.7001,4005
2.7051,4006
2.7101,3999
2.7151,4003
2.7201,4005
2.7251,4004
2.7301,4003
2.7351,4006
2.7401,4004
2.7451,4002
2.7501,4002
2.7551,4004
2.7601,4002
2.7651,4005
2.7701,4002
2.7751,4001
2.7801,4006
2.7851,4005
2.7901,3999
2.7951,4003
2.8001,4006
2.8051,4004
2.8101,4000
2.8151,4007
2.8201,4005
2.8251,4001
2.8301,4007
2.8351,4002
2.8401,4004
2.8451,3947
2.8501,3943
2.8551,3941
2.8601,4007
2.8651,4006
2.8701,3999
2.8751,4005
2.8801,4013
2.8851,4002
2.8901,4001
2.8951,4005
2.9001,4003
2.9051,4002
2.9101,4003
2.9151,4003
2.9201,4002
2.9251,4005
2.9301,4033
2.9351,4002
2.9401,4007
2.9451,4071
2.9501,4068
2.9551,4004
2.9601,4071
2.9651,4070
2.9701,4001
2.9751,4057
2.9801,4071
2.9851,4002
2.9901,4004
2.9951,4055
3.0001,4001
3.0051,4005
3.0101,4039
3.0151,4004
3.0201,4006
3.0251,4028
3.0301,4019
3.0351,4004
3.0401,4022
3.0451,4015
3.0501,4001
3.0551,4005
3.0601,4015
3.0651,4002
3.0701,4003
3.0751,4009
3.0801,4002
3.0851,4006
3.0901,4011
3.0951,4003
3.1001,4006
3.1051,4005
3.1101,3997
3.1151,4004
3.1201,4007
3.1251,4001
3.1301,4078
3.1351,4079
3.1401,4081
3.1451,4003
3.1501,4005
3.1551,4004
3.1601,4079
3.1651,4083
3.1701,4078
3.1751,4080
3.1801,4009
3.1851,4004
3.1901,3999
3.1951,4005
3.2001,4009
3.2051,4002
3.2101,4001
3.2151,4006
3.2201,4004
3.2251,4002
3.2301,4004
3.2351,4002
3.2401,4003
