0,5923,395.95,0.25156
0.0049949,5922,296.18,0.25175
0.009995,5922,222.15,0.25175
0.014996,5922,167.44,0.25175
0.019994,5924,126.41,0.25137
0.024996,5923,96.985,0.25156
0.029994,5922,75.246,0.25175
0.034995,5922,58.88,0.25175
0.039995,5919,47.697,0.25233
0.044996,5922,37.616,0.25175
0.049995,5918,32.287,0.25252
0.054996,5920,26.535,0.25214
0.059995,5920,22.887,0.25214
0.064995,5921,19.888,0.25194
0.069995,5920,18.276,0.25214
0.074997,5920,16.784,0.25214
0.079996,5919,15.985,0.25233
0.084996,5920,14.789,0.25214
0.089996,5920,14.207,0.25214
0.094996,5920,13.777,0.25214
0.099996,5919,13.763,0.25233
0.105,5920,13.147,0.25214
0.11,5919,13.297,0.25233
0.115,5920,12.803,0.25214
0.12,5921,12.435,0.25194
0.125,5920,12.769,0.25214
0.13,5934,8.4598,0.24943
0.135,5921,13.445,0.25194
0.14,5920,13.515,0.25214
0.145,5953,3.2374,0.24577
0.15,5919,15.919,0.25233
0.155,5920,14.741,0.25214
0.16,5920,14.171,0.25214
0.165,5921,13.446,0.25194
0.17,5920,13.516,0.25214
0.175,5919,13.57,0.25233
0.18,5920,13.005,0.25214
0.185,5920,12.888,0.25214
0.19,5923,11.891,0.25156
0.195,5918,13.577,0.25252
0.2,5923,11.797,0.25156
0.205,5921,12.596,0.25194
0.21,5920,12.887,0.25214
0.215,5920,12.802,0.25214
0.22,5920,12.738,0.25214
0.225,5921,12.387,0.25194
0.23,5920,12.733,0.25214
0.235,5920,12.688,0.25214
0.24,5921,12.35,0.25194
0.245,5918,13.314,0.25252
0.25,5922,11.906,0.25175
0.255,5919,12.983,0.25233
0.26,5928,10.14,0.25059
0.265,5921,12.878,0.25194
0.27,5921,12.792,0.25194
0.275,5956,2.0931,0.24519
0.28,5921,15.37,0.25194
0.285,5921,14.634,0.25194
0.29,5919,14.697,0.25233
0.295,5921,13.534,0.25194
0.3,5921,13.277,0.25194
0.305,5922,12.783,0.25175
0.31,5920,13.327,0.25214
0.315,5921,12.823,0.25194
0.32,5919,13.359,0.25233
0.325,5923,11.937,0.25156
0.33,5922,12.396,0.25175
0.335,5920,13.041,0.25214
0.34,5919,13.219,0.25233
0.345,5920,12.745,0.25214
0.35,5920,12.696,0.25214
0.355,5919,12.964,0.25233
0.36,5951,3.1369,0.24615
0.365,5920,14.938,0.25214
0.37,5920,14.317,0.25214
0.375,5920,13.858,0.25214
0.38,5920,13.519,0.25214
0.385,5919,13.572,0.25233
0.39,5919,13.31,0.25233
0.395,5919,13.117,0.25233
0.4,5920,12.67,0.25214
0.405,5920,12.641,0.25214
0.41,5919,12.923,0.25233
0.415,5864,29.544,0.26295
0.42,5920,8.234,0.25214
0.425,5920,9.3627,0.25214
0.43,5948,1.6883,0.24673
0.435,5917,13.875,0.25272
0.44,5919,12.931,0.25233
0.445,5926,10.71,0.25098
0.45,5923,12.089,0.25156
0.455,5923,12.204,0.25156
0.46,5930,10.162,0.25021
0.465,5926,11.978,0.25098
0.47,5958,2.3902,0.2448
0.475,5926,14.673,0.25098
0.48,5925,14.41,0.25117
0.485,6092,-36.833,0.21893
0.49001,5924,26.678,0.25137
0.49501,5925,22.679,0.25117
0.50001,5927,19.417,0.25079
0.50501,5926,17.913,0.25098
0.51,5925,16.805,0.25117
0.515,5926,15.38,0.25098
0.52,5926,14.628,0.25098
0.52501,5923,14.985,0.25156
0.53,5924,14.04,0.25137
0.535,5920,14.859,0.25214
0.54,5952,4.5345,0.24596
0.54501,5923,15.361,0.25156
0.55001,5925,14.014,0.25117
0.55501,5951,5.721,0.24615
0.56001,5924,15.632,0.25137
0.56501,5921,15.732,0.25194
0.57001,5923,14.293,0.25156
0.57501,5921,14.441,0.25194
0.58001,5921,13.947,0.25194
0.58501,5924,12.67,0.25137
0.59001,5922,13.239,0.25175
0.59501,5949,4.8517,0.24654
0.60001,5925,14.083,0.25117
0.60501,5923,14.281,0.25156
0.61001,6091,-37.228,0.21912
0.61501,5922,26.693,0.25175
0.62001,5925,22.087,0.25117
0.62501,5930,18.068,0.25021
0.63001,5923,18.732,0.25156
0.63501,5923,17.113,0.25156
0.64001,5925,15.309,0.25117
0.64501,5924,14.883,0.25137
0.65001,5930,12.443,0.25021
0.65501,5922,14.879,0.25175
0.66001,5926,13.053,0.25098
0.66501,5953,4.7041,0.24577
0.67001,5924,15.484,0.25137
0.67501,5925,14.406,0.25117
0.68001,5924,14.215,0.25137
0.68501,5925,13.469,0.25117
0.69001,5922,14.131,0.25175
0.69501,5923,13.411,0.25156
0.70001,5923,13.181,0.25156
0.70501,5925,12.403,0.25117
0.71001,5924,12.735,0.25137
0.71501,5922,13.287,0.25175
0.72001,5953,3.6716,0.24577
0.72501,5926,14.113,0.25098
0.73001,5923,14.604,0.25156
0.73501,5958,3.4268,0.2448
0.74001,5923,16.351,0.25156
0.74501,5925,14.746,0.25117
0.75001,5923,14.77,0.25156
0.75501,5923,14.185,0.25156
0.76001,5924,13.449,0.25137
0.76501,5925,12.903,0.25117
0.77001,5922,13.712,0.25175
0.77501,5925,12.494,0.25117
0.78001,5927,11.891,0.25079
0.78501,5924,12.959,0.25137
0.79001,5927,11.933,0.25079
0.79501,5923,13.294,0.25156
0.80001,5923,13.095,0.25156
0.80501,5928,11.428,0.25059
0.81001,5923,13.222,0.25156
0.81501,5956,3.0136,0.24519
0.82001,5923,15.442,0.25156
0.82501,5925,14.074,0.25117
0.83001,5923,14.274,0.25156
0.83501,5923,13.819,0.25156
0.84001,5951,4.9738,0.24615
0.84501,5923,15.384,0.25156
0.85001,5923,14.639,0.25156
0.85501,5924,13.785,0.25137
0.86001,5922,14.062,0.25175
0.86501,5923,13.361,0.25156
0.87001,5923,13.144,0.25156
0.87501,5922,13.288,0.25175
0.88001,5923,12.788,0.25156
0.88501,5922,13.025,0.25175
0.89001,5921,13.202,0.25194
0.89501,5922,12.728,0.25175
0.90001,5923,12.375,0.25156
0.90501,5955,2.6911,0.24538
0.91001,5921,15.51,0.25194
0.91501,5921,14.738,0.25194
0.92001,5922,13.862,0.25175
0.92501,5922,13.517,0.25175
0.93001,5952,4.1456,0.24596
0.93501,5923,15.074,0.25156
0.94001,5923,14.41,0.25156
0.94502,5932,11.184,0.24982
0.95001,5923,14.248,0.25156
0.95501,5921,14.407,0.25194
0.96002,5922,13.618,0.25175
0.96501,5922,13.337,0.25175
0.97002,5950,4.62,0.24635
0.97502,5921,15.429,0.25194
0.98002,5922,14.373,0.25175
0.98502,5922,13.895,0.25175
0.99002,5920,14.149,0.25214
0.99501,5952,4.0097,0.24596
1,5922,15.277,0.25175
1.005,5924,13.955,0.25137
1.01,5926,12.973,0.25098
1.015,5923,13.761,0.25156
1.02,5922,13.744,0.25175
1.025,5924,12.822,0.25137
1.03,5921,13.654,0.25194
1.035,5927,11.543,0.25079
1.04,5923,13.006,0.25156
1.045,5920,13.793,0.25214
1.05,5920,13.471,0.25214
1.055,5921,12.929,0.25194
1.06,5948,4.6251,0.24673
1.065,5922,14.526,0.25175
1.07,5920,14.615,0.25214
1.075,5925,12.559,0.25117
1.08,5924,12.85,0.25137
1.085,5951,4.5595,0.24615
1.09,5924,14.774,0.25137
1.095,5922,14.794,0.25175
1.1,5934,10.559,0.24943
1.105,5909,18.642,0.25426
1.11,5934,9.4853,0.24943
1.115,5935,9.9484,0.24924
1.12,5909,18.493,0.25426
1.125,5932,9.9824,0.24982
1.13,5930,11.232,0.25021
1.135,5902,20.062,0.25561
1.14,5929,9.9441,0.2504
1.145,5903,18.505,0.25542
1.15,5919,12.133,0.25233
1.155,5925,10.424,0.25117
1.16,5901,18.261,0.25581
1.165,5927,8.9198,0.25079
1.17,5927,9.852,0.25079
1.175,5900,18.745,0.256
1.18,5924,9.8879,0.25137
1.185,5920,11.79,0.25214
1.19,5928,9.5599,0.25059
1.195,5929,10.019,0.2504
1.2,5901,19.167,0.25581
1.205,5926,9.8933,0.25098
1.21,5928,9.9662,0.25059
1.215,5902,18.523,0.25561
1.22,5924,10.327,0.25137
1.225,5923,11.203,0.25156
1.23,5921,12.157,0.25194
1.235,6003,-12.659,0.23611
1.24,5904,23.799,0.25523
1.245,5935,11.485,0.24924
1.25,5945,8.6887,0.24731
1.255,5936,12.371,0.24905
1.26,5938,11.772,0.24866
1.265,5949,8.5895,0.24654
1.27,5920,18.365,0.25214
1.275,5926,15.026,0.25098
1.28,5918,16.798,0.25252
1.285,5951,5.6687,0.24615
1.29,5946,8.9086,0.24712
1.295,5913,19.824,0.25349
1.3,5954,5.4863,0.24557
1.305,5943,10.589,0.2477
1.31,5944,10.742,0.2475
1.315,5956,7.5092,0.24519
1.32,5932,16.03,0.24982
1.325,5950,9.6239,0.24635
1.33,5955,8.7952,0.24538
1.335,5929,17.59,0.2504
1.34,5953,8.9615,0.24577
1.345,5931,16.503,0.25001
1.35,5954,8.4566,0.24557
1.355,5952,10.05,0.24596
1.36,5931,17.006,0.25001
1.365,5956,8.2204,0.24519
1.37,5938,14.732,0.24866
1.375,5930,16.551,0.25021
1.38,5962,5.7596,0.24403
1.385,5930,17.153,0.25021
1.39,5962,6.2045,0.24403
1.395,5962,7.7575,0.24403
1.4,5928,19.237,0.25059
1.405,5933,15.954,0.24963
1.41,5962,6.2231,0.24403
1.415,5958,8.9868,0.2448
1.42,5961,8.912,0.24422
1.425,5941,15.838,0.24808
1.43,5966,7.3327,0.24326
1.435,5970,7.3657,0.24249
1.44,5950,14.673,0.24635
1.445,5974,6.7529,0.24171
1.45,6059,-17.697,0.2253
1.455,5879,44.549,0.26005
1.46,5970,8.6494,0.24249
1.465,5950,15.622,0.24635
1.47,5978,6.2384,0.24094
1.475,5972,9.5657,0.2421
1.48,5954,15.686,0.24557
1.485,5986,5.0605,0.2394
1.49,5984,7.4596,0.23978
1.495,6000,3.7678,0.23669
1.5,5995,7.3808,0.23766
1.5051,5991,9.7595,0.23843
1.51,6002,6.9692,0.23631
1.515,6013,4.8796,0.23418
1.52,5979,16.982,0.24075
1.525,6016,4.4361,0.2336
1.53,5996,12.393,0.23747
1.535,6018,5.56,0.23322
1.54,6023,5.6213,0.23225
1.545,6006,12.339,0.23553
1.55,6035,3.3683,0.22994
1.555,6035,5.4783,0.22994
1.56,5990,20.712,0.23862
1.565,6047,1.0874,0.22762
1.57,6031,8.6247,0.23071
1.575,6062,-0.047345,0.22472
1.58,6070,0.4554,0.22318
1.585,6047,10.227,0.22762
1.59,6077,1.4005,0.22183
1.595,6058,9.6924,0.2255
1.6,6088,0.97784,0.2197
1.6051,6057,12.999,0.22569
1.61,6075,7.0704,0.22221
1.615,6116,-4.3451,0.2143
1.62,6108,2.0058,0.21584
1.625,6088,10.366,0.2197
1.63,6120,0.79242,0.21353
1.635,6177,-13.96,0.20252
1.64,6132,5.9911,0.21121
1.645,6140,4.7422,0.20966
1.65,6117,13.219,0.2141
1.655,6151,2.2206,0.20754
1.66,6165,0.084783,0.20484
1.665,6138,10.93,0.21005
1.67,6175,-0.43534,0.20291
1.675,6155,8.3936,0.20677
1.68,6189,-1.4409,0.2002
1.685,6196,-0.58932,0.19885
1.69,6173,9.1387,0.20329
1.695,6204,-0.023818,0.19731
1.7,6187,7.7133,0.20059
1.7051,6191,7.0923,0.19982
1.71,6219,-0.66968,0.19441
1.715,6204,6.5906,0.19731
1.72,6238,-2.8963,0.19074
1.725,6243,-1.1801,0.18978
1.73,6218,9.192,0.19461
1.735,6250,-0.4013,0.18843
1.74,6228,8.8383,0.19268
1.745,6243,4.4781,0.18978
1.75,6272,-3.0359,0.18418
1.755,6245,8.3554,0.18939
1.76,6277,-1.0873,0.18322
1.765,6282,0.058937,0.18225
1.77,6261,8.7942,0.1863
1.775,6293,-0.80317,0.18013
1.78,6272,8.1295,0.18418
1.785,6298,0.50127,0.17916
1.79,6302,1.484,0.17839
1.795,6287,7.9739,0.18129
1.8,6319,-1.4746,0.17511
1.8051,6313,3.0099,0.17627
1.81,6287,12.417,0.18129
1.815,6334,-2.7497,0.17221
1.82,6305,9.0192,0.17781
1.825,6344,-2.8745,0.17028
1.83,6338,1.9127,0.17144
1.835,6315,10.631,0.17588
1.84,6353,-1.4043,0.16854
1.845,6360,-0.97388,0.16719
1.85,6352,3.8848,0.16874
1.855,6357,3.5451,0.16777
1.86,6338,10.574,0.17144
1.865,6367,1.2308,0.16584
1.87,6376,0.33061,0.1641
1.875,6322,18.787,0.17453
1.88,6380,-1.4724,0.16333
1.885,6356,8.3282,0.16796
1.89,6387,-1.0821,0.16198
1.895,6387,1.3061,0.16198
1.9,6366,9.4523,0.16603
1.9051,6372,7.3204,0.16487
1.91,6395,0.56401,0.16043
1.915,6401,0.67919,0.15928
1.92,6410,-0.16237,0.15754
1.925,6386,9.221,0.16217
1.93,6419,-1.1053,0.1558
1.935,6411,3.6396,0.15735
1.94,6395,9.5972,0.16043
1.945,6426,-0.24222,0.15445
1.95,6406,7.9064,0.15831
1.955,6446,-4.2542,0.15059
1.96,6436,1.8526,0.15252
1.965,6418,8.8216,0.15599
1.97,6432,4.2928,0.15329
1.975,6453,-1.2163,0.14924
1.98,6427,8.9421,0.15426
1.985,6453,0.71273,0.14924
1.99,6424,11.279,0.15484
1.995,6461,-0.89524,0.14769
2,6469,-1.1726,0.14615
2.005,6440,9.8458,0.15175
2.01,6475,-1.3869,0.14499
2.015,6532,-16.461,0.13398
2.02,6473,7.5058,0.14538
2.025,6479,5.6134,0.14422
2.03,6459,12.101,0.14808
2.035,6488,2.055,0.14248
2.04,6465,10.36,0.14692
2.045,6407,27.191,0.15812
2.05,6496,-4.8954,0.14094
2.055,6468,6.723,0.14634
2.06,6496,-1.6378,0.14094
2.065,6579,-24.6,0.12491
2.07,6470,16.567,0.14596
2.075,6503,4.1125,0.13958
2.08,6471,14.578,0.14576
2.085,6483,9.0214,0.14344
2.09,6505,1.8463,0.1392
2.095,6470,13.81,0.14596
2.1,6492,5.4175,0.14171
2.105,6473,11.619,0.14538
2.11,6492,4.7029,0.14171
2.115,6488,6.5332,0.14248
2.12,6457,16.1,0.14846
2.125,6481,6.5352,0.14383
2.13,6466,11.257,0.14673
2.135,6447,16,0.1504
2.14,6474,5.5748,0.14518
2.145,6442,15.731,0.15136
2.15,6463,7.2116,0.14731
2.155,6457,9.0676,0.14846
2.16,6431,16.532,0.15348
2.165,6448,9.0464,0.1502
2.17,6424,15.931,0.15484
2.175,6441,8.6199,0.15155
2.18,6432,11.075,0.15329
2.185,6406,18.078,0.15831
2.19,6422,10.556,0.15522
2.195,6417,11.338,0.15619
2.2,6394,17.398,0.16063
2.205,6412,9.4758,0.15715
2.21,6399,12.996,0.15966
2.215,6397,12.287,0.16005
2.22,6399,10.553,0.15966
2.225,6367,19.599,0.16584
2.23,6388,10.258,0.16179
2.235,6381,11.811,0.16314
2.24,6336,24.523,0.17182
2.245,6372,9.417,0.16487
2.25,6344,17.611,0.17028
2.255,6365,8.8468,0.16623
2.26,6364,9.0026,0.16642
2.265,6330,19.148,0.17298
2.27,6348,10.93,0.16951
2.275,6314,20.612,0.17607
2.28,6289,25.118,0.1809
2.285,6328,9.063,0.17337
2.29,6341,5.0009,0.17086
2.295,6316,13.514,0.17569
2.3,6311,13.79,0.17665
2.305,6251,30.72,0.18823
2.31,6304,9.0436,0.178
2.315,6273,18.417,0.18399
2.32,6296,9.0131,0.17955
2.325,6295,9.2987,0.17974
2.33,6260,19.844,0.1865
2.335,6282,10.404,0.18225
2.34,6252,19.174,0.18804
2.345,6192,34.847,0.19963
2.35,6268,5.2523,0.18495
2.355,6238,15.402,0.19074
2.36,6258,7.7843,0.18688
2.365,6250,10.613,0.18843
2.37,6227,17.282,0.19287
2.375,6245,9.8088,0.18939
2.38,6219,17.612,0.19441
2.385,6240,9.1609,0.19036
2.39,6234,11.068,0.19152
2.395,6207,18.874,0.19673
2.4,6230,9.5159,0.19229
2.405,6224,11.355,0.19345
2.41,6217,13.033,0.1948
2.415,6219,11.556,0.19441
2.42,6190,19.88,0.20001
2.425,6210,11.214,0.19615
2.43,6209,11.141,0.19634
2.435,6182,18.99,0.20156
2.44,6204,9.9688,0.19731
2.445,6178,17.833,0.20233
2.45,6201,8.8195,0.19789
2.455,6198,10.002,0.19847
2.46,6170,18.48,0.20387
2.465,6188,10.837,0.2004
2.47,6186,11.222,0.20078
2.475,6160,18.804,0.2058
2.48,6183,9.5823,0.20136
2.485,6155,18.208,0.20677
2.49,6184,7.331,0.20117
2.495,6179,9.5522,0.20214
2.5,6150,18.499,0.20773
2.505,6176,8.4707,0.20271
2.51,6167,11.63,0.20445
2.515,6118,26.142,0.21391
2.52,6187,1.1326,0.20059
2.525,6147,15.6,0.20831
2.53,6168,7.8549,0.20426
2.535,6171,7.5485,0.20368
2.54,6138,18.254,0.21005
2.545,6166,7.7119,0.20464
2.55,6146,14.437,0.20851
2.555,6156,10.341,0.20658
2.5601,6170,6.073,0.20387
2.5651,6152,12.608,0.20735
2.5701,6165,8.0625,0.20484
2.575,6161,9.8366,0.20561
2.5801,6151,12.981,0.20754
2.5851,6175,4.9979,0.20291
2.59,6154,12.713,0.20696
2.5951,6184,2.9689,0.20117
2.6,6179,6.3286,0.20214
2.605,6157,13.99,0.20638
2.61,6181,5.7285,0.20175
2.6151,6153,15.365,0.20715
2.62,6174,7.6661,0.2031
2.6251,6190,3.4435,0.20001
2.6301,6159,14.565,0.206
2.6351,6195,2.502,0.19905
2.6401,6185,7.4753,0.20098
2.6451,6167,13.607,0.20445
2.6501,6196,3.9008,0.19885
2.6551,6172,12.761,0.20349
2.6601,6192,5.9981,0.19963
2.6651,6201,4.2928,0.19789
2.6701,6177,13.038,0.20252
2.6751,6198,5.8864,0.19847
2.6801,6213,2.372,0.19557
2.6851,6098,39.241,0.21777
2.6901,6211,-2.5078,0.19596
2.6951,6191,6.7717,0.19982
2.7001,6222,-1.8182,0.19383
2.7051,6220,1.7839,0.19422
2.7101,6200,9.9207,0.19808
2.7151,6230,0.79016,0.19229
2.7201,6227,3.9953,0.19287
2.7251,6233,3.6366,0.19171
2.7301,6233,5.1797,0.19171
2.7351,6204,15.132,0.19731
2.7401,6233,4.9355,0.19171
2.7451,6250,0.97363,0.18843
2.7501,6210,15.324,0.19615
2.7551,6242,4.1504,0.18997
2.7601,6220,12.222,0.19422
2.7651,6246,3.6562,0.1892
2.7701,6256,2.1228,0.18727
2.7751,6225,13.423,0.19325
2.7801,6250,4.8353,0.18843
2.7851,6255,4.5035,0.18746
2.7901,6172,30.987,0.20349
2.7951,6252,1.2345,0.18804
2.8001,6236,8.2188,0.19113
2.8051,6267,-0.86174,0.18515
2.8101,6264,2.6817,0.18573
2.8151,6244,10.474,0.18959
2.8201,6272,1.6962,0.18418
2.8251,6242,12.764,0.18997
2.8301,6281,0.051144,0.18244
2.8351,6238,15.476,0.19074
2.8401,6250,10.27,0.18843
2.8451,6284,-0.29262,0.18186
2.8501,6284,2.148,0.18186
2.8551,6252,13.676,0.18804
2.8601,6293,0.091909,0.18013
2.8651,6259,12.741,0.18669
2.8701,6172,38.28,0.20349
2.8751,6290,-4.9231,0.18071
2.8801,6266,6.004,0.18534
2.8851,6280,2.5921,0.18264
2.8901,6288,1.8588,0.18109
2.8951,6272,8.5899,0.18418
2.9001,6295,1.7531,0.17974
2.9051,6265,12.748,0.18553
2.9101,6296,2.4129,0.17955
2.9151,6296,4.1172,0.17955
2.9201,6268,13.885,0.18495
2.9251,6305,1.4222,0.17781
2.9301,6299,5.1858,0.17897
2.9351,6266,16.187,0.18534
2.9401,6297,4.9513,0.17935
2.9451,6275,12.676,0.1836
2.9501,6294,5.9806,0.17993
2.9551,6292,7.3666,0.18032
2.9601,6276,12.65,0.18341
2.9651,6297,5.3513,0.17935
2.9701,6277,12.364,0.18322
2.9751,6301,4.2256,0.17858
2.9801,6294,7.5714,0.17993
2.9851,6278,12.796,0.18302
2.9901,6303,4.2389,0.1782
2.9951,6296,7.5763,0.17955
3.0001,6279,13.099,0.18283
3.0051,6304,4.4599,0.178
3.0101,6274,14.726,0.18379
3.0151,6305,3.8518,0.17781
3.0201,6307,4.5503,0.17742
3.0251,6275,15.393,0.1836
3.0301,6308,3.7345,0.17723
3.0351,6306,5.6715,0.17762
3.0401,6280,14.401,0.18264
3.0451,6312,3.2926,0.17646
3.0501,6289,11.716,0.1809
3.0551,6318,2.1977,0.1753
3.0601,6316,4.5107,0.17569
3.0651,6294,12.303,0.17993
3.0701,6312,5.961,0.17646
3.0751,6296,11.561,0.17955
3.0801,6322,2.977,0.17453
3.0851,6318,5.6844,0.1753
3.0901,6302,11.342,0.17839
3.0951,6331,1.8881,0.17279
3.1001,6325,5.4649,0.17395
3.1051,6304,12.681,0.178
3.1101,6331,3.4808,0.17279
3.1151,6298,14.847,0.17916
3.1201,6307,10.566,0.17742
3.1251,6331,2.8216,0.17279
3.1301,6302,13.144,0.17839
3.1351,6335,2.0044,0.17202
3.1401,6342,1.5904,0.17067
3.1451,6310,13.118,0.17685
3.1501,6342,2.2691,0.17067
3.1551,6316,11.796,0.17569
3.1601,6311,12.521,0.17665
3.1651,6338,3.3447,0.17144
3.1701,6319,10.474,0.17511
3.1751,6344,2.4198,0.17028
3.1801,6343,4.3058,0.17047
3.1851,6324,11.172,0.17414
3.1901,6340,5.6578,0.17105
3.1951,6317,13.394,0.17549
3.2001,6350,2.1516,0.16912
3.2051,6348,4.3964,0.16951
3.2101,6319,14.265,0.17511
3.2151,6353,2.4864,0.16854
3.2201,6355,3.4207,0.16816
3.2251,6317,16.261,0.17549
3.2301,6371,-2.1108,0.16507
3.2351,6323,15.172,0.17433
3.2401,6343,7.401,0.17047
3.2451,6358,3.1273,0.16758
3.2501,6327,13.91,0.17356
3.2551,6350,5.5465,0.16912
3.2601,6363,2.347,0.16661
3.2651,6299,23.349,0.17897
3.2701,6347,4.9951,0.1697
3.2751,6331,10.759,0.17279
3.2801,6350,4.4239,0.16912
3.2851,6344,7.2911,0.17028
3.2901,6331,11.552,0.17279
3.2951,6356,3.1864,0.16796
3.3001,6321,15.174,0.17472
3.3051,6354,3.457,0.16835
3.3101,6360,2.92,0.16719
3.3151,6326,14.663,0.17376
3.3201,6362,2.1554,0.16681
3.3251,6360,4.369,0.16719
3.3301,6324,16.342,0.17414
3.3351,6358,4.0086,0.16758
3.3401,6365,3.0137,0.16623
3.3451,6351,8.6424,0.16893
3.3501,6359,6.1518,0.16738
3.3551,6336,13.711,0.17182
3.3601,6351,7.8082,0.16893
3.3651,6364,4.016,0.16642
3.3701,6336,13.64,0.17182
3.3751,6358,5.6283,0.16758
3.3801,6339,12.111,0.17125
3.3851,6368,2.3641,0.16565
3.3901,6359,6.6354,0.16738
3.3951,6336,14.069,0.17182
3.4001,6360,5.3375,0.16719
3.4051,6354,7.9411,0.16835
3.4101,6254,38.445,0.18766
3.4151,6366,-3.184,0.16603
3.4201,6333,9.8334,0.1724
3.4251,6365,-0.21593,0.16623
3.4301,6365,2.0014,0.16623
3.4351,6329,14.58,0.17318
3.4401,6369,0.87049,0.16545
3.4451,6339,11.91,0.17125
3.4501,6312,19.233,0.17646
3.4551,6363,1.0092,0.16661
3.4601,6340,9.9009,0.17105
3.4651,6359,3.7668,0.16738
3.4701,6347,8.6062,0.1697
3.4751,6336,11.909,0.17182
3.4801,6357,4.6529,0.16777
3.4851,6334,12.609,0.17221
3.4901,6362,3.048,0.16681
3.4951,6353,7.1558,0.16854
3.5001,6328,15.076,0.17337
3.5051,6358,4.2788,0.16758
3.5101,6357,5.6444,0.16777
3.5151,6326,15.772,0.17376
3.5201,6353,5.71,0.16854
3.5251,6326,14.615,0.17376
3.5301,6236,40.408,0.19113
3.5351,6359,-5.0302,0.16738
3.5401,6324,9.0943,0.17414
3.5451,6341,3.8186,0.17086
3.5501,6348,2.916,0.16951
3.5551,6320,12.867,0.17491
3.5601,6345,4.1857,0.17009
3.5651,6320,12.901,0.17491
3.5701,6325,10.289,0.17395
3.5751,6335,6.8258,0.17202
3.5801,6316,13.054,0.17569
3.5851,6339,4.9418,0.17125
3.5901,6328,9.2208,0.17337
3.5951,6307,15.449,0.17742
3.6001,6328,7.3422,0.17337
3.6051,6461,-32.736,0.14769
3.6101,6325,19.055,0.17395
3.6151,6321,17.559,0.17472
3.6201,6288,25.275,0.18109
3.6251,6313,13.436,0.17627
3.6301,6313,12.22,0.17627
3.6351,6262,26.82,0.18611
3.6401,6307,8.565,0.17742
3.6451,6284,15.625,0.18186
3.6501,6302,8.4415,0.17839
3.6551,6303,8.2534,0.1782
3.6601,6279,15.709,0.18283
3.6651,6299,7.9081,0.17897
3.6701,6300,7.8668,0.17877
3.6751,6301,7.8338,0.17858
3.6801,6296,9.6301,0.17955
3.6851,6270,17.352,0.18457
3.6901,6294,7.9291,0.17993
3.6951,6288,10.022,0.18109
3.7001,6264,17.054,0.18573
3.7051,6293,6.2045,0.18013
3.7101,6260,16.955,0.1865
3.7151,6261,14.65,0.1863
3.7201,6288,5.0437,0.18109
3.7251,6256,15.806,0.18727
3.7301,6282,6.214,0.18225
3.7351,6285,6.0498,0.18167
3.7401,6255,15.949,0.18746
3.7451,6281,6.3224,0.18244
3.7501,6261,13.122,0.1863
3.7551,6277,7.2568,0.18322
3.7601,6280,6.8329,0.18264
3.7651,6258,14.109,0.18688
3.7701,6274,7.9941,0.18379
3.7751,6281,6.1698,0.18244
3.7801,6258,13.92,0.18688
3.7851,6276,7.2469,0.18341
3.7901,6253,14.729,0.18785
3.7951,6283,4.2104,0.18206
3.8001,6278,6.9976,0.18302
3.8051,6255,14.54,0.18746
3.8101,6283,4.6733,0.18206
3.8151,6273,8.8591,0.18399
3.8201,6244,17.751,0.18959
3.8251,6280,4.6431,0.18264
3.8301,6246,16.137,0.1892
3.8351,6282,3.4456,0.18225
3.8401,6276,6.7388,0.18341
3.8451,6247,16.177,0.18901
3.8501,6276,5.5992,0.18341
3.8551,6280,5.3067,0.18264
3.8601,6244,17.235,0.18959
3.8651,6272,6.6931,0.18418
3.8701,6248,14.634,0.18881
3.8751,6264,8.4068,0.18573
3.8801,6266,8.0193,0.18534
3.8851,6246,14.413,0.1892
3.8901,6269,6.1218,0.18476
3.8951,6262,9.053,0.18611
3.9001,6257,10.629,0.18708
3.9051,6268,6.9442,0.18495
3.9101,6237,16.956,0.19094
3.9151,6264,6.8082,0.18573
3.9201,6261,8.3574,0.1863
3.9251,6234,16.803,0.19152
3.9301,6266,5.1829,0.18534
3.9351,6235,15.66,0.19132
3.9401,6199,24.999,0.19827
3.9451,6268,0.084572,0.18495
3.9501,6233,13.103,0.19171
3.9551,6257,4.882,0.18708
3.9601,6262,4.5204,0.18611
3.9651,6229,15.788,0.19248
3.9701,6250,7.7882,0.18843
3.9751,6251,7.9011,0.18823
3.9801,6246,9.8054,0.1892
3.9851,6249,8.7942,0.18862
3.9901,6231,14.421,0.1921
3.9951,6248,7.9883,0.18881
4.0001,6246,8.9657,0.1892
4.0051,6231,13.643,0.1921
4.0101,6251,6.5022,0.18823
4.0151,6222,16.065,0.19383
4.0201,6252,5.2753,0.18804
4.0251,6251,6.6468,0.18823
4.0301,6220,16.779,0.19422
4.0351,6253,4.8968,0.18785
4.0401,6274,-0.32064,0.18379
4.0451,6164,35.579,0.20503
4.0501,6253,1.9131,0.18785
4.0551,6226,12.061,0.19306
4.0601,6249,4.4334,0.18862
4.0651,6256,3.6012,0.18727
4.0701,6225,14.516,0.19325
4.0751,6249,5.9466,0.18862
4.0801,6225,14.14,0.19325
4.0851,6215,16,0.19518
4.0901,6242,6.1569,0.18997
4.0951,6220,13.705,0.19422
4.1001,6247,4.4481,0.18901
4.1051,6245,6.352,0.18939
4.1101,6220,14.753,0.19422
4.1151,6248,4.9189,0.18881
4.1201,6225,13.079,0.19325
4.1251,6238,8.2272,0.19074
4.1301,6241,7.6479,0.19017
4.1351,6213,16.633,0.19557
4.1401,6245,5.1098,0.18939
4.1451,6245,6.2383,0.18939
4.1501,6208,18.316,0.19654
4.1551,6234,8.1894,0.19152
4.1601,6210,15.835,0.19615
4.1651,6231,7.8704,0.1921
4.1701,6236,6.7941,0.19113
4.1751,6208,16.014,0.19654
4.1801,6231,7.4002,0.1921
4.1851,6225,9.7893,0.19325
4.1901,6202,16.736,0.19769
4.1951,6221,9.1641,0.19403
4.2001,6198,16.284,0.19847
4.2051,6227,5.8014,0.19287
4.2101,6224,7.7061,0.19345
4.2151,6194,17.326,0.19924
4.2201,6227,5.3661,0.19287
4.2251,6220,8.5999,0.19422
4.2301,6212,11.311,0.19576
4.2351,6217,9.3846,0.1948
4.2401,6190,17.672,0.20001
4.2451,6215,8.063,0.19518
4.2501,6217,7.8882,0.1948
4.2551,6187,17.478,0.20059
4.2601,6211,8.2309,0.19596
4.2651,6199,12.277,0.19827
4.2701,6206,9.5229,0.19692
4.2751,6205,9.9013,0.19712
4.2801,6186,15.653,0.20078
4.2851,6201,9.6198,0.19789
4.2901,6198,10.593,0.19847
4.2951,6175,17.398,0.20291
4.3001,6208,5.4667,0.19654
4.3051,6196,10.241,0.19885
4.3101,6202,8.3302,0.19769
4.3151,6193,11.461,0.19943
4.3201,6170,18.051,0.20387
4.3251,6200,6.8741,0.19808
4.3301,6185,12.213,0.20098
4.3351,6167,17.108,0.20445
4.3401,6201,4.9689,0.19789
4.3451,6164,17.488,0.20503
4.3501,6189,7.9921,0.2002
4.3551,6195,6.6856,0.19905
4.3601,6163,17.252,0.20522
4.3651,6189,7.5166,0.2002
4.3701,6171,13.627,0.20368
4.3751,6186,8.1602,0.20078
4.3801,6188,8.0328,0.2004
4.3851,6171,13.707,0.20368
4.3901,6184,8.8272,0.20117
4.3951,6185,8.8346,0.20098
4.4001,6173,12.788,0.20329
4.4051,6185,8.4466,0.20098
4.4101,6160,16.452,0.2058
4.4151,6192,5.1092,0.19963
4.4201,6186,8.1941,0.20078
4.4251,6161,16.263,0.20561
4.4301,6196,4.0553,0.19885
4.4351,6189,7.7091,0.2002
4.4401,6157,18.024,0.20638
4.4451,6197,3.8474,0.19866
4.4501,6161,16.365,0.20561
4.4551,6185,7.4739,0.20098
4.4601,6194,5.401,0.19924
4.4651,6158,17.521,0.20619
4.4701,6178,9.551,0.20233
4.4751,6180,9.0807,0.20194
4.4801,6194,5.0816,0.19924
4.4851,6178,11.207,0.20233
4.4901,6160,16.382,0.2058
4.4951,6182,8.0967,0.20156
4.5001,6181,8.9076,0.20175
4.5051,6162,14.979,0.20542
4.5101,6188,5.8392,0.2004
4.5151,6153,17.556,0.20715
4.5201,6187,5.3351,0.20059
4.5251,6186,6.8542,0.20078
4.5301,6150,18.615,0.20773
4.5351,6178,7.9485,0.20233
4.5401,6176,9.112,0.20271
4.5451,6146,18.485,0.20851
4.5501,6174,7.8627,0.2031
4.5551,6274,-21.937,0.18379
4.5601,6173,16.87,0.20329
4.5651,6205,5.3854,0.19712
4.5701,6149,23.559,0.20793
4.5751,6168,14.34,0.20426
4.5801,6173,11.733,0.20329
4.5851,6146,19.518,0.20851
4.5901,6165,11.361,0.20484
4.5951,6143,17.744,0.20909
4.6001,6170,7.6262,0.20387
4.6051,6162,10.717,0.20542
4.6101,6144,16.06,0.20889
4.6151,6167,7.5949,0.20445
4.6201,6162,9.7899,0.20542
4.6251,6169,7.778,0.20407
4.6301,6173,7.1853,0.20329
4.6351,6165,10.384,0.20484
4.6401,6171,8.5132,0.20368
4.6451,6171,8.9391,0.20368
4.6501,6140,18.674,0.20966
4.6551,6174,6.1939,0.2031
4.6601,6175,6.9138,0.20291
4.6651,6166,10.482,0.20464
4.6701,6175,7.6717,0.20291
4.6751,6150,15.904,0.20773
4.6801,6167,9.2878,0.20445
4.6851,6176,6.7866,0.20271
4.6901,6068,40.469,0.22356
4.6951,6171,1.5139,0.20368
4.7001,6156,8.3247,0.20658
4.7051,6146,11.876,0.20851
4.7101,6174,2.9786,0.2031
4.7151,6158,9.7035,0.20619
4.7201,6196,-1.696,0.19885
4.7251,6174,8.0171,0.2031
4.7301,6147,16.77,0.20831
4.7351,6160,11.15,0.2058
4.7401,6155,12.435,0.20677
4.7451,6189,1.5456,0.2002
4.7501,6193,2.5294,0.19943
4.7551,6156,15.705,0.20658
4.7601,6192,3.3521,0.19963
4.7651,6191,5.3762,0.19982
4.7701,6154,17.814,0.20696
4.7751,6186,6.1311,0.20078
4.7801,6162,14.434,0.20542
4.7851,6181,7.5636,0.20175
4.7901,6189,5.7812,0.2002
4.7951,6166,13.864,0.20464
4.8001,6184,7.4362,0.20117
4.8051,6188,6.8951,0.2004
4.8101,6190,7.0929,0.20001
4.8151,6178,11.488,0.20233
4.8201,6160,16.59,0.2058
4.8251,6188,6.4268,0.2004
4.8301,6179,10.089,0.20214
4.8351,6186,7.9568,0.20078
4.8401,6201,3.9321,0.19789
4.8451,6158,18.545,0.20619
4.8501,6184,8.4845,0.20117
4.8551,6188,7.6697,0.2004
4.8601,6154,18.605,0.20696
4.8651,6181,8.2349,0.20175
4.8701,6186,7.1889,0.20078
4.8751,6078,40.741,0.22163
4.8801,6182,1.386,0.20156
4.8851,6162,9.722,0.20542
4.8901,6178,4.993,0.20233
4.8951,6183,4.8007,0.20136
4.9001,6163,12.243,0.20522
4.9051,6185,5.0302,0.20098
4.9101,6160,13.927,0.2058
4.9151,6168,10.536,0.20426
4.9201,6185,5.2759,0.20098
4.9251,6159,14.412,0.206
4.9301,6188,4.5163,0.2004
4.9351,6182,7.766,0.20156
4.9401,6159,15.348,0.206
4.9451,6190,4.6003,0.20001
4.9501,6191,5.6959,0.19982
4.9551,6180,10.15,0.20194
4.9601,6187,7.9986,0.20059
4.9651,6173,12.773,0.20329
4.9701,6178,10.563,0.20233
4.9751,6187,7.7012,0.20059
4.9801,6155,18.023,0.20677
4.9851,6182,7.8022,0.20156
4.9901,6163,14.16,0.20522
4.9951,6179,8.2699,0.20214
5.0001,6186,6.6121,0.20078
5.0051,6162,14.79,0.20542
5.0101,6181,7.8263,0.20175
5.0151,6159,15.092,0.206
5.0201,6191,4.1066,0.19982
5.0251,6184,7.7596,0.20117
5.0301,6163,14.731,0.20522
5.0351,6164,13.25,0.20503
5.0401,6186,5.772,0.20078
5.0451,6165,13.257,0.20484
5.0501,6199,2.1281,0.19827
5.0551,6164,14.786,0.20503
5.0601,6200,2.6526,0.19808
5.0651,6201,4.2315,0.19789
5.0701,6161,17.855,0.20561
5.0751,6190,7.0551,0.20001
5.0801,6199,5.079,0.19827
5.0851,6179,12.408,0.20214
5.0901,6186,9.6705,0.20078
5.0951,6170,14.619,0.20387
5.1001,6188,7.9838,0.2004
5.1051,6187,8.8091,0.20059
5.1101,6172,13.676,0.20349
5.1151,6189,7.5858,0.2002
5.1201,6192,7.2969,0.19963
5.1251,6200,5.5566,0.19808
5.1301,6197,7.593,0.19866
5.1351,6194,9.1054,0.19924
5.1401,6203,6.5841,0.1975
5.1451,6197,9.2565,0.19866
5.1501,6169,17.932,0.20407
5.1551,6203,5.5725,0.1975
5.1601,6174,15.498,0.2031
5.1651,6172,14.701,0.20349
5.1701,6205,3.4815,0.19712
5.1751,6174,14.556,0.2031
5.1801,6201,5.1922,0.19789
5.1851,6209,3.9786,0.19634
5.1901,6199,8.5314,0.19827
5.1951,6198,9.1861,0.19847
5.2001,6202,8.1531,0.19769
5.2051,6202,8.5952,0.19769
5.2101,6204,8.3141,0.19731
5.2151,6185,14.483,0.20098
5.2201,6210,5.7186,0.19615
5.2251,6198,10.423,0.19847
5.2301,6173,17.879,0.20329
5.2351,6207,5.5238,0.19673
5.2401,6177,15.756,0.20252
5.2451,6209,4.5523,0.19634
5.2501,6206,6.8282,0.19692
5.2551,6157,22.496,0.20638
5.2601,6210,3.2021,0.19615
5.2651,6188,11.602,0.2004
5.2701,6208,5.1012,0.19654
5.2751,6209,6.0209,0.19634
5.2801,6186,13.991,0.20078
5.2851,6202,8.0876,0.19769
5.2901,6184,14.017,0.20117
5.2951,6171,16.924,0.20368
5.3001,6206,4.5189,0.19692
5.3051,6184,12.585,0.20117
5.3101,6211,3.7107,0.19596
5.3151,6200,8.6323,0.19808
5.3201,6181,14.728,0.20175
5.3251,6203,6.8214,0.1975
5.3301,6169,17.94,0.20407
5.3351,6202,5.8829,0.19769
5.3401,6206,5.702,0.19692
5.3451,6166,18.929,0.20464
5.3501,6198,6.9247,0.19847
5.3551,6253,-9.0158,0.18785
5.3601,6187,15.835,0.20059
5.3651,6190,13.398,0.20001
5.3701,6170,18.579,0.20387
5.3751,6188,10.91,0.2004
5.3801,6182,12.491,0.20156
5.3851,6168,16.106,0.20426
5.3901,6183,9.9992,0.20136
5.3951,6160,16.996,0.2058
5.4001,6177,10.07,0.20252
5.4051,6177,10.074,0.20252
5.4101,6158,15.851,0.20619
5.4151,6181,7.4055,0.20175
5.4201,6176,9.6148,0.20271
5.4251,6094,34.658,0.21855
5.4301,6180,2.3203,0.20194
5.4351,6150,13.456,0.20773
5.4401,6180,3.5284,0.20194
5.4451,6178,5.8405,0.20233
5.4501,6145,16.974,0.2087
5.4551,6172,7.0525,0.20349
5.4601,6171,8.161,0.20368
5.4651,6168,9.5904,0.20426
5.4701,6181,5.7923,0.20175
5.4751,6156,14.5,0.20658
5.4801,6170,9.1468,0.20387
5.4851,6178,6.9788,0.20233
5.4901,6157,14.169,0.20638
5.4951,6175,7.6841,0.20291
5.5001,6155,14.394,0.20677
5.5051,6179,6.032,0.20214
5.5101,6171,9.5165,0.20368
5.5151,6164,11.808,0.20503
5.5201,6193,2.5788,0.19943
5.5251,6179,8.7526,0.20214
5.5301,6140,20.947,0.20966
5.5351,6191,2.7079,0.19982
5.5401,6164,12.803,0.20503
5.5451,6200,1.1876,0.19808
5.5501,6204,2.2372,0.19731
5.5551,6172,13.942,0.20349
5.5601,6207,2.313,0.19673
5.5651,6181,12.168,0.20175
5.5701,6199,6.1448,0.19827
5.5751,6206,4.9915,0.19692
5.5801,6183,13.238,0.20136
5.5851,6207,5.1075,0.19673
5.5901,6210,5.4203,0.19615
5.5951,6182,15.064,0.20156
5.6001,6209,5.5479,0.19634
5.6051,6195,10.907,0.19905
5.6101,6232,-0.59581,0.1919
5.6151,6216,6.9165,0.19499
5.6201,6201,12.204,0.19789
5.6251,6226,3.9946,0.19306
5.6301,6196,14.578,0.19885
5.6351,6205,10.623,0.19712
5.6401,6236,0.99305,0.19113
5.6451,6203,13.246,0.1975
5.6501,6227,5.0636,0.19287
5.6551,6242,1.6912,0.18997
5.6601,6208,14.051,0.19654
5.6651,6244,1.9993,0.18959
5.6701,6215,12.755,0.19518
5.6751,6235,5.8855,0.19132
5.6801,6246,3.4939,0.1892
5.6851,6222,12.335,0.19383
5.6901,6245,4.646,0.18939
5.6951,6272,-2.3092,0.18418
5.7001,6251,7.0693,0.18823
5.7051,6243,10.102,0.18978
5.7101,6226,15.099,0.19306
5.7151,6252,5.7669,0.18804
5.7201,6250,7.314,0.18843
5.7251,6231,13.628,0.1921
5.7301,6257,4.6678,0.18708
5.7351,6220,17.125,0.19422
5.7401,6254,4.8484,0.18766
5.7451,6259,4.5031,0.18669
5.7501,6227,15.479,0.19287
5.7551,6261,3.6143,0.1863
5.7601,6262,4.7891,0.18611
5.7651,6247,10.517,0.18901
5.7701,6255,7.7979,0.18746
5.7751,6233,14.885,0.19171
5.7801,6258,5.8953,0.18688
5.7851,6256,7.3939,0.18727
5.7901,6233,14.888,0.19171
5.7951,6205,22.003,0.19712
5.8001,6225,12.745,0.19325
5.8051,6257,2.2069,0.18708
5.8101,6256,4.3667,0.18727
5.8151,6227,14.474,0.19287
5.8201,6258,3.7834,0.18688
5.8251,6268,2.1866,0.18495
5.8301,6226,16.783,0.19306
5.8351,6258,5.1885,0.18688
5.8401,6228,15.38,0.19268
5.8451,6251,6.8815,0.18823
5.8501,6257,5.7092,0.18708
5.8551,6223,16.983,0.19364
5.8601,6245,8.3824,0.18939
5.8651,6245,8.6567,0.18939
5.8701,6258,4.909,0.18688
5.8751,6240,11.527,0.19036
5.8801,6228,14.64,0.19268
5.8851,6247,7.5498,0.18901
5.8901,6241,9.8597,0.19017
5.8951,6224,14.924,0.19345
5.9001,6246,6.8586,0.1892
5.9051,6215,16.948,0.19518
5.9101,6247,5.3382,0.18901
5.9151,6245,7.0097,0.18939
5.9201,6217,16.151,0.1948
5.9251,6249,4.7438,0.18862
5.9301,6243,7.781,0.18978
5.9351,6143,38.605,0.20909
5.9401,6248,-0.65985,0.18881
5.9451,6223,9.5639,0.19364
5.9501,6244,3.2036,0.18959
5.9551,6256,1.1856,0.18727
5.9601,6227,12.123,0.19287
5.9651,6246,5.6926,0.1892
5.9701,6248,6.0587,0.18881
5.9751,6254,5.1087,0.18766
5.9801,6252,6.8226,0.18804
5.9851,6232,13.564,0.1919
5.9901,6255,5.5294,0.18746
5.9951,6260,5.0038,0.1865
6.0001,6254,7.9456,0.18766
6.0051,6261,6.1842,0.1863
6.0101,6261,6.992,0.1863
6.0151,6269,5.1581,0.18476
6.0201,6264,7.7331,0.18573
6.0251,6250,12.383,0.18843
6.0301,6282,1.8769,0.18225
6.0351,6274,6.1873,0.18379
6.0401,6185,34.007,0.20098
6.0451,6287,-3.2517,0.18129
6.0501,6258,8.7661,0.18688
6.0551,6298,-3.2474,0.17916
6.0601,6303,-1.5901,0.1782
6.0651,6271,10.865,0.18437
6.0701,6304,0.39853,0.178
6.0751,6430,-35.68,0.15368
6.0801,6306,13.311,0.17762
6.0851,6311,10.627,0.17665
6.0901,6292,15.923,0.18032
6.0951,6312,8.0338,0.17646
6.1001,6319,6.1038,0.17511
6.1051,6306,10.737,0.17762
6.1101,6328,3.5587,0.17337
6.1151,6312,9.7457,0.17646
6.1201,6343,0.075889,0.17047
6.1251,6345,1.6645,0.17009
6.1301,6326,9.2148,0.17376
6.1351,6357,-0.35158,0.16777
6.1401,6333,9.2142,0.1724
6.1451,6368,-1.5851,0.16565
6.1501,6373,-0.53736,0.16468
6.1551,6347,9.6445,0.1697
6.1601,6379,-0.39061,0.16352
6.1651,6385,0.013881,0.16236
6.1701,6274,35.851,0.18379
6.1751,6393,-7.2779,0.16082
6.1801,6373,2.7899,0.16468
6.1851,6401,-4.306,0.15928
6.1901,6409,-3.5425,0.15773
6.1951,6383,7.3334,0.16275
6.2001,6407,0.24208,0.15812
6.2051,6392,6.7926,0.16101
6.2101,6424,-2.6112,0.15484
6.2151,6422,0.69097,0.15522
6.2201,6403,8.3022,0.15889
6.2251,6434,-1.2193,0.1529
6.2301,6429,2.6061,0.15387
6.2351,6411,9.396,0.15735
6.2401,6440,0.17671,0.15175
6.2451,6415,9.7002,0.15657
6.2501,6449,-1.1279,0.15001
6.2551,6448,1.4205,0.1502
6.2601,6424,10.295,0.15484
6.2651,6460,-1.3184,0.14789
6.2701,6434,8.849,0.1529
6.2751,6458,1.2341,0.14827
6.2801,6466,0.40856,0.14673
6.2851,6442,9.5024,0.15136
6.2901,6463,2.6086,0.14731
6.2951,6466,2.9311,0.14673
6.3001,6425,16.532,0.15464
6.3051,6469,0.85728,0.14615
6.3101,6437,12.257,0.15233
6.3151,6476,-0.81266,0.1448
6.3201,6475,1.5857,0.14499
6.3251,6440,13.692,0.15175
6.3301,6475,1.4557,0.14499
6.3351,6452,9.9498,0.14943
6.3401,6462,6.2567,0.1475
6.3451,6473,3.1986,0.14538
6.3501,6454,10.027,0.14904
6.3551,6464,6.309,0.14711
6.3601,6465,6.2709,0.14692
6.3651,6450,11.102,0.14982
6.3701,6467,4.9863,0.14653
6.3751,6437,14.706,0.15233
6.3801,6469,3.124,0.14615
6.3851,6459,7.2473,0.14808
6.3901,6438,13.662,0.15213
6.3951,6470,2.3501,0.14596
6.4001,6435,14.27,0.15271
6.4051,6453,7.0608,0.14924
6.4101,6458,5.6387,0.14827
6.4151,6428,15.211,0.15406
6.4201,6455,5.0389,0.14885
6.4251,6601,-38.707,0.12066
6.4301,6458,16.418,0.14827
6.4351,6455,14.972,0.14885
6.4401,6432,19.989,0.15329
6.4451,6449,11.599,0.15001
6.4501,6444,12.041,0.15097
6.4551,6427,16.027,0.15426
6.4601,6445,8.3793,0.15078
6.4651,6419,16.053,0.1558
6.4701,6448,5.0764,0.1502
6.4751,6441,7.8312,0.15155
6.4801,6418,14.747,0.15599
6.4851,6449,3.5055,0.15001
6.4901,6471,-2.1446,0.14576
6.4951,6443,8.8186,0.15117
6.5001,6451,6.0511,0.14962
6.5051,6424,14.622,0.15484
6.5101,6445,6.4368,0.15078
6.5151,6456,3.3743,0.14866
6.5201,6406,19.62,0.15831
6.5251,6447,4.0983,0.1504
6.5301,6432,9.5419,0.15329
6.5351,6453,2.6628,0.14924
6.5401,6447,5.7312,0.1504
6.5451,6434,10.141,0.1529
6.5501,6456,2.7966,0.14866
6.5551,6422,14.331,0.15522
6.5601,6459,1.3651,0.14808
6.5651,6455,4.1493,0.14885
6.5701,6423,14.725,0.15503
6.5751,6460,1.6541,0.14789
6.5801,6463,2.2332,0.14731
6.5851,6427,14.505,0.15426
6.5901,6463,1.7849,0.14731
6.5951,6435,11.743,0.15271
6.6001,6454,4.8894,0.14904
6.6051,6463,2.8159,0.14731
6.6101,6438,11.593,0.15213
6.6151,6457,4.7712,0.14846
6.6201,6441,10.318,0.15155
6.6251,6465,2.3021,0.14692
6.6301,6456,6.3461,0.14866
6.6351,6443,10.573,0.15117
6.6401,6467,2.4854,0.14653
6.6451,6491,-3.5514,0.1419
6.6501,6448,12.287,0.1502
6.6551,6472,3.7396,0.14557
6.6601,6441,14.076,0.15155
6.6651,6475,2.0407,0.14499
6.6701,6471,4.6084,0.14576
6.6751,6444,13.505,0.15097
6.6801,6483,0.091827,0.14344
6.6851,6458,9.5296,0.14827
6.6901,6473,4.4117,0.14538
6.6951,6481,2.7191,0.14383
6.7001,6455,11.78,0.14885
6.7051,6472,5.4746,0.14557
6.7101,6457,10.496,0.14846
6.7151,6483,1.786,0.14344
6.7201,6472,6.5273,0.14557
6.7251,6452,12.794,0.14943
6.7301,6479,3.1924,0.14422
6.7351,6472,6.3611,0.14557
6.7401,6453,12.367,0.14924
6.7451,6476,4.0901,0.1448
6.7501,6440,15.844,0.15175
6.7551,6471,4.2616,0.14576
6.7601,6478,2.9171,0.14441
6.7651,6439,15.884,0.15194
6.7701,6466,5.509,0.14673
6.7751,6467,5.6747,0.14653
6.7801,6470,5.1869,0.14596
6.7851,6460,8.7693,0.14789
6.7901,6442,13.873,0.15136
6.7951,6460,6.7499,0.14789
6.8001,6433,15.115,0.1531
6.8051,6399,23.492,0.15966
6.8101,6462,0.29223,0.1475
6.8151,6436,10.034,0.15252
6.8201,6469,-0.62988,0.14615
6.8251,6472,0.52282,0.14557
6.8301,6462,5.3175,0.1475
6.8351,6474,2.2006,0.14518
6.8401,6437,14.757,0.15233
6.8451,6463,4.9849,0.14731
6.8501,6468,4.0795,0.14634
6.8551,6369,35.001,0.16545
6.8601,6466,-1.4594,0.14673
6.8651,6447,6.6026,0.1504
6.8701,6466,1.0608,0.14673
6.8751,6467,2.3875,0.14653
6.8801,6447,9.7468,0.1504
6.8851,6470,2.1689,0.14596
6.8901,6448,10.186,0.1502
6.8951,6480,-0.24433,0.14402
6.9001,6463,6.8577,0.14731
6.9051,6448,11.541,0.1502
6.9101,6484,-0.45817,0.14325
6.9151,6450,11.855,0.14982
6.9201,6474,3.4158,0.14518
6.9251,6480,2.5884,0.14402
6.9301,6450,12.901,0.14982
6.9351,6534,-14.044,0.1336
6.9401,6458,14.453,0.14827
6.9451,6477,6.8346,0.1446
6.9501,6478,6.6268,0.14441
6.9551,6459,12.548,0.14808
6.9601,6481,4.5128,0.14383
6.9651,6483,4.597,0.14344
6.9701,6488,3.7426,0.14248
6.9751,6483,6.1374,0.14344
6.9801,6455,14.909,0.14885
6.9851,6488,2.9248,0.14248
6.9901,6479,6.7485,0.14422
6.9951,6438,19.321,0.15213
7.0001,6486,1.6698,0.14287
7.0051,6453,13.119,0.14924
7.0101,6491,0.087853,0.1419
7.0151,6488,2.8213,0.14248
7.0201,6468,10.015,0.14634
7.0251,6481,5.3529,0.14383
7.0301,6465,10.688,0.14692
7.0351,6485,3.7306,0.14306
7.0401,6484,4.9205,0.14325
7.0451,6469,10.057,0.14615
7.0501,6488,3.5582,0.14248
7.0551,6464,11.775,0.14711
7.0601,6491,2.4094,0.1419
7.0651,6491,3.6252,0.1419
7.0701,6465,12.425,0.14692
7.0751,6496,1.6715,0.14094
7.0801,6468,11.576,0.14634
7.0851,6427,22.916,0.15426
7.0901,6501,-3.5466,0.13997
7.0951,6472,8.0111,0.14557
7.1001,6498,-0.088197,0.14055
7.1051,6510,-1.8846,0.13823
7.1101,6475,11.04,0.14499
7.1151,6507,0.31939,0.13881
7.1201,6485,8.7259,0.14306
7.1251,6506,1.9268,0.139
7.1301,6506,3.2309,0.139
7.1351,6490,9.0568,0.14209
7.1401,6511,2.1588,0.13804
7.1451,6490,9.7712,0.14209
7.1501,6524,-1.2636,0.13553
7.1551,6523,1.1319,0.13572
7.1602,6493,11.717,0.14152
7.1652,6522,1.6863,0.13592
7.1702,6542,-3.0645,0.13205
7.1751,6478,18.9,0.14441
7.1801,6531,-0.2609,0.13418
7.1851,6502,10.364,0.13978
7.1901,6522,3.3985,0.13592
7.1952,6527,2.759,0.13495
7.2002,6502,11.39,0.13978
7.2051,6529,2.0298,0.13456
7.2102,6504,10.846,0.13939
7.2152,6529,2.2306,0.13456
7.2201,6522,5.5249,0.13592
7.2252,6506,10.712,0.139
7.2301,6536,0.60678,0.13321
7.2351,6498,13.727,0.14055
7.2401,6503,10.452,0.13958
7.2452,6531,1.0304,0.13418
7.2502,6499,12.23,0.14036
7.2552,6530,1.4423,0.13437
7.2602,6529,3.1165,0.13456
7.2652,6498,13.473,0.14055
7.2702,6524,3.8826,0.13553
7.2752,6504,10.709,0.13939
7.2802,6522,4.256,0.13592
7.2852,6520,5.5199,0.1363
7.2902,6497,12.84,0.14074
7.2952,6530,1.2907,0.13437
7.3002,6524,4.5239,0.13553
7.3052,6519,6.6244,0.13649
7.3102,6516,7.5815,0.13707
7.3152,6493,14.374,0.14152
7.3202,6524,3.0418,0.13553
7.3252,6508,8.8718,0.13862
7.3302,6481,16.563,0.14383
7.3352,6519,2.5625,0.13649
7.3402,6489,12.784,0.14229
7.3452,6511,4.6121,0.13804
7.3502,6509,5.8106,0.13843
7.3552,6484,13.691,0.14325
7.3602,6507,4.9904,0.13881
7.3652,6482,13.089,0.14364
7.3702,6506,4.2473,0.139
7.3752,6497,7.6807,0.14074
7.3802,6475,14.191,0.14499
7.3852,6500,4.7751,0.14016
7.3902,6501,5.047,0.13997
7.3952,6472,14.362,0.14557
7.4002,6496,5.2127,0.14094
7.4052,6463,15.712,0.14731
7.4102,6487,6.2333,0.14267
7.4152,6493,4.6379,0.14152
7.4202,6461,14.991,0.14769
7.4252,6485,5.7054,0.14306
7.4302,6479,7.8993,0.14422
7.4352,6472,9.8396,0.14557
7.4402,6476,7.9483,0.1448
7.4452,6452,15.049,0.14943
7.4502,6473,6.6825,0.14538
7.4552,6472,7.1322,0.14557
7.4602,6452,13.241,0.14943
7.4652,6470,6.2576,0.14596
7.4702,6433,17.765,0.1531
7.4752,6460,6.9141,0.14789
7.4802,6456,8.2475,0.14866
7.4852,6429,16.232,0.15387
7.4902,6456,5.7912,0.14866
7.4952,6421,16.848,0.15541
7.5002,6447,6.5702,0.1504
7.5052,6448,6.5067,0.1502
7.5102,6415,16.789,0.15657
7.5152,6435,8.365,0.15271
7.5202,6434,8.4708,0.1529
7.5252,6427,10.375,0.15426
7.5302,6428,9.3685,0.15406
7.5352,6408,15.004,0.15792
7.5402,6423,8.5826,0.15503
7.5452,6423,8.3579,0.15503
7.5502,6399,15.485,0.15966
7.5552,6418,7.7453,0.15599
7.5602,6393,15.349,0.16082
7.5652,6423,4.317,0.15503
7.5702,6415,7.6366,0.15657
7.5752,6392,14.668,0.16101
7.5802,6422,3.8166,0.15522
7.5852,6415,6.9655,0.15657
7.5902,6303,41.217,0.1782
7.5952,6423,-3.6892,0.15503
7.6002,6384,11.14,0.16256
7.6052,6409,2.749,0.15773
7.6102,6415,2.2588,0.15657
7.6152,6379,14.644,0.16352
7.6202,6404,5.351,0.1587
7.6252,6388,10.879,0.16179
7.6302,6415,1.9385,0.15657
7.6352,6403,7.1145,0.15889
7.6402,6386,12.489,0.16217
7.6452,6407,4.9563,0.15812
7.6502,6383,13.011,0.16275
7.6552,6418,1.0954,0.15599
7.6602,6413,4.3568,0.15696
7.6652,6390,12.249,0.1614
7.6702,6417,2.9458,0.15619
7.6752,6411,6.0306,0.15735
7.6802,6411,6.5021,0.15735
7.6852,6417,5.0273,0.15619
7.6902,6387,14.862,0.16198
7.6952,6428,0.62973,0.15406
7.7002,6420,4.8992,0.15561
7.7052,6393,13.848,0.16082
7.7102,6422,3.512,0.15522
7.7152,6399,11.602,0.15966
7.7202,6423,3.3567,0.15503
7.7252,6429,2.6727,0.15387
7.7302,6408,10.357,0.15792
7.7352,6431,2.7176,0.15348
7.7402,6426,5.523,0.15445
7.7452,6441,1.5312,0.15155
7.7502,6435,4.925,0.15271
7.7552,6414,12.006,0.15677
7.7602,6443,2.0982,0.15117
7.7652,6440,4.4273,0.15175
7.7702,6421,11.018,0.15541
7.7752,6449,1.6543,0.15001
7.7802,6418,12.593,0.15599
7.7852,6453,0.69832,0.14924
7.7902,6456,1.5445,0.14866
7.7952,6425,12.494,0.15464
7.8002,6462,7.7e-05,0.1475
7.8052,6440,8.6028,0.15175
7.8102,6459,2.5565,0.14808
7.8152,6470,0.47167,0.14596
7.8202,6446,9.539,0.15059
7.8252,6466,2.9294,0.14673
7.8302,6445,10.454,0.15078
7.8352,6432,13.636,0.15329
7.8402,6467,1.434,0.14653
7.8452,6451,7.8267,0.14962
7.8502,6481,-1.3873,0.14383
7.8552,6484,-0.067013,0.14325
7.8602,6382,32.808,0.16294
7.8652,6488,-5.8474,0.14248
7.8702,6456,7.2551,0.14866
7.8752,6482,-0.60675,0.14364
7.8802,6493,-1.9237,0.14152
7.8852,6463,9.5343,0.14731
7.8902,6492,0.14844,0.14171
7.8952,6466,9.8527,0.14673
7.9002,6486,3.1111,0.14287
7.9052,6490,2.9408,0.14209
7.9102,6471,9.7941,0.14576
7.9152,6497,1.232,0.14074
7.9202,6620,-34.637,0.117
7.9252,6479,18.771,0.14422
7.9302,6499,9.6691,0.14036
7.9352,6471,17.479,0.14576
7.9402,6511,2.6565,0.13804
7.9452,6560,-11.132,0.12858
7.9502,6473,19.882,0.14538
7.9552,6503,7.4664,0.13958
7.9602,6481,14.018,0.14383
7.9652,6466,16.787,0.14673
7.9702,6468,13.705,0.14634
7.9752,6468,12.031,0.14634
7.9802,6481,6.8427,0.14383
7.9852,6461,13.004,0.14769
7.9902,6481,5.4525,0.14383
7.9952,6480,6.2031,0.14402
8.0002,6449,15.877,0.15001
8.0052,6477,5.1743,0.1446
8.0102,6469,8.1347,0.14615
8.0152,6467,8.5192,0.14653
8.0202,6464,9.1123,0.14711
8.0252,6433,18.067,0.1531
8.0302,6456,8.3523,0.14866
8.0352,6453,9.0166,0.14924
8.0402,6435,14.073,0.15271
8.0452,6445,9.3465,0.15078
8.0502,6417,17.376,0.15619
8.0552,6436,9.0975,0.15252
8.0602,6428,11.137,0.15406
8.0652,6428,10.233,0.15406
8.0702,6429,9.2611,0.15387
8.0752,6396,18.872,0.16024
8.0802,6414,10.56,0.15677
8.0852,6410,11.057,0.15754
8.0902,6378,19.943,0.16372
8.0952,6399,10.485,0.15966
8.1002,6516,-25.729,0.13707
8.1052,6395,19.537,0.16043
8.1102,6393,17.131,0.16082
8.1152,6368,22.348,0.16565
8.1202,6387,12.895,0.16198
8.1252,6386,11.939,0.16217
8.1302,6367,16.705,0.16584
8.1352,6378,11.158,0.16372
8.1402,6349,19.186,0.16931
8.1452,6373,9.0869,0.16468
8.1502,6368,10.375,0.16565
8.1552,6338,18.937,0.17144
8.1602,6364,8.3225,0.16642
8.1652,6356,10.745,0.16796
8.1702,6352,11.339,0.16874
8.1752,6351,10.877,0.16893
8.1802,6319,19.958,0.17511
8.1852,6345,9.1249,0.17009
8.1902,6320,16.551,0.17491
8.1952,6335,9.9472,0.17202
8.2002,6334,9.8911,0.17221
8.2052,6311,16.537,0.17665
8.2102,6324,10.567,0.17414
8.2152,6424,-20.315,0.15484
8.2202,6327,16.476,0.17356
8.2252,6319,16.863,0.17511
8.2302,6407,-12.003,0.15812
8.2352,6315,21.142,0.17588
8.2402,6310,19.43,0.17685
8.2452,6295,21.216,0.17974
8.2502,6311,13.153,0.17665
8.2552,6282,20.829,0.18225
8.2602,6307,10.165,0.17742
8.2652,6309,9.2107,0.17704
8.2702,6276,19.136,0.18341
8.2752,6305,7.7135,0.17781
8.2802,6315,4.973,0.17588
8.2852,6303,9.608,0.1782
8.2902,6305,8.8091,0.17781
8.2952,6277,17.33,0.18322
8.3002,6299,8.5034,0.17897
8.3052,6272,16.815,0.18418
8.3102,6299,6.6162,0.17897
8.3152,6292,9.3431,0.18032
8.3202,6271,15.63,0.18437
8.3252,6297,6.0467,0.17935
8.3302,6291,8.6234,0.18051
8.3352,6291,8.7193,0.18051
8.3402,6297,6.967,0.17935
8.3452,6266,16.9,0.18534
8.3502,6292,6.998,0.18032
8.3552,6296,6.3002,0.17955
8.3602,6187,40.112,0.20059
8.3652,6213,24.35,0.19557
8.3702,6271,2.9123,0.18437
8.3752,6291,-1.5285,0.18051
8.3802,6295,0.001588,0.17974
8.3852,6274,8.7192,0.18379
8.3902,6297,1.8437,0.17935
8.3952,6269,12.203,0.18476
8.4002,6302,1.3917,0.17839
8.4052,6294,5.7785,0.17993
8.4102,6265,15.422,0.18553
8.4152,6296,4.3885,0.17955
8.4202,6265,14.997,0.18553
8.4252,6290,5.8981,0.18071
8.4302,6296,4.8846,0.17955
8.4352,6266,15.06,0.18534
8.4402,6295,4.7264,0.17974
8.4452,6270,13.426,0.18457
8.4502,6286,7.4594,0.18148
8.4552,6285,8.1756,0.18167
8.4602,6268,13.569,0.18495
8.4652,6262,14.255,0.18611
8.4702,6296,2.6224,0.17955
8.4752,6265,13.692,0.18553
8.4802,6285,6.453,0.18167
8.4852,6274,10.473,0.18379
8.4902,6285,6.7863,0.18167
8.4952,6285,7.3768,0.18167
8.5002,6251,18.145,0.18823
8.5052,6285,5.5244,0.18167
8.5102,6255,15.561,0.18746
8.5152,6272,8.7704,0.18418
8.5202,6275,7.964,0.1836
8.5252,6250,15.869,0.18843
8.5302,6272,7.4916,0.18418
8.5352,6277,6.4112,0.18322
8.5402,6275,7.7275,0.1836
8.5452,6268,10.225,0.18495
8.5502,6243,17.557,0.18978
8.5552,6276,5.414,0.18341
8.5602,6264,10.032,0.18573
8.5652,6239,17.425,0.19055
8.5702,6267,6.8456,0.18515
8.5752,6234,17.494,0.19152
8.5802,6266,5.6935,0.18534
8.5852,6264,7.2247,0.18573
8.5902,6194,29.025,0.19924
8.5952,6256,5.1991,0.18727
8.6002,6234,12.962,0.19152
8.6052,6254,5.9911,0.18766
8.6102,6257,5.9553,0.18708
8.6152,6230,15.038,0.19229
8.6202,6254,6.3195,0.18766
8.6252,6225,15.922,0.19325
8.6302,6250,6.6818,0.18843
8.6352,6243,9.5146,0.18978
8.6402,6237,11.322,0.19094
8.6452,6244,8.7218,0.18959
8.6502,6218,16.811,0.19461
8.6552,6244,7.0523,0.18959
8.6602,6249,6.1569,0.18862
8.6652,6214,17.638,0.19538
8.6702,6240,7.6734,0.19036
8.6752,6212,16.654,0.19576
8.6802,6195,20.018,0.19905
8.6852,6230,6.7452,0.19229
8.6902,6208,14.17,0.19654
8.6952,6231,6.0373,0.1921
8.7002,6240,4.2239,0.19036
8.7052,6226,9.8504,0.19306
8.7102,6228,9.1815,0.19268
8.7152,6198,18.406,0.19847
8.7202,6226,7.6737,0.19306
8.7252,6236,5.1419,0.19113
8.7302,6195,18.744,0.19905
8.7352,6223,7.9305,0.19364
8.7402,6192,17.798,0.19963
8.7452,6222,6.6317,0.19383
8.7502,6221,7.7245,0.19403
8.7552,6188,18.259,0.2004
8.7602,6212,8.8053,0.19576
8.7652,6189,16.041,0.2002
8.7702,6219,5.3408,0.19441
8.7752,6204,11.032,0.19731
8.7802,6182,17.403,0.20156
8.7852,6206,8.1882,0.19692
8.7902,6176,17.727,0.20271
8.7952,6206,6.6195,0.19692
8.8002,6200,9.2751,0.19808
8.8052,6170,18.546,0.20387
8.8102,6197,8.1509,0.19866
8.8152,6185,12.253,0.20098
8.8202,6187,11.06,0.20059
8.8252,6191,9.5652,0.19982
8.8302,6162,18.479,0.20542
8.8352,6182,10.249,0.20156
8.8402,6180,10.802,0.20194
8.8452,6158,17.293,0.20619
8.8502,6184,7.5592,0.20117
8.8552,6155,17.014,0.20677
8.8602,6182,7.0566,0.20156
8.8652,6180,8.4428,0.20194
8.8702,6141,20.716,0.20947
8.8752,6175,7.7002,0.20291
8.8802,6145,17.445,0.2087
8.8852,6174,6.7922,0.2031
8.8902,6172,8.2675,0.20349
8.8952,6139,18.783,0.20986
8.9002,6168,7.7963,0.20426
8.9052,6142,16.318,0.20928
8.9102,6157,10.221,0.20638
8.9152,6164,8.1093,0.20503
8.9202,6138,16.559,0.21005
8.9252,6160,8.2825,0.2058
8.9302,6137,15.785,0.21024
8.9352,6162,6.8016,0.20542
8.9402,6161,8.0007,0.20561
8.9452,6136,16.182,0.21044
8.9502,6160,7.4014,0.2058
8.9552,6126,18.477,0.21237
8.9602,6139,12.465,0.20986
8.9652,6153,7.6854,0.20715
8.9702,6119,18.704,0.21372
8.9752,6146,8.3962,0.20851
8.9802,6166,2.8378,0.20464
8.9852,6144,11.443,0.20889
8.9902,6146,10.564,0.20851
8.9952,6124,17.203,0.21275
9.0002,6132,13.048,0.21121
9.0052,6145,8.4375,0.2087
9.0102,6121,16.241,0.21333
9.0152,6136,10.218,0.21044
9.0202,6112,17.58,0.21507
9.0252,6141,6.9748,0.20947
9.0302,6131,10.916,0.2114
9.0352,6107,18.108,0.21604
9.0402,6137,7.0743,0.21024
9.0452,6104,17.989,0.21662
9.0502,6143,4.2587,0.20909
9.0552,6134,8.6001,0.21082
9.0602,6102,18.82,0.217
9.0652,6130,8.2206,0.2116
9.0702,6147,3.6599,0.20831
9.0752,6125,12.098,0.21256
9.0802,6128,10.792,0.21198
9.0852,6108,16.809,0.21584
9.0902,6128,9.15,0.21198
9.0952,6268,-33.025,0.18495
9.1002,6135,18.414,0.21063
9.1052,6127,18.777,0.21218
9.1102,6098,25.447,0.21777
9.1152,6104,19.813,0.21662
9.1202,6124,11.38,0.21275
9.1252,6123,11.48,0.21295
9.1302,6127,10.036,0.21218
9.1352,6096,19.595,0.21816
9.1402,6121,9.7201,0.21333
9.1452,6120,10.26,0.21353
9.1502,6094,18.259,0.21855
9.1552,6135,3.8756,0.21063
9.1602,6121,9.8565,0.21333
9.1652,6118,10.969,0.21391
9.1702,6118,10.887,0.21391
9.1752,6102,15.688,0.217
9.1802,6122,8.3371,0.21314
9.1852,6098,16.225,0.21777
9.1902,6128,5.705,0.21198
9.1952,6124,8.1873,0.21275
9.2002,6098,16.717,0.21777
9.2052,6136,3.6376,0.21044
9.2102,6261,-32.561,0.1863
9.2152,6117,22.118,0.2141
9.2202,6136,13.355,0.21044
9.2252,6102,22.937,0.217
9.2302,6127,12.174,0.21218
9.2352,6109,17.225,0.21565
9.2402,6127,10.063,0.21218
9.2452,6124,11.106,0.21275
9.2502,6107,16.139,0.21604
9.2552,6125,9.2656,0.21256
9.2602,6125,9.6106,0.21256
9.2652,6133,7.4345,0.21102
9.2702,6130,9.1489,0.2116
9.2752,6103,17.716,0.21681
9.2802,6139,4.9714,0.20986
9.2852,6128,9.7447,0.21198
9.2902,6102,17.858,0.217
9.2952,6139,4.7745,0.20986
9.3002,6109,15.373,0.21565
9.3052,6132,7.1748,0.21121
9.3102,6139,5.9208,0.20986
9.3152,6136,8.0152,0.21044
9.3202,6133,9.5706,0.21102
9.3252,6115,15.286,0.21449
9.3302,6140,6.4876,0.20966
9.3352,6122,12.99,0.21314
9.3402,6120,12.978,0.21353
9.3452,6143,5.3774,0.20909
9.3502,6109,17.024,0.21565
9.3552,6143,5.0522,0.20909
9.3602,6143,6.4517,0.20909
9.3652,6114,16.298,0.21468
9.3702,6145,5.4152,0.2087
9.3752,6118,14.92,0.21391
9.3802,6143,6.2095,0.20909
9.3852,6151,4.8759,0.20754
9.3902,6121,15.418,0.21333
9.3952,6146,6.5701,0.20851
9.4002,6129,12.732,0.21179
9.4052,6155,4.2612,0.20677
9.4102,6152,6.7487,0.20735
9.4152,6132,13.76,0.21121
9.4202,6162,3.7983,0.20542
9.4252,6129,15.505,0.21179
9.4302,6163,3.8799,0.20522
9.4352,6162,5.839,0.20542
9.4402,6131,16.406,0.2114
9.4452,6164,4.8441,0.20503
9.4502,6138,14.146,0.21005
9.4552,6159,6.8031,0.206
9.4602,6168,4.9706,0.20426
9.4652,6145,13.318,0.2087
9.4702,6166,6.1735,0.20464
9.4752,6177,3.88,0.20252
9.4802,6150,13.705,0.20773
9.4852,6171,6.4469,0.20368
9.4902,6149,14.097,0.20793
9.4952,6173,5.828,0.20329
9.5002,6170,7.8613,0.20387
9.5052,6120,23.654,0.21353
9.5102,6182,1.4156,0.20156
9.5152,6151,13.087,0.20754
9.5202,6186,1.7333,0.20078
9.5252,6188,3.2833,0.2004
9.5302,6148,17.187,0.20812
9.5352,6195,1.1243,0.19905
9.5402,6160,14.054,0.2058
9.5452,6180,6.9839,0.20194
9.5502,6189,5.0515,0.2002
9.5552,6158,15.756,0.20619
9.5602,6182,7.031,0.20156
9.5652,6160,14.501,0.2058
9.5702,6259,-16.692,0.18669
9.5752,6180,14.098,0.20194
9.5802,6161,18.817,0.20561
9.5852,6194,6.551,0.19924
9.5902,6158,18.371,0.20619
9.5952,6187,7.4441,0.20059
9.6002,6190,7.1973,0.20001
9.6052,6158,17.643,0.20619
9.6102,6183,8.1217,0.20136
9.6152,6165,14.089,0.20484
9.6202,6191,5.1742,0.19982
9.6252,6186,7.9408,0.20078
9.6303,6314,-30.418,0.17607
9.6352,6187,18.403,0.20059
9.6402,6161,24.108,0.20561
9.6452,6188,12.284,0.2004
9.6502,6185,12.595,0.20098
9.6552,6159,19.821,0.206
9.6602,6192,7.2977,0.19963
9.6652,6190,8.5959,0.20001
9.6702,6189,9.2564,0.2002
9.6752,6196,7.316,0.19885
9.6802,6164,17.716,0.20503
9.6852,6187,8.7681,0.20059
9.6902,6191,7.8718,0.19982
9.6952,6190,8.7188,0.20001
9.7002,6187,9.955,0.20059
9.7052,6169,15.434,0.20407
9.7102,6188,8.2851,0.2004
9.7152,6181,10.855,0.20175
9.7202,6194,6.6942,0.19924
9.7252,6204,4.4983,0.19731
9.7302,6163,18.348,0.20522
9.7352,6196,6.1993,0.19885
9.7402,6231,-3.4693,0.1921
9.7452,6163,20.597,0.20522
9.7502,6199,6.9496,0.19827
9.7552,6171,16.222,0.20368
9.7602,6195,7.3427,0.19905
9.7652,6243,-6.5722,0.18978
9.7702,6200,10.677,0.19808
9.7752,6198,11.073,0.19847
9.7802,6182,15.625,0.20156
9.7852,6207,6.5703,0.19673
9.7902,6199,9.8439,0.19827
9.7952,6182,15.018,0.20156
9.8002,6207,6.1217,0.19673
9.8052,6174,17.109,0.2031
9.8102,6206,5.5601,0.19692
9.8152,6199,8.796,0.19827
9.8202,6123,32.172,0.21295
9.8252,6208,0.71424,0.19654
9.8302,6182,10.984,0.20156
9.8352,6202,4.6596,0.19769
9.8402,6215,2.0631,0.19518
9.8452,6149,24.118,0.20793
9.8502,6207,2.9013,0.19673
9.8552,6187,10.779,0.20059
9.8602,6214,2.3688,0.19538
9.8652,6200,8.5447,0.19808
9.8702,6206,7.0663,0.19692
9.8752,6211,6.2626,0.19596
9.8802,6184,15.38,0.20117
9.8852,6217,3.9533,0.1948
9.8902,6217,5.4538,0.1948
9.8952,6184,16.591,0.20117
9.9002,6214,5.7594,0.19538
9.9052,6188,14.697,0.2004
9.9102,6207,7.6926,0.19673
9.9152,6215,5.8113,0.19518
9.9202,6196,12.606,0.19885
9.9252,6210,7.6464,0.19615
9.9302,6188,14.886,0.2004
9.9352,6215,5.4012,0.19518
9.9402,6207,8.9599,0.19673
9.9452,6187,15.256,0.20059
9.9502,6210,6.893,0.19615
9.9552,6182,16.152,0.20156
9.9602,6293,-19.173,0.18013
9.9652,6211,13.09,0.19596
9.9702,6184,20.426,0.20117
9.9752,6211,9.5053,0.19596
9.9802,6192,15.345,0.19963
9.9852,6208,9.0734,0.19654
9.9902,6213,7.7409,0.19557
9.9952,6185,16.771,0.20098
10,6211,7.106,0.19596
10.005,6192,13.572,0.19963
10.01,6221,3.8128,0.19403
10.015,6218,6.2516,0.19461
10.02,6200,12.62,0.19808
10.025,6230,2.7846,0.19229
10.03,6194,15.497,0.19924
10.035,6230,3.103,0.19229
10.04,6222,7.2239,0.19383
10.045,6203,13.632,0.1975
10.05,6234,3.2213,0.19152
10.055,6208,12.771,0.19654
10.06,6226,6.523,0.19306
10.065,6236,4.2916,0.19113
10.07,6210,13.557,0.19615
10.075,6231,6.1871,0.1921
10.08,6235,5.854,0.19132
10.085,6240,5.294,0.19036
10.09,6234,8.2102,0.19152
10.095,6221,12.507,0.19403
10.1,6248,3.5607,0.18881
10.105,6219,13.898,0.19441
10.11,6255,1.8587,0.18746
10.115,6256,3.5067,0.18727
10.12,6228,13.535,0.19268
10.125,6264,1.5672,0.18573
10.13,6233,12.993,0.19171
10.135,6260,3.8892,0.1865
10.14,6268,2.8676,0.18495
10.145,6244,11.817,0.18959
10.15,6266,4.5118,0.18534
10.155,6246,11.821,0.1892
10.16,6274,2.6869,0.18379
10.165,6273,4.6788,0.18399
10.17,6272,6.1534,0.18418
10.175,6279,4.8146,0.18283
10.18,6259,12.012,0.18669
10.185,6288,2.4916,0.18109
10.19,6292,2.98,0.18032
10.195,6267,12.143,0.18515
10.2,6301,1.049,0.17858
10.205,6277,10.39,0.18322
10.21,6305,1.5513,0.17781
10.215,6314,0.72307,0.17607
10.22,6289,10.42,0.1809
10.225,6317,1.5437,0.17549
10.23,6295,10.107,0.17974
10.235,6324,0.99362,0.17414
10.24,6327,2.0865,0.17356
10.245,6303,11.091,0.1782
10.25,6332,1.7006,0.1726
10.255,6308,10.794,0.17723
10.26,6341,0.25249,0.17086
10.265,6347,0.58451,0.1697
10.27,6318,11.45,0.1753
10.275,6360,-2.022,0.16719
10.28,6335,8.2761,0.17202
10.285,6356,1.9709,0.16796
10.29,6355,3.9439,0.16816
10.295,6334,11.482,0.17221
10.3,6368,0.39213,0.16565
10.305,6351,7.6091,0.16893
10.31,6379,-0.68934,0.16352
10.315,6369,4.6551,0.16545
10.32,6357,9.2376,0.16777
10.325,6390,-1.0203,0.1614
10.33,6360,10.46,0.16719
10.335,6391,0.4836,0.16121
10.34,6390,2.7569,0.1614
10.345,6366,11.429,0.16603
10.35,6401,-0.031501,0.15928
10.355,6374,10.252,0.16449
10.36,6397,2.7254,0.16005
10.365,6407,1.0559,0.15812
10.37,6288,38.997,0.18109
10.375,6404,-4.0766,0.1587
10.38,6381,6.0396,0.16314
10.385,6413,-3.14,0.15696
10.39,6421,-2.711,0.15541
10.395,6367,16.426,0.16584
10.4,6416,-0.59498,0.15638
10.405,6394,8.2785,0.16063
10.41,6413,2.4323,0.15696
10.415,6413,3.838,0.15696
10.42,6394,10.65,0.16063
10.425,6415,3.5774,0.15657
10.43,6394,11.061,0.16063
10.435,6420,2.3611,0.15561
10.44,6412,6.1988,0.15715
10.445,6397,11.182,0.16005
10.45,6424,2.1395,0.15484
10.455,6389,14.23,0.16159
10.46,6418,3.804,0.15599
10.465,6432,0.58479,0.15329
10.47,6359,24.608,0.16738
10.475,6417,2.7364,0.15619
10.48,6396,10.434,0.16024
10.485,6415,4.0202,0.15657
10.49,6541,-33.282,0.13225
10.495,6368,29.694,0.16565
10.5,6412,10.727,0.15715
10.505,6384,18.479,0.16256
10.51,6418,5.4373,0.15599
10.515,6381,17.29,0.16314
10.52,6303,38.6,0.1782
10.525,6411,-1.9766,0.15735
10.53,6379,10.309,0.16352
10.535,6402,2.7548,0.15908
10.54,6401,4.4078,0.15928
10.545,6399,5.9357,0.15966
10.55,6397,7.0698,0.16005
10.555,6377,13.383,0.16391
10.56,6403,4.1199,0.15889
10.565,6399,6.3257,0.15966
10.57,6404,5.2309,0.1587
10.575,6403,6.2326,0.15889
10.58,6371,16.395,0.16507
10.585,6400,5.4497,0.15947
10.59,6403,5.1888,0.15889
10.595,6392,9.2427,0.16101
10.6,6396,7.7081,0.16024
10.605,6373,14.769,0.16468
10.61,6387,8.8006,0.16198
10.615,6369,14.079,0.16545
10.62,6382,8.605,0.16294
10.625,6392,5.4386,0.16101
10.63,6368,13.405,0.16565
10.635,6394,4.1592,0.16063
10.64,6399,3.6424,0.15966
10.645,6393,6.5906,0.16082
10.65,6392,7.265,0.16101
10.655,6358,17.794,0.16758
10.66,6390,5.6041,0.1614
10.665,6362,14.748,0.16681
10.67,6382,6.9898,0.16294
10.675,6390,4.8527,0.1614
10.68,6363,13.889,0.16661
10.685,6385,5.7447,0.16236
10.69,6360,13.953,0.16719
10.695,6391,3.0646,0.16121
10.7,6374,9.5263,0.16449
10.705,6363,12.521,0.16661
10.71,6389,3.5181,0.16159
10.715,6358,14.121,0.16758
10.72,6391,2.5858,0.16121
10.725,6390,4.3105,0.1614
10.73,6359,14.704,0.16738
10.735,6388,4.2297,0.16179
10.74,6362,13.13,0.16681
10.745,6384,5.1861,0.16256
10.75,6393,3.2109,0.16082
10.755,6367,12.364,0.16584
10.76,6390,4.304,0.1614
10.765,6373,10.445,0.16468
10.77,6399,1.9587,0.15966
10.775,6405,1.6999,0.1585
10.78,6352,19.422,0.16874
10.785,6408,-0.47051,0.15792
10.79,6375,11.733,0.1643
10.795,6412,-0.43673,0.15715
10.8,6412,1.7202,0.15715
10.805,6406,5.1375,0.15831
10.81,6413,3.7275,0.15696
10.815,6386,13,0.16217
10.82,6407,5.3337,0.15812
10.825,6390,11.163,0.1614
10.83,6372,15.817,0.16487
10.835,6409,2.589,0.15773
10.84,6394,8.5219,0.16063
10.845,6422,-0.12266,0.15522
10.85,6389,11.955,0.16159
10.855,6422,0.90764,0.15522
10.86,6427,1.1692,0.15426
10.865,6393,13.201,0.16082
10.87,6422,3.0339,0.15522
10.875,6399,11.249,0.15966
10.88,6419,4.3112,0.1558
10.885,6434,0.65323,0.1529
10.89,6403,11.891,0.15889
10.895,6425,4.1675,0.15464
10.9,6408,10.256,0.15792
10.905,6432,2.3392,0.15329
10.91,6422,6.7602,0.15522
10.915,6408,11.268,0.15792
10.92,6437,1.5676,0.15233
10.925,6406,12.559,0.15831
10.93,6433,3.1344,0.1531
10.935,6433,4.3066,0.1531
10.94,6406,13.378,0.15831
10.945,6431,4.3471,0.15348
10.95,6410,11.589,0.15754
10.955,6435,3.0155,0.15271
10.96,6422,8.1641,0.15522
10.965,6409,12.002,0.15773
10.97,6433,3.6266,0.1531
10.975,6404,13.483,0.1587
10.98,6438,1.695,0.15213
10.985,6424,7.4846,0.15484
10.99,6400,14.837,0.15947
10.995,6440,0.88261,0.15175
11,6407,12.653,0.15812
11.005,6427,5.3285,0.15426
11.01,6429,5.3353,0.15387
11.015,6427,6.5509,0.15426
11.02,6424,7.7581,0.15484
11.025,6405,13.52,0.1585
11.03,6425,5.9741,0.15464
11.035,6517,-21.531,0.13688
11.04,6420,15.344,0.15561
11.045,6421,13.058,0.15541
11.05,6389,21.394,0.16159
11.055,6419,8.7948,0.1558
11.06,6392,16.729,0.16101
11.065,6402,11.417,0.15908
11.07,6409,8.3785,0.15773
11.075,6387,14.927,0.16198
11.08,6436,-1.7528,0.15252
11.085,6384,16.489,0.16256
11.09,6408,7.0056,0.15792
11.095,6420,3.5836,0.15561
11.1,6379,17.13,0.16352
11.105,6406,6.5803,0.15831
11.11,6375,16.341,0.1643
11.115,6377,13.604,0.16391
11.12,6409,2.4602,0.15773
11.125,6363,17.847,0.16661
11.13,6397,5.023,0.16005
11.135,6376,12.174,0.1641
11.14,6394,5.6602,0.16063
11.145,6392,6.8788,0.16101
11.15,6370,13.862,0.16526
11.155,6388,6.9225,0.16179
11.16,6390,6.6112,0.1614
11.165,6392,6.3761,0.16101
11.17,6394,6.1974,0.16063
11.175,6384,9.7068,0.16256
11.18,6390,7.4633,0.1614
11.185,6380,10.652,0.16333
11.19,6395,5.4372,0.16043
11.195,6420,-1.4931,0.15561
11.2,6382,12.467,0.16294
11.205,6383,11.027,0.16275
11.21,6363,16.342,0.16661
11.215,6381,8.7733,0.16314
11.22,6359,15.29,0.16738
11.225,6386,5.2703,0.16217
11.23,6378,8.434,0.16372
11.235,6375,9.2727,0.1643
11.24,6387,5.3418,0.16198
11.245,6359,14.562,0.16738
11.25,6382,5.9481,0.16294
11.255,6388,4.6906,0.16179
11.26,6383,7.089,0.16275
11.265,6385,6.7468,0.16236
11.27,6364,13.478,0.16642
11.275,6389,4.5268,0.16159
11.28,6371,10.916,0.16507
11.285,6393,3.5274,0.16082
11.29,6387,6.5206,0.16198
11.295,6360,15.129,0.16719
11.3,6390,4.2376,0.1614
11.305,6442,-10.572,0.15136
11.31,6381,12.692,0.16314
11.315,6387,9.6766,0.16198
11.32,6361,17.158,0.167
11.325,6389,6.3419,0.16159
11.33,6367,13.473,0.16584
11.335,6388,5.7308,0.16179
11.34,6385,7.2499,0.16236
11.345,6303,32.386,0.1782
11.35,6382,2.2438,0.16294
11.355,6354,12.285,0.16835
11.36,6392,-0.28017,0.16101
11.365,6387,3.4055,0.16198
11.37,6382,6.1418,0.16294
11.375,6390,4.226,0.1614
11.38,6359,14.641,0.16738
11.385,6376,7.8301,0.1641
11.39,6379,7.0081,0.16352
11.395,6357,13.99,0.16777
11.4,6378,6.1383,0.16372
11.405,6359,12.438,0.16738
11.41,6382,4.3787,0.16294
11.415,6352,14.47,0.16874
11.42,6386,2.5554,0.16217
11.425,6387,3.6928,0.16198
11.43,6352,15.47,0.16874
11.435,6385,3.5983,0.16236
11.44,6355,13.886,0.16816
11.445,6367,8.8014,0.16584
11.45,6374,6.533,0.16449
11.455,6383,4.2314,0.16275
11.46,6382,5.5466,0.16294
11.465,6361,12.599,0.167
11.47,6382,5.1,0.16294
11.475,6354,14.396,0.16835
11.48,6387,2.799,0.16198
11.485,6387,4.1742,0.16198
11.49,6352,15.826,0.16874
11.495,6362,10.85,0.16681
11.5,6362,10.187,0.16681
11.505,6385,2.7074,0.16236
11.51,6394,1.3766,0.16063
11.515,6367,11.31,0.16584
11.52,6391,3.2211,0.16121
11.525,6369,11.161,0.16545
11.53,6383,6.1449,0.16275
11.535,6390,4.5297,0.1614
11.54,6399,2.7107,0.15966
11.545,6396,4.9905,0.16024
11.55,6361,16.407,0.167
11.555,6391,5.1793,0.16121
11.56,6425,-4.4086,0.15464
11.565,6389,9.6919,0.16159
11.57,6396,7.1359,0.16024
11.575,6373,14.346,0.16468
11.58,6397,5.4493,0.16005
11.585,6374,13.097,0.16449
11.59,6400,3.9161,0.15947
11.595,6393,7.0943,0.16082
11.6,6371,14.019,0.16507
11.605,6398,4.301,0.15985
11.61,6368,14.373,0.16565
11.615,6397,3.9625,0.16005
11.62,6398,4.705,0.15985
11.625,6365,15.583,0.16623
11.63,6400,3.0412,0.15947
11.635,6377,11.31,0.16391
11.64,6397,4.4111,0.16005
11.645,6412,0.78231,0.15715
11.65,6405,4.7482,0.1585
11.655,6400,7.0889,0.15947
11.66,6383,12.478,0.16275
11.665,6409,3.436,0.15773
11.67,6549,-37.953,0.1307
11.675,6410,15.891,0.15754
11.68,6413,12.88,0.15696
11.685,6379,21.89,0.16352
11.69,6412,8.2748,0.15715
11.695,6411,8.4619,0.15735
11.7,6408,9.2105,0.15792
11.705,6416,6.4286,0.15638
11.71,6414,7.3914,0.15677
11.715,6406,9.9312,0.15831
11.72,6394,13.044,0.16063
11.725,6420,3.8267,0.15561
11.73,6416,6.0663,0.15638
11.735,6429,2.5656,0.15387
11.74,6435,2.073,0.15271
11.745,6403,13.241,0.15889
11.75,6440,0.60743,0.15175
11.755,6556,-32.828,0.12935
11.76,6436,13.887,0.15252
11.765,6445,9.5102,0.15078
11.77,6419,16.889,0.1558
11.775,6446,6.3017,0.15059
11.78,6428,12.084,0.15406
11.785,6456,2.4246,0.14866
11.79,6455,4.0282,0.14885
11.795,6601,-39.454,0.12066
11.8,6469,12.524,0.14615
11.805,6435,21.487,0.15271
11.81,6471,6.9245,0.14576
11.815,6563,-20.945,0.128
11.82,6411,32.375,0.15735
11.825,6472,7.4343,0.14557
11.83,6451,13.768,0.14962
11.835,6476,4.5226,0.1448
11.84,6459,10.39,0.14808
11.845,6488,0.79112,0.14248
11.85,6481,4.564,0.14383
11.855,6462,11.016,0.1475
11.86,6499,-1.1849,0.14036
11.865,6460,12.8,0.14789
11.87,6494,1.05,0.14132
11.875,6486,5.0442,0.14287
11.88,6488,4.9771,0.14248
11.885,6496,3.0993,0.14094
11.89,6470,12.023,0.14596
11.895,6468,11.39,0.14634
11.9,6473,8.8006,0.14538
11.905,6502,-0.41891,0.13978
11.91,6500,2.1153,0.14016
11.915,6474,11.286,0.14518
11.92,6504,1.1115,0.13939
11.925,6477,10.838,0.1446
11.93,6507,0.77294,0.13881
11.935,6513,0.5525,0.13765
11.94,6472,14.657,0.14557
11.945,6504,2.9997,0.13939
11.95,6486,9.4986,0.14287
11.955,6507,2.4953,0.13881
11.96,6511,2.4331,0.13804
11.965,6517,1.7693,0.13688
11.97,6516,3.3908,0.13707
11.975,6484,14.012,0.14325
11.98,6519,1.5814,0.13649
11.985,6491,11.452,0.1419
11.99,6508,5.1415,0.13862
11.995,6517,2.8668,0.13688
12,6492,11.495,0.14171
12.005,6509,5.171,0.13843
12.01,6493,10.483,0.14152
12.015,6515,2.9013,0.13727
12.02,6526,0.5859,0.13514
12.025,6497,11.002,0.14074
12.03,6523,2.0595,0.13572
12.035,6490,13.314,0.14209
12.04,6530,-0.46856,0.13437
12.045,6501,10.213,0.13997
12.05,6518,4.2011,0.13669
12.055,6527,2.1467,0.13495
12.06,6539,-0.30577,0.13263
12.065,6519,7.5758,0.13649
12.07,6502,12.539,0.13978
12.075,6536,0.75151,0.13321
12.08,6523,6.2375,0.13572
12.085,6431,34.331,0.15348
12.09,6523,-0.59105,0.13572
12.095,6496,9.5323,0.14094
12.1,6534,-2.6708,0.1336
12.105,6502,9.4871,0.13978
12.11,6515,4.8777,0.13727
12.115,6524,2.6542,0.13553
12.12,6503,10.105,0.13958
12.125,6522,3.5083,0.13592
12.13,6492,13.476,0.14171
12.135,6525,1.7729,0.13534
12.14,6509,7.9316,0.13843
12.145,6419,35.01,0.1558
12.15,6514,-0.97056,0.13746
12.155,6487,9.2744,0.14267
12.16,6518,-0.71164,0.13669
12.165,6491,9.4557,0.1419
12.17,6508,3.6666,0.13862
12.175,6508,4.5116,0.13862
12.18,6490,10.606,0.14209
12.185,6513,2.6958,0.13765
12.19,6480,13.81,0.14402
12.195,6509,3.2652,0.13843
12.2,6503,6.0358,0.13958
12.205,6400,37.574,0.15947
12.21,6507,-2.6743,0.13881
12.215,6477,8.9446,0.1446
12.22,6502,0.89297,0.13978
12.225,6475,10.682,0.14499
12.23,6494,4.005,0.14132
12.235,6490,6.0124,0.14209
12.24,6487,7.202,0.14267
12.245,6491,5.9615,0.1419
12.25,6464,14.455,0.14711
12.255,6491,4.39,0.1419
12.26,6494,4.1773,0.14132
12.265,6376,40.782,0.1641
12.27,6491,-2.6748,0.1419
12.275,6464,8.0727,0.14711
12.28,6486,1.1929,0.14287
12.285,6461,10.336,0.14769
12.29,6483,2.8728,0.14344
12.295,6473,7.0266,0.14538
12.3,6455,12.552,0.14885
12.305,6478,4.222,0.14441
12.31,6449,13.81,0.15001
12.315,6479,3.0393,0.14422
12.32,6469,7.1596,0.14615
12.325,6390,31.197,0.1614
12.33,6473,-0.068869,0.14538
12.335,6445,10.348,0.15078
12.34,6463,4.1372,0.14731
12.345,6469,3.1491,0.14615
12.35,6463,6.0504,0.14731
12.355,6460,7.2978,0.14789
12.36,6435,14.913,0.15271
12.365,6468,2.9777,0.14634
12.37,6432,15.043,0.15329
12.375,6456,5.8162,0.14866
12.38,6459,5.3191,0.14808
12.385,6383,28.95,0.16275
12.39,6448,3.7582,0.1502
12.395,6428,10.807,0.15406
12.4,6451,3.0004,0.14962
12.405,6422,12.975,0.15522
12.41,6450,3.0977,0.14982
12.415,6441,6.9717,0.15155
12.42,6415,15.023,0.15657
12.425,6441,5.2367,0.15155
12.43,6408,15.868,0.15792
12.435,6435,5.5748,0.15271
12.44,6443,3.6741,0.15117
12.445,6407,15.62,0.15812
12.45,6433,5.6978,0.1531
12.455,6409,13.494,0.15773
12.46,6429,5.945,0.15387
12.465,6454,-1.2032,0.14904
12.47,6430,8.3414,0.15368
12.475,6421,10.897,0.15541
12.48,6395,17.974,0.16043
12.485,6428,5.3406,0.15406
12.49,6392,16.889,0.16101
12.495,6405,10.624,0.1585
12.5,6428,2.9224,0.15406
12.505,6406,10.848,0.15831
12.51,6408,9.4668,0.15792
12.515,6387,15.43,0.16198
12.52,6406,7.7351,0.15831
12.525,6378,16.283,0.16372
12.53,6411,4.1334,0.15735
12.535,6407,6.3156,0.15812
12.54,6376,16.143,0.1641
12.545,6401,6.466,0.15928
12.55,6374,15.054,0.16449
12.555,6395,6.8816,0.16043
12.56,6400,5.6518,0.15947
12.565,6396,7.4653,0.16024
12.57,6392,8.8155,0.16101
12.575,6367,16.205,0.16584
12.58,6385,8.6614,0.16236
12.585,6398,4.5611,0.15985
12.59,6396,6.0566,0.16024
12.595,6380,11.421,0.16333
12.6,6354,18.464,0.16835
12.605,6378,8.5405,0.16372
12.61,6352,16.341,0.16874
12.615,6374,7.584,0.16449
12.62,6377,6.8313,0.16391
12.625,6371,9.0024,0.16507
12.63,6368,9.7103,0.16565
12.635,6348,15.407,0.16951
12.64,6367,7.8156,0.16584
12.645,6429,-10.909,0.15387
12.65,6366,13.083,0.16603
12.655,6377,8.4841,0.16391
12.66,6337,20.556,0.17163
12.665,6366,8.6094,0.16603
12.67,6337,17.333,0.17163
12.675,6360,8.0513,0.16719
12.68,6479,-28.038,0.14422
12.685,6363,16.404,0.16661
12.69,6360,15.201,0.16719
12.695,6337,20.396,0.17163
12.7,6365,8.7952,0.16623
12.705,6332,18.689,0.1726
12.71,6369,4.8111,0.16545
12.715,6349,11.784,0.16931
12.72,6244,42.816,0.18959
12.725,6366,-2.967,0.16603
12.73,6335,9.386,0.17202
12.735,6362,0.96782,0.16681
12.74,6338,10.177,0.17144
12.745,6364,1.8485,0.16642
12.75,6367,2.6179,0.16584
12.755,6335,13.815,0.17202
12.76,6368,2.4173,0.16565
12.765,6336,13.664,0.17182
12.77,6367,2.9111,0.16584
12.775,6368,4.0034,0.16565
12.78,6350,10.582,0.16912
12.785,6372,3.3332,0.16487
12.79,6340,14.331,0.17105
12.795,6365,5.2171,0.16623
12.8,6345,12.094,0.17009
12.805,6371,3.2477,0.16507
12.81,6368,5.4576,0.16565
12.815,6349,11.96,0.16931
12.82,6377,2.5312,0.16391
12.825,6348,12.814,0.16951
12.83,6382,1.3412,0.16294
12.835,6367,7.6676,0.16584
12.84,6352,12.38,0.16874
12.845,6386,1.0109,0.16217
12.85,6354,12.579,0.16835
12.855,6377,4.4955,0.16391
12.86,6357,11.531,0.16777
12.865,6381,3.409,0.16314
12.87,6376,6.1595,0.1641
12.875,6348,15.194,0.16951
12.88,6386,1.8845,0.16217
12.885,6356,12.617,0.16796
12.89,6392,0.56804,0.16101
12.895,6365,10.718,0.16623
12.9,6384,4.3076,0.16256
12.905,6389,3.7772,0.16159
12.91,6363,12.793,0.16661
12.915,6383,5.5423,0.16275
12.92,6364,11.985,0.16642
12.925,6392,2.512,0.16101
12.93,6377,8.5077,0.16391
12.935,6368,11.153,0.16565
12.94,6394,2.4946,0.16063
12.945,6361,13.96,0.167
12.95,6384,5.498,0.16256
12.955,6384,6.1762,0.16256
12.96,6390,4.8542,0.1614
12.965,6388,6.2932,0.16179
12.97,6365,13.743,0.16623
12.975,6387,5.6318,0.16198
12.98,6361,14.168,0.167
12.985,6389,4.1329,0.16159
12.99,6388,5.4588,0.16179
12.995,6391,5.2256,0.16121
13,6394,5.0458,0.16063
13.005,6363,15.237,0.16661
13.01,6381,7.9565,0.16314
13.015,6368,11.951,0.16565
13.02,6385,5.8193,0.16236
13.025,6384,6.7151,0.16256
13.03,6296,33.817,0.17955
13.035,6390,-1.2396,0.1614
13.04,6362,9.6906,0.16681
13.045,6396,-1.0019,0.16024
13.05,6398,0.73495,0.15985
13.055,6386,6.2678,0.16217
13.06,6398,3.0936,0.15985
13.065,6365,14.392,0.16623
13.07,6387,6.1115,0.16198
13.075,6370,11.788,0.16526
13.08,6393,3.8706,0.16082
13.085,6389,6.1665,0.16159
13.09,6368,13.039,0.16565
13.095,6390,5.1041,0.1614
13.1,6359,15.29,0.16738
13.105,6394,2.8398,0.16063
13.11,6365,12.999,0.16623
13.115,6360,13.287,0.16719
13.12,6395,1.3567,0.16043
13.125,6368,11.293,0.16565
13.13,6388,4.4214,0.16179
13.135,6372,10.233,0.16487
13.14,6385,5.7549,0.16236
13.145,6364,12.745,0.16642
13.15,6397,1.5541,0.16005
13.155,6392,4.7485,0.16101
13.16,6384,8.0333,0.16256
13.165,6391,5.9227,0.16121
13.17,6366,14.07,0.16603
13.175,6389,5.5666,0.16159
13.18,6397,3.7834,0.16005
13.185,6369,13.385,0.16545
13.19,6384,7.4844,0.16256
13.195,6363,14.026,0.16661
13.2,6389,4.6301,0.16159
13.205,6476,-20.915,0.1448
13.21,6388,13.167,0.16179
13.215,6394,10.011,0.16063
13.22,6362,19.21,0.16681
13.225,6378,11.503,0.16372
13.23,6364,14.883,0.16642
13.235,6386,6.4768,0.16217
13.24,6388,6.2868,0.16179
13.245,6392,5.5337,0.16101
13.25,6383,8.9174,0.16275
13.255,6361,15.391,0.167
13.26,6389,5.0364,0.16159
13.265,6359,14.939,0.16738
13.27,6386,5.0112,0.16217
13.275,6384,6.4193,0.16256
13.28,6353,16.277,0.16854
13.285,6386,4.192,0.16217
13.29,6384,5.8139,0.16256
13.295,6381,7.3214,0.16314
13.3,6370,10.874,0.16526
13.305,6392,3.4989,0.16101
13.31,6387,6.1983,0.16198
13.315,6364,13.675,0.16642
13.32,6396,2.5455,0.16024
13.325,6365,13.384,0.16623
13.33,6391,4.1513,0.16121
13.335,6398,3.0363,0.15985
13.34,6391,6.4491,0.16121
