0,3769
0.0049932,3775
0.0099931,3779
0.014996,3770
0.019993,3770
0.024993,3778
0.029999,3771
0.034993,3758
0.039993,3743
0.044994,3721
0.049993,3778
0.054994,3818
0.059994,3826
0.064994,3815
0.069994,3811
0.074994,3791
0.079994,3768
0.084995,3756
0.089994,3739
0.094995,3731
0.099995,3756
0.10499,3769
0.11,3770
0.115,3772
0.12,3775
0.12499,3771
0.13,3770
0.135,3775
0.14,3773
0.145,3770
0.15,3775
0.155,3775
0.16,3769
0.165,3771
0.17,3774
0.175,3773
0.18,3771
0.185,3775
0.19,3771
0.195,3774
0.2,3774
0.205,3770
0.21,3773
0.215,3774
0.22,3772
0.225,3797
0.23,3821
0.235,3829
0.24,3818
0.245,3809
0.25,3791
0.255,3776
0.26,3774
0.265,3774
0.27,3773
0.275,3773
0.28,3774
0.285,3769
0.29,3773
0.295,3775
0.3,3771
0.305,3769
0.31,3775
0.315,3772
0.32,3760
0.325,3751
0.33,3731
0.335,3734
0.34,3758
0.345,3768
0.35,3771
0.355,3771
0.36,3774
0.365,3771
0.37,3771
0.375,3775
0.38,3772
0.385,3767
0.39,3778
0.395,3778
0.4,3760
0.405,3758
0.41,3736
0.415,3718
0.42,3718
0.425,3719
0.43,3722
0.435,3755
0.44,3770
0.445,3768
0.45,3807
0.455,3826
0.46,3825
0.465,3784
0.47,3766
0.475,3754
0.48,3757
0.485,3770
0.49,3774
0.495,3764
0.5,3753
0.505,3747
0.51,3737
0.515,3761
0.52,3770
0.525,3768
0.53,3771
0.535,3774
0.54,3771
0.545,3769
0.55,3775
0.555,3775
0.56,3759
0.56501,3751
0.57,3732
0.57501,3740
0.58001,3760
0.58501,3770
0.59001,3770
0.59501,3772
0.60001,3774
0.60501,3768
0.61001,3773
0.61501,3775
0.62001,3771
0.62501,3769
0.63001,3774
0.63501,3774
0.64001,3758
0.64501,3748
0.65001,3728
0.65501,3740
0.66001,3760
0.66501,3768
0.67001,3784
0.67501,3816
0.68001,3824
0.68501,3822
0.69001,3814
0.69501,3806
0.70001,3790
0.70501,3779
0.71001,3776
0.71501,3775
0.72001,3758
0.72501,3747
0.73001,3729
0.73501,3742
0.74001,3760
0.74501,3769
0.75001,3770
0.75501,3773
0.76001,3774
0.76501,3769
0.77001,3772
0.77501,3778
0.78001,3769
0.78501,3770
0.79001,3780
0.79501,3773
0.80001,3770
0.80501,3775
0.81001,3777
0.81501,3771
0.82001,3776
0.82501,3774
0.83001,3764
0.83501,3755
0.84001,3736
0.84501,3729
0.85001,3756
0.85501,3771
0.86001,3767
0.86501,3770
0.87001,3776
0.87501,3772
0.88001,3756
0.88501,3750
0.89001,3729
0.89501,3746
0.90001,3765
0.90501,3768
0.91001,3770
0.91501,3774
0.92001,3772
0.92501,3764
0.93001,3756
0.93501,3749
0.94001,3728
0.94501,3755
0.95001,3770
0.95501,3768
0.96001,3755
0.96501,3746
0.97001,3726
0.97501,3747
0.98001,3763
0.98501,3768
0.99001,3761
0.99502,3752
1,3728
1.005,3715
1.01,3717
1.015,3717
1.02,3717
1.025,3749
1.03,3767
1.035,3770
1.04,3770
1.045,3773
1.05,3773
1.055,3771
1.06,3773
1.065,3772
1.07,3760
1.075,3754
1.08,3731
1.085,3715
1.09,3717
1.095,3717
1.1,3717
1.105,3752
1.11,3766
1.115,3769
1.12,3769
1.125,3772
1.13,3773
1.135,3772
1.14,3774
1.145,3776
1.15,3772
1.155,3775
1.16,3776
1.165,3762
1.17,3757
1.175,3753
1.18,3737
1.185,3757
1.19,3774
1.195,3771
1.2,3770
1.205,3776
1.21,3771
1.215,3770
1.22,3775
1.225,3774
1.23,3760
1.235,3755
1.24,3732
1.245,3735
1.25,3762
1.255,3772
1.26,3766
1.265,3770
1.27,3773
1.275,3771
1.28,3771
1.285,3775
1.29,3772
1.295,3771
1.3,3774
1.305,3772
1.31,3758
1.315,3753
1.32,3731
1.325,3718
1.33,3717
1.335,3717
1.34,3711
1.345,3711
1.35,3717
1.355,3717
1.36,3753
1.365,3767
1.37,3770
1.375,3770
1.38,3774
1.385,3771
1.39,3769
1.3951,3776
1.4,3773
1.405,3761
1.41,3752
1.415,3742
1.42,3721
1.425,3716
1.43,3717
1.435,3721
1.44,3752
1.445,3766
1.45,3770
1.455,3757
1.46,3742
1.465,3722
1.47,3715
1.475,3718
1.48,3713
1.485,3735
1.49,3760
1.495,3770
1.5,3762
1.505,3750
1.51,3732
1.515,3727
1.52,3755
1.525,3768
1.53,3769
1.535,3756
1.54,3743
1.545,3722
1.55,3717
1.555,3722
1.56,3720
1.565,3712
1.57,3719
1.575,3719
1.58,3730
1.585,3760
1.59,3771
1.595,3768
1.6,3770
1.605,3775
1.61,3772
1.615,3757
1.62,3742
1.625,3721
1.63,3748
1.635,3769
1.64,3771
1.645,3756
1.65,3751
1.655,3730
1.66,3736
1.665,3759
1.67,3770
1.675,3764
1.68,3754
1.685,3747
1.69,3727
1.695,3720
1.7,3717
1.705,3713
1.71,3713
1.715,3717
1.72,3714
1.725,3737
1.73,3763
1.7351,3772
1.74,3770
1.745,3771
1.75,3774
1.755,3772
1.76,3771
1.765,3772
1.77,3771
1.775,3773
1.78,3773
1.785,3770
1.79,3773
1.795,3775
1.8,3774
1.805,3769
1.81,3774
1.815,3774
1.82,3769
1.825,3771
1.83,3774
1.835,3772
1.84,3770
1.845,3773
1.85,3771
1.855,3771
1.86,3774
1.865,3770
1.87,3771
1.875,3776
1.88,3773
1.885,3757
1.89,3746
1.895,3727
1.9,3715
1.905,3714
1.91,3716
1.915,3714
1.92,3716
1.925,3718
1.93,3712
1.935,3715
1.94,3719
1.945,3711
1.95,3749
1.955,3772
1.96,3768
1.965,3799
1.97,3824
1.975,3832
1.98,3793
1.985,3767
1.99,3753
1.995,3746
2,3744
2.005,3726
2.01,3714
2.015,3715
2.02,3717
2.025,3711
2.03,3751
2.035,3769
2.04,3769
2.045,3769
2.05,3773
2.055,3774
2.06,3759
2.065,3751
2.07,3728
2.075,3738
2.08,3761
2.085,3768
2.09,3769
2.095,3772
2.1,3773
2.105,3767
2.11,3756
2.115,3746
2.12,3728
2.125,3751
2.13,3768
2.135,3771
2.14,3771
2.145,3773
2.15,3772
2.155,3762
2.16,3754
2.165,3729
2.17,3731
2.175,3760
2.18,3769
2.185,3767
2.19,3755
2.195,3748
2.2,3731
2.205,3753
2.21,3768
2.215,3770
2.22,3756
2.225,3748
2.23,3727
2.235,3741
2.24,3762
2.245,3769
2.25,3762
2.255,3755
2.26,3735
2.265,3717
2.27,3714
2.275,3716
2.28,3713
2.285,3749
2.29,3764
2.295,3771
2.3,3757
2.305,3751
2.31,3732
2.315,3718
2.32,3719
2.325,3719
2.33,3730
2.335,3763
2.34,3772
2.345,3767
2.35,3771
2.355,3776
2.36,3769
2.365,3769
2.37,3776
2.375,3775
2.38,3758
2.385,3752
2.39,3742
2.395,3723
2.4,3720
2.405,3716
2.41,3731
2.415,3759
2.42,3771
2.425,3778
2.43,3811
2.435,3827
2.44,3826
2.445,3813
2.45,3798
2.455,3781
2.46,3774
2.465,3773
2.47,3773
2.475,3773
2.48,3773
2.485,3772
2.49,3763
2.495,3755
2.5,3735
2.505,3731
2.51,3759
2.515,3771
2.52,3767
2.525,3754
2.53,3738
2.535,3722
2.54,3750
2.545,3765
2.55,3770
2.555,3769
2.56,3773
2.565,3770
2.57,3763
2.575,3753
2.58,3736
2.585,3720
2.59,3716
2.595,3717
2.6,3712
2.605,3711
2.61,3714
2.615,3714
2.62,3748
2.625,3765
2.63,3769
2.635,3757
2.64,3751
2.645,3729
2.6501,3742
2.6551,3763
2.6601,3770
2.6651,3767
2.6701,3774
2.6751,3775
2.6801,3770
2.6851,3771
2.6901,3776
2.6951,3772
2.7001,3756
2.7051,3752
2.7101,3727
2.7151,3751
2.7201,3769
2.7251,3773
2.7301,3770
2.7351,3778
2.7401,3775
2.7451,3763
2.7501,3754
2.7551,3735
2.7601,3729
2.7651,3756
2.7701,3770
2.7751,3771
2.7801,3769
2.7851,3774
2.7901,3772
2.7951,3771
2.8001,3776
2.8051,3774
2.8101,3771
2.8151,3774
2.8201,3775
2.8251,3761
2.8301,3753
2.8351,3735
2.8401,3731
2.8451,3756
2.8501,3768
2.8551,3770
2.8601,3770
2.8651,3773
2.8701,3771
2.8751,3774
2.8801,3774
2.8851,3770
2.8901,3758
2.8951,3752
2.9001,3740
2.9051,3719
2.9101,3716
2.9151,3719
2.9201,3726
2.9251,3756
2.9301,3767
2.9351,3769
2.9401,3771
2.9451,3771
2.9501,3770
2.9551,3773
2.9601,3774
2.9651,3772
2.9701,3772
2.9751,3775
2.9801,3774
2.9851,3761
2.9901,3751
2.9951,3731
3.0001,3718
3.0051,3715
3.0101,3714
3.0151,3720
3.0201,3753
3.0251,3765
3.0301,3768
3.0351,3771
3.0401,3775
3.0451,3772
3.0501,3768
3.0551,3775
3.0601,3775
3.0651,3770
3.0701,3775
3.0751,3777
3.0801,3766
3.0851,3755
3.0901,3742
3.0951,3729
3.1001,3757
3.1051,3772
3.1101,3769
3.1151,3756
3.1201,3749
3.1251,3724
3.1301,3746
3.1351,3768
3.1401,3771
3.1451,3767
3.1501,3773
3.1551,3776
3.1601,3770
3.1651,3774
3.1701,3774
3.1751,3772
3.1801,3774
3.1851,3775
3.1901,3771
3.1951,3772
3.2001,3776
3.2051,3769
3.2101,3770
3.2151,3775
3.2201,3774
3.2251,3770
3.2301,3774
3.2351,3775
3.2401,3762
3.2451,3752
3.2501,3733
3.2551,3718
3.2601,3716
3.2651,3715
3.2701,3715
3.2751,3752
3.2801,3766
3.2851,3766
3.2901,3769
3.2951,3776
3.3001,3773
3.3051,3768
3.3101,3772
3.3151,3776
3.3201,3762
3.3251,3752
3.3301,3731
3.3351,3718
3.3401,3716
3.3451,3715
3.3501,3717
3.3551,3753
3.3601,3768
3.3651,3769
3.3701,3770
3.3751,3774
3.3801,3772
3.3851,3757
3.3901,3745
3.3951,3728
3.4001,3716
3.4051,3716
3.4101,3714
3.4151,3713
3.4201,3712
3.4251,3714
3.4301,3718
3.4351,3754
3.4401,3768
3.4451,3768
3.4501,3755
3.4551,3753
3.4601,3728
3.4651,3747
3.4701,3769
3.4751,3776
3.4801,3770
3.4851,3776
3.4901,3777
3.4951,3770
3.5001,3775
3.5051,3775
3.5101,3769
3.5151,3773
3.5201,3776
3.5251,3769
3.5301,3771
3.5351,3776
3.5401,3773
3.5451,3771
3.5501,3776
