0,7334,209.61,0.17453,0.02997,255
0.004988,7335,181.76,0.17453,0.029926,255
0.009989,7335,157.63,0.17453,0.029926,255
0.014988,7335,136.77,0.17453,0.029926,32511
0.019987,7342,119.19,0.17453,0.029615,32511
0.024988,7344,103.68,0.17453,0.029527,25855
0.029995,7339,89.825,0.17453,0.029748,25855
0.034987,7338,78.105,0.17453,0.029793,25855
0.039992,7362,69.578,0.17453,0.028733,-24577
0.044988,7363,60.737,0.17453,0.028689,-24577
0.049988,7336,51.303,0.17453,0.029881,-24577
0.054987,7336,44.874,0.17453,0.029881,32511
0.059989,7344,39.83,0.17453,0.029527,32511
0.064988,7346,35.086,0.17453,0.029438,32511
0.069988,7340,30.472,0.17453,0.029704,27647
0.074989,7337,26.674,0.17453,0.029837,27647
0.080014,7336,23.519,0.17453,0.029881,27647
0.084993,7334,20.727,0.17453,0.02997,-6913
0.08999,7335,18.505,0.17453,0.029926,-6913
0.094988,7336,16.584,0.17453,0.029881,-6913
0.099989,7344,15.373,0.17453,0.029527,32511
0.10499,7345,13.876,0.17453,0.029483,32511
0.10999,7339,12.132,0.17453,0.029748,20991
0.11499,7338,10.944,0.17453,0.029793,20991
0.11999,7336,9.8516,0.17453,0.029881,20991
0.12499,7335,8.9703,0.17453,0.029926,-24577
0.12999,7359,9.8101,0.17453,0.028865,-24577
0.13499,7337,7.5904,0.17453,0.029837,-24577
0.13999,7345,7.591,0.17453,0.029483,28671
0.14499,7345,7.0778,0.17453,0.029483,28671
0.14999,7340,6.3122,0.17453,0.029704,28671
0.15499,7336,5.7125,0.17453,0.029881,29951
0.15999,7337,5.5138,0.17453,0.029837,15871
0.16499,7336,5.2125,0.17453,0.029881,15871
0.16999,7334,4.8864,0.17453,0.02997,15871
0.17499,7336,4.8606,0.17453,0.029881,15871
0.18002,7344,5.2227,0.17453,0.029527,15871
0.18499,7343,4.9578,0.17453,0.029571,15871
0.18999,7340,4.599,0.17453,0.029704,16127
0.19499,7337,4.2872,0.17453,0.029837,16127
0.19999,7335,4.0803,0.17453,0.029926,15871
0.20499,7336,4.093,0.17453,0.029881,15871
0.20999,7334,3.91,0.17453,0.02997,15871
0.21499,7338,4.1364,0.17453,0.029793,15871
0.22,7375,6.4391,0.17453,0.028162,15871
0.22499,7369,5.6878,0.17453,0.028425,15871
0.22999,7365,5.1633,0.17453,0.028601,16127
0.23499,7337,3.1703,0.17453,0.029837,16127
0.23999,7336,3.1705,0.17453,0.029881,16127
0.24499,7338,3.3623,0.17453,0.029793,15871
0.24999,7336,3.2701,0.17453,0.029881,15871
0.25499,7335,3.2533,0.17453,0.029926,15871
0.25999,7345,3.9443,0.17453,0.029483,15871
0.265,7342,3.7071,0.17453,0.029615,15871
0.26999,7337,3.3717,0.17453,0.029837,15871
0.27499,7339,3.5299,0.17453,0.029748,15871
0.28002,7335,3.28,0.17453,0.029926,15871
0.28499,7336,3.3838,0.17453,0.029881,15871
0.28999,7333,3.2153,0.17453,0.030014,15871
0.29499,7340,3.7113,0.17453,0.029704,15871
0.29999,7345,4.0109,0.17453,0.029483,15871
0.30499,7342,3.756,0.17453,0.029615,15871
0.31,7338,3.4698,0.17453,0.029793,15871
0.31499,7364,5.1422,0.17453,0.028645,15871
0.31999,7362,4.7987,0.17453,0.028733,15871
0.32499,7337,3.0267,0.17453,0.029837,15871
0.33,7335,2.9627,0.17453,0.029926,15871
0.33499,7340,3.3561,0.17453,0.029704,15871
0.33999,7347,3.8237,0.17453,0.029394,15871
0.34499,7341,3.3937,0.17453,0.02966,15871
0.34999,7338,3.2122,0.17453,0.029793,15871
0.355,7335,3.0537,0.17453,0.029926,15871
0.36,7335,3.1081,0.17453,0.029926,15871
0.365,7335,3.154,0.17453,0.029926,15871
0.37,7333,3.064,0.17453,0.030014,15871
0.37499,7341,3.628,0.17453,0.02966,16127
0.38002,7345,3.858,0.17453,0.029483,16127
0.385,7341,3.543,0.17453,0.02966,16127
0.39,7337,3.2687,0.17453,0.029837,15871
0.39499,7335,3.1583,0.17453,0.029926,15871
0.4,7336,3.2546,0.17453,0.029881,15871
0.40499,7361,4.8745,0.17453,0.028777,15871
0.41,7335,3.0095,0.17453,0.029926,15871
0.415,7342,3.5086,0.17453,0.029615,15871
0.42,7347,3.8108,0.17453,0.029394,15871
0.425,7342,3.4303,0.17453,0.029615,15871
0.43,7338,3.1634,0.17453,0.029793,16127
0.435,7336,3.0595,0.17453,0.029881,16127
0.44,7335,3.0326,0.17453,0.029926,16127
0.445,7337,3.2011,0.17453,0.029837,15871
0.45,7336,3.1532,0.17453,0.029881,15871
0.455,7341,3.4963,0.17453,0.02966,15871
0.46,7346,3.7921,0.17453,0.029438,15871
0.465,7340,3.3417,0.17453,0.029704,15871
0.47,7338,3.2069,0.17453,0.029793,15871
0.475,7336,3.0891,0.17453,0.029881,16127
0.48002,7336,3.1146,0.17453,0.029881,16127
0.485,7336,3.1356,0.17453,0.029881,16127
0.49,7334,3.0241,0.17453,0.02997,16127
0.495,7345,3.7619,0.17453,0.029483,16127
0.5,7372,5.4181,0.17453,0.028293,16127
0.505,7359,4.3,0.17453,0.028865,16127
0.51,7336,2.6848,0.17453,0.029881,16127
0.515,7335,2.694,0.17453,0.029926,16127
0.52,7335,2.7651,0.17453,0.029926,16127
0.525,7336,2.8899,0.17453,0.029881,16127
0.53,7336,2.9327,0.17453,0.029881,15871
0.535,7342,3.3543,0.17453,0.029615,15871
0.54,7343,3.3972,0.17453,0.029571,15871
0.545,7341,3.241,0.17453,0.02966,17151
0.55,7337,2.976,0.17453,0.029837,17151
0.555,7336,2.9381,0.17453,0.029881,17151
0.56,7335,2.9042,0.17453,0.029926,16127
0.565,7334,2.8738,0.17453,0.02997,16127
0.57,7337,3.1038,0.17453,0.029837,16127
0.575,7344,3.5588,0.17453,0.029527,11007
0.58002,7343,3.4383,0.17453,0.029571,11007
0.585,7349,3.7821,0.17453,0.029306,14847
0.59,7362,4.5256,0.17453,0.028733,14847
0.595,7362,4.3382,0.17453,0.028733,14847
0.6,7336,2.5097,0.17453,0.029881,21503
0.60501,7336,2.5898,0.17453,0.029881,21503
0.61,7338,2.7868,0.17453,0.029793,21503
0.615,7344,3.2131,0.17453,0.029527,14335
0.62,7345,3.2605,0.17453,0.029483,14335
0.62501,7340,2.9155,0.17453,0.029704,14335
0.63,7338,2.808,0.17453,0.029793,24319
0.635,7335,2.6495,0.17453,0.029926,24319
0.64,7337,2.8327,0.17453,0.029837,24319
0.645,7335,2.7331,0.17453,0.029926,7679
0.65,7337,2.9031,0.17453,0.029837,7679
0.655,7345,3.4346,0.17453,0.029483,7679
0.66,7343,3.2522,0.17453,0.029571,12031
0.665,7339,2.9647,0.17453,0.029748,12031
0.67,7336,2.7787,0.17453,0.029881,22271
0.675,7345,3.3876,0.17453,0.029483,22271
0.68,7361,4.3601,0.17453,0.028777,22271
0.685,7360,4.1146,0.17453,0.028821,10495
0.69,7339,2.6202,0.17453,0.029748,10495
0.695,7345,3.0546,0.17453,0.029483,10495
0.7,7343,2.9166,0.17453,0.029571,22527
0.705,7341,2.796,0.17453,0.02966,22527
0.71,7336,2.4975,0.17453,0.029881,22527
0.715,7336,2.5593,0.17453,0.029881,17919
0.72,7337,2.6761,0.17453,0.029837,17919
0.725,7336,2.6477,0.17453,0.029881,17919
0.73,7353,3.7771,0.17453,0.029129,15359
0.735,7346,3.216,0.17453,0.029438,15359
0.74,7341,2.8566,0.17453,0.02966,15359
0.745,7339,2.7366,0.17453,0.029748,13567
0.75001,7336,2.5674,0.17453,0.029881,13567
0.755,7336,2.6126,0.17453,0.029881,13567
0.76,7335,2.5865,0.17453,0.029926,7423
0.765,7351,3.6542,0.17453,0.029217,7423
0.77,7340,2.8463,0.17453,0.029704,20991
0.775,7371,4.8327,0.17453,0.028337,20991
0.78,7344,2.8468,0.17453,0.029527,20991
0.78501,7337,2.4006,0.17453,0.029837,19967
0.79,7337,2.4625,0.17453,0.029837,19967
0.795,7336,2.4509,0.17453,0.029881,19967
0.8,7337,2.5685,0.17453,0.029837,11519
0.805,7335,2.4764,0.17453,0.029926,11519
0.81001,7341,2.9101,0.17453,0.02966,11519
0.815,7344,3.0919,0.17453,0.029527,19455
0.82,7343,2.9919,0.17453,0.029571,19455
0.82501,7336,2.5188,0.17453,0.029881,19455
0.83,7335,2.4934,0.17453,0.029926,15615
0.83501,7338,2.7277,0.17453,0.029793,15615
0.84001,7334,2.4796,0.17453,0.02997,15615
0.84501,7335,2.5854,0.17453,0.029926,10495
0.85001,7343,3.1259,0.17453,0.029571,10495
0.85501,7345,3.2077,0.17453,0.029483,24575
0.86001,7373,4.9377,0.17453,0.028249,24575
0.86501,7364,4.0755,0.17453,0.028645,24575
0.87001,7337,2.1722,0.17453,0.029837,16383
0.87501,7334,2.0578,0.17453,0.02997,16383
0.88001,7335,2.215,0.17453,0.029926,16383
0.88501,7336,2.3502,0.17453,0.029881,12031
0.89001,7344,2.916,0.17453,0.029527,12031
0.89501,7346,3.0198,0.17453,0.029438,12031
0.90001,7340,2.5956,0.17453,0.029704,15615
0.90501,7337,2.4195,0.17453,0.029837,15615
0.91001,7331,2.0726,0.17453,0.030103,15615
0.91501,7334,2.3504,0.17453,0.02997,15359
0.92001,7335,2.4613,0.17453,0.029926,15359
0.92501,7334,2.4278,0.17453,0.02997,15359
0.93001,7343,3.0408,0.17453,0.029571,15615
0.93501,7344,3.0569,0.17453,0.029527,15615
0.94001,7342,2.8776,0.17453,0.029615,18943
0.94501,7338,2.5929,0.17453,0.029793,18943
0.95001,7369,4.5855,0.17453,0.028425,18943
0.95501,7362,3.8827,0.17453,0.028733,15871
0.96001,7337,2.1181,0.17453,0.029837,15871
0.96501,7335,2.0608,0.17453,0.029926,15871
0.97001,7343,2.653,0.17453,0.029571,10495
0.97501,7346,2.8436,0.17453,0.029438,10495
0.98001,7341,2.4948,0.17453,0.02966,10495
0.98501,7339,2.384,0.17453,0.029748,16895
0.99001,7336,2.2228,0.17453,0.029881,16895
0.99501,7335,2.2107,0.17453,0.029926,16895
1,7335,2.2636,0.17453,0.029926,16639
1.005,7338,2.5016,0.17453,0.029793,16639
1.01,7345,2.9635,0.17453,0.029483,16639
1.015,7343,2.7852,0.17453,0.029571,16127
1.02,7341,2.63,0.17453,0.02966,16127
1.025,7336,2.3017,0.17453,0.029881,16127
1.03,7335,2.2734,0.17453,0.029926,19199
1.035,7337,2.4411,0.17453,0.029837,19199
1.04,7367,4.377,0.17453,0.028513,16127
1.045,7337,2.2141,0.17453,0.029837,16127
1.05,7343,2.6446,0.17453,0.029571,16127
1.055,7344,2.6957,0.17453,0.029527,13567
1.06,7339,2.3539,0.17453,0.029748,13567
1.065,7340,2.4423,0.17453,0.029704,13567
1.07,7338,2.3253,0.17453,0.029793,16383
1.075,7337,2.2873,0.17453,0.029837,16383
1.08,7333,2.0605,0.17453,0.030014,16383
1.085,7337,2.3778,0.17453,0.029837,17151
1.09,7346,2.9725,0.17453,0.029438,17151
1.095,7340,2.5242,0.17453,0.029704,17151
1.1,7339,2.4558,0.17453,0.029748,13823
1.105,7339,2.4601,0.17453,0.029748,13823
1.11,7336,2.2701,0.17453,0.029881,13823
1.115,7336,2.2976,0.17453,0.029881,16383
1.12,7336,2.3206,0.17453,0.029881,16383
1.125,7332,2.0823,0.17453,0.030059,15871
1.13,7307,0.51565,0.17453,0.031174,15871
1.135,7313,1.1627,0.17453,0.030905,15871
1.14,7313,1.333,0.17453,0.030905,13567
1.145,7283,-0.47403,0.17453,0.032253,13567
1.15,7279,-0.34993,0.17453,0.032433,13567
1.155,7279,0.017806,0.17453,0.032433,16383
1.16,7281,0.46588,0.17453,0.032343,16383
1.165,7284,0.91809,0.17453,0.032208,16383
1.17,7289,1.4392,0.17453,0.031982,16639
1.175,7285,1.3015,0.17453,0.032162,16639
1.18,7281,1.1807,0.17453,0.032343,16639
1.185,7280,1.2713,0.17453,0.032388,15615
1.19,7279,1.3486,0.17453,0.032433,15615
1.195,7278,1.4145,0.17453,0.032478,15615
1.2,7280,1.6672,0.17453,0.032388,16639
1.205,7366,7.3098,0.17453,0.028557,16639
1.21,7536,17.192,0.17453,0.021283,17663
1.215,7594,18.684,0.17453,0.018888,17663
1.22,7613,17.633,0.17453,0.018113,17663
1.225,7644,17.423,0.17453,0.016857,15103
1.23,7647,15.601,0.17453,0.016737,15103
1.235,7623,12.445,0.17453,0.017706,15103
1.24,7622,11.06,0.17453,0.017747,15615
1.245,7691,13.937,0.17453,0.014977,15615
1.25,7797,18.426,0.17453,0.010833,15615
1.255,7829,18.088,0.17453,0.009608,16383
1.26,7839,16.574,0.17453,0.009227,16383
1.265,7841,14.826,0.17453,0.009151,16383
1.27,7839,13.093,0.17453,0.009227,15615
1.275,7841,11.816,0.17453,0.009151,15615
1.28,7841,10.601,0.17453,0.009151,15615
1.285,7814,8.0572,0.17453,0.010181,16383
1.29,7770,4.8886,0.17453,0.011876,16383
1.295,7747,3.3032,0.17453,0.012771,16383
1.3,7738,2.7166,0.17453,0.013123,16639
1.305,7736,2.6042,0.17453,0.013202,16639
1.31,7732,2.3922,0.17453,0.013358,13567
1.315,7756,3.7953,0.17453,0.01242,13567
1.32,7733,2.3468,0.17453,0.013319,13567
1.325,7678,-0.75992,0.17453,0.015494,13567
1.33,7593,-5.2795,0.17453,0.018929,13567
1.335,7547,-6.9691,0.17453,0.020825,13567
1.34,7529,-6.7742,0.17453,0.021575,17151
1.345,7520,-6.0683,0.17453,0.021951,17151
1.35,7516,-5.1577,0.17453,0.022119,17151
1.355,7512,-4.3725,0.17453,0.022286,15871
1.36,7513,-3.3911,0.17453,0.022244,15871
1.365,7446,-6.7237,0.17453,0.025085,15871
1.37,7363,-10.721,0.17453,0.028689,14591
1.375,7314,-12.114,0.17453,0.030861,14591
1.38,7293,-11.543,0.17453,0.031802,14591
1.385,7285,-10.211,0.17453,0.032162,25855
1.39,7281,-8.8007,0.17453,0.032343,25855
1.395,7280,-7.3872,0.17453,0.032388,11007
1.4,7281,-6.0355,0.17453,0.032343,11007
1.405,7215,-9.3007,0.17453,0.035355,11007
1.41,7188,-9.5808,0.17453,0.036606,11775
1.415,7159,-9.9805,0.17453,0.037962,11775
1.42,7122,-10.901,0.17453,0.03971,11775
1.425,7116,-9.5826,0.17453,0.039996,19455
1.43,7114,-8.1689,0.17453,0.040091,19455
1.435,7114,-6.8099,0.17453,0.040091,19455
1.44,7114,-5.636,0.17453,0.040091,12031
1.445,7091,-6.2179,0.17453,0.041192,12031
1.45,7076,-6.1769,0.17453,0.041914,12031
1.455,7063,-6.0094,0.17453,0.042543,19455
1.46,7060,-5.1666,0.17453,0.042688,19455
1.465,7059,-4.2988,0.17453,0.042737,19455
1.47,7057,-3.62,0.17453,0.042834,19967
1.475,7055,-3.0343,0.17453,0.042931,19967
1.48,7059,-2.1064,0.17453,0.042737,19967
1.485,7199,8.0447,0.17453,0.036095,9471
1.49,7253,10.81,0.17453,0.033613,9471
1.495,7270,10.73,0.17453,0.032841,16383
1.5,7302,11.635,0.17453,0.031398,16383
1.505,7304,10.46,0.17453,0.031308,16383
1.51,7270,7.093,0.17453,0.032841,18431
1.515,7279,6.9888,0.17453,0.032433,18431
1.52,7281,6.4401,0.17453,0.032343,18431
1.525,7436,15.736,0.17453,0.025514,10751
1.53,7488,17.108,0.17453,0.023297,10751
1.535,7504,16.066,0.17453,0.022623,10751
1.54,7511,14.615,0.17453,0.022328,18943
1.545,7514,13.118,0.17453,0.022202,18943
1.55,7515,11.702,0.17453,0.02216,18943
1.555,7515,10.417,0.17453,0.02216,18943
1.56,7518,9.4877,0.17453,0.022035,18943
1.565,7525,8.9271,0.17453,0.021742,18943
1.57,7522,7.8364,0.17453,0.021867,11263
1.575,7519,6.8925,0.17453,0.021993,11263
1.58,7516,6.0754,0.17453,0.022119,19455
1.585,7513,5.368,0.17453,0.022244,19455
1.59,7539,6.5135,0.17453,0.021158,19455
1.595,7541,6.052,0.17453,0.021075,18431
1.6,7494,2.6766,0.17453,0.023044,18431
1.605,7360,-5.7691,0.17453,0.028821,18431
1.61,7241,-12.458,0.17453,0.034161,12287
1.615,7151,-16.572,0.17453,0.038338,12287
1.62,7097,-17.808,0.17453,0.040904,12287
1.625,7071,-16.982,0.17453,0.042155,16639
1.63,7062,-15.089,0.17453,0.042591,16639
1.635,7059,-13.035,0.17453,0.042737,16639
1.64,7034,-12.816,0.17453,0.043955,18175
1.645,6964,-15.892,0.17453,0.047422,18175
1.65,6921,-16.685,0.17453,0.049592,18175
1.655,6901,-15.71,0.17453,0.050612,11007
1.66,6895,-13.839,0.17453,0.05092,11007
1.665,6895,-11.778,0.17453,0.05092,17663
1.67,6891,-10.295,0.17453,0.051125,17663
1.675,6889,-8.8652,0.17453,0.051228,17663
1.68,6928,-4.5947,0.17453,0.049237,19711
1.685,7010,2.1639,0.17453,0.045135,19711
1.69,7015,2.4294,0.17453,0.044888,19711
1.695,7001,1.2998,0.17453,0.045579,11263
1.7,7001,1.3227,0.17453,0.045579,11263
1.705,7001,1.342,0.17453,0.045579,11263
1.71,7001,1.3583,0.17453,0.045579,16383
1.715,7001,1.372,0.17453,0.045579,16383
1.72,7211,15.941,0.17453,0.03554,16383
1.725,7479,31.21,0.17453,0.023679,18175
1.73,7571,32.829,0.17453,0.019832,18175
1.735,7605,30.686,0.17453,0.018439,18175
1.74,7618,27.585,0.17453,0.017909,13311
1.745,7619,24.198,0.17453,0.017869,13311
1.75,7620,21.27,0.17453,0.017828,13311
1.755,7621,18.74,0.17453,0.017788,15871
1.76,7670,19.355,0.17453,0.015814,15871
1.765,7718,19.794,0.17453,0.013909,19199
1.77,7729,18.046,0.17453,0.013476,19199
1.775,7758,17.552,0.17453,0.012342,19199
1.78,7759,15.541,0.17453,0.012303,14591
1.785,7734,12.331,0.17453,0.01328,14591
1.79,7732,10.854,0.17453,0.013358,14591
1.795,7733,9.7471,0.17453,0.013319,15103
1.8,7652,4.0696,0.17453,0.016536,15103
1.805,7514,-4.4031,0.17453,0.022202,15103
1.81,7385,-11.537,0.17453,0.027724,18175
1.815,7270,-17.136,0.17453,0.032841,18175
1.82,7188,-20.036,0.17453,0.036606,18175
1.825,7142,-20.223,0.17453,0.038762,14591
1.83,7123,-18.573,0.17453,0.039663,14591
1.835,7117,-16.259,0.17453,0.039948,14591
1.84,7054,-18.243,0.17453,0.04298,14335
1.845,6999,-19.487,0.17453,0.045678,14335
1.85,6967,-18.969,0.17453,0.047272,18175
1.855,6952,-17.309,0.17453,0.048024,18175
1.86,6950,-14.933,0.17453,0.048125,18175
1.865,6976,-10.844,0.17453,0.046822,15871
1.87,6974,-9.3409,0.17453,0.046922,15871
1.875,6946,-9.9345,0.17453,0.048327,15871
1.88,6924,-10.03,0.17453,0.04944,13567
1.885,6907,-9.7591,0.17453,0.050305,13567
1.89,6897,-9.0147,0.17453,0.050817,13567
1.895,6894,-7.855,0.17453,0.050971,17663
1.9,6894,-6.6305,0.17453,0.050971,17663
1.905,6890,-5.8705,0.17453,0.051176,17663
1.91,6889,-4.9916,0.17453,0.051228,15871
1.915,6894,-3.7857,0.17453,0.050971,15871
1.92,7311,25.85,0.17453,0.030995,15871
1.925,7510,35.077,0.17453,0.02237,14591
1.93,7582,34.914,0.17453,0.01938,14591
1.935,7610,32.109,0.17453,0.018235,17663
1.94,7619,28.558,0.17453,0.017869,17663
1.945,7620,25.018,0.17453,0.017828,17663
1.95,7621,21.959,0.17453,0.017788,15615
1.955,7625,19.491,0.17453,0.017625,15615
1.96,7799,27.083,0.17453,0.010756,15615
1.965,7887,28.552,0.17453,0.007417,14335
1.97,7888,25.045,0.17453,0.007379,14335
1.975,7893,22.231,0.17453,0.007192,14335
1.98,7897,19.744,0.17453,0.007043,17407
1.985,7897,17.378,0.17453,0.007043,17407
1.99,7897,15.333,0.17453,0.007043,17407
1.995,7897,13.565,0.17453,0.007043,17151
2,7760,4.4643,0.17453,0.012264,17151
2.005,7636,-2.9772,0.17453,0.01718,17151
2.01,7530,-8.6108,0.17453,0.021533,14847
2.015,7460,-11.468,0.17453,0.024487,14847
2.02,7427,-11.719,0.17453,0.025902,14847
2.025,7413,-10.766,0.17453,0.026507,16127
2.03,7407,-9.4451,0.17453,0.026767,16127
2.035,7389,-9.0637,0.17453,0.02755,16127
2.04,7251,-16.526,0.17453,0.033704,16127
2.045,7122,-22.784,0.17453,0.03971,16127
2.05,7030,-25.946,0.17453,0.044151,15359
2.055,6943,-28.53,0.17453,0.048478,15359
2.06,6870,-29.914,0.17453,0.052207,15359
2.065,6847,-27.449,0.17453,0.053402,16383
2.07,6839,-24.197,0.17453,0.053819,16383
2.075,6850,-19.951,0.17453,0.053245,16383
2.08,6886,-14.409,0.17453,0.051382,16127
2.085,6889,-12.092,0.17453,0.051228,16127
2.09,6891,-10.164,0.17453,0.051125,16127
2.095,6891,-8.6463,0.17453,0.051125,15359
2.1,6891,-7.3351,0.17453,0.051125,15359
2.105,6891,-6.2023,0.17453,0.051125,15359
2.11,6889,-5.3726,0.17453,0.051228,16127
2.115,7042,6.6047,0.17453,0.043564,16127
2.12,7349,26.547,0.17453,0.029306,16383
2.125,7454,29.777,0.17453,0.024743,16383
2.13,7494,28.432,0.17453,0.023044,16383
2.135,7506,25.545,0.17453,0.022538,16127
2.14,7541,24.442,0.17453,0.021075,16127
2.145,7537,21.129,0.17453,0.021241,16127
2.15,7514,17.112,0.17453,0.022202,16127
2.155,7569,18.348,0.17453,0.019915,16127
2.16,7645,20.598,0.17453,0.016817,16127
2.165,7668,19.401,0.17453,0.015894,16127
2.17,7675,17.437,0.17453,0.015614,16127
2.175,7670,15.044,0.17453,0.015814,16127
2.18,7676,13.613,0.17453,0.015574,16127
2.185,7676,12.028,0.17453,0.015574,16127
2.19,7677,10.716,0.17453,0.015534,16127
2.195,7614,5.844,0.17453,0.018072,15871
2.2,7477,-2.9494,0.17453,0.023763,15871
2.205,7347,-10.483,0.17453,0.029394,16127
2.21,7229,-16.56,0.17453,0.034711,16127
2.215,7140,-20.135,0.17453,0.038857,16127
2.22,7093,-20.475,0.17453,0.041095,15871
2.225,7069,-19.209,0.17453,0.042252,15871
2.23,7060,-17.075,0.17453,0.042688,15871
2.235,6986,-19.871,0.17453,0.046324,15359
2.24,6871,-25.487,0.17453,0.052156,15359
2.245,6771,-29.534,0.17453,0.057415,15359
2.25,6713,-29.969,0.17453,0.06055,15615
2.2551,6685,-28.04,0.17453,0.062086,15615
2.26,6676,-24.872,0.17453,0.062583,15615
2.265,6669,-21.977,0.17453,0.062971,15615
2.27,6668,-18.996,0.17453,0.063027,15615
2.275,6728,-11.565,0.17453,0.059734,15615
2.28,6766,-6.9319,0.17453,0.057683,15615
2.285,6773,-5.3502,0.17453,0.057309,15615
2.29,6778,-4.1381,0.17453,0.057041,16127
2.295,6778,-3.4772,0.17453,0.057041,16127
2.3,6780,-2.7514,0.17453,0.056935,16127
2.305,6775,-2.6659,0.17453,0.057202,16383
2.31,6779,-1.8964,0.17453,0.056988,16383
2.315,7070,19.897,0.17453,0.042204,16383
2.32,7263,30.465,0.17453,0.033158,16127
2.325,7328,30.753,0.17453,0.030237,16127
2.33,7351,28.254,0.17453,0.029217,16127
2.335,7332,23.399,0.17453,0.030059,15871
2.34,7335,20.614,0.17453,0.029926,15871
2.345,7336,18.078,0.17453,0.029881,15871
2.35,7336,15.822,0.17453,0.029881,15871
2.355,7381,16.745,0.17453,0.027899,15871
2.36,7405,16.193,0.17453,0.026853,15871
2.365,7405,14.203,0.17453,0.026853,15871
2.37,7403,12.357,0.17453,0.02694,15871
2.375,7404,10.949,0.17453,0.026897,15871
2.38,7405,9.7324,0.17453,0.026853,15871
2.385,7403,8.4917,0.17453,0.02694,15871
2.39,7400,7.3557,0.17453,0.027071,16127
2.395,7279,-1.2139,0.17453,0.032433,16127
2.4,7147,-9.6996,0.17453,0.038526,16127
2.405,7027,-16.591,0.17453,0.044298,16127
2.41,6933,-20.993,0.17453,0.048983,16127
2.415,6901,-20.384,0.17453,0.050612,16127
2.42,6876,-19.365,0.17453,0.051897,15871
2.425,6839,-19.414,0.17453,0.053819,15871
2.43,6836,-16.904,0.17453,0.053976,15871
2.435,6722,-23.329,0.17453,0.06006,15615
2.44,6639,-26.73,0.17453,0.064643,15615
2.445,6591,-26.973,0.17453,0.067355,15615
2.45,6567,-25.253,0.17453,0.068729,15871
2.455,6562,-22.197,0.17453,0.069017,15871
2.46,6559,-19.391,0.17453,0.069189,15871
2.465,6556,-16.967,0.17453,0.069362,15871
2.47,6558,-14.455,0.17453,0.069247,15871
2.475,6565,-11.866,0.17453,0.068844,15871
2.48,6562,-10.462,0.17453,0.069017,15871
2.485,6559,-9.2497,0.17453,0.069189,15871
2.49,6556,-8.2031,0.17453,0.069362,16383
2.495,6556,-7.0485,0.17453,0.069362,16383
2.5,6556,-6.0508,0.17453,0.069362,16383
2.505,6583,-2.9405,0.17453,0.067812,16127
2.51,6627,1.123,0.17453,0.065317,16127
2.515,6872,20.185,0.17453,0.052104,16127
2.52,6958,23.902,0.17453,0.047723,15871
2.525,6985,22.735,0.17453,0.046373,15871
2.53,6998,20.711,0.17453,0.045728,15871
2.535,6999,18.099,0.17453,0.045678,16127
2.54,7000,15.843,0.17453,0.045629,16127
2.545,7001,13.892,0.17453,0.045579,16127
2.55,7090,18.427,0.17453,0.04124,15871
2.555,7297,30.015,0.17453,0.031622,15871
2.56,7367,30.629,0.17453,0.028513,15615
2.565,7390,28.123,0.17453,0.027506,15615
2.5701,7399,25.068,0.17453,0.027114,15615
2.575,7403,22.113,0.17453,0.02694,15871
2.58,7405,19.434,0.17453,0.026853,15871
2.585,7420,17.934,0.17453,0.026204,15871
2.59,7360,11.904,0.17453,0.028821,16127
2.595,7269,4.5814,0.17453,0.032886,16127
2.6,7156,-3.4319,0.17453,0.038103,16127
2.6051,7061,-9.3919,0.17453,0.04264,15615
2.61,7025,-10.529,0.17453,0.044396,15615
2.615,7010,-10.041,0.17453,0.045135,15615
2.62,7005,-8.9105,0.17453,0.045382,15871
2.625,7002,-7.7917,0.17453,0.04553,15871
2.63,6948,-10.519,0.17453,0.048226,15871
2.635,6834,-17.468,0.17453,0.054081,15871
2.6401,6751,-21.398,0.17453,0.058489,15871
2.645,6702,-22.28,0.17453,0.061152,15871
2.65,6683,-20.707,0.17453,0.062197,15615
2.655,6672,-18.718,0.17453,0.062805,15615
2.66,6669,-16.361,0.17453,0.062971,15871
2.665,6669,-14.083,0.17453,0.062971,15871
2.67,6673,-11.794,0.17453,0.062749,15871
2.675,6677,-9.8155,0.17453,0.062528,16127
2.68,6673,-8.7466,0.17453,0.062749,16127
2.685,6667,-7.985,0.17453,0.063082,16127
2.6901,6694,-4.6843,0.17453,0.061591,16127
2.695,6693,-4.0678,0.17453,0.061646,16127
2.7,6668,-5.4573,0.17453,0.063027,16127
2.705,6667,-4.7422,0.17453,0.063082,16383
2.71,6751,2.6152,0.17453,0.058489,16383
2.715,6810,6.8942,0.17453,0.055343,16383
2.72,6828,7.415,0.17453,0.054395,16383
2.725,6833,6.8748,0.17453,0.054133,16383
2.73,6832,5.9527,0.17453,0.054186,16383
2.735,6836,5.5351,0.17453,0.053976,15871
2.74,6835,4.7953,0.17453,0.054028,15871
2.745,6839,4.5348,0.17453,0.053819,15615
2.75,7085,21.899,0.17453,0.04148,15615
2.755,7250,30.268,0.17453,0.03375,15615
2.76,7306,29.992,0.17453,0.031219,15871
2.765,7322,27.129,0.17453,0.030504,15871
2.77,7331,24.201,0.17453,0.030103,15871
2.775,7335,21.348,0.17453,0.029926,15871
2.78,7360,20.228,0.17453,0.028821,15871
2.785,7335,16.059,0.17453,0.029926,15871
2.7901,7314,12.699,0.17453,0.030861,15871
2.795,7299,10.172,0.17453,0.031533,15871
2.8,7287,8.177,0.17453,0.032072,15871
2.805,7283,6.9715,0.17453,0.032253,15871
2.81,7281,6.0594,0.17453,0.032343,15871
2.815,7280,5.3358,0.17453,0.032388,15871
2.8201,7280,4.7754,0.17453,0.032388,15871
2.825,7280,4.2908,0.17453,0.032388,15871
2.83,7163,-3.9376,0.17453,0.037774,15871
2.8351,7035,-12.153,0.17453,0.043906,15615
2.84,6924,-18.407,0.17453,0.04944,15615
2.8451,6849,-21.403,0.17453,0.053297,15871
2.8501,6806,-21.686,0.17453,0.055554,15871
2.8551,6787,-20.128,0.17453,0.056562,15871
2.86,6782,-17.711,0.17453,0.056828,16127
2.8651,6781,-15.314,0.17453,0.056881,16127
2.87,6752,-15.42,0.17453,0.058435,16127
2.8751,6763,-12.406,0.17453,0.057844,16127
2.8801,6760,-10.89,0.17453,0.058005,16127
2.8851,6727,-11.932,0.17453,0.059788,16127
2.8901,6723,-10.57,0.17453,0.060005,16383
2.8951,6724,-8.9998,0.17453,0.059951,16383
2.9001,6722,-7.8793,0.17453,0.06006,16383
2.9051,6737,-5.5731,0.17453,0.059246,16383
2.9101,6767,-2.4148,0.17453,0.05763,16383
2.9151,6778,-1.1692,0.17453,0.057041,16383
2.9201,6781,-0.71167,0.17453,0.056881,15871
2.9251,6778,-0.77995,0.17453,0.057041,15871
2.9301,6777,-0.68505,0.17453,0.057095,15615
2.9351,6776,-0.6034,0.17453,0.057148,15615
2.9401,6778,-0.3009,0.17453,0.057041,15615
2.9451,6830,3.7949,0.17453,0.05429,15871
2.9501,7122,24.497,0.17453,0.03971,15871
2.9551,7224,28.218,0.17453,0.03494,15871
2.9601,7260,26.922,0.17453,0.033294,15871
2.9651,7299,25.976,0.17453,0.031533,15871
2.9701,7304,22.936,0.17453,0.031308,15871
2.9751,7279,18.352,0.17453,0.032433,15871
2.9801,7278,15.952,0.17453,0.032478,15871
2.9851,7320,16.677,0.17453,0.030593,15871
2.9901,7452,22.934,0.17453,0.024828,16127
2.9951,7494,22.593,0.17453,0.023044,16127
3.0001,7509,20.632,0.17453,0.022412,16127
3.0051,7512,18.207,0.17453,0.022286,16127
3.0101,7513,15.989,0.17453,0.022244,16127
3.0151,7512,13.95,0.17453,0.022286,15871
3.0201,7512,12.249,0.17453,0.022286,15871
3.0251,7479,8.7591,0.17453,0.023679,15871
3.0301,7351,-0.27499,0.17453,0.029217,16127
3.0351,7246,-6.909,0.17453,0.033932,16127
3.0401,7174,-10.647,0.17453,0.037259,16127
3.0451,7138,-11.522,0.17453,0.038951,15871
3.0501,7121,-10.999,0.17453,0.039758,15871
3.0551,7143,-7.87,0.17453,0.038715,15871
3.0601,7142,-6.7422,0.17453,0.038762,16127
3.0651,7063,-11.181,0.17453,0.042543,16127
3.0701,6933,-18.889,0.17453,0.048983,16127
3.0751,6823,-24.465,0.17453,0.054658,16127
3.0801,6742,-27.336,0.17453,0.058975,16127
3.0851,6698,-27.05,0.17453,0.061371,16127
3.0901,6680,-24.773,0.17453,0.062362,16127
3.0951,6673,-21.934,0.17453,0.062749,16127
3.1001,6669,-19.242,0.17453,0.062971,16127
3.1051,6653,-17.885,0.17453,0.063861,16127
3.1101,6636,-16.804,0.17453,0.064811,16127
3.1151,6623,-15.555,0.17453,0.065542,15871
3.1201,6614,-14.155,0.17453,0.06605,15871
3.1251,6614,-12.211,0.17453,0.06605,15871
3.1301,6612,-10.695,0.17453,0.066163,16127
3.1351,6612,-9.2212,0.17453,0.066163,16127
3.1401,6612,-7.9476,0.17453,0.066163,16127
3.1451,6828,10.216,0.17453,0.054395,15871
3.1501,7041,24.529,0.17453,0.043613,15871
3.1551,7103,25.651,0.17453,0.040616,15871
3.1601,7101,22.147,0.17453,0.040712,15871
3.1651,7110,19.881,0.17453,0.040282,15871
3.1701,7112,17.438,0.17453,0.040186,15871
3.1751,7112,15.189,0.17453,0.040186,16127
3.1801,7113,13.314,0.17453,0.040139,16127
3.1851,7254,21.153,0.17453,0.033567,16127
3.1901,7356,25.051,0.17453,0.028997,16127
3.1951,7388,23.845,0.17453,0.027593,16127
3.2001,7402,21.656,0.17453,0.026984,15871
3.2051,7403,18.945,0.17453,0.02694,15871
3.2101,7400,16.351,0.17453,0.027071,15871
3.2151,7404,14.548,0.17453,0.026897,15871
3.2201,7405,12.802,0.17453,0.026853,15871
3.2251,7315,5.4841,0.17453,0.030816,15871
3.2301,7205,-2.3611,0.17453,0.035817,15871
3.2351,7131,-6.9346,0.17453,0.039283,15871
3.2401,7113,-7.1159,0.17453,0.040139,15871
3.2451,7096,-7.2139,0.17453,0.040952,15871
3.2501,7061,-8.5709,0.17453,0.04264,15871
3.2551,7056,-7.6546,0.17453,0.042882,15871
3.2601,7059,-6.3006,0.17453,0.042737,16127
3.2651,6951,-13.082,0.17453,0.048075,16127
3.2701,6840,-19.476,0.17453,0.053767,16127
3.2751,6751,-23.617,0.17453,0.058489,16127
3.2801,6703,-24.148,0.17453,0.061097,16127
3.2851,6680,-22.67,0.17453,0.062362,16127
3.2901,6672,-20.205,0.17453,0.062805,16127
3.2951,6668,-17.756,0.17453,0.063027,16127
3.3001,6669,-15.239,0.17453,0.062971,15871
3.3051,6644,-15.162,0.17453,0.064363,15871
3.3101,6628,-14.384,0.17453,0.065261,15871
3.3151,6618,-13.231,0.17453,0.065824,15871
3.3201,6615,-11.665,0.17453,0.065993,15871
3.3251,6613,-10.23,0.17453,0.066107,15871
3.3301,6639,-6.7055,0.17453,0.064643,15615
3.3351,6638,-5.8568,0.17453,0.064699,15615
3.3401,6615,-6.9193,0.17453,0.065993,15615
3.3451,6795,8.327,0.17453,0.056137,15615
3.3501,6859,12.119,0.17453,0.052777,15615
3.3551,6879,12.038,0.17453,0.051742,15615
3.3601,6888,11.143,0.17453,0.051279,15871
3.3651,6885,9.4757,0.17453,0.051433,15871
3.3701,6889,8.5561,0.17453,0.051228,15871
3.3751,6891,7.6127,0.17453,0.051125,15871
3.3801,6918,8.65,0.17453,0.049745,15871
3.3851,7267,31.864,0.17453,0.032977,15871
3.3901,7392,35.734,0.17453,0.027419,15871
3.3951,7435,33.74,0.17453,0.025557,15871
3.4001,7451,30.319,0.17453,0.024871,15871
3.4051,7454,26.556,0.17453,0.024743,15871
3.4101,7459,23.428,0.17453,0.024529,15871
3.4151,7457,20.291,0.17453,0.024615,15871
3.4201,7446,17.022,0.17453,0.025085,15871
3.4251,7390,11.366,0.17453,0.027506,15871
3.4301,7342,6.92,0.17453,0.029615,16127
3.4351,7293,2.9573,0.17453,0.031802,16127
3.4401,7286,2.2378,0.17453,0.032117,16127
3.4451,7282,1.81,0.17453,0.032298,16127
3.4501,7278,1.4389,0.17453,0.032478,16127
3.4551,7279,1.4448,0.17453,0.032433,16127
3.4601,7247,-0.72311,0.17453,0.033887,16127
3.4651,7110,-9.7682,0.17453,0.040282,16127
3.4701,6981,-17.458,0.17453,0.046573,16127
3.4751,6870,-23.177,0.17453,0.052207,16127
3.4801,6793,-25.822,0.17453,0.056243,16127
3.4851,6751,-25.529,0.17453,0.058489,15871
3.4901,6733,-23.437,0.17453,0.059462,15871
3.4951,6724,-20.932,0.17453,0.059951,15871
3.5001,6714,-18.85,0.17453,0.060496,15871
3.5051,6691,-18.09,0.17453,0.061756,15871
3.5101,6712,-13.942,0.17453,0.060605,15871
3.5151,6699,-13.053,0.17453,0.061317,15615
3.5201,6697,-11.416,0.17453,0.061426,15615
3.5251,6671,-11.921,0.17453,0.06286,15615
3.5301,6669,-10.445,0.17453,0.062971,15871
3.5351,6666,-9.2497,0.17453,0.063137,15871
3.5401,6672,-7.4941,0.17453,0.062805,15871
3.5451,6678,-5.9767,0.17453,0.062473,15871
3.5501,6674,-5.4663,0.17453,0.062694,15871
3.5551,6670,-5.0265,0.17453,0.062916,15871
3.5601,6670,-4.326,0.17453,0.062916,15871
3.5651,6668,-3.8815,0.17453,0.063027,15871
3.5701,6669,-3.2567,0.17453,0.062971,15871
3.5751,6667,-2.9577,0.17453,0.063082,15871
3.5801,6866,12.929,0.17453,0.052414,15871
3.5851,7065,25.685,0.17453,0.042446,16127
3.5901,7130,26.81,0.17453,0.03933,16127
3.5951,7152,24.784,0.17453,0.038291,16127
3.6001,7165,22.415,0.17453,0.03768,16127
3.6051,7194,21.446,0.17453,0.036327,16127
3.6101,7168,16.893,0.17453,0.037539,16127
3.6151,7166,14.576,0.17453,0.037633,15871
3.6201,7322,23.046,0.17453,0.030504,15871
3.6251,7451,28.223,0.17453,0.024871,15871
3.6301,7492,27.078,0.17453,0.023128,15871
3.6351,7506,24.422,0.17453,0.022538,15871
3.6401,7511,21.579,0.17453,0.022328,15871
3.6451,7514,19,0.17453,0.022202,15871
3.6501,7513,16.528,0.17453,0.022244,15871
3.6551,7515,14.573,0.17453,0.02216,15615
3.6601,7425,7.2123,0.17453,0.025988,15615
3.6651,7301,-1.5233,0.17453,0.031443,15615
3.6701,7192,-8.4009,0.17453,0.03642,15871
3.6751,7119,-12.125,0.17453,0.039853,15871
3.6801,7086,-12.669,0.17453,0.041432,15871
3.6851,7064,-12.395,0.17453,0.042494,15871
3.6901,7059,-10.975,0.17453,0.042737,15871
3.6951,7059,-9.3962,0.17453,0.042737,15871
3.7001,6963,-14.899,0.17453,0.047472,15871
3.7051,6884,-18.624,0.17453,0.051485,15871
3.7101,6785,-23.557,0.17453,0.056668,15871
3.7151,6747,-23.277,0.17453,0.058705,15871
3.7201,6731,-21.345,0.17453,0.059571,15871
3.7251,6726,-18.817,0.17453,0.059842,15871
3.7301,6724,-16.397,0.17453,0.059951,15615
3.7351,6724,-14.148,0.17453,0.059951,15615
3.7401,6700,-14.106,0.17453,0.061262,15871
3.7451,6684,-13.45,0.17453,0.062142,15871
3.7501,6684,-11.61,0.17453,0.062142,15871
3.7551,6670,-11.142,0.17453,0.062916,15871
3.7601,6668,-9.7798,0.17453,0.063027,15871
3.7651,6668,-8.4419,0.17453,0.063027,15871
3.7701,6666,-7.4465,0.17453,0.063137,15871
3.7751,6668,-6.265,0.17453,0.063027,15871
3.7801,6879,10.957,0.17453,0.051742,15871
3.7851,6962,15.642,0.17453,0.047522,15871
3.7901,7011,17.12,0.17453,0.045085,15871
3.7951,7022,15.658,0.17453,0.044544,15871
3.8001,7000,12.038,0.17453,0.045629,15871
3.8051,7001,10.55,0.17453,0.045579,15871
3.8101,7010,9.8378,0.17453,0.045135,15871
3.8151,7004,8.1491,0.17453,0.045431,15871
3.8201,7266,25.111,0.17453,0.033022,15871
3.8251,7355,27.596,0.17453,0.029041,15871
3.8301,7388,26.085,0.17453,0.027593,15871
3.8351,7399,23.381,0.17453,0.027114,15871
3.8401,7402,20.539,0.17453,0.026984,15871
3.8451,7402,17.894,0.17453,0.026984,15871
3.8501,7404,15.734,0.17453,0.026897,15871
3.8551,7400,13.489,0.17453,0.027071,15871
3.8601,7336,7.7251,0.17453,0.029881,15871
3.8651,7304,4.7389,0.17453,0.031308,15871
3.8701,7289,3.2444,0.17453,0.031982,15871
3.8751,7279,2.2731,0.17453,0.032433,15871
3.8801,7302,3.5871,0.17453,0.031398,15871
3.8851,7308,3.6149,0.17453,0.031129,16127
3.8901,7279,1.3588,0.17453,0.032433,16127
3.8951,7253,-0.41567,0.17453,0.033613,16127
3.9001,7117,-9.4292,0.17453,0.039948,16127
3.9051,6995,-16.654,0.17453,0.045877,16127
3.9101,6895,-21.636,0.17453,0.05092,16127
3.9151,6830,-23.536,0.17453,0.05429,16127
3.9201,6799,-22.673,0.17453,0.055924,16127
3.9251,6786,-20.565,0.17453,0.056615,15871
3.9301,6780,-18.208,0.17453,0.056935,15871
3.9351,6757,-17.496,0.17453,0.058166,15871
3.9401,6713,-18.555,0.17453,0.06055,15871
3.9451,6687,-18.09,0.17453,0.061976,15871
3.9501,6676,-16.507,0.17453,0.062583,15871
3.9551,6670,-14.743,0.17453,0.062916,15871
3.9601,6669,-12.818,0.17453,0.062971,15871
3.9651,6668,-11.154,0.17453,0.063027,15871
3.9701,6693,-7.6348,0.17453,0.061646,15871
3.9751,6706,-5.5558,0.17453,0.060933,15871
3.9801,6787,1.5479,0.17453,0.056562,15871
3.9851,6776,0.51489,0.17453,0.057148,15871
3.9901,6776,0.47023,0.17453,0.057148,15871
3.9951,6778,0.58644,0.17453,0.057041,15871
4.0001,6778,0.53236,0.17453,0.057041,15871
4.0051,6780,0.64031,0.17453,0.056935,15871
4.0101,6777,0.34705,0.17453,0.057095,15871
4.0151,6996,16.663,0.17453,0.045827,15871
4.0201,7262,32.773,0.17453,0.033203,15871
4.0251,7355,34.474,0.17453,0.029041,15871
4.0301,7386,31.896,0.17453,0.027681,15871
4.0351,7396,28.333,0.17453,0.027245,15871
4.0401,7404,25.128,0.17453,0.026897,15871
4.0451,7403,21.791,0.17453,0.02694,15871
4.0501,7403,18.97,0.17453,0.02694,15871
4.0551,7410,16.972,0.17453,0.026637,15871
4.0601,7414,15.057,0.17453,0.026463,15871
4.0651,7434,14.403,0.17453,0.0256,15871
4.0701,7435,12.651,0.17453,0.025557,15871
4.0751,7407,9.3216,0.17453,0.026767,15871
4.0801,7406,8.1297,0.17453,0.02681,15871
4.0851,7409,7.3508,0.17453,0.02668,15871
4.0901,7405,6.2376,0.17453,0.026853,15871
4.0951,7320,0.10381,0.17453,0.030593,16127
4.1001,7184,-8.7778,0.17453,0.036792,16127
4.1051,7054,-16.461,0.17453,0.04298,16127
4.1101,6939,-22.417,0.17453,0.04868,16127
4.1151,6856,-25.489,0.17453,0.052933,16127
4.1201,6811,-25.409,0.17453,0.05529,16127
4.1251,6790,-23.545,0.17453,0.056402,15871
4.1301,6780,-21.098,0.17453,0.056935,15871
4.1351,6734,-21.799,0.17453,0.059408,15871
4.1401,6700,-21.516,0.17453,0.061262,15871
4.1451,6680,-20.187,0.17453,0.062362,15871
4.1501,6672,-18.088,0.17453,0.062805,15871
4.1551,6698,-13.555,0.17453,0.061371,15871
4.1601,6697,-11.791,0.17453,0.061426,15871
4.1651,6671,-12.266,0.17453,0.06286,15871
4.1701,6669,-10.764,0.17453,0.062971,16127
4.1751,6644,-11.324,0.17453,0.064363,16127
4.1801,6631,-10.851,0.17453,0.065092,16127
4.1851,6621,-10.204,0.17453,0.065655,16127
4.1901,6616,-9.2409,0.17453,0.065937,16127
4.1951,6611,-8.41,0.17453,0.06622,15871
4.2001,6613,-7.119,0.17453,0.066107,15871
4.2051,6612,-6.249,0.17453,0.066163,15871
4.2101,6612,-5.4152,0.17453,0.066163,15871
4.2151,6939,20.656,0.17453,0.04868,15871
4.2201,7088,28.552,0.17453,0.041336,15871
4.2251,7140,28.349,0.17453,0.038857,15871
4.2301,7155,25.613,0.17453,0.03815,15871
4.2351,7163,22.771,0.17453,0.037774,15871
4.2401,7167,20.043,0.17453,0.037586,16127
4.2451,7205,19.98,0.17453,0.035817,16127
4.2501,7168,14.869,0.17453,0.037539,16127
4.2551,7387,27.301,0.17453,0.027637,16127
4.2601,7473,29.094,0.17453,0.023933,16127
4.2651,7499,26.882,0.17453,0.022833,16127
4.2701,7511,24.112,0.17453,0.022328,15871
4.2751,7513,21.108,0.17453,0.022244,15871
4.2801,7514,18.452,0.17453,0.022202,15871
4.2851,7514,16.095,0.17453,0.022202,15871
4.2901,7511,13.876,0.17453,0.022328,15871
4.2951,7376,3.7447,0.17453,0.028118,15871
4.3001,7254,-4.5399,0.17453,0.033567,15871
4.3051,7162,-9.9861,0.17453,0.037821,15871
4.3101,7101,-12.734,0.17453,0.040712,15871
4.3151,7072,-12.951,0.17453,0.042107,15871
4.3201,7064,-11.682,0.17453,0.042494,15871
4.3251,7058,-10.448,0.17453,0.042785,15871
4.3301,7040,-10.231,0.17453,0.043662,15871
4.3351,6907,-18.41,0.17453,0.050305,15871
4.3401,6822,-22.257,0.17453,0.05471,15871
4.3451,6729,-26.417,0.17453,0.059679,15871
4.3501,6653,-28.888,0.17453,0.063861,15871
4.3551,6625,-27.252,0.17453,0.065429,15871
4.3601,6617,-24.223,0.17453,0.065881,15871
4.3651,6615,-21.117,0.17453,0.065993,16127
