0,3492,464.09,0.17453,-0.065434,14844
0.0049901,3490,401.55,0.17453,-0.06485,13564
0.00999,3491,349.44,0.17453,-0.065142,13564
0.01499,3490,303.51,0.17453,-0.06485,13564
0.019989,3492,265.74,0.17453,-0.065434,15612
0.024989,3517,246.17,0.17453,-0.072654,15612
0.029995,3496,203.87,0.17453,-0.066598,15612
0.034989,3496,179.23,0.17453,-0.066598,13820
0.039994,3492,155.91,0.17453,-0.065434,13820
0.04499,3491,137.67,0.17453,-0.065142,13820
0.049988,3491,122.71,0.17453,-0.065142,12540
0.054989,3491,110.01,0.17453,-0.065142,12540
0.059989,3494,100.95,0.17453,-0.066016,14332
0.06499,3496,92.795,0.17453,-0.066598,14332
0.06999,3494,83.731,0.17453,-0.066016,14332
0.07499,3494,77.251,0.17453,-0.066016,15612
0.079989,3491,70.189,0.17453,-0.065142,15612
0.084994,3492,66.565,0.17453,-0.065434,15612
0.08999,3490,61.97,0.17453,-0.06485,15612
0.09499,3493,61.043,0.17453,-0.065725,15612
0.09999,3495,59.908,0.17453,-0.066307,15612
0.10499,3518,70.859,0.17453,-0.07294,17660
0.10999,3516,66.661,0.17453,-0.072367,17660
0.11499,3496,53.212,0.17453,-0.066598,17660
0.11999,3493,51.251,0.17453,-0.065725,17404
0.12499,3493,51.465,0.17453,-0.065725,17404
0.13,3492,51.31,0.17453,-0.065434,17404
0.13499,3492,51.962,0.17453,-0.065434,17916
0.13999,3497,55.562,0.17453,-0.066889,17916
0.14499,3497,56.093,0.17453,-0.066889,17916
0.14999,3491,53.397,0.17453,-0.065142,17148
0.15499,3493,55.784,0.17453,-0.065725,17148
0.15999,3492,56.38,0.17453,-0.065434,15868
0.16499,3492,57.678,0.17453,-0.065434,15868
0.16999,3490,57.891,0.17453,-0.06485,15868
0.17499,3492,60.548,0.17453,-0.065434,15868
0.17999,3497,64.752,0.17453,-0.066889,15868
0.18499,3496,65.238,0.17453,-0.066598,15868
0.18999,3514,76.487,0.17453,-0.071794,15868
0.19499,3516,77.522,0.17453,-0.072367,15868
0.19999,3495,65.815,0.17453,-0.066307,15868
0.20499,3492,65.911,0.17453,-0.065434,15868
0.20999,3491,67.331,0.17453,-0.065142,15868
0.21499,3493,70.463,0.17453,-0.065725,15868
0.22,3496,73.95,0.17453,-0.066598,15868
0.22499,3496,75.496,0.17453,-0.066598,16124
0.22999,3494,75.922,0.17453,-0.066016,16124
0.23499,3493,77.064,0.17453,-0.065725,16124
0.23999,3490,77.134,0.17453,-0.06485,16124
0.24499,3491,79.658,0.17453,-0.065142,16124
0.24999,3490,80.924,0.17453,-0.06485,16124
0.25499,3493,84.485,0.17453,-0.065725,15868
0.25999,3496,87.775,0.17453,-0.066598,15868
0.265,3496,89.147,0.17453,-0.066598,15868
0.26999,3500,92.79,0.17453,-0.067759,15868
0.27499,3513,101.16,0.17453,-0.071507,15868
0.27999,3495,91.328,0.17453,-0.066307,15868
0.285,3494,92.503,0.17453,-0.066016,15868
0.28999,3492,93.163,0.17453,-0.065434,15868
0.29499,3494,96.191,0.17453,-0.066016,15868
0.29999,3498,100.14,0.17453,-0.067179,15868
0.30499,3497,100.96,0.17453,-0.066889,15868
0.31,3494,100.75,0.17453,-0.066016,15868
0.315,3493,101.9,0.17453,-0.065725,15868
0.31999,3492,103.09,0.17453,-0.065434,15868
0.325,3491,104.32,0.17453,-0.065142,16124
0.32999,3491,106.16,0.17453,-0.065142,16124
0.335,3494,109.64,0.17453,-0.066016,16124
0.34,3497,112.85,0.17453,-0.066889,16124
0.345,3495,113.03,0.17453,-0.066307,16124
0.34999,3492,112.81,0.17453,-0.065434,16124
0.355,3518,129.03,0.17453,-0.07294,15868
0.35999,3512,125.46,0.17453,-0.07122,15868
0.365,3492,114.71,0.17453,-0.065434,15868
0.37,3492,116.77,0.17453,-0.065434,15868
0.375,3494,119.89,0.17453,-0.066016,15868
0.38,3497,123.34,0.17453,-0.066889,15868
0.385,3496,124.28,0.17453,-0.066598,15868
0.39,3494,124.73,0.17453,-0.066016,15868
0.395,3494,126.45,0.17453,-0.066016,15868
0.4,3492,127,0.17453,-0.065434,15868
0.405,3492,128.8,0.17453,-0.065434,15868
0.41,3491,129.98,0.17453,-0.065142,15868
0.415,3494,133.46,0.17453,-0.066016,15868
0.42,3497,136.66,0.17453,-0.066889,15868
0.425,3494,136.26,0.17453,-0.066016,16124
0.43,3492,136.67,0.17453,-0.065434,16124
0.435,3491,137.77,0.17453,-0.065142,16124
0.44,3512,151.24,0.17453,-0.07122,16124
0.445,3511,150.8,0.17453,-0.070933,16124
0.45,3490,139.41,0.17453,-0.06485,16124
0.455,3495,144.31,0.17453,-0.066307,16124
0.46,3498,147.62,0.17453,-0.067179,16124
0.465,3495,147.3,0.17453,-0.066307,16124
0.47,3493,147.78,0.17453,-0.065725,15868
0.475,3492,148.94,0.17453,-0.065434,15868
0.48,3493,151.26,0.17453,-0.065725,15868
0.485,3490,151.2,0.17453,-0.06485,16124
0.49,3490,153.03,0.17453,-0.06485,16124
0.495,3493,156.5,0.17453,-0.065725,16124
0.5,3497,160.24,0.17453,-0.066889,15868
0.505,3494,159.74,0.17453,-0.066016,15868
0.51,3491,159.49,0.17453,-0.065142,15868
0.515,3492,161.71,0.17453,-0.065434,15868
0.52,3491,162.69,0.17453,-0.065142,15868
0.525,3509,174.37,0.17453,-0.070358,15868
0.53,3490,163.95,0.17453,-0.06485,15868
0.535,3495,168.57,0.17453,-0.066307,15868
0.54,3499,172.19,0.17453,-0.067469,15868
0.545,3495,171.02,0.17453,-0.066307,15868
0.55,3491,170.18,0.17453,-0.065142,15868
0.555,3491,171.89,0.17453,-0.065142,15868
0.56,3492,174.11,0.17453,-0.065434,15868
0.565,3491,175.09,0.17453,-0.065142,15868
0.57,3491,176.69,0.17453,-0.065142,15868
0.575,3495,180.5,0.17453,-0.066307,15868
0.58,3496,182.3,0.17453,-0.066598,15868
0.585,3494,182.35,0.17453,-0.066016,15868
0.59,3492,182.57,0.17453,-0.065434,15868
0.595,3492,184.07,0.17453,-0.065434,15868
0.6,3492,185.55,0.17453,-0.065434,16124
0.605,3491,186.44,0.17453,-0.065142,16124
0.61,3491,187.95,0.17453,-0.065142,16124
0.615,3497,192.82,0.17453,-0.066889,16124
0.62,3508,199.99,0.17453,-0.07007,16124
0.625,3496,193.53,0.17453,-0.066598,15868
0.63,3494,193.69,0.17453,-0.066016,15868
0.635,3493,194.57,0.17453,-0.065725,15868
0.64,3492,195.51,0.17453,-0.065434,15868
0.645,3492,197.06,0.17453,-0.065434,15868
0.65,3491,198.01,0.17453,-0.065142,15868
0.655,3498,203.51,0.17453,-0.067179,15868
0.66,3496,203.39,0.17453,-0.066598,15868
0.665,3493,202.9,0.17453,-0.065725,15868
0.67,3492,203.78,0.17453,-0.065434,16124
0.675,3493,205.83,0.17453,-0.065725,16124
0.68,3491,206.09,0.17453,-0.065142,16124
0.685,3489,206.49,0.17453,-0.064558,16124
0.69,3492,209.82,0.17453,-0.065434,16124
0.695,3521,227.36,0.17453,-0.073796,15868
0.7,3517,224.37,0.17453,-0.072654,15868
0.705,3494,211.33,0.17453,-0.066016,15868
0.71,3491,211.35,0.17453,-0.065142,15868
0.715,3495,215.47,0.17453,-0.066307,15868
0.72,3494,216.4,0.17453,-0.066016,15868
0.725,3493,217.37,0.17453,-0.065725,15868
0.73,3492,218.38,0.17453,-0.065434,15868
0.735,3498,223.36,0.17453,-0.067179,15868
0.74,3496,223.35,0.17453,-0.066598,15868
0.745,3493,222.94,0.17453,-0.065725,15868
0.75,3493,224.44,0.17453,-0.065725,15868
0.755,3492,225.35,0.17453,-0.065434,15868
0.76,3492,226.86,0.17453,-0.065434,15868
0.765,3490,227.21,0.17453,-0.06485,15868
0.77,3492,229.93,0.17453,-0.065434,15868
0.775,3497,234.14,0.17453,-0.066889,15868
0.78,3520,247.95,0.17453,-0.073511,15868
0.78501,3512,242.86,0.17453,-0.07122,15868
0.79001,3494,232.99,0.17453,-0.066016,15868
0.79501,3492,233.53,0.17453,-0.065434,15868
0.8,3492,235.29,0.17453,-0.065434,15868
0.80501,3492,236.98,0.17453,-0.065434,15868
0.81001,3493,239.16,0.17453,-0.065725,15868
0.81501,3492,240.09,0.17453,-0.065434,15868
0.82001,3495,243.31,0.17453,-0.066307,15868
0.82501,3492,242.88,0.17453,-0.065434,15868
0.83,3492,244.36,0.17453,-0.065434,15868
0.83501,3493,246.37,0.17453,-0.065725,15868
0.84001,3489,245.45,0.17453,-0.064558,15868
0.84501,3492,248.76,0.17453,-0.065434,15868
0.85001,3493,250.66,0.17453,-0.065725,15868
0.85501,3497,254.15,0.17453,-0.066889,15868
0.86001,3494,253.4,0.17453,-0.066016,15868
0.86501,3516,266.88,0.17453,-0.072367,15868
0.87001,3512,264.23,0.17453,-0.07122,15868
0.87501,3496,255.38,0.17453,-0.066598,15868
0.88001,3492,254.56,0.17453,-0.065434,15868
0.88501,3491,255.69,0.17453,-0.065142,15868
0.89001,3495,259.64,0.17453,-0.066307,15868
0.89501,3498,262.65,0.17453,-0.067179,15868
0.90001,3496,262.61,0.17453,-0.066598,15868
0.90501,3493,262.17,0.17453,-0.065725,15868
0.91001,3491,262.5,0.17453,-0.065142,15868
0.91501,3493,265.2,0.17453,-0.065725,15868
0.92001,3491,265.44,0.17453,-0.065142,15868
0.92501,3491,266.92,0.17453,-0.065142,15868
0.93001,3496,271.18,0.17453,-0.066598,15868
0.93501,3496,272.21,0.17453,-0.066598,15868
0.94001,3494,272.13,0.17453,-0.066016,16124
0.94501,3494,273.34,0.17453,-0.066016,16124
0.95001,3508,282.39,0.17453,-0.07007,16124
0.95501,3513,285.32,0.17453,-0.071507,15868
0.96001,3493,274.07,0.17453,-0.065725,15868
0.96501,3490,273.95,0.17453,-0.06485,15868
0.97001,3496,279.08,0.17453,-0.066598,15868
0.97501,3499,281.97,0.17453,-0.067469,15868
0.98001,3494,280.14,0.17453,-0.066016,15868
0.98501,3492,280.39,0.17453,-0.065434,15868
0.99001,3493,282.44,0.17453,-0.065725,15868
0.99501,3492,283.24,0.17453,-0.065434,15868
1,3492,284.65,0.17453,-0.065434,15868
1.005,3490,284.89,0.17453,-0.06485,15868
1.01,3496,289.75,0.17453,-0.066598,15868
1.015,3495,290.17,0.17453,-0.066307,15868
1.02,3494,290.69,0.17453,-0.066016,15868
1.025,3492,290.72,0.17453,-0.065434,15868
1.03,3492,292.02,0.17453,-0.065434,15868
1.035,3511,303.93,0.17453,-0.070933,15868
1.04,3513,304.88,0.17453,-0.071507,15868
1.045,3492,293.01,0.17453,-0.065434,15868
1.05,3496,296.86,0.17453,-0.066598,15868
1.055,3497,298.65,0.17453,-0.066889,15868
1.06,3494,298.1,0.17453,-0.066016,15868
1.065,3492,298.33,0.17453,-0.065434,16124
1.07,3492,299.8,0.17453,-0.065434,16124
1.075,3493,301.78,0.17453,-0.065725,16124
1.08,3491,301.95,0.17453,-0.065142,16124
1.085,3491,303.37,0.17453,-0.065142,16124
1.09,3495,307,0.17453,-0.066307,16124
1.095,3497,309.15,0.17453,-0.066889,15868
1.1,3492,307.23,0.17453,-0.065434,15868
1.105,3492,308.52,0.17453,-0.065434,15868
1.11,3491,309.21,0.17453,-0.065142,15868
1.115,3492,311.08,0.17453,-0.065434,15868
1.12,3512,323.47,0.17453,-0.07122,15868
1.125,3492,311.98,0.17453,-0.065434,15868
1.13,3498,316.72,0.17453,-0.067179,15868
1.135,3498,317.6,0.17453,-0.067179,15868
1.14,3495,316.82,0.17453,-0.066307,15868
1.145,3493,316.85,0.17453,-0.065725,15868
1.15,3493,318.13,0.17453,-0.065725,15868
1.155,3492,318.83,0.17453,-0.065434,15868
1.16,3492,320.13,0.17453,-0.065434,15868
1.165,3492,321.39,0.17453,-0.065434,15868
1.17,3496,324.88,0.17453,-0.066598,15868
1.175,3495,325.22,0.17453,-0.066307,15868
1.18,3494,325.66,0.17453,-0.066016,15868
1.185,3493,326.18,0.17453,-0.065725,15868
1.19,3492,326.77,0.17453,-0.065434,15868
1.195,3491,327.41,0.17453,-0.065142,15868
1.2,3490,328.11,0.17453,-0.06485,15868
1.205,3494,331.66,0.17453,-0.066016,15868
1.21,3519,346.57,0.17453,-0.073225,15868
1.215,3497,333.44,0.17453,-0.066889,15868
1.22,3495,333.33,0.17453,-0.066307,15868
1.225,3493,333.37,0.17453,-0.065725,15868
1.23,3493,334.66,0.17453,-0.065725,15868
1.235,3492,335.35,0.17453,-0.065434,16124
1.24,3490,335.52,0.17453,-0.06485,16124
1.245,3494,339.18,0.17453,-0.066016,16124
1.25,3496,341.35,0.17453,-0.066598,15868
1.255,3496,342.25,0.17453,-0.066598,15868
1.26,3495,342.6,0.17453,-0.066307,15868
1.265,3492,341.91,0.17453,-0.065434,15868
1.27,3492,343.13,0.17453,-0.065434,15868
1.275,3490,343.19,0.17453,-0.06485,15868
1.28,3490,344.51,0.17453,-0.06485,15868
1.285,3495,348.59,0.17453,-0.066307,15868
1.29,3516,361.17,0.17453,-0.072367,15868
1.295,3514,359.38,0.17453,-0.071794,16124
1.3,3495,348.47,0.17453,-0.066307,16124
1.305,3492,348.07,0.17453,-0.065434,16124
1.31,3494,350.67,0.17453,-0.066016,15868
1.315,3493,351.36,0.17453,-0.065725,15868
1.32,3492,352.08,0.17453,-0.065434,15868
1.325,3495,355.09,0.17453,-0.066307,15868
1.33,3497,357.26,0.17453,-0.066889,15868
1.335,3496,357.59,0.17453,-0.066598,16124
1.34,3494,357.44,0.17453,-0.066016,16124
1.345,3492,357.44,0.17453,-0.065434,16124
1.35,3490,357.56,0.17453,-0.06485,16124
1.355,3492,360.05,0.17453,-0.065434,16124
1.36,3492,361.21,0.17453,-0.065434,16124
1.365,3495,364.03,0.17453,-0.066307,15868
1.37,3497,366.03,0.17453,-0.066889,15868
1.375,3514,376.26,0.17453,-0.071794,15868
1.38,3513,375.22,0.17453,-0.071507,15868
1.385,3493,363.83,0.17453,-0.065725,15868
1.39,3487,361.87,0.17453,-0.063974,15868
1.395,3493,367.07,0.17453,-0.065725,16124
1.4,3492,367.75,0.17453,-0.065434,16124
1.405,3493,369.59,0.17453,-0.065725,16124
1.41,3497,373,0.17453,-0.066889,15868
1.415,3496,373.27,0.17453,-0.066598,15868
1.42,3493,372.5,0.17453,-0.065725,15868
1.425,3492,373.08,0.17453,-0.065434,15868
1.43,3490,373.14,0.17453,-0.06485,15868
1.435,3490,374.44,0.17453,-0.06485,15868
1.44,3491,376.26,0.17453,-0.065142,15868
1.445,3497,380.76,0.17453,-0.066889,15868
1.45,3496,380.85,0.17453,-0.066598,16124
1.455,3496,381.62,0.17453,-0.066598,16124
1.46,3508,389.12,0.17453,-0.07007,16124
1.465,3510,390.15,0.17453,-0.070646,15868
1.47,3493,380.54,0.17453,-0.065725,15868
1.475,3493,381.85,0.17453,-0.065725,15868
1.48,3491,381.98,0.17453,-0.065142,15868
1.485,3494,385.02,0.17453,-0.066016,15868
1.49,3497,387.78,0.17453,-0.066889,15868
1.495,3495,387.48,0.17453,-0.066307,15612
1.5,3492,386.77,0.17453,-0.065434,15612
1.505,3491,387.41,0.17453,-0.065142,16124
1.51,3492,389.2,0.17453,-0.065434,16124
1.515,3491,389.75,0.17453,-0.065142,16124
1.52,3491,390.9,0.17453,-0.065142,16124
1.525,3496,394.83,0.17453,-0.066598,16124
1.53,3495,394.98,0.17453,-0.066307,16124
1.535,3495,395.8,0.17453,-0.066307,16124
1.54,3491,394.36,0.17453,-0.065142,16124
1.545,3512,407.25,0.17453,-0.07122,16124
1.55,3511,406.23,0.17453,-0.070933,15868
1.555,3493,395.96,0.17453,-0.065725,15868
1.56,3494,397.81,0.17453,-0.066016,15868
1.565,3497,400.65,0.17453,-0.066889,15868
1.57,3496,400.98,0.17453,-0.066598,15868
1.575,3494,400.82,0.17453,-0.066016,15868
1.58,3493,401.35,0.17453,-0.065725,15868
1.585,3492,401.94,0.17453,-0.065434,15868
1.59,3492,403.12,0.17453,-0.065434,15868
1.595,3494,405.38,0.17453,-0.066016,15868
1.6,3493,405.77,0.17453,-0.065725,15868
1.605,3495,407.9,0.17453,-0.066307,15868
1.61,3497,409.87,0.17453,-0.066889,15868
1.615,3494,408.88,0.17453,-0.066016,15868
1.62,3491,408.13,0.17453,-0.065142,15868
1.625,3490,408.72,0.17453,-0.06485,15868
1.63,3511,421.67,0.17453,-0.070933,15868
1.635,3513,422.36,0.17453,-0.071507,16124
1.64,3493,410.79,0.17453,-0.065725,16124
1.645,3497,414.31,0.17453,-0.066889,16124
1.65,3496,414.65,0.17453,-0.066598,15868
1.655,3496,415.63,0.17453,-0.066598,15868
1.66,3494,415.46,0.17453,-0.066016,15868
1.665,3491,414.86,0.17453,-0.065142,15868
1.67,3492,416.71,0.17453,-0.065434,15868
1.675,3492,417.85,0.17453,-0.065434,15868
1.68,3494,420.08,0.17453,-0.066016,15868
1.685,3497,422.68,0.17453,-0.066889,15868
1.69,3495,422.23,0.17453,-0.066307,15868
1.695,3494,422.52,0.17453,-0.066016,15868
1.7,3490,421.19,0.17453,-0.06485,15868
1.705,3492,423.52,0.17453,-0.065434,16124
1.71,3489,422.83,0.17453,-0.064558,16124
1.715,3492,425.72,0.17453,-0.065434,16124
1.72,3495,428.34,0.17453,-0.066307,16124
1.725,3498,430.71,0.17453,-0.067179,16124
1.73,3495,429.5,0.17453,-0.066307,16124
1.735,3494,429.69,0.17453,-0.066016,15868
1.74,3495,431.08,0.17453,-0.066307,15868
1.745,3492,430.15,0.17453,-0.065434,15868
1.75,3491,430.57,0.17453,-0.065142,15868
1.755,3490,431.04,0.17453,-0.06485,15868
1.76,3495,434.94,0.17453,-0.066307,15868
1.765,3496,436.16,0.17453,-0.066598,16124
1.77,3494,435.65,0.17453,-0.066016,16124
1.775,3492,435.31,0.17453,-0.065434,16124
1.78,3490,435.11,0.17453,-0.06485,16124
1.785,3491,436.74,0.17453,-0.065142,16124
1.79,3492,438.26,0.17453,-0.065434,15868
1.795,3492,439.12,0.17453,-0.065434,15868
1.8,3494,441.09,0.17453,-0.066016,15868
1.805,3518,455.16,0.17453,-0.07294,15868
1.81,3494,440.71,0.17453,-0.066016,15868
1.815,3493,441.1,0.17453,-0.065725,15868
1.82,3494,442.68,0.17453,-0.066016,15868
1.825,3492,442.45,0.17453,-0.065434,15868
1.83,3489,441.8,0.17453,-0.064558,15868
1.835,3492,444.71,0.17453,-0.065434,15868
1.84,3495,447.34,0.17453,-0.066307,15868
1.845,3496,448.59,0.17453,-0.066598,15868
1.85,3494,448.1,0.17453,-0.066016,16124
1.855,3493,448.33,0.17453,-0.065725,16124
1.86,3494,449.76,0.17453,-0.066016,15868
1.865,3489,447.72,0.17453,-0.064558,15868
1.87,3489,448.87,0.17453,-0.064558,15868
1.875,3492,451.66,0.17453,-0.065434,15868
1.88,3494,453.61,0.17453,-0.066016,15868
1.885,3515,466.01,0.17453,-0.072081,15868
1.89,3514,464.58,0.17453,-0.071794,15868
1.895,3495,453.4,0.17453,-0.066307,15868
1.9,3491,452.16,0.17453,-0.065142,15868
1.905,3493,454.57,0.17453,-0.065725,15868
1.91,3491,454.5,0.17453,-0.065142,15868
1.915,3493,456.8,0.17453,-0.065725,15868
1.92,3496,459.44,0.17453,-0.066598,15868
1.925,3496,460.15,0.17453,-0.066598,15868
1.93,3492,458.61,0.17453,-0.065434,15868
1.935,3492,459.63,0.17453,-0.065434,15612
1.94,3493,461.17,0.17453,-0.065725,15612
1.945,3491,460.91,0.17453,-0.065142,15612
1.95,3492,462.47,0.17453,-0.065434,15868
1.955,3493,463.93,0.17453,-0.065725,15868
1.96,3494,465.28,0.17453,-0.066016,15868
1.965,3497,467.68,0.17453,-0.066889,15868
1.97,3510,475.44,0.17453,-0.070646,15868
1.975,3513,476.67,0.17453,-0.071507,15868
1.98,3494,465.55,0.17453,-0.066016,15868
1.985,3491,464.94,0.17453,-0.065142,15868
1.99,3491,466.2,0.17453,-0.065142,16124
1.995,3493,468.51,0.17453,-0.065725,16124
2,3500,473.41,0.17453,-0.067759,16124
2.005,3496,471.58,0.17453,-0.066598,15868
2.01,3491,469.52,0.17453,-0.065142,15868
2.015,3491,470.65,0.17453,-0.065142,15868
2.02,3491,471.72,0.17453,-0.065142,15868
2.025,3491,472.73,0.17453,-0.065142,15868
2.03,3491,473.71,0.17453,-0.065142,15868
2.035,3491,474.65,0.17453,-0.065142,15868
2.04,3496,478.37,0.17453,-0.066598,15868
2.045,3496,478.88,0.17453,-0.066598,15868
2.05,3494,478.29,0.17453,-0.066016,15868
2.055,3512,489.06,0.17453,-0.07122,15868
2.06,3512,488.44,0.17453,-0.07122,16124
2.065,3490,475.68,0.17453,-0.06485,16124
2.07,3492,478.15,0.17453,-0.065434,16124
2.075,3493,479.83,0.17453,-0.065725,15868
2.08,3500,484.74,0.17453,-0.067759,15868
2.085,3497,483.48,0.17453,-0.066889,15868
2.09,3492,481.35,0.17453,-0.065434,15612
2.095,3495,484.09,0.17453,-0.066307,15612
2.1,3492,483.19,0.17453,-0.065434,15612
2.105,3490,483.05,0.17453,-0.06485,15868
2.11,3490,484.15,0.17453,-0.06485,15868
2.115,3495,488.02,0.17453,-0.066307,15868
2.12,3497,489.76,0.17453,-0.066889,15868
2.125,3495,489.12,0.17453,-0.066307,15868
2.13,3493,488.65,0.17453,-0.065725,15868
2.135,3492,488.9,0.17453,-0.065434,15868
2.14,3512,500.95,0.17453,-0.07122,15868
2.145,3512,500.31,0.17453,-0.07122,15868
2.15,3492,488.66,0.17453,-0.065434,15868
2.155,3495,491.54,0.17453,-0.066307,15868
2.16,3500,495.23,0.17453,-0.067759,15868
2.165,3495,492.91,0.17453,-0.066307,15868
2.17,3493,492.68,0.17453,-0.065725,15868
2.175,3494,494.24,0.17453,-0.066016,15868
2.18,3489,492.31,0.17453,-0.064558,15868
2.185,3492,495.23,0.17453,-0.065434,15868
2.19,3492,496.16,0.17453,-0.065434,15868
2.195,3495,498.74,0.17453,-0.066307,15868
2.2,3496,499.93,0.17453,-0.066598,15868
2.205,3494,499.37,0.17453,-0.066016,15868
2.21,3494,500.1,0.17453,-0.066016,15868
2.215,3493,500.25,0.17453,-0.065725,15868
2.22,3491,499.91,0.17453,-0.065142,15868
2.225,3511,512.02,0.17453,-0.070933,15868
2.23,3491,500.22,0.17453,-0.065142,15868
2.235,3496,504.08,0.17453,-0.066598,15868
2.24,3497,505.27,0.17453,-0.066889,15868
2.245,3497,505.82,0.17453,-0.066889,15868
2.25,3494,504.71,0.17453,-0.066016,15868
2.255,3493,504.94,0.17453,-0.065725,15868
2.26,3490,504.11,0.17453,-0.06485,15868
2.265,3491,505.72,0.17453,-0.065142,15868
2.27,3489,505.51,0.17453,-0.064558,15868
2.275,3496,510.48,0.17453,-0.066598,15868
2.28,3498,512.06,0.17453,-0.067179,15868
2.2851,3494,510.14,0.17453,-0.066016,15868
2.29,3493,510.25,0.17453,-0.065725,15868
2.295,3491,509.86,0.17453,-0.065142,15868
2.3,3492,511.3,0.17453,-0.065434,15868
2.305,3510,522.14,0.17453,-0.070646,15868
2.31,3490,510.34,0.17453,-0.06485,15868
2.315,3496,514.79,0.17453,-0.066598,15868
2.32,3496,515.35,0.17453,-0.066598,15868
2.325,3494,514.79,0.17453,-0.066016,15868
2.33,3493,514.95,0.17453,-0.065725,15868
2.335,3494,516.3,0.17453,-0.066016,15868
2.34,3492,515.86,0.17453,-0.065434,15868
2.345,3492,516.69,0.17453,-0.065434,16124
2.35,3492,517.48,0.17453,-0.065434,16124
2.355,3498,521.63,0.17453,-0.067179,16124
2.36,3496,520.81,0.17453,-0.066598,16124
2.365,3495,520.75,0.17453,-0.066307,16124
2.37,3493,520.21,0.17453,-0.065725,16124
2.375,3493,520.95,0.17453,-0.065725,16124
2.38,3490,519.98,0.17453,-0.06485,16124
2.3851,3491,521.47,0.17453,-0.065142,16124
2.39,3492,522.85,0.17453,-0.065434,15868
2.395,3517,537.52,0.17453,-0.072654,15868
2.4,3516,535.81,0.17453,-0.072367,15868
2.405,3495,523.25,0.17453,-0.066307,15868
2.41,3495,524.17,0.17453,-0.066307,15868
2.415,3491,522.79,0.17453,-0.065142,15868
2.42,3493,525.05,0.17453,-0.065725,15868
2.425,3492,525.4,0.17453,-0.065434,15868
2.43,3494,527.47,0.17453,-0.066016,15868
2.435,3498,530.46,0.17453,-0.067179,15868
2.44,3496,529.77,0.17453,-0.066598,15868
2.445,3495,529.81,0.17453,-0.066307,15868
2.45,3493,529.36,0.17453,-0.065725,15868
2.455,3492,529.6,0.17453,-0.065434,15868
2.46,3489,528.77,0.17453,-0.064558,15868
2.465,3490,530.37,0.17453,-0.06485,15868
2.47,3493,532.97,0.17453,-0.065725,15868
2.475,3499,536.98,0.17453,-0.067469,15868
2.48,3515,546.08,0.17453,-0.072081,15868
2.4851,3495,533.97,0.17453,-0.066307,15868
2.49,3493,533.6,0.17453,-0.065725,16124
2.495,3494,535.03,0.17453,-0.066016,16124
2.5,3492,534.67,0.17453,-0.065434,15868
2.505,3491,534.99,0.17453,-0.065142,15868
2.51,3493,537.03,0.17453,-0.065725,15868
2.515,3499,541.12,0.17453,-0.067469,15868
2.52,3496,539.69,0.17453,-0.066598,15868
2.525,3494,539.09,0.17453,-0.066016,15868
2.53,3492,538.64,0.17453,-0.065434,15868
2.535,3491,538.88,0.17453,-0.065142,15868
2.54,3491,539.74,0.17453,-0.065142,15868
2.545,3490,539.99,0.17453,-0.06485,16124
2.55,3495,543.66,0.17453,-0.066307,16124
2.555,3496,544.66,0.17453,-0.066598,16124
2.56,3496,545.04,0.17453,-0.066598,15868
2.565,3514,555.5,0.17453,-0.071794,15868
2.57,3512,553.49,0.17453,-0.07122,15868
2.575,3493,542.31,0.17453,-0.065725,15868
2.58,3491,542.19,0.17453,-0.065142,15868
2.5851,3491,543.29,0.17453,-0.065142,15868
2.59,3495,546.57,0.17453,-0.066307,15868
2.595,3498,548.92,0.17453,-0.067179,15868
2.6,3496,548.22,0.17453,-0.066598,15868
2.605,3494,547.68,0.17453,-0.066016,15868
2.61,3494,548.42,0.17453,-0.066016,15868
2.615,3491,547.44,0.17453,-0.065142,16124
2.62,3493,549.48,0.17453,-0.065725,16124
2.625,3491,549.06,0.17453,-0.065142,16124
2.63,3494,551.59,0.17453,-0.066016,15868
2.635,3497,553.85,0.17453,-0.066889,15868
2.64,3494,552.51,0.17453,-0.066016,15868
2.645,3494,553.11,0.17453,-0.066016,15868
2.65,3511,563.21,0.17453,-0.070933,15868
2.655,3508,560.86,0.17453,-0.07007,15868
2.66,3491,551.05,0.17453,-0.065142,15868
2.665,3490,551.58,0.17453,-0.06485,15868
2.67,3495,555.48,0.17453,-0.066307,15868
2.675,3497,557.25,0.17453,-0.066889,15868
2.68,3495,556.6,0.17453,-0.066307,15868
2.6851,3493,556.11,0.17453,-0.065725,15868
2.69,3493,556.88,0.17453,-0.065725,15868
2.695,3491,556.49,0.17453,-0.065142,15868
2.7,3489,556.22,0.17453,-0.064558,15868
2.705,3492,558.88,0.17453,-0.065434,15868
2.71,3495,561.24,0.17453,-0.066307,15868
2.715,3497,562.8,0.17453,-0.066889,15868
2.72,3495,561.97,0.17453,-0.066307,15868
2.725,3491,560.19,0.17453,-0.065142,15868
2.73,3502,567.16,0.17453,-0.068338,15868
2.735,3511,572.1,0.17453,-0.070933,15868
2.74,3492,560.81,0.17453,-0.065434,15868
2.745,3490,560.6,0.17453,-0.06485,15868
2.75,3497,565.56,0.17453,-0.066889,15868
2.755,3500,567.66,0.17453,-0.067759,15868
2.76,3493,563.94,0.17453,-0.065725,15868
2.765,3494,565.28,0.17453,-0.066016,15868
2.77,3490,563.69,0.17453,-0.06485,15868
2.775,3492,565.76,0.17453,-0.065434,15868
2.78,3491,565.93,0.17453,-0.065142,15868
2.7851,3496,569.52,0.17453,-0.066598,15868
2.79,3495,569.33,0.17453,-0.066307,15868
2.795,3497,570.91,0.17453,-0.066889,15868
2.8,3496,570.67,0.17453,-0.066598,15868
2.805,3493,569.4,0.17453,-0.065725,15868
2.81,3491,568.93,0.17453,-0.065142,15868
2.815,3517,584.24,0.17453,-0.072654,15868
2.82,3511,579.73,0.17453,-0.070933,15868
2.825,3492,568.6,0.17453,-0.065434,15868
2.83,3497,572.45,0.17453,-0.066889,15868
2.835,3498,573.61,0.17453,-0.067179,15868
2.84,3493,571.31,0.17453,-0.065725,15868
2.845,3492,571.63,0.17453,-0.065434,16124
2.85,3493,573.1,0.17453,-0.065725,16124
2.8551,3492,573.31,0.17453,-0.065434,16124
2.86,3492,574.12,0.17453,-0.065434,16124
2.8651,3493,575.44,0.17453,-0.065725,16124
2.87,3497,578.35,0.17453,-0.066889,15868
2.875,3495,577.56,0.17453,-0.066307,15868
2.88,3494,577.5,0.17453,-0.066016,15868
2.8851,3491,576.38,0.17453,-0.065142,15868
2.89,3492,577.73,0.17453,-0.065434,15868
2.8951,3491,577.84,0.17453,-0.065142,15868
2.9001,3512,590.32,0.17453,-0.07122,15868
2.9051,3493,578.82,0.17453,-0.065725,15868
2.91,3518,593.5,0.17453,-0.07294,15868
2.9151,3496,580.08,0.17453,-0.066598,15868
2.9201,3494,579.65,0.17453,-0.066016,15868
2.9251,3494,580.47,0.17453,-0.066016,15868
2.9301,3492,580.11,0.17453,-0.065434,15868
2.9351,3492,580.99,0.17453,-0.065434,15868
2.9401,3492,581.82,0.17453,-0.065434,15868
2.9451,3495,584.28,0.17453,-0.066307,16124
2.9501,3499,587.04,0.17453,-0.067469,16124
2.9551,3494,584.44,0.17453,-0.066016,15868
2.9601,3493,584.5,0.17453,-0.065725,15868
2.9651,3490,583.48,0.17453,-0.06485,15868
2.9701,3491,584.91,0.17453,-0.065142,15868
2.9751,3493,586.78,0.17453,-0.065725,15868
2.9801,3490,585.63,0.17453,-0.06485,15868
2.9851,3495,589.22,0.17453,-0.066307,15868
2.9901,3518,602.39,0.17453,-0.07294,15868
2.9951,3496,588.79,0.17453,-0.066598,15868
3.0001,3494,588.21,0.17453,-0.066016,15868
3.0051,3494,588.89,0.17453,-0.066016,15868
3.0101,3493,588.98,0.17453,-0.065725,15868
3.0151,3491,588.55,0.17453,-0.065142,15868
3.0201,3489,588.23,0.17453,-0.064558,15868
3.0251,3495,592.53,0.17453,-0.066307,15868
3.0301,3495,592.94,0.17453,-0.066307,15868
3.0351,3494,592.78,0.17453,-0.066016,15868
3.0401,3492,592.15,0.17453,-0.065434,15868
3.0451,3493,593.35,0.17453,-0.065725,15868
3.0501,3492,593.32,0.17453,-0.065434,15868
3.0551,3490,592.79,0.17453,-0.06485,15868
3.0601,3490,593.52,0.17453,-0.06485,15868
3.0651,3495,597.02,0.17453,-0.066307,15868
3.0701,3497,598.43,0.17453,-0.066889,15868
3.0751,3515,608.63,0.17453,-0.072081,15868
3.0801,3513,606.39,0.17453,-0.071507,15868
3.0851,3493,594.44,0.17453,-0.065725,15868
3.0901,3492,594.76,0.17453,-0.065434,15868
3.0951,3490,594.53,0.17453,-0.06485,15868
3.1001,3490,595.51,0.17453,-0.06485,15868
3.1051,3497,600.37,0.17453,-0.066889,15868
3.1101,3496,600.13,0.17453,-0.066598,15868
3.1151,3493,598.86,0.17453,-0.065725,15868
3.1201,3494,600.06,0.17453,-0.066016,15868
3.1251,3493,600.04,0.17453,-0.065725,15868
3.1301,3492,600.07,0.17453,-0.065434,15868
3.1351,3491,600.16,0.17453,-0.065142,15868
3.1401,3490,600.29,0.17453,-0.06485,15868
3.1451,3493,602.72,0.17453,-0.065725,15868
3.1501,3497,605.44,0.17453,-0.066889,15868
3.1551,3496,605.04,0.17453,-0.066598,16124
3.1601,3513,614.82,0.17453,-0.071507,16124
3.1651,3501,607.17,0.17453,-0.068048,16124
3.1701,3493,602.8,0.17453,-0.065725,15868
3.1751,3492,602.99,0.17453,-0.065434,15868
3.1801,3492,603.78,0.17453,-0.065434,15868
3.1851,3495,606.21,0.17453,-0.066307,15868
3.1901,3496,607.24,0.17453,-0.066598,15868
3.1951,3495,607.07,0.17453,-0.066307,15868
3.2001,3493,606.42,0.17453,-0.065725,15868
3.2051,3492,606.47,0.17453,-0.065434,15868
3.2101,3490,606,0.17453,-0.06485,15868
3.2151,3492,607.91,0.17453,-0.065434,15868
3.2201,3494,609.61,0.17453,-0.066016,15868
3.2251,3496,611.15,0.17453,-0.066598,15868
3.2301,3495,610.84,0.17453,-0.066307,15868
3.2351,3494,610.64,0.17453,-0.066016,15868
3.2401,3510,620.03,0.17453,-0.070646,15868
3.2451,3512,620.39,0.17453,-0.07122,15868
3.2501,3491,607.9,0.17453,-0.065142,15868
3.2551,3493,610.01,0.17453,-0.065725,15868
3.2601,3491,609.64,0.17453,-0.065142,15868
3.2651,3497,613.88,0.17453,-0.066889,15868
3.2701,3496,613.66,0.17453,-0.066598,16124
3.2751,3495,613.53,0.17453,-0.066307,16124
3.2801,3493,612.91,0.17453,-0.065725,16124
3.2851,3492,612.99,0.17453,-0.065434,15868
3.2901,3492,613.67,0.17453,-0.065434,15868
3.2951,3492,614.32,0.17453,-0.065434,15868
3.3001,3493,615.49,0.17453,-0.065725,15868
3.3051,3497,618.25,0.17453,-0.066889,15868
3.3101,3496,617.88,0.17453,-0.066598,15868
3.3151,3494,617.06,0.17453,-0.066016,15868
3.3201,3492,616.39,0.17453,-0.065434,15868
3.3251,3516,630.41,0.17453,-0.072367,15868
3.3301,3510,625.88,0.17453,-0.070646,15868
3.3351,3494,616.39,0.17453,-0.066016,15868
3.3401,3493,616.61,0.17453,-0.065725,16124
3.3451,3497,619.66,0.17453,-0.066889,16124
3.3501,3497,620.11,0.17453,-0.066889,16124
3.3551,3494,618.87,0.17453,-0.066016,16124
3.3601,3493,618.96,0.17453,-0.065725,16124
3.3651,3492,619.1,0.17453,-0.065434,16124
3.3701,3490,618.7,0.17453,-0.06485,15868
3.3751,3492,620.67,0.17453,-0.065434,15868
3.3801,3493,621.85,0.17453,-0.065725,15868
3.3851,3497,624.62,0.17453,-0.066889,15868
3.3901,3496,624.26,0.17453,-0.066598,15868
3.3951,3494,623.44,0.17453,-0.066016,15868
3.4001,3492,622.77,0.17453,-0.065434,15868
3.4051,3492,623.37,0.17453,-0.065434,15868
3.4101,3508,632.91,0.17453,-0.07007,15868
3.4151,3491,622.74,0.17453,-0.065142,15868
3.4201,3495,625.76,0.17453,-0.066307,15868
3.4251,3497,627.29,0.17453,-0.066889,15868
3.4301,3494,625.87,0.17453,-0.066016,15868
3.4351,3493,625.81,0.17453,-0.065725,15868
3.4401,3492,625.8,0.17453,-0.065434,15868
3.4451,3492,626.41,0.17453,-0.065434,15868
3.4501,3491,626.42,0.17453,-0.065142,15868
3.4551,3492,627.61,0.17453,-0.065434,15868
3.4601,3495,629.82,0.17453,-0.066307,15868
3.4651,3498,631.77,0.17453,-0.067179,15868
3.4701,3495,630.15,0.17453,-0.066307,15868
3.4751,3492,628.79,0.17453,-0.065434,15868
3.4801,3491,628.79,0.17453,-0.065142,15868
3.4851,3491,629.4,0.17453,-0.065142,15868
3.4901,3490,629.41,0.17453,-0.06485,15868
3.4951,3489,629.46,0.17453,-0.064558,15868
3.5001,3495,633.51,0.17453,-0.066307,15868
3.5051,3516,645.4,0.17453,-0.072367,15868
3.5101,3496,632.89,0.17453,-0.066598,15868
3.5151,3494,632.13,0.17453,-0.066016,15868
3.5201,3492,631.52,0.17453,-0.065434,15868
3.5251,3492,632.16,0.17453,-0.065434,15868
3.5301,3491,632.2,0.17453,-0.065142,15868
3.5351,3493,633.98,0.17453,-0.065725,15868
3.5401,3496,636.12,0.17453,-0.066598,15868
3.5451,3496,636.35,0.17453,-0.066598,15868
3.5501,3494,635.46,0.17453,-0.066016,15868
3.5551,3493,635.31,0.17453,-0.065725,15868
3.5601,3493,635.78,0.17453,-0.065725,15868
3.5651,3491,635.11,0.17453,-0.065142,15868
3.5701,3490,635.14,0.17453,-0.06485,15868
3.5751,3491,636.34,0.17453,-0.065142,15868
3.5801,3496,639.68,0.17453,-0.066598,15868
3.5851,3514,649.86,0.17453,-0.071794,15868
3.5901,3505,643.68,0.17453,-0.069205,15868
3.5951,3494,637.22,0.17453,-0.066016,15868
3.6001,3493,637.27,0.17453,-0.065725,15868
3.6051,3491,636.79,0.17453,-0.065142,15868
3.6101,3492,638.11,0.17453,-0.065434,15868
3.6151,3495,640.43,0.17453,-0.066307,15868
3.6201,3496,641.36,0.17453,-0.066598,15868
3.6251,3497,642.21,0.17453,-0.066889,15868
3.6301,3494,640.75,0.17453,-0.066016,15868
3.6351,3491,639.53,0.17453,-0.065142,15868
3.6401,3491,640.2,0.17453,-0.065142,15868
3.6451,3491,640.83,0.17453,-0.065142,15868
3.6501,3490,640.86,0.17453,-0.06485,15868
3.6551,3494,643.74,0.17453,-0.066016,16124
3.6601,3497,645.72,0.17453,-0.066889,16124
3.6651,3517,656.94,0.17453,-0.072654,16124
3.6701,3513,653.37,0.17453,-0.071507,16124
3.6751,3494,641.92,0.17453,-0.066016,16124
3.6801,3492,641.53,0.17453,-0.065434,15868
3.6851,3492,642.36,0.17453,-0.065434,15868
3.6901,3493,643.69,0.17453,-0.065725,15868
3.6951,3492,643.76,0.17453,-0.065434,15868
3.7001,3497,647.24,0.17453,-0.066889,15868
3.7051,3494,645.81,0.17453,-0.066016,15868
3.7101,3495,646.85,0.17453,-0.066307,15868
3.7151,3493,646.12,0.17453,-0.065725,15868
3.7201,3493,646.65,0.17453,-0.065725,15868
3.7251,3492,646.6,0.17453,-0.065434,15868
3.7301,3491,646.59,0.17453,-0.065142,15868
3.7351,3492,647.75,0.17453,-0.065434,15868
3.7401,3498,651.62,0.17453,-0.067179,16124
3.7451,3495,649.95,0.17453,-0.066307,16124
3.7501,3518,663.07,0.17453,-0.07294,16124
3.7551,3512,658.34,0.17453,-0.07122,15868
3.7601,3493,646.99,0.17453,-0.065725,15868
3.7651,3492,647.26,0.17453,-0.065434,15868
3.7701,3491,647.53,0.17453,-0.065142,15868
3.7751,3493,649.5,0.17453,-0.065725,15868
3.7801,3498,652.93,0.17453,-0.067179,16124
3.7851,3495,651.46,0.17453,-0.066307,16124
3.7901,3493,650.78,0.17453,-0.065725,16124
3.7951,3493,651.37,0.17453,-0.065725,15868
3.8001,3492,651.35,0.17453,-0.065434,15868
3.8051,3490,650.81,0.17453,-0.06485,15868
3.8101,3489,650.95,0.17453,-0.064558,15868
3.8151,3494,654.5,0.17453,-0.066016,15868
3.8201,3497,656.48,0.17453,-0.066889,15868
3.8251,3494,654.87,0.17453,-0.066016,15868
3.8301,3493,654.64,0.17453,-0.065725,15868
3.8351,3513,666.23,0.17453,-0.071507,15868
3.8401,3512,664.58,0.17453,-0.07122,15868
3.8451,3493,653.14,0.17453,-0.065725,15868
3.8501,3490,652.2,0.17453,-0.06485,15868
3.8551,3495,655.93,0.17453,-0.066307,15868
3.8601,3498,658.07,0.17453,-0.067179,15868
3.8651,3495,656.6,0.17453,-0.066307,15868
3.8701,3493,655.93,0.17453,-0.065725,15868
3.8751,3493,656.51,0.17453,-0.065725,15868
3.8801,3491,655.93,0.17453,-0.065142,15868
3.8851,3490,656.03,0.17453,-0.06485,15868
3.8901,3492,657.85,0.17453,-0.065434,15868
3.8951,3497,661.15,0.17453,-0.066889,15868
3.9001,3497,661.24,0.17453,-0.066889,15868
3.9051,3495,660.24,0.17453,-0.066307,15868
3.9101,3491,658.28,0.17453,-0.065142,15868
3.9151,3491,658.88,0.17453,-0.065142,15868
3.9201,3509,669.52,0.17453,-0.070358,15868
3.9251,3512,670.38,0.17453,-0.07122,15612
3.9301,3489,656.62,0.17453,-0.064558,15612
3.9351,3497,662.12,0.17453,-0.066889,15612
3.9401,3498,662.98,0.17453,-0.067179,15868
3.9451,3493,660.4,0.17453,-0.065725,15868
3.9501,3494,661.57,0.17453,-0.066016,15868
3.9551,3492,660.94,0.17453,-0.065434,15868
3.9601,3491,660.99,0.17453,-0.065142,15868
3.9651,3491,661.64,0.17453,-0.065142,15868
3.9701,3490,661.68,0.17453,-0.06485,15868
3.9751,3496,665.69,0.17453,-0.066598,15868
3.9801,3496,665.83,0.17453,-0.066598,15868
3.9851,3494,664.87,0.17453,-0.066016,15868
3.9901,3492,664.07,0.17453,-0.065434,15868
3.9951,3492,664.55,0.17453,-0.065434,15868
4.0001,3492,665,0.17453,-0.065434,15868
4.0051,3512,676.62,0.17453,-0.07122,15868
4.0101,3492,664.35,0.17453,-0.065434,15868
4.0151,3497,667.77,0.17453,-0.066889,15868
4.0201,3498,668.51,0.17453,-0.067179,15868
4.0251,3494,666.39,0.17453,-0.066016,15868
4.0301,3492,665.71,0.17453,-0.065434,15868
4.0351,3493,666.85,0.17453,-0.065725,15868
4.0401,3491,666.19,0.17453,-0.065142,15868
4.0451,3489,665.65,0.17453,-0.064558,15868
4.0501,3491,667.47,0.17453,-0.065142,15868
4.0551,3496,670.78,0.17453,-0.066598,15868
4.0601,3497,671.43,0.17453,-0.066889,15868
4.0651,3494,669.78,0.17453,-0.066016,15868
4.0701,3491,668.39,0.17453,-0.065142,15868
4.0751,3492,669.48,0.17453,-0.065434,15868
4.0801,3490,668.76,0.17453,-0.06485,15868
4.0851,3492,670.44,0.17453,-0.065434,15868
4.0901,3493,671.36,0.17453,-0.065725,15868
4.0951,3517,685.04,0.17453,-0.072654,15868
4.1001,3497,672.39,0.17453,-0.066889,15868
4.1051,3493,670.36,0.17453,-0.065725,15868
4.1101,3496,672.58,0.17453,-0.066598,15868
4.1151,3491,670.04,0.17453,-0.065142,15868
4.1201,3490,670.13,0.17453,-0.06485,15868
4.1251,3493,672.49,0.17453,-0.065725,15868
4.1301,3492,672.32,0.17453,-0.065434,15868
4.1351,3498,676.15,0.17453,-0.067179,15868
4.1401,3497,675.57,0.17453,-0.066889,15868
4.1451,3494,673.98,0.17453,-0.066016,15868
4.1501,3492,673.2,0.17453,-0.065434,15868
4.1551,3492,673.69,0.17453,-0.065434,15868
4.1601,3489,672.45,0.17453,-0.064558,15868
4.1651,3491,674.23,0.17453,-0.065142,15612
4.1701,3492,675.25,0.17453,-0.065434,15612
4.1751,3518,690.12,0.17453,-0.07294,15612
4.1801,3516,687.44,0.17453,-0.072367,15868
4.1851,3493,673.42,0.17453,-0.065725,15868
4.1901,3494,674.71,0.17453,-0.066016,15868
4.1951,3493,674.74,0.17453,-0.065725,15868
4.2001,3492,674.79,0.17453,-0.065434,15868
4.2051,3493,676.01,0.17453,-0.065725,15868
4.2101,3493,676.53,0.17453,-0.065725,15868
4.2151,3497,679.27,0.17453,-0.066889,15868
4.2201,3495,678.3,0.17453,-0.066307,15868
4.2251,3493,677.5,0.17453,-0.065725,15868
4.2301,3493,677.97,0.17453,-0.065725,15868
4.2351,3491,677.28,0.17453,-0.065142,15868
4.2401,3492,678.41,0.17453,-0.065434,15868
4.2451,3489,677.16,0.17453,-0.064558,15868
4.2501,3494,680.63,0.17453,-0.066016,15868
4.2551,3497,682.54,0.17453,-0.066889,15868
4.2601,3516,693.13,0.17453,-0.072367,15868
4.2651,3514,690.66,0.17453,-0.071794,15868
4.2701,3493,677.94,0.17453,-0.065725,15868
4.2751,3491,677.55,0.17453,-0.065142,15868
4.2801,3493,679.5,0.17453,-0.065725,15868
4.2851,3490,678.41,0.17453,-0.06485,15868
4.2901,3495,682,0.17453,-0.066307,15868
4.2951,3497,683.45,0.17453,-0.066889,16124
4.3001,3495,682.5,0.17453,-0.066307,16124
4.3051,3491,680.58,0.17453,-0.065142,16124
4.3101,3493,682.33,0.17453,-0.065725,15868
4.3151,3492,682.19,0.17453,-0.065434,15868
4.3201,3490,681.54,0.17453,-0.06485,15868
4.3251,3491,682.7,0.17453,-0.065142,15868
4.3301,3496,685.98,0.17453,-0.066598,15868
4.3351,3498,687.18,0.17453,-0.067179,15868
4.3401,3494,684.87,0.17453,-0.066016,15868
4.3451,3510,694.11,0.17453,-0.070646,15868
4.3501,3513,694.88,0.17453,-0.071507,15868
4.3551,3492,682.17,0.17453,-0.065434,15868
4.3601,3493,683.5,0.17453,-0.065725,15868
4.3651,3491,682.99,0.17453,-0.065142,15868
4.3701,3495,685.96,0.17453,-0.066307,15868
4.3751,3499,688.56,0.17453,-0.067469,15868
4.3801,3492,684.67,0.17453,-0.065434,15868
4.3851,3492,685.26,0.17453,-0.065434,15868
4.3901,3492,685.81,0.17453,-0.065434,15868
4.3951,3491,685.75,0.17453,-0.065142,15868
4.4001,3491,686.3,0.17453,-0.065142,15868
4.4051,3491,686.8,0.17453,-0.065142,15868
4.4101,3495,689.52,0.17453,-0.066307,15868
4.4151,3497,690.78,0.17453,-0.066889,15868
4.4201,3494,689.1,0.17453,-0.066016,15868
4.4251,3491,687.67,0.17453,-0.065142,15868
4.4301,3510,698.8,0.17453,-0.070646,15868
4.4351,3512,698.95,0.17453,-0.07122,15868
4.4401,3492,686.82,0.17453,-0.065434,15868
4.4451,3490,686.4,0.17453,-0.06485,15868
4.4501,3495,690.01,0.17453,-0.066307,15868
4.4551,3497,691.48,0.17453,-0.066889,15868
4.4601,3493,689.42,0.17453,-0.065725,15868
4.4651,3493,689.9,0.17453,-0.065725,15868
4.4701,3492,689.8,0.17453,-0.065434,15868
4.4751,3491,689.73,0.17453,-0.065142,15868
4.4801,3493,691.4,0.17453,-0.065725,15868
4.4851,3493,691.75,0.17453,-0.065725,15868
4.4901,3494,692.64,0.17453,-0.066016,15868
4.4951,3497,694.57,0.17453,-0.066889,15868
4.5001,3493,692.34,0.17453,-0.065725,15868
4.5051,3491,691.56,0.17453,-0.065142,15868
4.5101,3491,692.05,0.17453,-0.065142,15868
4.5151,3511,703.69,0.17453,-0.070933,15868
4.5201,3512,703.19,0.17453,-0.07122,15868
4.5251,3492,691.04,0.17453,-0.065434,15868
4.5301,3496,693.98,0.17453,-0.066598,15868
4.5351,3496,694.31,0.17453,-0.066598,15868
4.5401,3494,693.51,0.17453,-0.066016,15868
4.5451,3493,693.4,0.17453,-0.065725,15868
4.5501,3493,693.9,0.17453,-0.065725,15612
4.5551,3493,694.36,0.17453,-0.065725,15612
4.5601,3491,693.67,0.17453,-0.065142,15612
4.5651,3493,695.35,0.17453,-0.065725,15868
4.5701,3498,698.52,0.17453,-0.067179,15868
4.5751,3495,696.8,0.17453,-0.066307,15868
4.5801,3493,695.9,0.17453,-0.065725,15868
4.5851,3493,696.28,0.17453,-0.065725,15868
4.5901,3492,696.07,0.17453,-0.065434,15868
4.5951,3491,695.92,0.17453,-0.065142,15868
4.6001,3512,708.14,0.17453,-0.07122,15868
4.6051,3493,696.39,0.17453,-0.065725,15868
4.6101,3500,700.79,0.17453,-0.067759,15868
4.6151,3497,699.02,0.17453,-0.066889,15868
4.6201,3496,698.64,0.17453,-0.066598,15868
4.6251,3493,697.22,0.17453,-0.065725,15868
4.6301,3492,697.13,0.17453,-0.065434,15868
4.6351,3491,697.09,0.17453,-0.065142,15868
4.6401,3493,698.77,0.17453,-0.065725,15868
4.6451,3494,699.69,0.17453,-0.066016,15868
4.6501,3498,702.21,0.17453,-0.067179,15868
4.6551,3496,701.05,0.17453,-0.066598,15868
4.6601,3494,700.07,0.17453,-0.066016,15868
4.6651,3490,698.12,0.17453,-0.06485,15868
4.6701,3491,699.28,0.17453,-0.065142,15868
4.6751,3491,699.74,0.17453,-0.065142,15868
4.6801,3490,699.61,0.17453,-0.06485,15868
4.6851,3493,701.78,0.17453,-0.065725,15868
4.6901,3517,715.4,0.17453,-0.072654,15868
4.6951,3495,701.57,0.17453,-0.066307,15868
4.7001,3495,701.88,0.17453,-0.066307,15868
4.7051,3493,701.06,0.17453,-0.065725,16124
4.7101,3493,701.5,0.17453,-0.065725,16124
4.7151,3491,700.78,0.17453,-0.065142,16124
4.7201,3491,701.31,0.17453,-0.065142,15868
4.7251,3494,703.49,0.17453,-0.066016,15868
4.7301,3497,705.4,0.17453,-0.066889,15868
4.7351,3496,704.84,0.17453,-0.066598,15868
4.7401,3492,702.69,0.17453,-0.065434,15868
4.7451,3492,703.11,0.17453,-0.065434,15868
4.7501,3490,702.37,0.17453,-0.06485,15868
4.7551,3491,703.45,0.17453,-0.065142,15868
4.7601,3490,703.28,0.17453,-0.06485,15868
4.7651,3496,707.11,0.17453,-0.066598,15868
4.7701,3513,716.57,0.17453,-0.071507,15868
4.7751,3517,717.53,0.17453,-0.072654,15868
4.7801,3495,703.91,0.17453,-0.066307,15868
4.7851,3492,702.71,0.17453,-0.065434,15868
4.7901,3492,703.39,0.17453,-0.065434,15868
4.7951,3490,702.88,0.17453,-0.06485,15868
4.8001,3492,704.72,0.17453,-0.065434,15868
4.8051,3497,708.02,0.17453,-0.066889,15868
4.8101,3497,708.1,0.17453,-0.066889,15868
4.8151,3493,705.95,0.17453,-0.065725,15868
4.8201,3495,707.48,0.17453,-0.066307,16124
4.8251,3492,706.03,0.17453,-0.065434,16124
4.8301,3492,706.48,0.17453,-0.065434,16124
4.8351,3492,706.9,0.17453,-0.065434,16124
4.8401,3492,707.29,0.17453,-0.065434,16124
4.8451,3496,709.9,0.17453,-0.066598,16124
4.8501,3496,709.95,0.17453,-0.066598,16124
4.8551,3513,719.51,0.17453,-0.071507,16124
4.8601,3513,718.34,0.17453,-0.071507,15868
4.8651,3493,706.17,0.17453,-0.065725,15868
4.8701,3492,706.27,0.17453,-0.065434,15868
4.8751,3493,707.51,0.17453,-0.065725,15868
4.8801,3492,707.49,0.17453,-0.065434,15868
4.8851,3496,710.3,0.17453,-0.066598,15868
4.8901,3496,710.52,0.17453,-0.066598,15868
4.8951,3494,709.61,0.17453,-0.066016,15868
4.9001,3492,708.85,0.17453,-0.065434,15868
4.9051,3491,708.77,0.17453,-0.065142,15868
4.9101,3490,708.73,0.17453,-0.06485,15868
4.9151,3491,709.85,0.17453,-0.065142,15868
4.9201,3491,710.28,0.17453,-0.065142,15868
4.9251,3496,713.49,0.17453,-0.066598,15868
4.9301,3494,712.36,0.17453,-0.066016,15868
4.9351,3493,711.97,0.17453,-0.065725,15868
4.9401,3514,723.96,0.17453,-0.071794,15868
4.9451,3514,722.64,0.17453,-0.071794,15868
4.9501,3494,710.37,0.17453,-0.066016,15868
4.9551,3493,710.37,0.17453,-0.065725,15868
4.9601,3493,710.95,0.17453,-0.065725,15868
4.9651,3497,713.73,0.17453,-0.066889,15868
4.9701,3497,713.92,0.17453,-0.066889,15868
4.9751,3494,712.42,0.17453,-0.066016,15868
4.9801,3493,712.27,0.17453,-0.065725,15868
4.9851,3492,712.16,0.17453,-0.065434,15868
4.9901,3491,712.09,0.17453,-0.065142,15868
4.9951,3492,713.18,0.17453,-0.065434,15868
5.0001,3492,713.59,0.17453,-0.065434,15868
5.0051,3498,717.34,0.17453,-0.067179,15868
5.0101,3494,714.99,0.17453,-0.066016,15868
5.0151,3494,715.24,0.17453,-0.066016,15868
5.0201,3492,714.34,0.17453,-0.065434,15868
5.0251,3511,725.35,0.17453,-0.070933,15868
5.0301,3514,725.96,0.17453,-0.071794,15868
5.0351,3493,713.12,0.17453,-0.065725,15868
5.0401,3493,713.75,0.17453,-0.065725,15868
5.0451,3501,718.81,0.17453,-0.068048,15868
