0,8230,2245.1,0.17453,-0.53864,15871
0.0049882,8235,1678.1,0.17453,-0.5388,15871
0.0099881,8234,1258.6,0.17453,-0.53877,16127
0.014989,8226,947.86,0.17453,-0.53852,16127
0.019988,8247,721.06,0.17453,-0.53917,16127
0.024988,8250,551.71,0.17453,-0.53926,15871
0.029987,8226,423.93,0.17453,-0.53852,15871
0.034988,8224,331.63,0.17453,-0.53846,15871
0.039992,8231,264.3,0.17453,-0.53868,15871
0.044989,8235,214.25,0.17453,-0.5388,15871
0.049988,8230,176.39,0.17453,-0.53864,15871
0.054989,8225,148.4,0.17453,-0.53849,15871
0.059988,8225,128.21,0.17453,-0.53849,15871
0.064988,8223,113.09,0.17453,-0.53843,15871
0.069989,8223,102.11,0.17453,-0.53843,15871
0.07499,8224,94.093,0.17453,-0.53846,15871
0.079988,8231,88.759,0.17453,-0.53868,15871
0.084994,8234,84.429,0.17453,-0.53877,15871
0.089989,8229,80.45,0.17453,-0.53861,15871
0.094989,8225,77.602,0.17453,-0.53849,15871
0.099989,8223,75.69,0.17453,-0.53843,15871
0.10499,8223,74.472,0.17453,-0.53843,15871
0.10999,8251,76.307,0.17453,-0.53929,16127
0.11499,8226,72.509,0.17453,-0.53852,16127
0.11999,8233,72.809,0.17453,-0.53874,16127
0.12499,8234,72.448,0.17453,-0.53877,16127
0.12999,8229,71.596,0.17453,-0.53861,16127
0.13499,8227,71.255,0.17453,-0.53855,16127
0.13999,8223,70.805,0.17453,-0.53843,15871
0.14499,8222,70.764,0.17453,-0.53839,15871
0.14999,8224,71.027,0.17453,-0.53846,15871
0.15499,8225,71.124,0.17453,-0.53849,15871
0.15999,8232,71.785,0.17453,-0.53871,15871
0.16499,8231,71.495,0.17453,-0.53868,15871
0.16999,8228,71.085,0.17453,-0.53858,15871
0.175,8226,70.876,0.17453,-0.53852,15871
0.17999,8223,70.623,0.17453,-0.53843,15871
0.18499,8222,70.629,0.17453,-0.53839,15871
0.18999,8223,70.829,0.17453,-0.53843,15871
0.19499,8225,71.075,0.17453,-0.53849,15871
0.19999,8233,71.847,0.17453,-0.53874,15871
0.20499,8259,74.173,0.17453,-0.53954,15871
0.20999,8228,70.357,0.17453,-0.53858,15871
0.21499,8226,70.339,0.17453,-0.53852,15871
0.22,8225,70.421,0.17453,-0.53849,15871
0.22499,8224,70.482,0.17453,-0.53846,15871
0.22999,8224,70.624,0.17453,-0.53846,15871
0.23499,8229,71.219,0.17453,-0.53861,15871
0.23999,8234,71.662,0.17453,-0.53877,15871
0.24499,8231,71.21,0.17453,-0.53868,15871
0.24999,8229,70.972,0.17453,-0.53861,15871
0.25499,8227,70.794,0.17453,-0.53855,15871
0.25999,8222,70.366,0.17453,-0.53839,15871
0.265,8224,70.733,0.17453,-0.53846,15871
0.26999,8223,70.711,0.17453,-0.53843,15871
0.27499,8229,71.381,0.17453,-0.53861,15871
0.27999,8235,71.879,0.17453,-0.5388,15871
0.28499,8230,71.176,0.17453,-0.53864,15871
0.28999,8254,73.483,0.17453,-0.53939,15871
0.295,8251,72.574,0.17453,-0.53929,15871
0.3,8223,69.456,0.17453,-0.53843,15871
0.30499,8222,69.766,0.17453,-0.53839,15871
0.30999,8224,70.29,0.17453,-0.53846,15871
0.315,8227,70.776,0.17453,-0.53855,15871
0.31999,8235,71.627,0.17453,-0.5388,15871
0.325,8231,71.087,0.17453,-0.53868,16127
0.32999,8227,70.685,0.17453,-0.53855,16127
0.335,8224,70.482,0.17453,-0.53846,16127
0.34,8224,70.624,0.17453,-0.53846,16127
0.345,8222,70.532,0.17453,-0.53839,16127
0.35,8222,70.659,0.17453,-0.53839,16127
0.355,8229,71.44,0.17453,-0.53861,16127
0.36,8234,71.825,0.17453,-0.53877,16127
0.365,8228,71.037,0.17453,-0.53858,15871
0.37,8227,70.939,0.17453,-0.53855,15871
0.375,8254,73.599,0.17453,-0.53939,15871
0.38,8248,72.368,0.17453,-0.5392,15871
0.385,8223,69.593,0.17453,-0.53843,15871
0.39,8225,70.162,0.17453,-0.53849,15871
0.395,8229,70.78,0.17453,-0.53861,15871
0.4,8236,71.533,0.17453,-0.53883,15871
0.405,8229,70.726,0.17453,-0.53861,15871
0.41,8226,70.514,0.17453,-0.53852,15871
0.415,8225,70.551,0.17453,-0.53849,15871
0.42,8223,70.479,0.17453,-0.53843,15871
0.425,8224,70.719,0.17453,-0.53846,15871
0.43,8224,70.799,0.17453,-0.53846,15871
0.435,8230,71.446,0.17453,-0.53864,15871
0.44,8233,71.635,0.17453,-0.53874,16127
0.445,8229,71.091,0.17453,-0.53861,16127
0.45,8227,70.882,0.17453,-0.53855,16127
0.455,8224,70.628,0.17453,-0.53846,16127
0.46,8225,70.83,0.17453,-0.53849,16127
0.465,8242,72.544,0.17453,-0.53902,15871
0.47,8226,70.598,0.17453,-0.53852,15871
0.475,8231,71.201,0.17453,-0.53868,15871
0.48,8233,71.356,0.17453,-0.53874,15871
0.485,8229,70.886,0.17453,-0.53861,15871
0.49,8228,70.828,0.17453,-0.53858,15871
0.495,8224,70.491,0.17453,-0.53846,15871
0.5,8222,70.434,0.17453,-0.53839,15871
0.505,8223,70.685,0.17453,-0.53843,15871
0.51,8224,70.871,0.17453,-0.53846,15871
0.515,8233,71.793,0.17453,-0.53874,15871
0.52,8233,71.6,0.17453,-0.53874,15871
0.525,8227,70.87,0.17453,-0.53855,15871
0.53,8224,70.619,0.17453,-0.53846,15871
0.535,8225,70.823,0.17453,-0.53849,15871
0.54,8222,70.582,0.17453,-0.53839,15871
0.545,8221,70.598,0.17453,-0.53836,15871
0.55,8225,71.1,0.17453,-0.53849,15871
0.555,8233,71.865,0.17453,-0.53874,15871
0.56,8258,74.089,0.17453,-0.53951,15871
0.565,8249,72.442,0.17453,-0.53923,16127
0.57,8228,70.042,0.17453,-0.53858,16127
0.575,8225,70.008,0.17453,-0.53849,16127
0.58,8223,70.078,0.17453,-0.53843,15871
0.585,8225,70.52,0.17453,-0.53849,15871
0.59,8226,70.751,0.17453,-0.53852,15871
0.595,8232,71.412,0.17453,-0.53871,15871
0.6,8233,71.415,0.17453,-0.53874,15871
0.605,8228,70.831,0.17453,-0.53858,15871
0.61,8226,70.689,0.17453,-0.53852,15871
0.615,8225,70.68,0.17453,-0.53849,15871
0.62,8223,70.575,0.17453,-0.53843,15871
0.625,8224,70.79,0.17453,-0.53846,15871
0.63,8225,70.949,0.17453,-0.53849,15871
0.635,8234,71.852,0.17453,-0.53877,15871
0.64,8231,71.35,0.17453,-0.53868,15871
0.645,8254,73.515,0.17453,-0.53939,15871
0.65,8253,72.792,0.17453,-0.53936,15871
0.655,8226,69.718,0.17453,-0.53852,15871
0.66,8224,69.865,0.17453,-0.53846,15871
0.665,8226,70.364,0.17453,-0.53852,15871
0.67,8227,70.636,0.17453,-0.53855,15871
0.675,8234,71.426,0.17453,-0.53877,15871
0.68,8233,71.231,0.17453,-0.53874,15871
0.685,8226,70.499,0.17453,-0.53852,15871
0.69,8227,70.736,0.17453,-0.53855,15871
0.695,8225,70.618,0.17453,-0.53849,15871
0.7,8225,70.725,0.17453,-0.53849,15871
0.705,8223,70.608,0.17453,-0.53843,15871
0.71,8228,71.207,0.17453,-0.53858,15871
0.715,8235,71.848,0.17453,-0.5388,15871
0.72,8231,71.251,0.17453,-0.53868,15871
0.725,8226,70.708,0.17453,-0.53852,15871
0.73,8225,70.694,0.17453,-0.53849,15871
0.735,8250,73.224,0.17453,-0.53926,15871
0.74,8250,72.671,0.17453,-0.53926,15871
0.745,8223,69.624,0.17453,-0.53843,15871
0.75,8229,70.577,0.17453,-0.53861,15871
0.755,8236,71.383,0.17453,-0.53883,15871
0.76,8229,70.615,0.17453,-0.53861,15871
0.76501,8227,70.53,0.17453,-0.53855,15871
0.77,8228,70.76,0.17453,-0.53858,15871
0.775,8223,70.342,0.17453,-0.53843,15871
0.78,8221,70.323,0.17453,-0.53836,15871
0.785,8223,70.7,0.17453,-0.53843,15871
0.79001,8228,71.275,0.17453,-0.53858,15871
0.79501,8236,71.996,0.17453,-0.53883,15871
0.80001,8229,71.067,0.17453,-0.53861,15871
0.805,8224,70.57,0.17453,-0.53846,15871
0.81001,8225,70.787,0.17453,-0.53849,15871
0.81501,8223,70.654,0.17453,-0.53843,15871
0.82001,8235,71.925,0.17453,-0.5388,15871
0.82501,8247,72.87,0.17453,-0.53917,15871
0.83001,8229,70.649,0.17453,-0.53861,15871
0.83501,8235,71.339,0.17453,-0.5388,15871
0.84001,8228,70.581,0.17453,-0.53858,15871
0.84502,8226,70.504,0.17453,-0.53852,15871
0.85001,8223,70.347,0.17453,-0.53843,15871
0.85501,8225,70.72,0.17453,-0.53849,15871
0.86001,8224,70.702,0.17453,-0.53846,15871
0.86501,8223,70.688,0.17453,-0.53843,15871
0.87001,8230,71.462,0.17453,-0.53864,15871
0.87501,8236,71.94,0.17453,-0.53883,15871
0.88001,8229,71.026,0.17453,-0.53861,15871
0.88501,8227,70.834,0.17453,-0.53855,15871
0.89001,8226,70.788,0.17453,-0.53852,15871
0.89501,8225,70.754,0.17453,-0.53849,16127
0.90001,8223,70.629,0.17453,-0.53843,16127
0.90501,8222,70.634,0.17453,-0.53839,15871
0.91001,8232,71.714,0.17453,-0.53871,15871
0.91501,8260,74.269,0.17453,-0.53957,15871
0.92001,8256,73.063,0.17453,-0.53945,15871
0.92501,8225,69.532,0.17453,-0.53849,15871
0.93001,8223,69.726,0.17453,-0.53843,15871
0.93501,8225,70.261,0.17453,-0.53849,15871
0.94001,8223,70.265,0.17453,-0.53843,15871
0.94503,8222,70.364,0.17453,-0.53839,15871
0.95001,8231,71.418,0.17453,-0.53868,15871
0.95501,8235,71.712,0.17453,-0.5388,15871
0.96001,8228,70.857,0.17453,-0.53858,15871
0.96501,8225,70.61,0.17453,-0.53849,15871
0.97001,8224,70.621,0.17453,-0.53846,15871
0.97501,8222,70.53,0.17453,-0.53839,15871
0.98001,8223,70.756,0.17453,-0.53843,15871
0.98501,8224,70.924,0.17453,-0.53846,15871
0.99001,8234,71.93,0.17453,-0.53877,15871
0.99501,8234,71.702,0.17453,-0.53877,15871
1,8233,71.435,0.17453,-0.53874,15871
1.005,8249,72.897,0.17453,-0.53923,15871
1.01,8251,72.623,0.17453,-0.53929,15871
1.015,8226,69.787,0.17453,-0.53852,15871
1.02,8221,69.621,0.17453,-0.53836,15871
1.025,8224,70.279,0.17453,-0.53846,15871
1.03,8232,71.258,0.17453,-0.53871,15871
1.035,8233,71.302,0.17453,-0.53874,15871
1.04,8227,70.649,0.17453,-0.53855,15871
1.045,8223,70.358,0.17453,-0.53843,15871
1.05,8225,70.727,0.17453,-0.53849,16127
1.055,8222,70.511,0.17453,-0.53839,16127
1.06,8221,70.546,0.17453,-0.53836,16127
1.065,8226,71.159,0.17453,-0.53852,15871
1.07,8234,71.909,0.17453,-0.53877,15871
1.075,8232,71.491,0.17453,-0.53871,15871
1.08,8226,70.788,0.17453,-0.53852,15871
1.085,8225,70.754,0.17453,-0.53849,15871
1.09,8254,73.657,0.17453,-0.53939,16127
1.095,8248,72.41,0.17453,-0.5392,16127
1.1,8223,69.624,0.17453,-0.53843,16127
1.105,8226,70.284,0.17453,-0.53852,15871
1.11,8236,71.458,0.17453,-0.53883,15871
1.115,8233,71.061,0.17453,-0.53874,15871
1.12,8229,70.668,0.17453,-0.53861,16127
1.125,8226,70.471,0.17453,-0.53852,16127
1.13,8224,70.421,0.17453,-0.53846,16127
1.135,8223,70.481,0.17453,-0.53843,15871
1.14,8225,70.818,0.17453,-0.53849,15871
1.145,8227,71.069,0.17453,-0.53855,15871
1.15,8234,71.746,0.17453,-0.53877,15871
1.155,8231,71.272,0.17453,-0.53868,15871
1.16,8226,70.724,0.17453,-0.53852,15871
1.165,8223,70.51,0.17453,-0.53843,15871
1.17,8225,70.84,0.17453,-0.53849,15871
1.175,8225,70.889,0.17453,-0.53849,15871
1.18,8249,73.27,0.17453,-0.53923,15871
1.185,8228,70.654,0.17453,-0.53858,15871
1.19,8236,71.537,0.17453,-0.53883,15871
1.195,8231,70.924,0.17453,-0.53868,15871
1.2,8227,70.564,0.17453,-0.53855,15871
1.205,8225,70.491,0.17453,-0.53849,15871
1.21,8224,70.533,0.17453,-0.53846,15871
1.215,8223,70.563,0.17453,-0.53843,15871
1.22,8224,70.781,0.17453,-0.53846,15871
1.225,8228,71.237,0.17453,-0.53858,15871
1.23,8234,71.773,0.17453,-0.53877,15871
1.235,8230,71.194,0.17453,-0.53864,15871
1.24,8227,70.861,0.17453,-0.53855,15871
1.245,8224,70.612,0.17453,-0.53846,15871
1.25,8223,70.622,0.17453,-0.53843,15871
1.255,8225,70.923,0.17453,-0.53849,15871
1.26,8221,70.558,0.17453,-0.53836,15871
1.265,8228,71.364,0.17453,-0.53858,15871
1.27,8261,74.495,0.17453,-0.5396,15871
1.275,8258,73.329,0.17453,-0.53951,15871
1.28,8226,69.633,0.17453,-0.53852,15871
1.285,8225,69.9,0.17453,-0.53849,15871
1.29,8226,70.293,0.17453,-0.53852,15871
1.295,8224,70.289,0.17453,-0.53846,15871
1.3,8224,70.481,0.17453,-0.53846,15871
1.305,8228,71.016,0.17453,-0.53858,15871
1.31,8233,71.511,0.17453,-0.53874,15871
1.315,8230,71.098,0.17453,-0.53864,15871
1.32,8226,70.692,0.17453,-0.53852,15871
1.325,8226,70.781,0.17453,-0.53852,15871
1.33,8224,70.65,0.17453,-0.53846,15871
1.335,8225,70.846,0.17453,-0.53849,16127
1.34,8223,70.697,0.17453,-0.53843,16127
1.345,8232,71.664,0.17453,-0.53871,16127
1.35,8235,71.797,0.17453,-0.5388,15871
1.355,8229,71.018,0.17453,-0.53861,15871
1.36,8250,73.074,0.17453,-0.53926,15871
1.365,8250,72.56,0.17453,-0.53926,15871
1.37,8225,69.738,0.17453,-0.53849,15871
1.375,8223,69.879,0.17453,-0.53843,15871
1.38,8222,70.079,0.17453,-0.53839,15871
1.385,8232,71.305,0.17453,-0.53871,15871
1.39,8234,71.434,0.17453,-0.53877,15871
1.395,8230,70.944,0.17453,-0.53864,15871
1.4,8227,70.676,0.17453,-0.53855,15871
1.405,8222,70.279,0.17453,-0.53839,15871
1.41,8224,70.669,0.17453,-0.53846,15871
1.415,8224,70.762,0.17453,-0.53846,15871
1.42,8224,70.831,0.17453,-0.53846,16127
1.425,8231,71.567,0.17453,-0.53868,16127
1.43,8233,71.627,0.17453,-0.53874,16127
1.435,8227,70.89,0.17453,-0.53855,15871
1.44,8226,70.83,0.17453,-0.53852,15871
1.445,8253,73.518,0.17453,-0.53936,15871
1.45,8249,72.502,0.17453,-0.53923,15871
1.455,8250,72.234,0.17453,-0.53926,15871
1.46,8222,69.203,0.17453,-0.53839,15871
1.465,8232,70.657,0.17453,-0.53871,15871
1.47,8235,71.053,0.17453,-0.5388,15871
1.475,8228,70.37,0.17453,-0.53858,15871
1.48,8227,70.446,0.17453,-0.53855,15871
1.485,8223,70.207,0.17453,-0.53843,15871
1.49,8223,70.42,0.17453,-0.53843,16127
1.495,8224,70.675,0.17453,-0.53846,16127
1.5,8226,70.963,0.17453,-0.53852,16127
1.505,8234,71.764,0.17453,-0.53877,15871
1.51,8233,71.482,0.17453,-0.53874,15871
1.515,8230,71.076,0.17453,-0.53864,15871
1.52,8223,70.382,0.17453,-0.53843,16127
1.525,8225,70.745,0.17453,-0.53849,16127
1.53,8224,70.721,0.17453,-0.53846,16127
1.535,8254,73.73,0.17453,-0.53939,15871
1.54,8225,70.217,0.17453,-0.53849,15871
1.545,8232,71.114,0.17453,-0.53871,15871
1.55,8234,71.293,0.17453,-0.53877,15871
1.555,8229,70.742,0.17453,-0.53861,15871
1.56,8227,70.624,0.17453,-0.53855,16127
1.565,8225,70.535,0.17453,-0.53849,16127
1.57,8223,70.468,0.17453,-0.53843,16127
1.575,8225,70.809,0.17453,-0.53849,16127
1.58,8228,71.16,0.17453,-0.53858,16127
1.585,8236,71.911,0.17453,-0.53883,16127
1.59,8230,71.103,0.17453,-0.53864,15871
1.595,8227,70.793,0.17453,-0.53855,15871
1.6,8224,70.562,0.17453,-0.53846,15871
1.605,8224,70.683,0.17453,-0.53846,15871
1.61,8224,70.772,0.17453,-0.53846,15871
1.615,8223,70.74,0.17453,-0.53843,15871
1.62,8226,71.108,0.17453,-0.53852,15871
1.625,8246,73.043,0.17453,-0.53914,15871
1.63,8256,73.507,0.17453,-0.53945,15871
1.635,8254,72.691,0.17453,-0.53939,15871
1.64,8226,69.547,0.17453,-0.53852,15871
1.645,8223,69.64,0.17453,-0.53843,15871
1.65,8224,70.099,0.17453,-0.53846,15871
1.655,8223,70.243,0.17453,-0.53843,15871
1.66,8229,71.034,0.17453,-0.53861,16127
1.665,8236,71.721,0.17453,-0.53883,16127
1.67,8230,70.962,0.17453,-0.53864,16127
1.675,8228,70.788,0.17453,-0.53858,15871
1.68,8224,70.461,0.17453,-0.53846,15871
1.685,8224,70.608,0.17453,-0.53846,15871
1.69,8223,70.619,0.17453,-0.53843,15871
1.695,8223,70.724,0.17453,-0.53843,15871
1.7,8229,71.39,0.17453,-0.53861,15871
1.705,8235,71.886,0.17453,-0.5388,15871
1.71,8229,71.083,0.17453,-0.53861,15871
1.715,8260,74.094,0.17453,-0.53957,15871
1.72,8252,72.545,0.17453,-0.53933,15871
1.725,8224,69.436,0.17453,-0.53846,15871
1.73,8224,69.851,0.17453,-0.53846,15871
1.735,8226,70.354,0.17453,-0.53852,15871
1.74,8230,70.922,0.17453,-0.53864,15871
1.745,8233,71.248,0.17453,-0.53874,15871
1.75,8231,71.001,0.17453,-0.53868,15871
1.755,8226,70.523,0.17453,-0.53852,15871
1.76,8224,70.46,0.17453,-0.53846,15871
1.765,8223,70.509,0.17453,-0.53843,15871
1.77,8224,70.741,0.17453,-0.53846,15871
1.775,8222,70.619,0.17453,-0.53839,15871
1.78,8229,71.41,0.17453,-0.53861,15871
1.785,8234,71.803,0.17453,-0.53877,15871
1.79,8231,71.315,0.17453,-0.53868,15871
1.795,8226,70.755,0.17453,-0.53852,15871
1.8,8223,70.533,0.17453,-0.53843,15871
1.805,8246,72.91,0.17453,-0.53914,15871
1.81,8250,72.825,0.17453,-0.53926,15871
1.815,8223,69.738,0.17453,-0.53843,16127
1.82,8231,70.857,0.17453,-0.53868,16127
1.825,8235,71.298,0.17453,-0.5388,16127
1.83,8230,70.747,0.17453,-0.53864,16127
1.835,8227,70.53,0.17453,-0.53855,16127
1.84,8225,70.466,0.17453,-0.53849,16127
1.845,8224,70.515,0.17453,-0.53846,15871
1.85,8224,70.648,0.17453,-0.53846,15871
1.855,8224,70.746,0.17453,-0.53846,15871
1.86,8231,71.505,0.17453,-0.53868,15871
1.865,8233,71.581,0.17453,-0.53874,15871
1.87,8228,70.954,0.17453,-0.53858,15871
1.875,8227,70.878,0.17453,-0.53855,15871
1.88,8222,70.428,0.17453,-0.53839,15871
1.885,8222,70.583,0.17453,-0.53839,15871
1.89,8223,70.795,0.17453,-0.53843,15871
1.895,8224,70.952,0.17453,-0.53846,15871
1.9,8232,71.755,0.17453,-0.53871,15871
1.905,8234,71.767,0.17453,-0.53877,15871
1.91,8230,71.19,0.17453,-0.53864,15871
1.915,8226,70.76,0.17453,-0.53852,15871
1.92,8225,70.733,0.17453,-0.53849,15871
1.925,8221,70.417,0.17453,-0.53836,15871
1.93,8224,70.868,0.17453,-0.53846,15871
1.935,8223,70.811,0.17453,-0.53843,15871
1.94,8233,71.846,0.17453,-0.53874,15871
1.945,8232,71.541,0.17453,-0.53871,15871
1.95,8228,71.021,0.17453,-0.53858,15871
1.955,8224,70.633,0.17453,-0.53846,15871
1.96,8223,70.638,0.17453,-0.53843,15871
1.965,8224,70.836,0.17453,-0.53846,15871
1.97,8224,70.886,0.17453,-0.53846,15871
1.975,8225,71.02,0.17453,-0.53849,15871
1.98,8233,71.806,0.17453,-0.53874,15871
1.985,8254,73.657,0.17453,-0.53939,15871
1.99,8255,73.092,0.17453,-0.53942,15871
1.995,8226,69.747,0.17453,-0.53852,15871
2,8225,69.984,0.17453,-0.53849,15871
2.005,8225,70.257,0.17453,-0.53849,15871
2.01,8223,70.262,0.17453,-0.53843,15871
2.015,8227,70.853,0.17453,-0.53855,15871
2.02,8234,71.586,0.17453,-0.53877,15871
2.025,8230,71.056,0.17453,-0.53864,15871
2.03,8226,70.661,0.17453,-0.53852,15871
2.035,8227,70.856,0.17453,-0.53855,15871
2.04,8223,70.51,0.17453,-0.53843,15871
2.045,8222,70.546,0.17453,-0.53839,15871
2.05,8221,70.571,0.17453,-0.53836,15871
2.055,8228,71.374,0.17453,-0.53858,15871
2.06,8235,71.971,0.17453,-0.5388,15871
2.065,8230,71.244,0.17453,-0.53864,15871
2.07,8227,70.898,0.17453,-0.53855,15871
2.075,8252,73.374,0.17453,-0.53933,15871
2.08,8251,72.687,0.17453,-0.53929,15871
2.085,8223,69.539,0.17453,-0.53843,15871
2.09,8224,70.024,0.17453,-0.53846,15871
2.095,8229,70.776,0.17453,-0.53861,15871
2.1,8235,71.432,0.17453,-0.5388,15871
2.105,8230,70.846,0.17453,-0.53864,15871
2.11,8227,70.603,0.17453,-0.53855,15871
2.115,8224,70.422,0.17453,-0.53846,15871
2.12,8223,70.481,0.17453,-0.53843,15871
2.125,8223,70.622,0.17453,-0.53843,15871
2.13,8221,70.53,0.17453,-0.53836,15871
2.135,8229,71.442,0.17453,-0.53861,15871
2.14,8234,71.827,0.17453,-0.53877,15871
2.145,8230,71.234,0.17453,-0.53864,15871
2.15,8227,70.891,0.17453,-0.53855,15871
2.155,8225,70.732,0.17453,-0.53849,15871
2.16,8252,73.446,0.17453,-0.53933,15871
2.165,8247,72.35,0.17453,-0.53917,15871
2.17,8224,69.775,0.17453,-0.53846,15871
2.175,8229,70.591,0.17453,-0.53861,15871
2.18,8234,71.198,0.17453,-0.53877,15871
2.185,8233,71.063,0.17453,-0.53874,15871
2.19,8228,70.571,0.17453,-0.53858,15871
2.195,8225,70.399,0.17453,-0.53849,15871
2.2,8223,70.367,0.17453,-0.53843,15871
2.205,8222,70.44,0.17453,-0.53839,15871
2.21,8224,70.787,0.17453,-0.53846,15871
2.215,8231,71.535,0.17453,-0.53868,16127
2.22,8233,71.604,0.17453,-0.53874,16127
2.225,8227,70.872,0.17453,-0.53855,16127
2.23,8225,70.719,0.17453,-0.53849,15871
2.235,8225,70.8,0.17453,-0.53849,15871
2.24,8222,70.565,0.17453,-0.53839,15871
2.245,8223,70.782,0.17453,-0.53843,15871
2.25,8222,70.746,0.17453,-0.53839,15871
2.255,8231,71.7,0.17453,-0.53868,15871
2.26,8260,74.355,0.17453,-0.53957,15871
2.265,8229,70.493,0.17453,-0.53861,15871
2.27,8225,70.244,0.17453,-0.53849,15871
2.275,8222,70.155,0.17453,-0.53839,15871
2.28,8224,70.577,0.17453,-0.53846,15871
2.285,8221,70.399,0.17453,-0.53836,15871
2.29,8223,70.757,0.17453,-0.53843,15871
2.295,8233,71.806,0.17453,-0.53874,15871
2.3,8232,71.511,0.17453,-0.53871,16127
2.305,8229,71.097,0.17453,-0.53861,16127
2.31,8226,70.789,0.17453,-0.53852,16127
2.315,8225,70.754,0.17453,-0.53849,15871
2.32,8223,70.629,0.17453,-0.53843,15871
2.325,8223,70.732,0.17453,-0.53843,15871
2.33,8224,70.906,0.17453,-0.53846,15871
2.335,8233,71.819,0.17453,-0.53874,15871
2.34,8257,73.958,0.17453,-0.53948,15871
2.345,8255,73.025,0.17453,-0.53942,15871
2.35,8246,71.652,0.17453,-0.53914,15871
2.355,8225,69.454,0.17453,-0.53849,15871
2.3601,8224,69.767,0.17453,-0.53846,15871
2.365,8222,69.899,0.17453,-0.53839,15871
2.37,8226,70.584,0.17453,-0.53852,15871
2.375,8233,71.386,0.17453,-0.53874,15871
2.38,8231,71.104,0.17453,-0.53868,15871
2.385,8228,70.795,0.17453,-0.53858,15871
2.39,8226,70.662,0.17453,-0.53852,15871
2.395,8225,70.661,0.17453,-0.53849,15871
2.4,8223,70.56,0.17453,-0.53843,15871
2.405,8223,70.681,0.17453,-0.53843,15871
2.41,8226,71.064,0.17453,-0.53852,15871
2.415,8235,71.937,0.17453,-0.5388,15871
2.42,8232,71.414,0.17453,-0.53871,15871
2.425,8228,70.928,0.17453,-0.53858,15871
2.43,8252,73.299,0.17453,-0.53933,15871
2.435,8249,72.436,0.17453,-0.53923,15871
2.44,8223,69.547,0.17453,-0.53843,15871
2.445,8223,69.932,0.17453,-0.53843,15871
2.45,8227,70.609,0.17453,-0.53855,15871
2.455,8235,71.503,0.17453,-0.5388,15871
2.4601,8232,71.094,0.17453,-0.53871,15871
2.465,8226,70.495,0.17453,-0.53852,15871
2.47,8224,70.439,0.17453,-0.53846,15871
2.475,8224,70.592,0.17453,-0.53846,15871
2.48,8222,70.509,0.17453,-0.53839,15871
2.485,8224,70.838,0.17453,-0.53846,15871
2.49,8227,71.181,0.17453,-0.53855,15871
2.495,8234,71.828,0.17453,-0.53877,15871
2.5,8231,71.333,0.17453,-0.53868,15871
2.505,8226,70.769,0.17453,-0.53852,15871
2.51,8226,70.837,0.17453,-0.53852,15871
2.515,8224,70.692,0.17453,-0.53846,15871
2.52,8250,73.319,0.17453,-0.53926,15871
2.525,8250,72.742,0.17453,-0.53926,15871
2.53,8227,70.068,0.17453,-0.53855,15871
2.535,8237,71.299,0.17453,-0.53886,15871
2.54,8232,70.749,0.17453,-0.53871,15871
2.545,8227,70.338,0.17453,-0.53855,15871
2.55,8224,70.226,0.17453,-0.53846,15871
2.555,8225,70.533,0.17453,-0.53849,16127
2.5601,8224,70.564,0.17453,-0.53846,16127
2.565,8222,70.488,0.17453,-0.53839,16127
2.57,8229,71.313,0.17453,-0.53861,15871
2.575,8234,71.731,0.17453,-0.53877,15871
2.58,8228,70.968,0.17453,-0.53858,15871
2.585,8226,70.79,0.17453,-0.53852,15871
2.59,8226,70.853,0.17453,-0.53852,15871
2.595,8225,70.802,0.17453,-0.53849,15871
2.6,8223,70.665,0.17453,-0.53843,16127
2.605,8250,73.396,0.17453,-0.53926,16127
2.61,8230,70.846,0.17453,-0.53864,16127
2.615,8262,74.016,0.17453,-0.53963,16127
2.62,8230,70.148,0.17453,-0.53864,16127
2.625,8226,69.99,0.17453,-0.53852,16127
2.63,8228,70.458,0.17453,-0.53858,15871
2.635,8225,70.315,0.17453,-0.53849,15871
2.64,8223,70.305,0.17453,-0.53843,15871
2.645,8223,70.492,0.17453,-0.53843,15871
2.65,8232,71.513,0.17453,-0.53871,15871
2.655,8235,71.685,0.17453,-0.5388,15871
2.6601,8228,70.837,0.17453,-0.53858,15871
2.665,8225,70.595,0.17453,-0.53849,15871
2.67,8225,70.708,0.17453,-0.53849,15871
2.675,8224,70.694,0.17453,-0.53846,15871
2.68,8224,70.78,0.17453,-0.53846,15871
2.685,8222,70.648,0.17453,-0.53839,15871
2.69,8231,71.627,0.17453,-0.53868,15871
2.695,8235,71.867,0.17453,-0.5388,15871
2.7,8254,73.508,0.17453,-0.53939,15871
2.705,8252,72.69,0.17453,-0.53933,15871
2.71,8225,69.641,0.17453,-0.53849,15871
2.715,8225,70.003,0.17453,-0.53849,15871
2.72,8224,70.173,0.17453,-0.53846,15871
2.725,8222,70.199,0.17453,-0.53839,16127
2.73,8231,71.295,0.17453,-0.53868,16127
2.735,8235,71.622,0.17453,-0.5388,16127
2.74,8230,70.986,0.17453,-0.53864,15871
2.745,8226,70.609,0.17453,-0.53852,15871
2.75,8225,70.621,0.17453,-0.53849,15871
2.755,8224,70.629,0.17453,-0.53846,15871
2.7601,8222,70.537,0.17453,-0.53839,15871
2.765,8222,70.662,0.17453,-0.53839,15871
2.77,8233,71.834,0.17453,-0.53874,15871
2.775,8232,71.532,0.17453,-0.53871,15871
2.78,8227,70.917,0.17453,-0.53855,15871
2.785,8227,70.947,0.17453,-0.53855,16127
2.79,8253,73.508,0.17453,-0.53936,16127
2.795,8247,72.3,0.17453,-0.53917,16127
2.8,8224,69.737,0.17453,-0.53846,16127
2.8051,8224,70.074,0.17453,-0.53846,16127
2.81,8233,71.204,0.17453,-0.53874,16127
2.8151,8235,71.36,0.17453,-0.5388,15871
2.82,8228,70.596,0.17453,-0.53858,15871
2.825,8224,70.319,0.17453,-0.53846,15871
2.83,8224,70.504,0.17453,-0.53846,15871
2.8351,8222,70.444,0.17453,-0.53839,15871
2.84,8222,70.594,0.17453,-0.53839,16127
2.8451,8226,71.097,0.17453,-0.53852,16127
2.8501,8234,71.863,0.17453,-0.53877,16127
2.8551,8233,71.555,0.17453,-0.53874,15871
2.8601,8228,70.935,0.17453,-0.53858,15871
2.8651,8224,70.569,0.17453,-0.53846,15871
2.8701,8224,70.688,0.17453,-0.53846,16127
2.8751,8251,73.414,0.17453,-0.53929,16127
2.8801,8249,72.618,0.17453,-0.53923,16127
2.8851,8225,69.877,0.17453,-0.53849,15871
2.8901,8234,71.059,0.17453,-0.53877,15871
2.8951,8233,70.961,0.17453,-0.53874,15871
2.9001,8228,70.495,0.17453,-0.53858,15871
2.9051,8226,70.441,0.17453,-0.53852,15871
2.9101,8225,70.497,0.17453,-0.53849,15871
2.9151,8224,70.538,0.17453,-0.53846,15871
2.9201,8223,70.567,0.17453,-0.53843,15871
2.9251,8225,70.882,0.17453,-0.53849,15871
2.9301,8234,71.802,0.17453,-0.53877,15871
2.9351,8231,71.314,0.17453,-0.53868,15871
2.9401,8226,70.754,0.17453,-0.53852,16127
2.9451,8225,70.728,0.17453,-0.53849,16127
2.9501,8224,70.709,0.17453,-0.53846,16127
2.9551,8224,70.791,0.17453,-0.53846,15871
2.9601,8222,70.656,0.17453,-0.53839,15871
2.9651,8226,71.143,0.17453,-0.53852,15871
2.9701,8261,74.527,0.17453,-0.5396,15871
2.9751,8258,73.352,0.17453,-0.53951,15871
2.9801,8227,69.748,0.17453,-0.53855,15871
2.9851,8225,69.888,0.17453,-0.53849,15871
2.9901,8226,70.284,0.17453,-0.53852,15871
2.9951,8224,70.283,0.17453,-0.53846,16127
3.0001,8222,70.28,0.17453,-0.53839,16127
3.0051,8228,71.062,0.17453,-0.53858,16127
3.0101,8235,71.741,0.17453,-0.5388,15871
3.0151,8230,71.074,0.17453,-0.53864,15871
3.0201,8226,70.674,0.17453,-0.53852,15871
3.0251,8223,70.473,0.17453,-0.53843,15871
3.0301,8224,70.714,0.17453,-0.53846,15871
3.0351,8222,70.599,0.17453,-0.53839,15871
3.0401,8222,70.709,0.17453,-0.53839,15871
3.0451,8228,71.378,0.17453,-0.53858,15871
3.0501,8235,71.975,0.17453,-0.5388,15871
3.0551,8260,74.17,0.17453,-0.53957,15871
3.0601,8252,72.601,0.17453,-0.53933,15871
3.0651,8225,69.576,0.17453,-0.53849,15871
3.0701,8223,69.759,0.17453,-0.53843,15871
3.0751,8223,70.089,0.17453,-0.53843,15871
3.0801,8223,70.332,0.17453,-0.53843,15871
3.0851,8229,71.101,0.17453,-0.53861,15871
3.0901,8236,71.77,0.17453,-0.53883,15871
3.0951,8230,70.998,0.17453,-0.53864,15871
3.1001,8226,70.618,0.17453,-0.53852,15871
3.1051,8223,70.432,0.17453,-0.53843,15871
3.1101,8222,70.488,0.17453,-0.53839,15871
3.1151,8224,70.823,0.17453,-0.53846,15871
3.1201,8223,70.778,0.17453,-0.53843,15871
3.1251,8230,71.528,0.17453,-0.53864,16127
3.1301,8237,72.086,0.17453,-0.53886,16127
3.1351,8229,71.037,0.17453,-0.53861,16127
3.1401,8225,70.646,0.17453,-0.53849,15871
3.1451,8250,73.188,0.17453,-0.53926,15871
3.1501,8252,72.839,0.17453,-0.53933,15871
3.1551,8225,69.752,0.17453,-0.53849,15871
3.1601,8222,69.79,0.17453,-0.53839,15871
3.1651,8232,71.091,0.17453,-0.53871,15871
3.1701,8234,71.276,0.17453,-0.53877,15871
3.1751,8231,70.925,0.17453,-0.53868,15871
3.1801,8225,70.369,0.17453,-0.53849,15871
3.1851,8225,70.541,0.17453,-0.53849,15871
3.1901,8224,70.57,0.17453,-0.53846,15871
3.1951,8224,70.689,0.17453,-0.53846,15871
3.2001,8224,70.777,0.17453,-0.53846,15871
3.2051,8230,71.43,0.17453,-0.53864,15871
3.2101,8234,71.721,0.17453,-0.53877,15871
3.2151,8228,70.96,0.17453,-0.53858,15871
3.2201,8225,70.686,0.17453,-0.53849,15871
3.2251,8223,70.579,0.17453,-0.53843,15871
3.2301,8226,70.989,0.17453,-0.53852,15871
3.2351,8249,73.247,0.17453,-0.53923,15871
3.2401,8223,70.146,0.17453,-0.53843,15871
3.2451,8232,71.257,0.17453,-0.53871,15871
3.2501,8235,71.496,0.17453,-0.5388,15871
3.2551,8230,70.893,0.17453,-0.53864,15871
3.2601,8226,70.541,0.17453,-0.53852,15871
3.2651,8224,70.473,0.17453,-0.53846,15871
3.2701,8224,70.617,0.17453,-0.53846,15871
3.2751,8224,70.723,0.17453,-0.53846,15871
3.2801,8225,70.9,0.17453,-0.53849,15871
3.2851,8232,71.62,0.17453,-0.53871,15871
3.2901,8232,71.471,0.17453,-0.53871,15871
3.2951,8228,70.969,0.17453,-0.53858,15871
3.3001,8226,70.791,0.17453,-0.53852,15871
3.3051,8223,70.56,0.17453,-0.53843,15871
3.3101,8223,70.68,0.17453,-0.53843,15871
3.3151,8224,70.868,0.17453,-0.53846,15871
3.3201,8226,71.105,0.17453,-0.53852,15871
3.3251,8233,71.771,0.17453,-0.53874,15871
3.3301,8258,74.02,0.17453,-0.53951,15871
3.3351,8230,70.536,0.17453,-0.53864,15871
3.3401,8224,70.081,0.17453,-0.53846,15871
3.3451,8225,70.425,0.17453,-0.53849,15871
3.3501,8224,70.485,0.17453,-0.53846,15871
3.3551,8224,70.626,0.17453,-0.53846,15871
3.3601,8226,70.926,0.17453,-0.53852,15871
3.3651,8233,71.639,0.17453,-0.53874,15871
3.3701,8231,71.291,0.17453,-0.53868,15871
3.3751,8228,70.933,0.17453,-0.53858,15871
3.3801,8224,70.568,0.17453,-0.53846,15871
3.3851,8223,70.589,0.17453,-0.53843,15871
3.3901,8223,70.702,0.17453,-0.53843,15871
3.3951,8223,70.786,0.17453,-0.53843,15871
3.4001,8226,71.142,0.17453,-0.53852,15871
3.4051,8235,71.994,0.17453,-0.5388,15871
3.4101,8233,71.555,0.17453,-0.53874,15871
3.4151,8253,73.374,0.17453,-0.53936,15871
3.4201,8252,72.687,0.17453,-0.53933,15871
3.4251,8224,69.541,0.17453,-0.53846,15871
3.4301,8224,69.929,0.17453,-0.53846,15871
3.4351,8223,70.117,0.17453,-0.53843,15871
3.4401,8226,70.647,0.17453,-0.53852,15871
3.4451,8235,71.629,0.17453,-0.5388,15871
3.4501,8230,70.991,0.17453,-0.53864,15871
3.4551,8228,70.809,0.17453,-0.53858,15871
3.4601,8225,70.575,0.17453,-0.53849,15871
3.4651,8223,70.497,0.17453,-0.53843,16127
3.4701,8225,70.83,0.17453,-0.53849,16127
3.4751,8223,70.686,0.17453,-0.53843,16127
3.4801,8228,71.264,0.17453,-0.53858,15871
3.4851,8236,71.988,0.17453,-0.53883,15871
3.4901,8230,71.159,0.17453,-0.53864,15871
3.4951,8227,70.835,0.17453,-0.53855,15871
3.5001,8255,73.62,0.17453,-0.53942,15871
3.5051,8250,72.481,0.17453,-0.53926,15871
3.5101,8226,69.778,0.17453,-0.53852,15871
3.5151,8225,70.007,0.17453,-0.53849,15871
3.5201,8229,70.666,0.17453,-0.53861,15871
3.5251,8234,71.253,0.17453,-0.53877,16127
3.5301,8230,70.81,0.17453,-0.53864,16127
3.5351,8228,70.675,0.17453,-0.53858,16127
3.5401,8226,70.574,0.17453,-0.53852,16127
3.5451,8224,70.497,0.17453,-0.53846,16127
3.5501,8224,70.635,0.17453,-0.53846,16127
3.5551,8224,70.737,0.17453,-0.53846,16127
3.5601,8230,71.4,0.17453,-0.53864,16127
3.5651,8234,71.699,0.17453,-0.53877,15871
3.5701,8229,71.042,0.17453,-0.53861,15871
3.5751,8226,70.747,0.17453,-0.53852,15871
3.5801,8224,70.625,0.17453,-0.53846,16127
3.5851,8224,70.73,0.17453,-0.53846,16127
3.5901,8248,73.153,0.17453,-0.5392,16127
3.5951,8224,70.271,0.17453,-0.53846,15871
3.6001,8232,71.252,0.17453,-0.53871,15871
3.6051,8234,71.395,0.17453,-0.53877,15871
3.6101,8230,70.915,0.17453,-0.53864,15871
3.6151,8226,70.557,0.17453,-0.53852,15871
3.6201,8224,70.485,0.17453,-0.53846,15871
3.6251,8224,70.626,0.17453,-0.53846,15871
3.6301,8225,70.828,0.17453,-0.53849,15871
3.6351,8223,70.684,0.17453,-0.53843,15871
3.6401,8230,71.459,0.17453,-0.53864,15871
3.6451,8234,71.742,0.17453,-0.53877,15871
3.6501,8228,70.976,0.17453,-0.53858,15871
3.6551,8227,70.894,0.17453,-0.53855,15871
3.6601,8222,70.44,0.17453,-0.53839,15871
3.6651,8223,70.689,0.17453,-0.53843,15871
3.6701,8225,70.972,0.17453,-0.53849,15871
3.6751,8225,70.987,0.17453,-0.53849,15871
3.6801,8232,71.684,0.17453,-0.53871,15871
3.6851,8259,74.149,0.17453,-0.53954,15871
3.6901,8229,70.437,0.17453,-0.53861,15871
3.6951,8227,70.399,0.17453,-0.53855,15871
3.7001,8225,70.369,0.17453,-0.53849,15871
3.7051,8225,70.541,0.17453,-0.53849,15871
3.7101,8223,70.472,0.17453,-0.53843,15871
3.7151,8224,70.714,0.17453,-0.53846,15871
3.7201,8235,71.872,0.17453,-0.5388,15871
3.7251,8232,71.367,0.17453,-0.53871,15871
3.7301,8229,70.99,0.17453,-0.53861,15871
3.7351,8227,70.808,0.17453,-0.53855,15871
3.7401,8222,70.376,0.17453,-0.53839,15871
3.7451,8224,70.74,0.17453,-0.53846,15871
3.7501,8223,70.717,0.17453,-0.53843,15871
3.7551,8227,71.189,0.17453,-0.53855,15871
3.7601,8232,71.638,0.17453,-0.53871,15871
3.7651,8231,71.387,0.17453,-0.53868,16127
3.7701,8252,73.347,0.17453,-0.53933,16127
3.7751,8252,72.764,0.17453,-0.53933,16127
3.7801,8224,69.598,0.17453,-0.53846,15871
3.7851,8224,69.97,0.17453,-0.53846,15871
3.7901,8225,70.344,0.17453,-0.53849,15871
3.7951,8226,70.621,0.17453,-0.53852,15871
3.8001,8233,71.413,0.17453,-0.53874,15871
3.8051,8231,71.124,0.17453,-0.53868,15871
3.8101,8227,70.712,0.17453,-0.53855,15871
3.8151,8225,70.6,0.17453,-0.53849,15871
3.8201,8223,70.516,0.17453,-0.53843,15871
3.8251,8224,70.746,0.17453,-0.53846,15871
3.8301,8224,70.819,0.17453,-0.53846,15871
3.8351,8228,71.265,0.17453,-0.53858,15871
3.8401,8234,71.793,0.17453,-0.53877,15871
3.8451,8230,71.209,0.17453,-0.53864,15871
3.8501,8227,70.872,0.17453,-0.53855,15871
3.8551,8225,70.719,0.17453,-0.53849,15871
3.8601,8250,73.242,0.17453,-0.53926,15871
3.8651,8249,72.587,0.17453,-0.53923,15871
3.8701,8224,69.756,0.17453,-0.53846,15871
3.8751,8229,70.578,0.17453,-0.53861,15871
3.8801,8234,71.188,0.17453,-0.53877,15871
3.8851,8231,70.86,0.17453,-0.53868,15871
3.8901,8228,70.615,0.17453,-0.53858,15871
3.8951,8225,70.431,0.17453,-0.53849,15871
3.9001,8222,70.293,0.17453,-0.53839,15871
3.9051,8223,70.581,0.17453,-0.53843,15871
3.9101,8224,70.794,0.17453,-0.53846,15871
3.9151,8228,71.247,0.17453,-0.53858,15871
3.9201,8232,71.584,0.17453,-0.53871,15871
3.9251,8230,71.249,0.17453,-0.53864,15871
3.9301,8227,70.901,0.17453,-0.53855,15871
3.9351,8226,70.838,0.17453,-0.53852,16127
3.9401,8222,70.496,0.17453,-0.53839,16127
3.9451,8253,73.661,0.17453,-0.53936,16127
3.9501,8249,72.607,0.17453,-0.53923,15871
3.9551,8230,70.36,0.17453,-0.53864,15871
3.9601,8234,70.93,0.17453,-0.53877,15871
3.9651,8230,70.571,0.17453,-0.53864,15871
3.9701,8227,70.401,0.17453,-0.53855,15871
3.9751,8224,70.272,0.17453,-0.53846,15871
3.9801,8226,70.665,0.17453,-0.53852,15871
3.9851,8222,70.368,0.17453,-0.53839,15871
3.9901,8223,70.636,0.17453,-0.53843,15871
3.9951,8231,71.521,0.17453,-0.53868,15871
4.0001,8233,71.593,0.17453,-0.53874,15871
4.0051,8228,70.963,0.17453,-0.53858,15871
4.0101,8227,70.884,0.17453,-0.53855,15871
4.0151,8225,70.727,0.17453,-0.53849,15871
4.0201,8224,70.708,0.17453,-0.53846,16127
4.0251,8222,70.594,0.17453,-0.53839,16127
4.0301,8224,70.902,0.17453,-0.53846,16127
4.0351,8232,71.718,0.17453,-0.53871,15871
4.0401,8261,74.369,0.17453,-0.5396,15871
4.0451,8254,72.846,0.17453,-0.53939,15871
4.0501,8226,69.662,0.17453,-0.53852,15871
4.0551,8225,69.921,0.17453,-0.53849,15871
4.0601,8221,69.818,0.17453,-0.53836,15871
4.0651,8222,70.229,0.17453,-0.53839,16127
4.0701,8223,70.533,0.17453,-0.53843,16127
4.0751,8233,71.641,0.17453,-0.53874,16127
4.0801,8232,71.39,0.17453,-0.53871,15871
4.0851,8228,70.909,0.17453,-0.53858,15871
4.0901,8226,70.747,0.17453,-0.53852,15871
4.0951,8224,70.625,0.17453,-0.53846,15871
4.1001,8223,70.631,0.17453,-0.53843,15871
4.1051,8223,70.733,0.17453,-0.53843,15871
4.1101,8225,71.005,0.17453,-0.53849,15871
4.1151,8233,71.795,0.17453,-0.53874,15871
4.1201,8234,71.699,0.17453,-0.53877,15871
4.1251,8255,73.578,0.17453,-0.53942,15871
4.1301,8254,72.84,0.17453,-0.53939,15871
4.1351,8228,69.853,0.17453,-0.53858,15871
4.1401,8224,69.77,0.17453,-0.53846,15871
4.1451,8223,70,0.17453,-0.53843,15871
4.1501,8222,70.168,0.17453,-0.53839,15871
4.1551,8234,71.566,0.17453,-0.53877,15871
4.1601,8234,71.433,0.17453,-0.53877,15871
4.1651,8227,70.649,0.17453,-0.53855,15871
4.1701,8225,70.554,0.17453,-0.53849,15871
4.1751,8224,70.58,0.17453,-0.53846,16127
4.1801,8220,70.303,0.17453,-0.53833,16127
4.1851,8221,70.587,0.17453,-0.53836,16127
4.1901,8227,71.287,0.17453,-0.53855,15871
4.1951,8234,71.907,0.17453,-0.53877,15871
4.2001,8231,71.391,0.17453,-0.53868,15871
4.2051,8228,71.008,0.17453,-0.53858,15871
4.2101,8226,70.819,0.17453,-0.53852,15871
4.2151,8247,72.927,0.17453,-0.53917,15871
4.2201,8252,72.936,0.17453,-0.53933,15871
4.2251,8225,69.823,0.17453,-0.53849,15871
4.2301,8226,70.236,0.17453,-0.53852,15871
4.2351,8235,71.325,0.17453,-0.5388,15871
4.2401,8229,70.668,0.17453,-0.53861,15871
4.2451,8227,70.569,0.17453,-0.53855,15871
4.2501,8225,70.495,0.17453,-0.53849,15871
4.2551,8225,70.634,0.17453,-0.53849,15871
4.2601,8223,70.541,0.17453,-0.53843,15871
4.2651,8221,70.47,0.17453,-0.53836,15871
4.2701,8227,71.201,0.17453,-0.53855,15871
4.2751,8235,71.941,0.17453,-0.5388,15871
4.2801,8231,71.32,0.17453,-0.53868,15871
4.2851,8225,70.661,0.17453,-0.53849,15871
4.2901,8224,70.658,0.17453,-0.53846,15871
4.2951,8225,70.852,0.17453,-0.53849,15871
4.3001,8222,70.604,0.17453,-0.53839,15871
4.3051,8248,73.254,0.17453,-0.5392,15871
4.3101,8229,70.836,0.17453,-0.53861,15871
4.3151,8236,71.575,0.17453,-0.53883,15871
4.3201,8231,70.952,0.17453,-0.53868,16127
4.3251,8226,70.487,0.17453,-0.53852,16127
4.3301,8226,70.629,0.17453,-0.53852,16127
4.3351,8225,70.636,0.17453,-0.53849,16127
4.3401,8223,70.542,0.17453,-0.53843,16127
4.3451,8223,70.668,0.17453,-0.53843,16127
4.3501,8229,71.348,0.17453,-0.53861,16127
4.3551,8237,72.051,0.17453,-0.53886,16127
4.3601,8229,71.011,0.17453,-0.53861,15871
4.3651,8226,70.725,0.17453,-0.53852,15871
4.3701,8227,70.903,0.17453,-0.53855,15871
4.3751,8225,70.741,0.17453,-0.53849,15871
4.3801,8222,70.522,0.17453,-0.53839,15871
4.3851,8221,70.553,0.17453,-0.53836,15871
4.3901,8231,71.655,0.17453,-0.53868,16127
4.3951,8260,74.322,0.17453,-0.53957,16127
4.4001,8256,73.102,0.17453,-0.53945,16127
4.4051,8227,69.757,0.17453,-0.53855,15871
4.4101,8225,69.894,0.17453,-0.53849,15871
4.4151,8228,70.484,0.17453,-0.53858,15871
4.4201,8223,70.138,0.17453,-0.53843,15871
4.4251,8223,70.369,0.17453,-0.53843,15871
4.4301,8230,71.226,0.17453,-0.53864,15871
4.4351,8233,71.472,0.17453,-0.53874,15871
4.4401,8229,70.971,0.17453,-0.53861,15871
4.4451,8226,70.695,0.17453,-0.53852,15871
4.4501,8226,70.783,0.17453,-0.53852,15871
4.4551,8225,70.75,0.17453,-0.53849,15871
4.4601,8223,70.626,0.17453,-0.53843,15871
4.4651,8226,71.024,0.17453,-0.53852,15871
4.4701,8230,71.418,0.17453,-0.53864,15871
4.4751,8235,71.81,0.17453,-0.5388,15871
4.4801,8229,71.027,0.17453,-0.53861,15871
4.4851,8252,73.275,0.17453,-0.53933,15871
4.4901,8252,72.71,0.17453,-0.53933,15871
4.4951,8225,69.656,0.17453,-0.53849,15871
4.5001,8221,69.622,0.17453,-0.53836,15871
4.5051,8222,70.084,0.17453,-0.53839,15871
4.5101,8232,71.308,0.17453,-0.53871,15871
4.5151,8234,71.437,0.17453,-0.53877,15871
4.5201,8228,70.75,0.17453,-0.53858,15871
4.5251,8225,70.531,0.17453,-0.53849,15871
4.5301,8225,70.661,0.17453,-0.53849,15871
4.5351,8224,70.659,0.17453,-0.53846,15871
4.5401,8222,70.558,0.17453,-0.53839,15871
4.5451,8224,70.875,0.17453,-0.53846,15871
4.5501,8232,71.698,0.17453,-0.53871,15871
4.5551,8233,71.627,0.17453,-0.53874,15871
4.5601,8227,70.889,0.17453,-0.53855,15871
4.5651,8226,70.829,0.17453,-0.53852,15871
4.5701,8253,73.518,0.17453,-0.53936,15871
4.5751,8250,72.599,0.17453,-0.53926,15871
4.5801,8224,69.669,0.17453,-0.53846,15871
4.5851,8225,70.121,0.17453,-0.53849,15871
4.5901,8233,71.142,0.17453,-0.53874,15871
4.5951,8236,71.412,0.17453,-0.53883,15871
4.6001,8229,70.636,0.17453,-0.53861,15871
4.6051,8225,70.349,0.17453,-0.53849,15871
4.6101,8223,70.33,0.17453,-0.53843,15871
4.6151,8224,70.609,0.17453,-0.53846,15871
4.6201,8223,70.62,0.17453,-0.53843,15871
4.6251,8224,70.823,0.17453,-0.53846,15871
4.6301,8233,71.757,0.17453,-0.53874,15871
4.6351,8234,71.671,0.17453,-0.53877,15871
4.6401,8227,70.826,0.17453,-0.53855,15871
4.6451,8225,70.684,0.17453,-0.53849,15871
4.6501,8225,70.774,0.17453,-0.53849,15871
4.6551,8223,70.644,0.17453,-0.53843,15871
4.6601,8245,72.894,0.17453,-0.53911,15871
4.6651,8224,70.37,0.17453,-0.53846,15871
4.6701,8235,71.618,0.17453,-0.5388,15871
4.6751,8234,71.375,0.17453,-0.53877,15871
4.6801,8228,70.704,0.17453,-0.53858,15871
4.6851,8223,70.301,0.17453,-0.53843,15871
4.6901,8224,70.587,0.17453,-0.53846,15871
4.6951,8224,70.702,0.17453,-0.53846,15871
4.7001,8223,70.688,0.17453,-0.53843,15871
4.7051,8225,70.971,0.17453,-0.53849,15871
4.7101,8234,71.868,0.17453,-0.53877,15871
4.7151,8232,71.46,0.17453,-0.53871,15871
4.7201,8229,71.06,0.17453,-0.53861,15871
4.7251,8224,70.565,0.17453,-0.53846,15871
4.7301,8225,70.783,0.17453,-0.53849,15871
4.7351,8224,70.749,0.17453,-0.53846,15871
4.7401,8221,70.527,0.17453,-0.53836,15871
4.7451,8226,71.145,0.17453,-0.53852,15871
4.7501,8268,75.206,0.17453,-0.53982,15871
4.7551,8258,73.181,0.17453,-0.53951,15871
4.7601,8245,71.382,0.17453,-0.53911,15871
4.7651,8224,69.252,0.17453,-0.53846,15871
4.7701,8225,69.813,0.17453,-0.53849,15871
4.7751,8223,69.934,0.17453,-0.53843,15871
4.7801,8223,70.218,0.17453,-0.53843,15871
4.7851,8228,70.918,0.17453,-0.53858,15871
4.7901,8236,71.732,0.17453,-0.53883,15615
4.7951,8232,71.166,0.17453,-0.53871,15615
4.8001,8225,70.45,0.17453,-0.53849,15615
4.8051,8224,70.503,0.17453,-0.53846,15615
4.8101,8224,70.639,0.17453,-0.53846,15615
4.8151,8224,70.74,0.17453,-0.53846,15871
4.8201,8223,70.716,0.17453,-0.53843,15871
4.8251,8228,71.287,0.17453,-0.53858,15871
4.8301,8235,71.907,0.17453,-0.5388,15871
4.8351,8230,71.196,0.17453,-0.53864,15871
4.8401,8253,73.401,0.17453,-0.53936,15871
4.8451,8251,72.61,0.17453,-0.53929,15871
4.8501,8225,69.678,0.17453,-0.53849,15871
4.8551,8225,70.031,0.17453,-0.53849,15871
4.8601,8223,70.095,0.17453,-0.53843,15871
4.8651,8227,70.729,0.17453,-0.53855,15871
4.8701,8235,71.592,0.17453,-0.5388,15871
4.8751,8230,70.964,0.17453,-0.53864,15871
4.8801,8227,70.691,0.17453,-0.53855,15871
4.8851,8224,70.486,0.17453,-0.53846,15871
4.8901,8223,70.529,0.17453,-0.53843,15871
4.8951,8222,70.56,0.17453,-0.53839,15871
4.9001,8223,70.778,0.17453,-0.53843,16127
4.9051,8228,71.332,0.17453,-0.53858,16127
4.9101,8234,71.842,0.17453,-0.53877,16127
4.9151,8230,71.246,0.17453,-0.53864,15871
4.9201,8226,70.801,0.17453,-0.53852,15871
4.9251,8223,70.567,0.17453,-0.53843,15871
4.9301,8251,73.422,0.17453,-0.53929,15871
4.9351,8250,72.721,0.17453,-0.53926,15871
4.9401,8222,69.563,0.17453,-0.53839,15871
4.9451,8230,70.727,0.17453,-0.53864,15871
4.9501,8235,71.299,0.17453,-0.5388,15871
4.9551,8228,70.551,0.17453,-0.53858,15871
4.9601,8226,70.482,0.17453,-0.53852,15871
4.9651,8224,70.429,0.17453,-0.53846,15871
4.9701,8224,70.585,0.17453,-0.53846,15871
4.9751,8223,70.602,0.17453,-0.53843,15871
4.9801,8224,70.81,0.17453,-0.53846,15871
4.9851,8229,71.356,0.17453,-0.53861,15871
4.9901,8234,71.763,0.17453,-0.53877,15871
4.9951,8228,70.991,0.17453,-0.53858,15871
5.0001,8225,70.709,0.17453,-0.53849,15871
5.0051,8223,70.596,0.17453,-0.53843,15871
5.0101,8224,70.806,0.17453,-0.53846,15871
5.0151,8248,73.209,0.17453,-0.5392,16127
5.0201,8225,70.411,0.17453,-0.53849,16127
5.0251,8232,71.258,0.17453,-0.53871,16127
5.0301,8234,71.399,0.17453,-0.53877,16127
5.0351,8229,70.82,0.17453,-0.53861,16127
5.0401,8228,70.78,0.17453,-0.53858,16127
5.0451,8224,70.455,0.17453,-0.53846,16127
5.0501,8223,70.506,0.17453,-0.53843,16127
5.0551,8224,70.739,0.17453,-0.53846,16127
5.0601,8224,70.814,0.17453,-0.53846,15871
5.0651,8232,71.653,0.17453,-0.53871,15871
5.0701,8232,71.495,0.17453,-0.53871,15871
5.0751,8229,71.085,0.17453,-0.53861,15871
5.0801,8226,70.78,0.17453,-0.53852,15871
5.0851,8223,70.551,0.17453,-0.53843,15871
5.0901,8222,70.576,0.17453,-0.53839,15871
5.0951,8223,70.79,0.17453,-0.53843,15871
5.1001,8226,71.145,0.17453,-0.53852,15871
5.1051,8231,71.605,0.17453,-0.53868,15871
5.1101,8260,74.285,0.17453,-0.53957,15871
5.1151,8255,72.978,0.17453,-0.53942,16127
5.1201,8226,69.663,0.17453,-0.53852,16127
5.1251,8224,69.824,0.17453,-0.53846,16127
5.1301,8229,70.628,0.17453,-0.53861,15871
5.1351,8224,70.245,0.17453,-0.53846,15871
5.1401,8225,70.547,0.17453,-0.53849,15871
5.1451,8234,71.554,0.17453,-0.53877,15871
5.1501,8233,71.326,0.17453,-0.53874,15871
5.1551,8226,70.57,0.17453,-0.53852,15871
