0,3549,-317.11,0.17453,0.33849,15868
0.0049891,3551,-273.52,0.17453,0.33765,15868
0.0099881,3554,-235.19,0.17453,0.33638,15868
0.014988,3553,-205.48,0.17453,0.33681,15868
0.019988,3552,-179.96,0.17453,0.33723,15868
0.024988,3551,-158.08,0.17453,0.33765,15868
0.029988,3550,-139.32,0.17453,0.33807,15868
0.034989,3548,-124.1,0.17453,0.33892,15868
0.039993,3550,-107.83,0.17453,0.33807,15868
0.044988,3553,-93.119,0.17453,0.33681,15868
0.049989,3554,-82.185,0.17453,0.33638,15868
0.054988,3552,-75.334,0.17453,0.33723,15868
0.059989,3551,-68.761,0.17453,0.33765,15868
0.064989,3550,-63.241,0.17453,0.33807,15868
0.069989,3549,-58.63,0.17453,0.33849,15868
0.074989,3566,-40.179,0.17453,0.33135,15868
0.079989,3549,-51.959,0.17453,0.33849,15868
0.084994,3553,-45.265,0.17453,0.33681,15868
0.089989,3555,-41.26,0.17453,0.33596,15868
0.09499,3550,-43.65,0.17453,0.33807,15868
0.09999,3553,-39.361,0.17453,0.33681,16124
0.10499,3551,-39.878,0.17453,0.33765,16124
0.10999,3551,-38.852,0.17453,0.33765,16124
0.11499,3548,-40.569,0.17453,0.33892,16124
0.11999,3548,-39.765,0.17453,0.33892,16124
0.12499,3552,-35.958,0.17453,0.33723,16124
0.12999,3553,-35.261,0.17453,0.33681,15868
0.13499,3553,-35.622,0.17453,0.33681,15868
0.13999,3550,-38.533,0.17453,0.33807,15868
0.14499,3551,-37.944,0.17453,0.33765,15868
0.14999,3549,-40.032,0.17453,0.33849,15868
0.15499,3548,-41.178,0.17453,0.33892,15868
0.15999,3549,-40.688,0.17453,0.33849,15868
0.16499,3551,-39.597,0.17453,0.33765,15868
0.16999,3574,-21.814,0.17453,0.32802,15868
0.17499,3551,-43.767,0.17453,0.33765,15868
0.17999,3553,-42.694,0.17453,0.33681,15868
0.18499,3552,-44.356,0.17453,0.33723,15868
0.18999,3551,-45.943,0.17453,0.33765,15868
0.19499,3548,-49.1,0.17453,0.33892,15868
0.19999,3549,-48.716,0.17453,0.33849,15868
0.20499,3553,-46.085,0.17453,0.33681,15868
0.20999,3553,-47.211,0.17453,0.33681,15868
0.21499,3551,-49.96,0.17453,0.33765,15868
0.21999,3551,-50.857,0.17453,0.33765,16124
0.22499,3551,-51.779,0.17453,0.33765,16124
0.22999,3547,-55.989,0.17453,0.33934,15868
0.23499,3547,-56.516,0.17453,0.33934,15868
0.23999,3549,-55.483,0.17453,0.33849,15868
0.24499,3554,-52.289,0.17453,0.33638,15868
0.24999,3560,-48.862,0.17453,0.33386,15868
0.25499,3570,-42.821,0.17453,0.32969,15868
0.25999,3570,-45.793,0.17453,0.32969,15868
0.26499,3552,-63.083,0.17453,0.33723,15868
0.26999,3549,-66.074,0.17453,0.33849,15868
0.27499,3548,-67.179,0.17453,0.33892,15868
0.27999,3549,-66.646,0.17453,0.33849,15868
0.28499,3554,-63.065,0.17453,0.33638,15868
0.28999,3553,-64.992,0.17453,0.33681,16124
0.29499,3551,-67.616,0.17453,0.33765,16124
0.29999,3551,-68.4,0.17453,0.33765,16124
0.30499,3550,-70.034,0.17453,0.33807,16124
0.30999,3548,-72.408,0.17453,0.33892,16124
0.31499,3547,-73.79,0.17453,0.33934,16124
0.31999,3551,-71.043,0.17453,0.33765,15868
0.32499,3555,-68.808,0.17453,0.33596,15868
0.33,3551,-73.523,0.17453,0.33765,15868
0.335,3550,-75.303,0.17453,0.33807,15868
0.34,3569,-60.756,0.17453,0.3301,15868
0.345,3571,-62.07,0.17453,0.32927,15868
0.35,3550,-81.965,0.17453,0.33807,15868
0.355,3550,-82.325,0.17453,0.33807,15868
0.36,3550,-82.774,0.17453,0.33807,15868
0.36503,3555,-79.224,0.17453,0.33596,15868
0.37,3553,-81.984,0.17453,0.33681,15868
0.375,3549,-86.144,0.17453,0.33849,15868
0.38,3549,-86.624,0.17453,0.33849,15868
0.385,3549,-87.175,0.17453,0.33849,15868
0.39,3549,-87.788,0.17453,0.33849,15868
0.395,3552,-86.006,0.17453,0.33723,15868
0.4,3552,-87.042,0.17453,0.33723,15868
0.405,3554,-86.442,0.17453,0.33638,15868
0.41,3553,-88.497,0.17453,0.33681,15868
0.415,3551,-91.224,0.17453,0.33765,15868
0.42,3550,-92.906,0.17453,0.33807,15868
0.425,3573,-75.049,0.17453,0.32844,15868
0.43,3570,-80.731,0.17453,0.32969,15868
0.435,3548,-101.21,0.17453,0.33892,15868
0.44,3552,-97.98,0.17453,0.33723,15868
0.445,3559,-92.883,0.17453,0.33428,15868
0.45,3553,-99.163,0.17453,0.33681,15868
0.455,3551,-101.49,0.17453,0.33765,15868
0.46,3551,-102,0.17453,0.33765,15868
0.465,3549,-104.21,0.17453,0.33849,15868
0.47,3548,-105.44,0.17453,0.33892,15868
0.475,3547,-106.64,0.17453,0.33934,15868
0.48,3552,-102.91,0.17453,0.33723,15868
0.485,3555,-101.44,0.17453,0.33596,15868
0.49,3552,-105.18,0.17453,0.33723,16124
0.495,3550,-107.74,0.17453,0.33807,16124
0.5,3549,-109.27,0.17453,0.33849,16124
0.505,3550,-109.09,0.17453,0.33807,15868
0.51,3548,-111.52,0.17453,0.33892,15868
0.515,3548,-112.11,0.17453,0.33892,15868
0.52,3554,-107.86,0.17453,0.33638,15868
0.525,3557,-106.76,0.17453,0.33512,15868
0.53,3554,-110.8,0.17453,0.33638,16124
0.535,3551,-114.43,0.17453,0.33765,16124
0.54,3550,-116.07,0.17453,0.33807,16124
0.545,3552,-115.18,0.17453,0.33723,16124
0.55,3548,-119.42,0.17453,0.33892,16124
0.555,3547,-120.78,0.17453,0.33934,16124
0.56,3555,-114.73,0.17453,0.33596,15868
0.565,3554,-116.96,0.17453,0.33638,15868
0.57,3553,-119.01,0.17453,0.33681,15868
0.575,3550,-122.54,0.17453,0.33807,15868
0.58,3550,-123.27,0.17453,0.33807,15868
0.585,3549,-124.85,0.17453,0.33849,15868
0.59,3547,-127.16,0.17453,0.33934,15868
0.595,3547,-127.66,0.17453,0.33934,15868
0.6,3553,-123.31,0.17453,0.33681,15868
0.605,3575,-106.77,0.17453,0.32761,15868
0.61,3572,-112.73,0.17453,0.32885,15868
0.615,3550,-133.43,0.17453,0.33807,15868
0.62,3549,-134.48,0.17453,0.33849,15868
0.625,3549,-134.7,0.17453,0.33849,15868
0.63,3550,-134.19,0.17453,0.33807,15868
0.635,3546,-137.96,0.17453,0.33976,15868
0.64,3552,-133.18,0.17453,0.33723,15868
0.645,3555,-131.61,0.17453,0.33596,15868
0.65,3551,-136.07,0.17453,0.33765,15868
0.655,3549,-138.43,0.17453,0.33849,15868
0.66,3551,-137.33,0.17453,0.33765,15868
0.665,3549,-139.76,0.17453,0.33849,15868
0.67,3548,-141.17,0.17453,0.33892,15868
0.675,3549,-140.88,0.17453,0.33849,15868
0.68,3552,-139.12,0.17453,0.33723,15868
0.685,3553,-139.33,0.17453,0.33681,15868
0.69,3570,-126.68,0.17453,0.32969,15868
0.695,3569,-130.4,0.17453,0.3301,15868
0.7,3551,-147.51,0.17453,0.33765,15868
0.705,3550,-148.68,0.17453,0.33807,15868
0.71,3551,-148.18,0.17453,0.33765,15868
0.715,3548,-151.14,0.17453,0.33892,15868
0.72,3555,-145.65,0.17453,0.33596,15868
0.725,3556,-145.91,0.17453,0.33554,15868
0.73,3551,-151.13,0.17453,0.33765,15868
0.735,3549,-153.33,0.17453,0.33849,15868
0.74,3548,-154.54,0.17453,0.33892,15868
0.745,3549,-154.06,0.17453,0.33849,16124
0.75,3548,-155.41,0.17453,0.33892,16124
0.755,3549,-155.05,0.17453,0.33849,16124
0.76,3553,-152.41,0.17453,0.33681,15868
0.765,3554,-152.68,0.17453,0.33638,15868
0.77,3550,-157.11,0.17453,0.33807,15868
0.775,3555,-153.72,0.17453,0.33596,15868
0.78,3570,-142.82,0.17453,0.32969,15868
0.785,3562,-152.08,0.17453,0.33303,15868
0.79,3549,-164.32,0.17453,0.33849,15868
0.79501,3549,-164.47,0.17453,0.33849,15868
0.8,3556,-159.01,0.17453,0.33554,15868
0.805,3555,-160.91,0.17453,0.33596,15868
0.81001,3552,-164.29,0.17453,0.33723,15868
0.81501,3549,-167.34,0.17453,0.33849,16124
0.82001,3551,-166.01,0.17453,0.33765,16124
0.82501,3548,-169.05,0.17453,0.33892,16124
0.83001,3548,-169.35,0.17453,0.33892,16124
0.83501,3550,-168.09,0.17453,0.33807,16124
0.84001,3555,-164.66,0.17453,0.33596,16124
0.84501,3554,-166.69,0.17453,0.33638,15868
0.85001,3549,-171.82,0.17453,0.33849,15868
0.85501,3548,-173.11,0.17453,0.33892,15868
0.86001,3549,-172.71,0.17453,0.33849,15868
0.86501,3569,-157.06,0.17453,0.3301,15868
0.87001,3568,-160.63,0.17453,0.33052,15868
0.87501,3549,-178.43,0.17453,0.33849,15868
0.88001,3557,-172.03,0.17453,0.33512,15868
0.88501,3555,-174.73,0.17453,0.33596,15868
0.89001,3551,-178.81,0.17453,0.33765,15868
0.89501,3550,-180.01,0.17453,0.33807,15868
0.90001,3551,-179.53,0.17453,0.33765,15868
0.90501,3550,-180.85,0.17453,0.33807,15868
0.91001,3548,-182.92,0.17453,0.33892,15868
0.91501,3550,-181.56,0.17453,0.33807,15868
0.92001,3556,-177.23,0.17453,0.33554,15868
0.92501,3554,-180.09,0.17453,0.33638,15868
0.93001,3550,-184.31,0.17453,0.33807,15868
0.93501,3546,-188.08,0.17453,0.33976,15868
0.94001,3550,-184.92,0.17453,0.33807,15868
0.94501,3549,-186.37,0.17453,0.33849,15868
0.95001,3548,-187.74,0.17453,0.33892,15868
0.95501,3551,-185.76,0.17453,0.33765,15868
0.96001,3576,-166.38,0.17453,0.32719,15868
0.96501,3555,-186.85,0.17453,0.33596,15868
0.97001,3550,-191.8,0.17453,0.33807,15868
0.97501,3546,-195.4,0.17453,0.33976,15868
0.98001,3550,-192.08,0.17453,0.33807,15868
0.98501,3549,-193.4,0.17453,0.33849,15868
0.99001,3546,-196.28,0.17453,0.33976,15868
0.99501,3550,-193.16,0.17453,0.33807,15868
1,3556,-188.94,0.17453,0.33554,15868
1.005,3553,-192.71,0.17453,0.33681,15868
1.01,3549,-196.9,0.17453,0.33849,15868
1.015,3549,-197.37,0.17453,0.33849,15868
1.02,3550,-197.07,0.17453,0.33807,15868
1.025,3548,-199.36,0.17453,0.33892,15868
1.03,3547,-200.63,0.17453,0.33934,15868
1.035,3552,-196.93,0.17453,0.33723,15868
1.04,3582,-173.7,0.17453,0.32471,15868
1.045,3573,-185.06,0.17453,0.32844,15868
1.05,3551,-205.59,0.17453,0.33765,15868
1.055,3551,-205.68,0.17453,0.33765,15868
1.06,3551,-205.85,0.17453,0.33765,15868
1.065,3551,-206.11,0.17453,0.33765,15868
1.07,3546,-210.51,0.17453,0.33976,15868
1.075,3551,-206.26,0.17453,0.33765,15868
1.08,3555,-203.51,0.17453,0.33596,15868
1.085,3551,-207.73,0.17453,0.33765,15868
1.09,3549,-209.86,0.17453,0.33849,15868
1.095,3548,-211,0.17453,0.33892,15868
1.1,3548,-211.26,0.17453,0.33892,15868
1.105,3548,-211.59,0.17453,0.33892,15868
1.11,3548,-211.98,0.17453,0.33892,15868
1.115,3554,-207.52,0.17453,0.33638,15868
1.12,3554,-208.64,0.17453,0.33638,15868
1.125,3550,-212.97,0.17453,0.33807,15868
1.13,3568,-198.95,0.17453,0.33052,15868
1.135,3568,-201.49,0.17453,0.33052,15868
1.14,3551,-217.56,0.17453,0.33765,15868
1.145,3549,-219.43,0.17453,0.33849,15868
1.15,3549,-219.52,0.17453,0.33849,15868
1.155,3553,-216.43,0.17453,0.33681,15868
1.16,3554,-216.3,0.17453,0.33638,15868
1.165,3552,-218.72,0.17453,0.33723,15868
1.17,3549,-221.73,0.17453,0.33849,15868
1.175,3550,-221.18,0.17453,0.33807,15868
1.18,3550,-221.6,0.17453,0.33807,15868
1.185,3548,-223.71,0.17453,0.33892,15868
1.19,3549,-223.17,0.17453,0.33849,15868
1.195,3553,-220.36,0.17453,0.33681,15868
1.2,3554,-220.46,0.17453,0.33638,15868
1.205,3551,-223.9,0.17453,0.33765,15868
1.21,3548,-226.98,0.17453,0.33892,15868
1.215,3567,-211.86,0.17453,0.33093,16124
1.22,3570,-211.85,0.17453,0.32969,16124
1.225,3550,-230.56,0.17453,0.33807,16124
1.23,3546,-233.92,0.17453,0.33976,15868
1.235,3554,-227.13,0.17453,0.33638,15868
1.24,3555,-227.05,0.17453,0.33596,15868
1.245,3552,-230.33,0.17453,0.33723,15868
1.25,3548,-234.08,0.17453,0.33892,15868
1.255,3549,-233.35,0.17453,0.33849,15868
1.26,3548,-234.44,0.17453,0.33892,15868
1.265,3549,-233.85,0.17453,0.33849,15868
1.27,3551,-232.61,0.17453,0.33765,15868
1.275,3553,-231.63,0.17453,0.33681,15868
1.28,3554,-231.68,0.17453,0.33638,15868
1.285,3552,-234.26,0.17453,0.33723,15868
1.29,3548,-238.22,0.17453,0.33892,15868
1.295,3547,-239.3,0.17453,0.33934,15868
1.3,3572,-219.23,0.17453,0.32885,15868
1.305,3568,-225.41,0.17453,0.33052,15868
1.31,3550,-242.22,0.17453,0.33807,15868
1.315,3556,-237.4,0.17453,0.33554,15868
1.32,3554,-239.81,0.17453,0.33638,15868
1.325,3553,-241.18,0.17453,0.33681,15868
1.33,3551,-243.28,0.17453,0.33765,15868
1.335,3549,-245.18,0.17453,0.33849,15868
1.34,3549,-245.29,0.17453,0.33849,15868
1.345,3549,-245.47,0.17453,0.33849,15868
1.35,3551,-244.09,0.17453,0.33765,15868
1.355,3553,-242.98,0.17453,0.33681,15868
1.36,3553,-243.73,0.17453,0.33681,16124
1.365,3551,-246.1,0.17453,0.33765,16124
1.37,3549,-248.25,0.17453,0.33849,15868
1.375,3549,-248.56,0.17453,0.33849,15868
1.38,3549,-248.92,0.17453,0.33849,15868
1.385,3549,-249.32,0.17453,0.33849,16124
1.39,3582,-223.1,0.17453,0.32471,16124
1.395,3624,-194.02,0.17453,0.30761,16124
1.4,3612,-211.27,0.17453,0.31244,15868
1.405,3610,-218.48,0.17453,0.31325,15868
1.41,3608,-224.78,0.17453,0.31406,15868
1.415,3605,-231.09,0.17453,0.31528,15868
1.42,3610,-230.32,0.17453,0.31325,15868
1.425,3608,-235.21,0.17453,0.31406,15868
1.43,3587,-254.53,0.17453,0.32265,15868
1.435,3568,-269.97,0.17453,0.33052,15868
1.44,3561,-273.87,0.17453,0.33344,15868
1.445,3556,-275.75,0.17453,0.33554,15868
1.45,3551,-277.47,0.17453,0.33765,15868
1.455,3549,-276.63,0.17453,0.33849,15868
1.46,3548,-275.17,0.17453,0.33892,15868
1.465,3549,-272.36,0.17453,0.33849,15868
1.47,3551,-269.2,0.17453,0.33765,15868
1.475,3554,-265.74,0.17453,0.33638,15868
1.48,3573,-249.91,0.17453,0.32844,15868
1.485,3569,-254.84,0.17453,0.3301,15868
1.49,3548,-273.01,0.17453,0.33892,15868
1.495,3549,-270.99,0.17453,0.33849,15868
1.5,3549,-270.14,0.17453,0.33849,15868
1.505,3548,-270.31,0.17453,0.33892,15868
1.51,3552,-266.46,0.17453,0.33723,15868
1.515,3554,-264.84,0.17453,0.33638,15868
1.52,3554,-265.15,0.17453,0.33638,15868
1.525,3552,-267.13,0.17453,0.33723,15868
1.53,3548,-270.57,0.17453,0.33892,15868
1.535,3550,-268.73,0.17453,0.33807,15868
1.54,3549,-269.67,0.17453,0.33849,15868
1.545,3548,-270.56,0.17453,0.33892,15868
1.55,3552,-267.34,0.17453,0.33723,15868
1.555,3551,-268.71,0.17453,0.33765,16124
1.56,3551,-269.16,0.17453,0.33765,16124
1.565,3573,-251.82,0.17453,0.32844,16124
1.57,3569,-257.88,0.17453,0.3301,16124
1.575,3551,-274.59,0.17453,0.33765,16124
1.58,3550,-275.37,0.17453,0.33807,16124
1.585,3549,-276.12,0.17453,0.33849,15868
1.59,3555,-271.15,0.17453,0.33596,15868
1.595,3553,-273.44,0.17453,0.33681,15868
1.6,3552,-274.69,0.17453,0.33723,15868
1.605,3550,-276.67,0.17453,0.33807,15868
1.61,3549,-277.65,0.17453,0.33849,15868
1.615,3548,-278.58,0.17453,0.33892,15868
1.62,3548,-278.65,0.17453,0.33892,15868
1.625,3552,-275.52,0.17453,0.33723,15868
1.63,3554,-274.53,0.17453,0.33638,15868
1.635,3553,-276.19,0.17453,0.33681,15868
1.64,3552,-277.7,0.17453,0.33723,15868
1.645,3551,-279.09,0.17453,0.33765,15868
1.65,3551,-279.55,0.17453,0.33765,15868
1.655,3567,-267.05,0.17453,0.33093,15868
1.66,3557,-277.36,0.17453,0.33512,15868
1.665,3551,-283.16,0.17453,0.33765,15868
1.67,3554,-280.93,0.17453,0.33638,15868
1.675,3555,-280.7,0.17453,0.33596,15868
1.68,3553,-283.02,0.17453,0.33681,15868
1.685,3551,-285.11,0.17453,0.33765,15868
1.69,3550,-286.19,0.17453,0.33807,15868
1.695,3549,-287.19,0.17453,0.33849,15868
1.7,3548,-288.15,0.17453,0.33892,15868
1.705,3550,-286.6,0.17453,0.33807,15868
1.71,3553,-284.52,0.17453,0.33681,15868
1.715,3552,-286.05,0.17453,0.33723,15868
1.72,3551,-287.46,0.17453,0.33765,15868
1.725,3550,-288.75,0.17453,0.33807,16124
1.73,3548,-290.76,0.17453,0.33892,16124
1.735,3548,-290.95,0.17453,0.33892,16124
1.74,3568,-274.95,0.17453,0.33052,16124
1.745,3551,-291.17,0.17453,0.33765,16124
1.75,3560,-284.19,0.17453,0.33386,16124
1.755,3553,-291.23,0.17453,0.33681,16124
1.76,3553,-291.7,0.17453,0.33681,16124
1.765,3550,-294.64,0.17453,0.33807,16124
1.77,3549,-295.62,0.17453,0.33849,16124
1.775,3548,-296.56,0.17453,0.33892,16124
1.78,3549,-295.8,0.17453,0.33849,16124
1.785,3551,-294.41,0.17453,0.33765,15868
1.79,3554,-292.46,0.17453,0.33638,15868
1.795,3552,-294.92,0.17453,0.33723,15868
1.8,3550,-297.13,0.17453,0.33807,15868
1.805,3551,-296.66,0.17453,0.33765,15868
1.81,3548,-299.6,0.17453,0.33892,15868
1.815,3548,-299.77,0.17453,0.33892,15868
1.82,3550,-298.35,0.17453,0.33807,15868
1.825,3553,-296.38,0.17453,0.33681,15868
1.83,3574,-280.21,0.17453,0.32802,15868
1.835,3573,-284.03,0.17453,0.32844,15868
1.84,3553,-302.78,0.17453,0.33681,15868
1.845,3551,-304.55,0.17453,0.33765,15868
1.85,3550,-305.35,0.17453,0.33807,15868
1.855,3549,-306.11,0.17453,0.33849,15868
1.86,3548,-306.84,0.17453,0.33892,15868
1.865,3552,-303.46,0.17453,0.33723,15868
1.87,3556,-300.62,0.17453,0.33554,15868
1.875,3552,-304.73,0.17453,0.33723,15868
1.88,3551,-305.92,0.17453,0.33765,15868
1.885,3550,-307.03,0.17453,0.33807,15868
1.89,3549,-308.06,0.17453,0.33849,15868
1.895,3546,-310.66,0.17453,0.33976,15868
1.9,3549,-308.08,0.17453,0.33849,15868
1.905,3552,-305.92,0.17453,0.33723,15868
1.91,3553,-305.75,0.17453,0.33681,15868
1.915,3575,-288.69,0.17453,0.32761,15868
1.92,3571,-294.96,0.17453,0.32927,15868
1.925,3550,-314.26,0.17453,0.33807,15868
1.93,3549,-314.85,0.17453,0.33849,15868
1.935,3549,-314.62,0.17453,0.33849,15868
1.94,3549,-314.49,0.17453,0.33849,15868
1.945,3552,-312,0.17453,0.33723,15868
1.95,3553,-311.54,0.17453,0.33681,15868
1.955,3553,-312.02,0.17453,0.33681,15868
1.96,3552,-313.32,0.17453,0.33723,15868
1.965,3549,-316.15,0.17453,0.33849,15868
1.97,3548,-317.04,0.17453,0.33892,16124
1.975,3549,-316.25,0.17453,0.33849,16124
1.98,3551,-314.81,0.17453,0.33765,16124
1.985,3554,-312.82,0.17453,0.33638,15868
1.99,3553,-314.42,0.17453,0.33681,15868
1.995,3551,-316.69,0.17453,0.33765,15868
2,3550,-317.91,0.17453,0.33807,15868
2.005,3572,-300.38,0.17453,0.32885,15868
2.01,3570,-304.69,0.17453,0.32969,15868
2.015,3549,-323.89,0.17453,0.33849,15868
2.02,3549,-323.57,0.17453,0.33849,15868
2.025,3553,-320.1,0.17453,0.33681,15868
2.03,3554,-319.6,0.17453,0.33638,15868
2.035,3551,-322.5,0.17453,0.33765,15868
2.04,3552,-321.81,0.17453,0.33723,15868
2.045,3549,-324.55,0.17453,0.33849,15868
2.05,3550,-323.72,0.17453,0.33807,15868
2.055,3548,-325.52,0.17453,0.33892,15868
2.06,3549,-324.69,0.17453,0.33849,15868
2.065,3555,-319.97,0.17453,0.33596,15868
2.07,3553,-322.46,0.17453,0.33681,15868
2.075,3551,-324.68,0.17453,0.33765,15868
2.08,3551,-325.04,0.17453,0.33765,15868
2.085,3549,-327.04,0.17453,0.33849,15868
2.09,3567,-312.6,0.17453,0.33093,15868
2.095,3568,-313.94,0.17453,0.33052,15868
2.1,3551,-329.75,0.17453,0.33765,15868
2.105,3556,-325.66,0.17453,0.33554,15868
2.11,3553,-328.69,0.17453,0.33681,15868
2.115,3551,-330.56,0.17453,0.33765,15868
2.12,3551,-330.62,0.17453,0.33765,15868
2.125,3550,-331.55,0.17453,0.33807,15868
2.13,3548,-333.24,0.17453,0.33892,15868
2.135,3549,-332.32,0.17453,0.33849,15868
2.14,3550,-331.59,0.17453,0.33807,15868
2.145,3554,-328.57,0.17453,0.33638,15868
2.15,3552,-330.9,0.17453,0.33723,15868
2.155,3552,-331.36,0.17453,0.33723,15868
2.16,3550,-333.45,0.17453,0.33807,15868
2.165,3550,-333.69,0.17453,0.33807,15868
2.17,3548,-335.59,0.17453,0.33892,15868
2.175,3572,-316.21,0.17453,0.32885,15868
2.18,3551,-335.93,0.17453,0.33765,15868
2.185,3575,-316.65,0.17453,0.32761,15868
2.19,3553,-337.2,0.17453,0.33681,15868
2.195,3552,-338.09,0.17453,0.33723,15868
2.2,3552,-338.12,0.17453,0.33723,15868
2.205,3550,-339.83,0.17453,0.33807,15868
2.21,3549,-340.56,0.17453,0.33849,15868
2.215,3549,-340.44,0.17453,0.33849,15868
2.22,3552,-337.95,0.17453,0.33723,15868
2.225,3554,-336.67,0.17453,0.33638,16124
2.23,3551,-339.69,0.17453,0.33765,16124
2.235,3548,-342.38,0.17453,0.33892,16124
2.24,3550,-340.68,0.17453,0.33807,15868
2.245,3549,-341.73,0.17453,0.33849,15868
2.25,3546,-344.33,0.17453,0.33976,15868
2.255,3548,-342.56,0.17453,0.33892,15868
2.26,3552,-339.45,0.17453,0.33723,15868
2.265,3578,-319.08,0.17453,0.32636,15868
2.27,3572,-327.28,0.17453,0.32885,15868
2.275,3551,-346.63,0.17453,0.33765,15868
2.28,3550,-347.26,0.17453,0.33807,16124
2.285,3552,-345.43,0.17453,0.33723,16124
2.29,3549,-347.98,0.17453,0.33849,16124
2.295,3546,-350.25,0.17453,0.33976,16124
2.3,3553,-344.12,0.17453,0.33681,16124
2.305,3555,-342.94,0.17453,0.33596,16124
2.31,3552,-346.05,0.17453,0.33723,15868
2.315,3552,-346.36,0.17453,0.33723,15868
2.32,3550,-348.32,0.17453,0.33807,15868
2.325,3549,-349.26,0.17453,0.33849,15868
2.33,3548,-350.14,0.17453,0.33892,15868
2.335,3547,-350.96,0.17453,0.33934,15868
2.34,3551,-347.64,0.17453,0.33765,15868
2.345,3555,-344.83,0.17453,0.33596,15868
2.35,3551,-348.97,0.17453,0.33765,15868
2.355,3570,-333.95,0.17453,0.32969,15612
2.36,3572,-334.77,0.17453,0.32885,15612
2.365,3550,-354.96,0.17453,0.33807,15612
2.37,3548,-356.32,0.17453,0.33892,15868
2.375,3547,-356.75,0.17453,0.33934,15868
2.38,3555,-349.83,0.17453,0.33596,16124
2.385,3556,-349.61,0.17453,0.33554,16124
2.39,3551,-354.35,0.17453,0.33765,16124
2.395,3550,-355.26,0.17453,0.33807,15868
2.4,3550,-355.29,0.17453,0.33807,15868
2.405,3551,-354.55,0.17453,0.33765,15868
2.41,3549,-356.42,0.17453,0.33849,16124
2.415,3548,-357.29,0.17453,0.33892,16124
2.42,3555,-351.56,0.17453,0.33596,16124
2.425,3555,-352.37,0.17453,0.33596,15868
2.43,3551,-356.37,0.17453,0.33765,15868
2.435,3549,-358.27,0.17453,0.33849,15868
2.44,3573,-338.9,0.17453,0.32844,15868
2.445,3569,-344.81,0.17453,0.3301,15868
2.45,3549,-362.98,0.17453,0.33849,15868
2.455,3550,-361.75,0.17453,0.33807,15868
2.46,3554,-358.29,0.17453,0.33638,15868
2.465,3554,-358.61,0.17453,0.33638,15868
2.47,3551,-361.38,0.17453,0.33765,15868
2.475,3550,-362.21,0.17453,0.33807,15868
2.48,3550,-362.17,0.17453,0.33807,15868
2.485,3549,-363,0.17453,0.33849,15868
2.49,3549,-362.97,0.17453,0.33849,15868
2.495,3548,-363.81,0.17453,0.33892,15868
2.5,3555,-358.06,0.17453,0.33596,15868
2.505,3553,-360.47,0.17453,0.33681,15868
2.51,3550,-363.43,0.17453,0.33807,15868
2.515,3549,-364.42,0.17453,0.33849,15868
2.52,3549,-364.52,0.17453,0.33849,15868
2.525,3552,-362.21,0.17453,0.33723,15868
2.53,3568,-349.73,0.17453,0.33052,15868
2.535,3549,-367.35,0.17453,0.33849,15868
2.54,3555,-362.36,0.17453,0.33596,16124
2.545,3555,-362.98,0.17453,0.33596,16124
2.55,3552,-366.01,0.17453,0.33723,16124
2.555,3551,-367.06,0.17453,0.33765,15868
2.56,3550,-368.03,0.17453,0.33807,15868
2.565,3549,-368.92,0.17453,0.33849,16124
2.57,3548,-369.74,0.17453,0.33892,16124
2.575,3549,-368.87,0.17453,0.33849,16124
2.58,3556,-363.29,0.17453,0.33554,15868
2.585,3552,-367.46,0.17453,0.33723,15868
2.59,3551,-368.68,0.17453,0.33765,15868
2.595,3548,-371.43,0.17453,0.33892,15868
2.6,3550,-369.77,0.17453,0.33807,15868
2.605,3548,-371.66,0.17453,0.33892,15868
2.61,3548,-371.72,0.17453,0.33892,15868
2.615,3549,-371,0.17453,0.33849,15868
2.62,3574,-351,0.17453,0.32802,15868
2.625,3572,-355.55,0.17453,0.32885,16124
2.6301,3550,-375.75,0.17453,0.33807,16124
2.635,3550,-375.49,0.17453,0.33807,16124
2.64,3551,-374.5,0.17453,0.33765,15868
2.645,3549,-376.14,0.17453,0.33849,15868
2.65,3550,-375.16,0.17453,0.33807,15868
2.655,3551,-374.36,0.17453,0.33765,16124
2.66,3556,-370.47,0.17453,0.33554,16124
2.665,3551,-375.29,0.17453,0.33765,15868
2.67,3550,-376.25,0.17453,0.33807,15868
2.675,3550,-376.33,0.17453,0.33807,15868
2.6801,3550,-376.44,0.17453,0.33807,15868
2.685,3550,-376.59,0.17453,0.33807,15868
2.69,3550,-376.77,0.17453,0.33807,15868
2.695,3551,-376.15,0.17453,0.33765,15868
2.7,3554,-374.04,0.17453,0.33638,15868
2.705,3571,-360.95,0.17453,0.32927,15868
2.71,3570,-364.19,0.17453,0.32969,15868
2.715,3550,-382.45,0.17453,0.33807,15868
2.72,3550,-382.12,0.17453,0.33807,15868
2.725,3551,-381.06,0.17453,0.33765,15868
2.73,3547,-384.27,0.17453,0.33934,15868
2.735,3552,-379.76,0.17453,0.33723,15868
2.74,3555,-377.54,0.17453,0.33596,15868
2.745,3553,-379.73,0.17453,0.33681,15868
2.75,3551,-381.68,0.17453,0.33765,15868
2.755,3550,-382.6,0.17453,0.33807,15868
2.76,3549,-383.45,0.17453,0.33849,15868
2.765,3549,-383.42,0.17453,0.33849,15868
2.77,3548,-384.26,0.17453,0.33892,15868
2.775,3551,-381.77,0.17453,0.33765,15868
2.7801,3555,-378.85,0.17453,0.33596,15868
2.785,3551,-382.88,0.17453,0.33765,15868
2.79,3574,-364.54,0.17453,0.32802,15868
2.795,3568,-372.12,0.17453,0.33052,15868
2.8,3551,-387.69,0.17453,0.33765,15868
2.805,3551,-387.45,0.17453,0.33765,15868
2.81,3549,-388.91,0.17453,0.33849,15868
2.815,3552,-386.15,0.17453,0.33723,15868
2.82,3555,-383.81,0.17453,0.33596,15868
2.825,3552,-386.71,0.17453,0.33723,15868
2.83,3551,-387.65,0.17453,0.33765,15868
2.835,3548,-390.14,0.17453,0.33892,15868
2.84,3550,-388.26,0.17453,0.33807,15868
2.845,3548,-389.95,0.17453,0.33892,15868
2.85,3548,-389.83,0.17453,0.33892,15868
2.855,3552,-386.51,0.17453,0.33723,15868
2.86,3554,-385.31,0.17453,0.33638,15868
2.865,3550,-389.2,0.17453,0.33807,15868
2.87,3549,-390.18,0.17453,0.33849,15868
2.8751,3547,-391.89,0.17453,0.33934,15868
2.8801,3569,-373.92,0.17453,0.3301,15868
2.8851,3570,-375.44,0.17453,0.32969,15868
2.8901,3550,-393.81,0.17453,0.33807,15868
2.8951,3553,-391.11,0.17453,0.33681,16124
2.9001,3555,-389.64,0.17453,0.33596,16124
2.905,3553,-391.66,0.17453,0.33681,16124
2.9101,3550,-394.28,0.17453,0.33807,15868
2.9151,3549,-394.96,0.17453,0.33849,15868
2.9201,3550,-393.96,0.17453,0.33807,15868
2.9251,3551,-393.15,0.17453,0.33765,15868
2.9301,3549,-394.93,0.17453,0.33849,15868
2.9351,3554,-390.82,0.17453,0.33638,15868
2.9401,3555,-390.56,0.17453,0.33596,15868
2.9451,3551,-394.44,0.17453,0.33765,15868
2.9501,3550,-395.41,0.17453,0.33807,15868
2.9551,3549,-396.3,0.17453,0.33849,15868
2.9601,3550,-395.48,0.17453,0.33807,15868
2.9651,3568,-381.02,0.17453,0.33052,15868
2.9701,3550,-397.74,0.17453,0.33807,15868
2.9751,3577,-375.82,0.17453,0.32678,15868
2.9801,3554,-397.27,0.17453,0.33638,16124
2.9851,3553,-398.14,0.17453,0.33681,16124
2.9901,3549,-401.39,0.17453,0.33849,16124
2.9951,3548,-401.8,0.17453,0.33892,15868
3.0001,3549,-400.57,0.17453,0.33849,15868
3.0051,3550,-399.55,0.17453,0.33807,15868
3.0101,3549,-400.34,0.17453,0.33849,15868
3.0151,3554,-396.18,0.17453,0.33638,15868
3.0201,3555,-395.87,0.17453,0.33596,15868
3.0251,3551,-399.72,0.17453,0.33765,15868
3.0301,3547,-403.11,0.17453,0.33934,15868
3.0351,3550,-400.38,0.17453,0.33807,15868
3.0401,3548,-402.13,0.17453,0.33892,15868
3.0451,3549,-401.25,0.17453,0.33849,15868
3.0501,3549,-401.34,0.17453,0.33849,15868
3.0551,3571,-383.63,0.17453,0.32927,15868
3.0601,3574,-383.73,0.17453,0.32802,15868
3.0651,3552,-404.05,0.17453,0.33723,15868
3.0701,3549,-406.36,0.17453,0.33849,15868
3.0751,3552,-403.5,0.17453,0.33723,15868
3.0801,3551,-404.34,0.17453,0.33765,15868
3.0851,3549,-405.92,0.17453,0.33849,15868
3.0901,3549,-405.7,0.17453,0.33849,15868
3.0951,3554,-401.48,0.17453,0.33638,15868
3.1001,3554,-401.93,0.17453,0.33638,15868
3.1051,3551,-404.81,0.17453,0.33765,15868
3.1101,3549,-406.54,0.17453,0.33849,15868
3.1151,3549,-406.44,0.17453,0.33849,15868
3.1201,3547,-408.04,0.17453,0.33934,16124
3.1251,3549,-406.19,0.17453,0.33849,16124
3.1301,3552,-403.82,0.17453,0.33723,16124
3.1351,3553,-403.44,0.17453,0.33681,16124
3.1401,3573,-387.78,0.17453,0.32844,16124
3.1451,3572,-391.22,0.17453,0.32885,16124
3.1501,3549,-412.06,0.17453,0.33849,15868
3.1551,3549,-411.53,0.17453,0.33849,15868
3.1601,3549,-411.11,0.17453,0.33849,15868
3.1651,3548,-411.61,0.17453,0.33892,15868
3.1701,3552,-408,0.17453,0.33723,15868
3.1751,3554,-406.55,0.17453,0.33638,15868
3.1801,3553,-407.77,0.17453,0.33681,15868
3.1851,3551,-409.69,0.17453,0.33765,15868
3.1901,3548,-412.21,0.17453,0.33892,15868
3.1951,3549,-411.16,0.17453,0.33849,15868
3.2001,3550,-410.3,0.17453,0.33807,15868
3.2051,3548,-412.05,0.17453,0.33892,15868
3.2101,3551,-409.52,0.17453,0.33765,15868
3.2151,3554,-407.37,0.17453,0.33638,15868
3.2201,3552,-409.62,0.17453,0.33723,15868
3.2251,3552,-409.97,0.17453,0.33723,15868
3.2301,3569,-396.54,0.17453,0.3301,15868
3.2351,3568,-399.51,0.17453,0.33052,15868
3.2401,3550,-415.91,0.17453,0.33807,15868
3.2451,3549,-416.38,0.17453,0.33849,15868
3.2501,3552,-413.56,0.17453,0.33723,15868
3.2551,3554,-411.97,0.17453,0.33638,15868
3.2601,3553,-413.08,0.17453,0.33681,15868
3.2651,3551,-414.89,0.17453,0.33765,15868
3.2701,3547,-418.14,0.17453,0.33934,15868
3.2751,3548,-416.91,0.17453,0.33892,15868
3.2801,3549,-415.88,0.17453,0.33849,15868
3.2851,3549,-415.85,0.17453,0.33849,15868
3.2901,3551,-414.23,0.17453,0.33765,15868
3.2951,3554,-412.05,0.17453,0.33638,15868
3.3001,3551,-415.09,0.17453,0.33765,15868
3.3051,3549,-416.95,0.17453,0.33849,15868
3.3101,3548,-417.78,0.17453,0.33892,15868
3.3151,3569,-400.68,0.17453,0.3301,15868
3.3201,3570,-402.12,0.17453,0.32969,15868
3.3251,3548,-422.05,0.17453,0.33892,15868
3.3301,3553,-417.43,0.17453,0.33681,15868
3.3351,3553,-417.55,0.17453,0.33681,15868
3.3401,3551,-419.32,0.17453,0.33765,15868
3.3451,3550,-420.07,0.17453,0.33807,15868
3.3501,3549,-420.77,0.17453,0.33849,15868
3.3551,3549,-420.59,0.17453,0.33849,15868
3.3601,3548,-421.29,0.17453,0.33892,15868
3.3651,3549,-420.31,0.17453,0.33849,15868
3.3701,3552,-417.86,0.17453,0.33723,15868
3.3751,3554,-416.59,0.17453,0.33638,15868
3.3801,3552,-418.79,0.17453,0.33723,16124
3.3851,3549,-421.54,0.17453,0.33849,16124
3.3901,3549,-421.52,0.17453,0.33849,16124
3.3951,3549,-421.54,0.17453,0.33849,16124
3.4001,3556,-415.89,0.17453,0.33554,16124
3.4051,3550,-421.62,0.17453,0.33807,15868
3.4101,3573,-403.1,0.17453,0.32844,15868
3.4151,3554,-421.07,0.17453,0.33638,15868
3.4201,3553,-422.12,0.17453,0.33681,15868
3.4251,3551,-423.89,0.17453,0.33765,15868
3.4301,3549,-425.46,0.17453,0.33849,15868
3.4351,3549,-425.22,0.17453,0.33849,15868
3.4401,3549,-425.06,0.17453,0.33849,15868
3.4451,3550,-424.13,0.17453,0.33807,15868
3.4501,3554,-420.92,0.17453,0.33638,15868
3.4551,3553,-422.25,0.17453,0.33681,15868
3.4601,3552,-423.44,0.17453,0.33723,15868
3.4651,3549,-426.13,0.17453,0.33849,15868
3.4701,3546,-428.51,0.17453,0.33976,15868
3.4751,3548,-426.52,0.17453,0.33892,15868
3.4801,3549,-425.65,0.17453,0.33849,15868
3.4851,3553,-422.49,0.17453,0.33681,15868
3.4901,3566,-412.49,0.17453,0.33135,15868
3.4951,3571,-410.37,0.17453,0.32927,15868
3.5001,3573,-410.98,0.17453,0.32844,15868
3.5051,3551,-430.94,0.17453,0.33765,15868
3.5101,3549,-432.1,0.17453,0.33849,15868
3.5151,3548,-432.33,0.17453,0.33892,15868
3.5201,3549,-430.93,0.17453,0.33849,15868
3.5251,3552,-428.12,0.17453,0.33723,15868
3.5301,3553,-427.36,0.17453,0.33681,15868
3.5351,3553,-427.54,0.17453,0.33681,15868
3.5401,3551,-429.36,0.17453,0.33765,15868
3.5451,3548,-431.8,0.17453,0.33892,15868
3.5501,3547,-432.31,0.17453,0.33934,15868
3.5551,3548,-431.16,0.17453,0.33892,15868
3.5601,3548,-431.02,0.17453,0.33892,15868
3.5651,3551,-428.48,0.17453,0.33765,15868
3.5701,3554,-426.31,0.17453,0.33638,15868
3.5751,3552,-428.54,0.17453,0.33723,15868
3.5801,3570,-414.29,0.17453,0.32969,15868
3.5851,3571,-415.74,0.17453,0.32927,15868
3.5901,3550,-434.85,0.17453,0.33807,16124
3.5951,3548,-436.05,0.17453,0.33892,16124
3.6001,3549,-434.68,0.17453,0.33849,16124
3.6051,3552,-431.9,0.17453,0.33723,15868
3.6101,3554,-430.34,0.17453,0.33638,15868
3.6151,3552,-432.27,0.17453,0.33723,15868
3.6201,3552,-432.36,0.17453,0.33723,15868
3.6251,3549,-434.91,0.17453,0.33849,15868
3.6301,3549,-434.71,0.17453,0.33849,15868
3.6351,3549,-434.57,0.17453,0.33849,15868
3.6401,3548,-435.3,0.17453,0.33892,15868
3.6451,3554,-430.25,0.17453,0.33638,15868
3.6501,3553,-431.62,0.17453,0.33681,15868
3.6551,3550,-434.47,0.17453,0.33807,15868
3.6601,3551,-433.71,0.17453,0.33765,15868
3.6651,3576,-413.67,0.17453,0.32719,15868
3.6701,3567,-423.79,0.17453,0.33093,15868
3.6751,3549,-439.95,0.17453,0.33849,16124
3.6801,3551,-437.74,0.17453,0.33765,16124
3.6851,3553,-435.87,0.17453,0.33681,16124
3.6901,3553,-435.9,0.17453,0.33681,15868
3.6951,3552,-436.78,0.17453,0.33723,15868
3.7001,3551,-437.57,0.17453,0.33765,15868
3.7051,3551,-437.48,0.17453,0.33765,15868
3.7101,3547,-440.7,0.17453,0.33934,15868
3.7151,3546,-441.07,0.17453,0.33976,15868
3.7201,3550,-437.34,0.17453,0.33807,15868
3.7251,3553,-434.97,0.17453,0.33681,15868
3.7301,3554,-434.57,0.17453,0.33638,15868
3.7351,3550,-438.33,0.17453,0.33807,15868
3.7401,3549,-439.17,0.17453,0.33849,15868
3.7451,3547,-440.76,0.17453,0.33934,15868
3.7501,3549,-438.9,0.17453,0.33849,15868
3.7551,3567,-424.33,0.17453,0.33093,15868
3.7601,3549,-440.96,0.17453,0.33849,15868
3.7651,3554,-436.71,0.17453,0.33638,15868
3.7701,3553,-437.95,0.17453,0.33681,15868
3.7751,3553,-438.24,0.17453,0.33681,15868
3.7801,3552,-439.34,0.17453,0.33723,15868
3.7851,3551,-440.32,0.17453,0.33765,15868
3.7901,3549,-442.01,0.17453,0.33849,15868
3.7951,3549,-441.88,0.17453,0.33849,15868
3.8001,3550,-440.99,0.17453,0.33807,15868
3.8051,3552,-439.42,0.17453,0.33723,15868
3.8101,3553,-438.92,0.17453,0.33681,15868
3.8151,3551,-440.95,0.17453,0.33765,15868
3.8201,3550,-441.93,0.17453,0.33807,15868
3.8251,3550,-441.99,0.17453,0.33807,15868
3.8301,3548,-443.71,0.17453,0.33892,15868
3.8351,3548,-443.6,0.17453,0.33892,15868
3.8401,3550,-441.9,0.17453,0.33807,15868
3.8451,3575,-421.86,0.17453,0.32761,15868
3.8501,3573,-426.34,0.17453,0.32844,15868
3.8551,3551,-446.44,0.17453,0.33765,15868
3.8601,3552,-445.27,0.17453,0.33723,15868
3.8651,3550,-446.73,0.17453,0.33807,15868
3.8701,3549,-447.22,0.17453,0.33849,15868
3.8751,3548,-447.67,0.17453,0.33892,15868
3.8801,3551,-444.83,0.17453,0.33765,15868
3.8851,3556,-440.77,0.17453,0.33554,15868
3.8901,3552,-444.61,0.17453,0.33723,15868
3.8951,3550,-446.34,0.17453,0.33807,15868
3.9001,3551,-445.42,0.17453,0.33765,15868
3.9051,3551,-445.47,0.17453,0.33765,15868
3.9101,3548,-447.99,0.17453,0.33892,15868
3.9151,3548,-447.76,0.17453,0.33892,15868
3.9201,3551,-445.14,0.17453,0.33765,16124
3.9251,3555,-442.09,0.17453,0.33596,16124
3.9301,3570,-430.59,0.17453,0.32969,16124
3.9351,3570,-432.78,0.17453,0.32969,15868
3.9401,3552,-449.27,0.17453,0.33723,15868
3.9451,3549,-451.46,0.17453,0.33849,15868
3.9501,3550,-450.13,0.17453,0.33807,15868
3.9551,3549,-450.64,0.17453,0.33849,15868
3.9601,3551,-448.66,0.17453,0.33765,15868
3.9651,3555,-445.34,0.17453,0.33596,15868
3.9701,3553,-447.39,0.17453,0.33681,15868
3.9751,3550,-450,0.17453,0.33807,15868
3.9801,3550,-449.85,0.17453,0.33807,15868
3.9851,3549,-450.57,0.17453,0.33849,15868
3.9901,3548,-451.22,0.17453,0.33892,16124
3.9951,3549,-450.18,0.17453,0.33849,16124
4.0001,3552,-447.67,0.17453,0.33723,16124
4.0051,3554,-446.35,0.17453,0.33638,15868
4.0101,3551,-449.3,0.17453,0.33765,15868
4.0151,3574,-430.83,0.17453,0.32802,15868
4.0201,3570,-436.66,0.17453,0.32969,15868
4.0251,3551,-453.91,0.17453,0.33765,15868
4.0301,3549,-455.13,0.17453,0.33849,15868
4.0351,3547,-456.21,0.17453,0.33934,15868
4.0401,3552,-451.47,0.17453,0.33723,15868
4.0451,3554,-449.83,0.17453,0.33638,15868
4.0501,3551,-452.52,0.17453,0.33765,15868
4.0551,3549,-454.06,0.17453,0.33849,15868
4.0601,3550,-452.98,0.17453,0.33807,15868
4.0651,3549,-453.71,0.17453,0.33849,15868
4.0701,3548,-454.36,0.17453,0.33892,15868
4.0751,3547,-454.96,0.17453,0.33934,15868
4.0801,3553,-449.79,0.17453,0.33681,15868
4.0851,3553,-450.24,0.17453,0.33681,15868
4.0901,3551,-452.28,0.17453,0.33765,15868
4.0951,3549,-454.08,0.17453,0.33849,15868
4.1001,3549,-454.03,0.17453,0.33849,15868
4.1051,3569,-437.79,0.17453,0.3301,15868
4.1101,3568,-440.76,0.17453,0.33052,15868
4.1151,3547,-459.6,0.17453,0.33934,15868
4.1201,3554,-453.2,0.17453,0.33638,15868
4.1251,3555,-452.56,0.17453,0.33596,15868
4.1301,3552,-455.3,0.17453,0.33723,15868
4.1351,3551,-456.07,0.17453,0.33765,15868
4.1401,3551,-455.95,0.17453,0.33765,15868
4.1451,3550,-456.69,0.17453,0.33807,15868
4.1501,3548,-458.17,0.17453,0.33892,15868
4.1551,3548,-457.85,0.17453,0.33892,15868
4.1601,3553,-453.52,0.17453,0.33681,15868
4.1651,3553,-453.88,0.17453,0.33681,15868
4.1701,3552,-455.02,0.17453,0.33723,15868
4.1751,3550,-456.86,0.17453,0.33807,15868
4.1801,3550,-456.84,0.17453,0.33807,15868
4.1851,3548,-458.49,0.17453,0.33892,15868
4.1901,3565,-444.5,0.17453,0.33177,16124
4.1951,3549,-459.2,0.17453,0.33849,16124
4.2001,3554,-454.89,0.17453,0.33638,16124
4.2051,3555,-454.45,0.17453,0.33596,15868
4.2101,3552,-457.34,0.17453,0.33723,15868
4.2151,3551,-458.25,0.17453,0.33765,15868
4.2201,3551,-458.24,0.17453,0.33765,15868
4.2251,3549,-459.9,0.17453,0.33849,15868
4.2301,3549,-459.72,0.17453,0.33849,15868
4.2351,3548,-460.42,0.17453,0.33892,15868
4.2401,3553,-456.15,0.17453,0.33681,15868
4.2451,3554,-455.74,0.17453,0.33638,15868
4.2501,3549,-460.3,0.17453,0.33849,15868
4.2551,3550,-459.39,0.17453,0.33807,15868
4.2601,3551,-458.62,0.17453,0.33765,15868
4.2651,3549,-460.43,0.17453,0.33849,15868
4.2701,3546,-462.84,0.17453,0.33976,15868
4.2751,3548,-460.87,0.17453,0.33892,16124
4.2801,3573,-440.56,0.17453,0.32844,16124
4.2851,3574,-442.43,0.17453,0.32802,16124
4.2901,3552,-462.66,0.17453,0.33723,16124
4.2951,3550,-464.05,0.17453,0.33807,16124
4.3001,3553,-461.21,0.17453,0.33681,16124
4.3051,3550,-463.66,0.17453,0.33807,15868
4.3101,3547,-465.81,0.17453,0.33934,15868
4.3151,3549,-463.62,0.17453,0.33849,15868
4.3201,3554,-459.31,0.17453,0.33638,15868
4.3251,3554,-459.67,0.17453,0.33638,15868
4.3301,3552,-461.63,0.17453,0.33723,15868
4.3351,3549,-464.18,0.17453,0.33849,15868
4.3401,3551,-462.33,0.17453,0.33765,15868
4.3451,3550,-463.2,0.17453,0.33807,15868
4.3501,3548,-464.79,0.17453,0.33892,15868
4.3551,3551,-462.12,0.17453,0.33765,15868
4.3601,3556,-458.2,0.17453,0.33554,15868
4.3651,3570,-447.57,0.17453,0.32969,15868
4.3701,3571,-448.89,0.17453,0.32927,15868
4.3751,3552,-466.24,0.17453,0.33723,16124
4.3801,3550,-467.55,0.17453,0.33807,16124
4.3851,3548,-468.7,0.17453,0.33892,16124
4.3901,3550,-466.47,0.17453,0.33807,16124
4.3951,3552,-464.55,0.17453,0.33723,16124
4.4001,3555,-462.11,0.17453,0.33596,16124
4.4051,3552,-464.9,0.17453,0.33723,15868
4.4101,3551,-465.71,0.17453,0.33765,15868
4.4151,3548,-468.07,0.17453,0.33892,15868
4.4201,3551,-465.25,0.17453,0.33765,15868
4.4251,3548,-467.72,0.17453,0.33892,15868
4.4301,3548,-467.44,0.17453,0.33892,15868
4.4351,3551,-464.77,0.17453,0.33765,15868
4.4401,3554,-462.49,0.17453,0.33638,15868
4.4451,3552,-464.61,0.17453,0.33723,16124
4.4501,3550,-466.46,0.17453,0.33807,16124
4.4551,3569,-451.05,0.17453,0.3301,16124
4.4601,3570,-452.31,0.17453,0.32969,16124
4.4651,3549,-471.26,0.17453,0.33849,16124
4.4701,3547,-472.3,0.17453,0.33934,16124
4.4751,3553,-466.7,0.17453,0.33681,15868
4.4801,3554,-465.95,0.17453,0.33638,15868
4.4851,3554,-466.14,0.17453,0.33638,15868
4.4901,3549,-470.4,0.17453,0.33849,16124
4.4951,3549,-470.04,0.17453,0.33849,16124
4.5001,3548,-470.57,0.17453,0.33892,16124
4.5051,3548,-470.23,0.17453,0.33892,15868
4.5101,3546,-471.61,0.17453,0.33976,15868
4.5151,3550,-467.91,0.17453,0.33807,15868
4.5201,3555,-463.93,0.17453,0.33596,15868
4.5251,3552,-467.02,0.17453,0.33723,15868
4.5301,3550,-468.91,0.17453,0.33807,16124
4.5351,3549,-469.75,0.17453,0.33849,16124
4.5401,3574,-449.43,0.17453,0.32802,16124
4.5451,3569,-456.1,0.17453,0.3301,16124
4.5501,3549,-474.1,0.17453,0.33849,16124
4.5551,3552,-471.05,0.17453,0.33723,16124
4.5601,3556,-467.62,0.17453,0.33554,15868
4.5651,3554,-469.55,0.17453,0.33638,15868
4.5701,3550,-472.87,0.17453,0.33807,15868
4.5751,3549,-473.34,0.17453,0.33849,15868
4.5801,3551,-471.31,0.17453,0.33765,15868
4.5851,3548,-473.66,0.17453,0.33892,15868
4.5901,3547,-474.09,0.17453,0.33934,15868
4.5951,3551,-470.4,0.17453,0.33765,15868
4.6001,3555,-467.24,0.17453,0.33596,15868
4.6051,3551,-471.03,0.17453,0.33765,15612
4.6101,3548,-473.53,0.17453,0.33892,15612
4.6151,3548,-473.27,0.17453,0.33892,15868
4.6201,3549,-472.25,0.17453,0.33849,15868
4.6251,3552,-469.76,0.17453,0.33723,15868
4.6301,3547,-474.15,0.17453,0.33934,15868
4.6351,3553,-469,0.17453,0.33681,15868
4.6401,3557,-466.2,0.17453,0.33512,15868
4.6451,3552,-471.11,0.17453,0.33723,15868
4.6501,3550,-472.95,0.17453,0.33807,15868
4.6551,3551,-472.12,0.17453,0.33765,15868
4.6601,3550,-473.05,0.17453,0.33807,15868
4.6651,3550,-473.07,0.17453,0.33807,15868
4.6701,3546,-476.37,0.17453,0.33976,15868
4.6751,3554,-469.46,0.17453,0.33638,15868
4.6801,3553,-470.83,0.17453,0.33681,15868
4.6851,3551,-472.86,0.17453,0.33765,15868
4.6901,3548,-475.45,0.17453,0.33892,15868
4.6951,3550,-473.64,0.17453,0.33807,15868
4.7001,3549,-474.54,0.17453,0.33849,15868
4.7051,3549,-474.53,0.17453,0.33849,15868
4.7101,3549,-474.54,0.17453,0.33849,15868
4.7151,3566,-460.76,0.17453,0.33135,15868
4.7201,3573,-456.99,0.17453,0.32844,15868
4.7251,3572,-460.18,0.17453,0.32885,15868
4.7301,3549,-480.78,0.17453,0.33849,15868
4.7351,3550,-479.21,0.17453,0.33807,15868
4.7401,3550,-478.68,0.17453,0.33807,15868
4.7451,3548,-479.88,0.17453,0.33892,16124
4.7501,3550,-477.68,0.17453,0.33807,16124
4.7551,3554,-474.16,0.17453,0.33638,16124
4.7601,3554,-474.39,0.17453,0.33638,15868
4.7651,3550,-477.87,0.17453,0.33807,15868
4.7701,3549,-478.47,0.17453,0.33849,15868
4.7751,3548,-479,0.17453,0.33892,15868
4.7801,3551,-476.22,0.17453,0.33765,15868
4.7851,3549,-477.92,0.17453,0.33849,15868
4.7901,3548,-478.59,0.17453,0.33892,15868
4.7951,3553,-474.3,0.17453,0.33681,15868
4.8001,3553,-474.68,0.17453,0.33681,15868
4.8051,3567,-463.68,0.17453,0.33093,15868
4.8101,3568,-464.69,0.17453,0.33052,15868
4.8151,3550,-480.99,0.17453,0.33807,15868
4.8201,3550,-480.53,0.17453,0.33807,15868
4.8251,3549,-480.98,0.17453,0.33849,15868
4.8301,3551,-478.93,0.17453,0.33765,15868
4.8351,3554,-476.37,0.17453,0.33638,15868
4.8401,3553,-477.42,0.17453,0.33681,15868
4.8451,3552,-478.36,0.17453,0.33723,15868
4.8501,3549,-480.82,0.17453,0.33849,15868
4.8551,3549,-480.53,0.17453,0.33849,15868
4.8601,3548,-481.11,0.17453,0.33892,15868
4.8651,3548,-480.82,0.17453,0.33892,15868
4.8701,3550,-478.96,0.17453,0.33807,15868
4.8751,3553,-476.55,0.17453,0.33681,16124
4.8801,3553,-476.93,0.17453,0.33681,16124
4.8851,3551,-478.9,0.17453,0.33765,15868
4.8901,3574,-460.38,0.17453,0.32802,15868
4.8951,3569,-466.98,0.17453,0.3301,15868
4.9001,3552,-482.45,0.17453,0.33723,15868
4.9051,3548,-485.38,0.17453,0.33892,15868
4.9101,3552,-481.4,0.17453,0.33723,15868
4.9151,3555,-478.79,0.17453,0.33596,15868
4.9201,3554,-479.81,0.17453,0.33638,15868
4.9251,3553,-480.71,0.17453,0.33681,15868
4.9301,3549,-483.95,0.17453,0.33849,15868
4.9351,3549,-483.53,0.17453,0.33849,15868
4.9401,3549,-483.18,0.17453,0.33849,15868
4.9451,3548,-483.71,0.17453,0.33892,15868
4.9501,3552,-480.11,0.17453,0.33723,15868
4.9551,3554,-478.64,0.17453,0.33638,15868
4.9601,3553,-479.83,0.17453,0.33681,15868
4.9651,3550,-482.52,0.17453,0.33807,15868
4.9701,3548,-484.05,0.17453,0.33892,15868
4.9751,3548,-483.76,0.17453,0.33892,15868
4.9801,3570,-465.68,0.17453,0.32969,15868
4.9851,3545,-488.17,0.17453,0.34019,15868
4.9901,3551,-482.48,0.17453,0.33765,15868
