0,2640,-1388,0.17453,0.89222,15868
0.0050139,2638,-1207.7,0.17453,0.89397,15868
0.0099869,2639,-1047.6,0.17453,0.8931,15868
0.014988,2638,-913.28,0.17453,0.89397,15868
0.019988,2640,-792.85,0.17453,0.89222,15868
0.02499,2643,-687.79,0.17453,0.88961,15868
0.029994,2643,-602.73,0.17453,0.88961,15868
0.034988,2643,-529.92,0.17453,0.88961,15868
0.039992,2639,-474.42,0.17453,0.8931,15868
0.044988,2637,-423.82,0.17453,0.89484,15868
0.049988,2639,-374.04,0.17453,0.8931,15868
0.054988,2659,-301.66,0.17453,0.87581,16124
0.059988,2639,-306.53,0.17453,0.8931,16124
0.064988,2662,-239.72,0.17453,0.87325,16124
0.069988,2644,-250.9,0.17453,0.88875,16124
0.074989,2641,-236.4,0.17453,0.89135,16124
0.079989,2639,-222.9,0.17453,0.8931,15868
0.084993,2639,-208.56,0.17453,0.8931,15868
0.089989,2639,-196.84,0.17453,0.8931,15868
0.094989,2637,-190.78,0.17453,0.89484,15868
0.099989,2640,-177.79,0.17453,0.89222,15868
0.10501,2644,-165.56,0.17453,0.88875,15868
0.10999,2643,-164.06,0.17453,0.88961,15868
0.11499,2642,-163.44,0.17453,0.89048,15868
0.11999,2641,-163.58,0.17453,0.89135,15868
0.12499,2638,-167.75,0.17453,0.89397,15868
0.12999,2638,-166.99,0.17453,0.89397,15868
0.13499,2640,-163.62,0.17453,0.89222,15868
0.13999,2640,-164.75,0.17453,0.89222,15868
0.14499,2660,-132.99,0.17453,0.87496,15868
0.14999,2662,-136.18,0.17453,0.87325,15868
0.15499,2642,-176.22,0.17453,0.89048,15868
0.15999,2640,-181.61,0.17453,0.89222,16124
0.16499,2641,-181.89,0.17453,0.89135,16124
0.16999,2640,-186.15,0.17453,0.89222,15868
0.17499,2638,-192.18,0.17453,0.89397,15868
0.17999,2641,-189.63,0.17453,0.89135,15868
0.18499,2643,-189.76,0.17453,0.88961,15868
0.18999,2642,-195.56,0.17453,0.89048,15868
0.19499,2642,-199.54,0.17453,0.89048,15868
0.19999,2638,-210.38,0.17453,0.89397,15868
0.20499,2638,-213.67,0.17453,0.89397,15868
0.20999,2637,-218.85,0.17453,0.89484,16124
0.21499,2640,-217.23,0.17453,0.89222,16124
0.21999,2643,-216.47,0.17453,0.88961,16124
0.22499,2643,-221.49,0.17453,0.88961,16124
0.22999,2645,-223.11,0.17453,0.88788,16124
0.23499,2662,-200.2,0.17453,0.87325,16124
0.23999,2654,-222.49,0.17453,0.8801,15868
0.24499,2639,-254.29,0.17453,0.8931,15868
0.24999,2641,-253.98,0.17453,0.89135,15868
0.25499,2639,-261.08,0.17453,0.8931,15868
0.25999,2641,-261.12,0.17453,0.89135,15868
0.26499,2642,-263.46,0.17453,0.89048,15868
0.26999,2643,-266.11,0.17453,0.88961,15868
0.27499,2643,-270.7,0.17453,0.88961,15868
0.27999,2641,-278.66,0.17453,0.89135,15868
0.28499,2637,-289.56,0.17453,0.89484,15868
0.28999,2638,-291.18,0.17453,0.89397,15868
0.29499,2639,-293.21,0.17453,0.8931,15868
0.29999,2644,-288.85,0.17453,0.88875,15868
0.30499,2642,-297.46,0.17453,0.89048,15868
0.30999,2643,-300.48,0.17453,0.88961,15868
0.31499,2640,-310.43,0.17453,0.89222,15868
0.31999,2655,-289.51,0.17453,0.87924,15868
0.32499,2660,-288.77,0.17453,0.87496,15868
0.32999,2639,-332.07,0.17453,0.8931,15868
0.33499,2640,-333.45,0.17453,0.89222,15868
0.33999,2643,-331.88,0.17453,0.88961,15612
0.34499,2646,-331.13,0.17453,0.88701,15612
0.34999,2644,-339.46,0.17453,0.88875,15612
0.35499,2641,-348.97,0.17453,0.89135,15868
0.35999,2640,-354.44,0.17453,0.89222,15868
0.365,2638,-361.47,0.17453,0.89397,15868
0.36999,2637,-366.47,0.17453,0.89484,15868
0.37499,2640,-364.66,0.17453,0.89222,15868
0.38,2643,-363.68,0.17453,0.88961,15868
0.38499,2644,-366.8,0.17453,0.88875,15868
0.39,2639,-380.17,0.17453,0.8931,15868
0.395,2640,-382.25,0.17453,0.89222,15868
0.4,2638,-389.69,0.17453,0.89397,15868
0.405,2659,-358.25,0.17453,0.87581,15868
0.41,2658,-368.31,0.17453,0.87667,15868
0.415,2640,-406.02,0.17453,0.89222,15868
0.42,2646,-399.12,0.17453,0.88701,15868
0.425,2644,-407.15,0.17453,0.88875,15868
0.43,2644,-411.33,0.17453,0.88875,15868
0.435,2641,-420.57,0.17453,0.89135,15868
0.44,2640,-425.79,0.17453,0.89222,15868
0.445,2639,-430.89,0.17453,0.8931,15868
0.45,2639,-434.21,0.17453,0.8931,15868
0.455,2641,-434.28,0.17453,0.89135,15868
0.46,2644,-433.24,0.17453,0.88875,15868
0.465,2642,-441.31,0.17453,0.89048,15868
0.47,2641,-447.18,0.17453,0.89135,15868
0.475,2640,-452.85,0.17453,0.89222,15868
0.48,2639,-458.32,0.17453,0.8931,15868
0.485,2637,-465.32,0.17453,0.89484,15868
0.49,2637,-468.58,0.17453,0.89484,15868
0.495,2640,-466.91,0.17453,0.89222,16124
0.5,2663,-432.72,0.17453,0.87239,16124
0.505,2662,-443.62,0.17453,0.87325,16124
0.51,2642,-485.28,0.17453,0.89048,15868
0.515,2641,-490.29,0.17453,0.89135,15868
0.52,2639,-496.88,0.17453,0.8931,15868
0.525,2639,-499.77,0.17453,0.8931,15868
0.53,2639,-502.84,0.17453,0.8931,15868
0.535,2641,-502.68,0.17453,0.89135,15868
0.54,2645,-499.74,0.17453,0.88788,15868
0.545,2641,-511.18,0.17453,0.89135,15868
0.55,2640,-516.6,0.17453,0.89222,15868
0.555,2640,-520.17,0.17453,0.89222,15868
0.56,2638,-527.17,0.17453,0.89397,15868
0.565,2638,-530.42,0.17453,0.89397,15868
0.57,2638,-533.78,0.17453,0.89397,15868
0.575,2643,-528.82,0.17453,0.88961,15868
0.58,2643,-533.47,0.17453,0.88961,15868
0.585,2659,-511.35,0.17453,0.87581,15868
0.59,2661,-516.06,0.17453,0.8741,15868
0.595,2641,-557.33,0.17453,0.89135,15868
0.6,2641,-560.28,0.17453,0.89135,15868
0.605,2639,-566.73,0.17453,0.8931,15868
0.61,2638,-571.18,0.17453,0.89397,15868
0.615,2641,-568.83,0.17453,0.89135,15868
0.62,2645,-565.66,0.17453,0.88788,15868
0.625,2643,-573.51,0.17453,0.88961,15868
0.63,2641,-580.85,0.17453,0.89135,15868
0.635,2640,-586.06,0.17453,0.89222,15868
0.64,2638,-592.79,0.17453,0.89397,15868
0.645,2636,-599.16,0.17453,0.89572,15868
0.65,2637,-600.14,0.17453,0.89484,15868
0.655,2642,-594.78,0.17453,0.89048,15868
0.66,2644,-595.72,0.17453,0.88875,15868
0.665,2640,-607.14,0.17453,0.89222,15868
0.67,2640,-610.83,0.17453,0.89222,15868
0.675,2662,-577.84,0.17453,0.87325,15868
0.68,2660,-589.74,0.17453,0.87496,15868
0.685,2640,-630.63,0.17453,0.89222,15868
0.69,2639,-634.88,0.17453,0.8931,15868
0.695,2641,-634.02,0.17453,0.89135,16124
0.7,2645,-630.44,0.17453,0.88788,16124
0.705,2642,-639.61,0.17453,0.89048,16124
0.71,2640,-646.39,0.17453,0.89222,15868
0.715,2639,-651.1,0.17453,0.8931,15868
0.72,2640,-652.32,0.17453,0.89222,15868
0.725,2636,-662.32,0.17453,0.89572,15868
0.73,2637,-663.06,0.17453,0.89484,15868
0.735,2643,-655.79,0.17453,0.88961,15868
0.74,2644,-658.42,0.17453,0.88875,15868
0.745,2641,-667.92,0.17453,0.89135,15868
0.75,2641,-671.61,0.17453,0.89135,15868
0.755,2642,-673.62,0.17453,0.89048,15868
0.76,2655,-655.81,0.17453,0.87924,15868
0.765,2659,-655.94,0.17453,0.87581,15868
0.77,2639,-696.59,0.17453,0.8931,15868
0.775,2643,-692.17,0.17453,0.88961,15868
0.78,2645,-692.2,0.17453,0.88788,15868
0.785,2642,-701.11,0.17453,0.89048,15868
0.79,2639,-709.35,0.17453,0.8931,15868
0.795,2640,-710.24,0.17453,0.89222,15868
0.8,2640,-713.19,0.17453,0.89222,15868
0.80501,2639,-717.92,0.17453,0.8931,15868
0.81,2642,-715.78,0.17453,0.89048,16124
0.81501,2644,-716.09,0.17453,0.88875,16124
0.82,2644,-720.21,0.17453,0.88875,16124
0.82501,2641,-729.3,0.17453,0.89135,15868
0.83001,2639,-735.99,0.17453,0.8931,15868
0.83501,2640,-737.22,0.17453,0.89222,15868
0.84,2637,-745.52,0.17453,0.89484,15868
0.84501,2658,-712.98,0.17453,0.87667,15868
0.85001,2639,-752.15,0.17453,0.8931,16124
0.85501,2665,-711.48,0.17453,0.87069,16124
0.86001,2644,-754.92,0.17453,0.88875,16124
0.86501,2641,-763.18,0.17453,0.89135,16124
0.87001,2644,-760.72,0.17453,0.88875,16124
0.87501,2642,-767.46,0.17453,0.89048,16124
0.88001,2641,-772.11,0.17453,0.89135,15868
0.88501,2639,-778.29,0.17453,0.8931,15868
0.89001,2640,-779.07,0.17453,0.89222,15868
0.89501,2644,-775.17,0.17453,0.88875,15868
0.90001,2645,-777.31,0.17453,0.88788,15868
0.90501,2640,-789.71,0.17453,0.89222,15868
0.91001,2639,-794.21,0.17453,0.8931,15868
0.91501,2639,-796.89,0.17453,0.8931,15868
0.92001,2639,-799.68,0.17453,0.8931,15868
0.92501,2640,-800.87,0.17453,0.89222,16124
0.93001,2640,-804.06,0.17453,0.89222,16124
0.93501,2646,-797.2,0.17453,0.88701,16124
0.94001,2663,-773.53,0.17453,0.87239,16124
0.94501,2663,-781.7,0.17453,0.87239,16124
0.95001,2642,-824.19,0.17453,0.89048,15868
0.95501,2641,-828.18,0.17453,0.89135,15868
0.96001,2641,-830.42,0.17453,0.89135,15868
0.96501,2638,-837.87,0.17453,0.89397,15868
0.97001,2641,-834.68,0.17453,0.89135,15868
0.97501,2645,-830.7,0.17453,0.88788,15868
0.98001,2643,-837.78,0.17453,0.88961,15868
0.98501,2641,-844.37,0.17453,0.89135,15868
0.99001,2639,-850.54,0.17453,0.8931,15868
0.99501,2640,-851.28,0.17453,0.89222,16124
1,2639,-855.75,0.17453,0.8931,16124
1.005,2638,-860.08,0.17453,0.89397,16124
1.01,2641,-857.53,0.17453,0.89135,15868
1.015,2645,-854.11,0.17453,0.88788,15868
1.02,2643,-861.65,0.17453,0.88961,15868
1.025,2657,-841.9,0.17453,0.87753,15868
1.03,2660,-843.6,0.17453,0.87496,15868
1.035,2642,-880.5,0.17453,0.89048,16124
1.04,2640,-886.25,0.17453,0.89222,16124
1.045,2637,-893.38,0.17453,0.89484,16124
1.05,2641,-888.19,0.17453,0.89135,15868
1.055,2646,-882.49,0.17453,0.88701,15868
1.06,2642,-893.09,0.17453,0.89048,15868
1.065,2640,-899.36,0.17453,0.89222,15868
1.07,2640,-901.86,0.17453,0.89222,15868
1.075,2641,-902.79,0.17453,0.89135,15868
1.08,2639,-909.08,0.17453,0.8931,16124
1.085,2637,-914.97,0.17453,0.89484,16124
1.09,2642,-908.71,0.17453,0.89048,16124
1.095,2645,-907.1,0.17453,0.88788,16124
1.1,2641,-917.89,0.17453,0.89135,16124
1.105,2641,-920.95,0.17453,0.89135,16124
1.11,2646,-915.62,0.17453,0.88701,15868
1.115,2661,-894.86,0.17453,0.8741,15868
1.12,2651,-918.83,0.17453,0.88269,15868
1.125,2637,-946.92,0.17453,0.89484,15868
1.13,2643,-938.08,0.17453,0.88961,15868
1.135,2647,-934.24,0.17453,0.88614,15868
1.14,2644,-943.07,0.17453,0.88875,15868
1.145,2640,-952.84,0.17453,0.89222,15868
1.15,2639,-956.68,0.17453,0.8931,15868
1.155,2640,-957.07,0.17453,0.89222,15868
1.16,2638,-962.88,0.17453,0.89397,15868
1.165,2639,-963.28,0.17453,0.8931,15868
1.17,2644,-957.32,0.17453,0.88875,15868
1.175,2644,-960.98,0.17453,0.88875,15868
1.18,2641,-969.6,0.17453,0.89135,15868
1.185,2640,-974.13,0.17453,0.89222,15868
1.19,2639,-978.47,0.17453,0.8931,15868
1.195,2639,-980.96,0.17453,0.8931,16124
1.2,2657,-953.42,0.17453,0.87753,16124
1.205,2640,-988.47,0.17453,0.89222,16124
1.21,2643,-985.79,0.17453,0.88961,16124
1.215,2645,-985.56,0.17453,0.88788,16124
1.22,2640,-997.53,0.17453,0.89222,15868
1.225,2639,-1001.6,0.17453,0.8931,15868
1.23,2640,-1002.1,0.17453,0.89222,15868
1.235,2641,-1003,0.17453,0.89135,16124
1.24,2639,-1009.3,0.17453,0.8931,16124
1.245,2638,-1013.4,0.17453,0.89397,16124
1.25,2646,-1002.2,0.17453,0.88701,16124
1.255,2643,-1011.4,0.17453,0.88961,16124
1.26,2641,-1018.1,0.17453,0.89135,16124
1.265,2639,-1024.4,0.17453,0.8931,15868
1.27,2639,-1026.8,0.17453,0.8931,15868
1.275,2640,-1027.6,0.17453,0.89222,15868
1.28,2637,-1035.4,0.17453,0.89484,15868
1.285,2640,-1032.5,0.17453,0.89222,15868
1.29,2661,-1000.4,0.17453,0.8741,15868
1.295,2664,-1003,0.17453,0.87154,16124
1.3,2643,-1045.5,0.17453,0.88961,16124
1.305,2640,-1052.9,0.17453,0.89222,15868
1.31,2642,-1051.2,0.17453,0.89048,15868
1.315,2640,-1056.9,0.17453,0.89222,15868
1.32,2640,-1058.9,0.17453,0.89222,15868
1.325,2640,-1061,0.17453,0.89222,15868
1.33,2647,-1051.4,0.17453,0.88614,15868
1.335,2646,-1057,0.17453,0.88701,15868
1.34,2641,-1068.9,0.17453,0.89135,15868
1.345,2639,-1074.5,0.17453,0.8931,15868
1.35,2639,-1076.5,0.17453,0.8931,15868
1.355,2639,-1078.5,0.17453,0.8931,15868
1.36,2638,-1082.4,0.17453,0.89397,15868
1.365,2639,-1082.7,0.17453,0.8931,15868
1.37,2643,-1078.4,0.17453,0.88961,15868
1.375,2646,-1076.7,0.17453,0.88701,15868
1.38,2661,-1055.6,0.17453,0.8741,15868
1.385,2655,-1072.7,0.17453,0.87924,15868
1.39,2639,-1104.6,0.17453,0.8931,15868
1.395,2640,-1104.3,0.17453,0.89222,15868
1.4,2638,-1109.4,0.17453,0.89397,15868
1.405,2639,-1109.1,0.17453,0.8931,16124
1.41,2645,-1100.8,0.17453,0.88788,16124
1.415,2645,-1104.2,0.17453,0.88788,16124
1.42,2640,-1115.8,0.17453,0.89222,15868
1.425,2639,-1119.5,0.17453,0.8931,15868
1.43,2640,-1119.8,0.17453,0.89222,15868
1.435,2640,-1122.1,0.17453,0.89222,15868
1.44,2640,-1124.4,0.17453,0.89222,15868
1.445,2641,-1125.1,0.17453,0.89135,15868
1.45,2646,-1119.4,0.17453,0.88701,15868
1.455,2642,-1129.9,0.17453,0.89048,15868
1.46,2641,-1134.3,0.17453,0.89135,15868
1.465,2655,-1113.5,0.17453,0.87924,15868
1.47,2661,-1109.2,0.17453,0.8741,15868
1.475,2640,-1150.8,0.17453,0.89222,15868
1.48,2637,-1157.2,0.17453,0.89484,15868
1.485,2640,-1153.1,0.17453,0.89222,15868
1.49,2643,-1149.8,0.17453,0.88961,15868
1.495,2642,-1154.1,0.17453,0.89048,15868
1.5,2641,-1158.2,0.17453,0.89135,15868
1.505,2639,-1163.8,0.17453,0.8931,15868
1.51,2639,-1165.6,0.17453,0.8931,15868
1.515,2639,-1167.6,0.17453,0.8931,15868
1.52,2638,-1171.3,0.17453,0.89397,15868
1.525,2641,-1168.1,0.17453,0.89135,15868
1.53,2645,-1164.1,0.17453,0.88788,15868
1.535,2641,-1174.4,0.17453,0.89135,15868
1.54,2640,-1178.6,0.17453,0.89222,15868
1.545,2640,-1181,0.17453,0.89222,15868
1.55,2659,-1151.6,0.17453,0.87581,15868
1.555,2660,-1156.6,0.17453,0.87496,15868
1.56,2637,-1201.3,0.17453,0.89484,15868
1.565,2641,-1195.2,0.17453,0.89135,15868
1.57,2645,-1190.4,0.17453,0.88788,15868
1.575,2645,-1193.2,0.17453,0.88788,16124
1.58,2640,-1204.4,0.17453,0.89222,16124
1.585,2638,-1209.4,0.17453,0.89397,16124
1.59,2640,-1207.4,0.17453,0.89222,15868
1.595,2639,-1211,0.17453,0.8931,15868
1.6,2639,-1212.8,0.17453,0.8931,15868
1.605,2641,-1211.4,0.17453,0.89135,15868
1.61,2645,-1207.1,0.17453,0.88788,15868
1.615,2647,-1207.1,0.17453,0.88614,15868
1.62,2640,-1222.6,0.17453,0.89222,15868
1.625,2638,-1227.9,0.17453,0.89397,15868
1.63,2638,-1229.5,0.17453,0.89397,15868
1.635,2639,-1229.6,0.17453,0.8931,15868
1.64,2639,-1231.6,0.17453,0.8931,15868
1.645,2641,-1230.4,0.17453,0.89135,15868
1.65,2663,-1196.4,0.17453,0.87239,15868
1.655,2640,-1242.2,0.17453,0.89222,15868
1.66,2639,-1245.6,0.17453,0.8931,15868
1.665,2638,-1248.9,0.17453,0.89397,15868
1.67,2639,-1248.7,0.17453,0.8931,15868
1.675,2640,-1248.8,0.17453,0.89222,15868
1.68,2639,-1252.7,0.17453,0.8931,15868
1.685,2641,-1251.3,0.17453,0.89135,15868
1.69,2642,-1252.1,0.17453,0.89048,15868
1.695,2643,-1253.2,0.17453,0.88961,15868
1.7,2640,-1261.1,0.17453,0.89222,15868
1.705,2638,-1266.7,0.17453,0.89397,16124
1.71,2640,-1265.1,0.17453,0.89222,16124
1.715,2638,-1270.8,0.17453,0.89397,16124
1.72,2640,-1269.3,0.17453,0.89222,16124
1.725,2642,-1268.3,0.17453,0.89048,16124
1.73,2660,-1241.1,0.17453,0.87496,16124
1.735,2661,-1246.3,0.17453,0.8741,15868
1.74,2639,-1289.4,0.17453,0.8931,15868
1.745,2638,-1292,0.17453,0.89397,15868
1.75,2640,-1289.6,0.17453,0.89222,15868
1.755,2641,-1289.5,0.17453,0.89135,15868
1.76,2640,-1293.1,0.17453,0.89222,15868
1.765,2646,-1284.8,0.17453,0.88701,16124
1.77,2645,-1289.7,0.17453,0.88788,16124
1.775,2641,-1299.3,0.17453,0.89135,16124
1.78,2640,-1302.8,0.17453,0.89222,16124
1.785,2637,-1309.6,0.17453,0.89484,16124
1.79,2638,-1309.1,0.17453,0.89397,15868
1.795,2639,-1309,0.17453,0.8931,15868
1.8,2639,-1310.8,0.17453,0.8931,15868
1.805,2642,-1307.7,0.17453,0.89048,15868
1.81,2643,-1308.7,0.17453,0.88961,15868
1.815,2652,-1296.5,0.17453,0.88182,15868
1.82,2661,-1286.4,0.17453,0.8741,15868
1.825,2646,-1317.7,0.17453,0.88701,15868
1.83,2640,-1330.4,0.17453,0.89222,15868
1.835,2641,-1329.8,0.17453,0.89135,15868
1.84,2640,-1333.1,0.17453,0.89222,15868
1.845,2644,-1327.8,0.17453,0.88875,15868
1.85,2644,-1330.2,0.17453,0.88875,15868
1.855,2642,-1336,0.17453,0.89048,15868
1.86,2641,-1339.6,0.17453,0.89135,15868
1.865,2639,-1344.8,0.17453,0.8931,15868
1.87,2640,-1344.5,0.17453,0.89222,15868
1.875,2640,-1346.2,0.17453,0.89222,15868
1.88,2641,-1346.4,0.17453,0.89135,15868
1.885,2643,-1345.1,0.17453,0.88961,15868
1.89,2644,-1346,0.17453,0.88875,15868
1.895,2642,-1352.1,0.17453,0.89048,15868
1.9,2640,-1357.7,0.17453,0.89222,15868
1.905,2656,-1332.8,0.17453,0.87838,16124
1.91,2660,-1331.5,0.17453,0.87496,16124
1.915,2637,-1375.8,0.17453,0.89484,16124
1.92,2643,-1366,0.17453,0.88961,15868
1.925,2644,-1366.1,0.17453,0.88875,15868
1.93,2644,-1368.3,0.17453,0.88875,15868
1.935,2642,-1373.8,0.17453,0.89048,15868
1.94,2641,-1377.1,0.17453,0.89135,15868
1.945,2637,-1385.4,0.17453,0.89484,15868
1.95,2640,-1381.1,0.17453,0.89222,15868
1.955,2638,-1386.1,0.17453,0.89397,15868
1.96,2642,-1380.6,0.17453,0.89048,15868
1.965,2643,-1381.2,0.17453,0.88961,15868
1.97,2640,-1388.7,0.17453,0.89222,15868
1.975,2642,-1387.1,0.17453,0.89048,15868
1.98,2640,-1392.8,0.17453,0.89222,15868
1.985,2638,-1398,0.17453,0.89397,15868
1.99,2660,-1362.6,0.17453,0.87496,15868
1.995,2638,-1405.8,0.17453,0.89397,15868
2,2641,-1401.7,0.17453,0.89135,15868
2.005,2643,-1400.1,0.17453,0.88961,15868
2.01,2642,-1404,0.17453,0.89048,15868
2.015,2644,-1402.7,0.17453,0.88875,15868
2.02,2640,-1411.9,0.17453,0.89222,16124
2.025,2639,-1415.1,0.17453,0.8931,16124
2.03,2639,-1416.5,0.17453,0.8931,16124
2.035,2639,-1418,0.17453,0.8931,15868
2.04,2642,-1414.6,0.17453,0.89048,15868
2.045,2642,-1416.9,0.17453,0.89048,15868
2.05,2642,-1419.2,0.17453,0.89048,15868
2.055,2639,-1426.5,0.17453,0.8931,15868
2.06,2639,-1428.1,0.17453,0.8931,16124
2.065,2638,-1431.5,0.17453,0.89397,16124
2.07,2640,-1429.6,0.17453,0.89222,16124
2.075,2639,-1433.3,0.17453,0.8931,15868
2.08,2642,-1430.1,0.17453,0.89048,15868
2.085,2662,-1399.2,0.17453,0.87325,15868
2.09,2661,-1407.8,0.17453,0.8741,15868
2.095,2642,-1445.4,0.17453,0.89048,15868
2.1,2639,-1451.7,0.17453,0.8931,15868
2.105,2638,-1454.1,0.17453,0.89397,16124
2.11,2639,-1453,0.17453,0.8931,16124
2.115,2640,-1452.4,0.17453,0.89222,16124
2.12,2643,-1448.8,0.17453,0.88961,15868
2.125,2641,-1454.3,0.17453,0.89135,15868
2.13,2641,-1456.1,0.17453,0.89135,15868
2.135,2642,-1456.1,0.17453,0.89048,15868
2.14,2638,-1464.9,0.17453,0.89397,15868
2.145,2637,-1467.7,0.17453,0.89484,15868
2.15,2639,-1465.4,0.17453,0.8931,15868
2.155,2639,-1467,0.17453,0.8931,15868
2.16,2642,-1463.6,0.17453,0.89048,15868
2.165,2642,-1466,0.17453,0.89048,15868
2.17,2657,-1443.2,0.17453,0.87753,15868
2.175,2662,-1440.6,0.17453,0.87325,15868
2.18,2638,-1486.8,0.17453,0.89397,15868
2.185,2640,-1483.8,0.17453,0.89222,15868
2.19,2641,-1483.1,0.17453,0.89135,16124
2.195,2639,-1487.8,0.17453,0.8931,16124
2.2,2644,-1480.3,0.17453,0.88875,16124
2.205,2641,-1487.6,0.17453,0.89135,16124
2.21,2644,-1484.1,0.17453,0.88875,16124
2.215,2641,-1491.4,0.17453,0.89135,16124
2.22,2638,-1498,0.17453,0.89397,15868
2.225,2640,-1495.6,0.17453,0.89222,15868
2.23,2638,-1500.5,0.17453,0.89397,15868
2.235,2641,-1496.5,0.17453,0.89135,15868
2.24,2645,-1491.7,0.17453,0.88788,15868
2.245,2640,-1502.9,0.17453,0.89222,15868
2.25,2641,-1502.8,0.17453,0.89135,15868
2.255,2659,-1474.6,0.17453,0.87581,15868
2.26,2658,-1482.1,0.17453,0.87667,15868
2.265,2641,-1515.6,0.17453,0.89135,15868
2.27,2640,-1518.1,0.17453,0.89222,15868
2.275,2642,-1515.6,0.17453,0.89048,16124
2.28,2646,-1510.2,0.17453,0.88701,16124
2.285,2644,-1515.9,0.17453,0.88875,16124
2.29,2643,-1519.4,0.17453,0.88961,16124
2.295,2641,-1524.4,0.17453,0.89135,16124
2.3,2639,-1529,0.17453,0.8931,16124
2.305,2639,-1529.9,0.17453,0.8931,15868
2.31,2638,-1532.6,0.17453,0.89397,15868
2.315,2643,-1525,0.17453,0.88961,15868
2.32,2643,-1527.2,0.17453,0.88961,15868
2.325,2640,-1534.3,0.17453,0.89222,15868
2.33,2641,-1534.1,0.17453,0.89135,15868
2.335,2640,-1537.4,0.17453,0.89222,15868
2.34,2638,-1542.3,0.17453,0.89397,15868
2.345,2655,-1514.9,0.17453,0.87924,15868
2.35,2640,-1545,0.17453,0.89222,15868
2.355,2643,-1541.2,0.17453,0.88961,15868
2.36,2646,-1538.1,0.17453,0.88701,15868
2.365,2642,-1547.4,0.17453,0.89048,15868
2.37,2641,-1550.7,0.17453,0.89135,15868
2.375,2640,-1553.8,0.17453,0.89222,16124
2.38,2639,-1556.8,0.17453,0.8931,16124
2.385,2638,-1559.6,0.17453,0.89397,16124
2.39,2640,-1557.2,0.17453,0.89222,16124
2.395,2642,-1555.4,0.17453,0.89048,16124
2.4,2643,-1555.7,0.17453,0.88961,16124
2.405,2643,-1557.9,0.17453,0.88961,16124
2.41,2640,-1565.1,0.17453,0.89222,16124
2.415,2639,-1568.3,0.17453,0.8931,15868
2.42,2637,-1572.9,0.17453,0.89484,15868
2.425,2635,-1577.2,0.17453,0.89659,15868
2.43,2639,-1571,0.17453,0.8931,15868
2.435,2644,-1564.2,0.17453,0.88875,15868
2.44,2665,-1532.1,0.17453,0.87069,15868
2.445,2643,-1575.9,0.17453,0.88961,15868
2.45,2641,-1581,0.17453,0.89135,15868
2.455,2641,-1582.2,0.17453,0.89135,15868
2.46,2639,-1586.8,0.17453,0.8931,15868
2.465,2638,-1589.4,0.17453,0.89397,15868
2.47,2639,-1588.6,0.17453,0.8931,15868
2.475,2641,-1586.3,0.17453,0.89135,15868
2.48,2643,-1584.7,0.17453,0.88961,15868
2.485,2639,-1593.5,0.17453,0.8931,15868
2.49,2640,-1593,0.17453,0.89222,15868
2.495,2640,-1594.5,0.17453,0.89222,15868
2.5,2639,-1597.8,0.17453,0.8931,15868
2.505,2638,-1600.8,0.17453,0.89397,15868
2.51,2638,-1601.9,0.17453,0.89397,15868
2.515,2642,-1596.4,0.17453,0.89048,15868
2.52,2665,-1560.4,0.17453,0.87069,15868
2.525,2659,-1577.5,0.17453,0.87581,15868
2.53,2647,-1602.6,0.17453,0.88614,15868
2.535,2642,-1613,0.17453,0.89048,15868
2.54,2640,-1617.2,0.17453,0.89222,15868
2.545,2640,-1617.7,0.17453,0.89222,15868
2.55,2641,-1616.7,0.17453,0.89135,15868
2.555,2643,-1614.4,0.17453,0.88961,15868
2.56,2642,-1617.6,0.17453,0.89048,15868
2.565,2642,-1619,0.17453,0.89048,15868
2.57,2641,-1622.1,0.17453,0.89135,15868
2.575,2640,-1625,0.17453,0.89222,16124
2.58,2636,-1632.8,0.17453,0.89572,16124
2.585,2637,-1631.3,0.17453,0.89484,16124
2.59,2641,-1625.3,0.17453,0.89135,15868
2.595,2644,-1621.9,0.17453,0.88875,15868
2.6,2641,-1629.3,0.17453,0.89135,15868
2.605,2641,-1630.9,0.17453,0.89135,15868
2.61,2661,-1599.2,0.17453,0.8741,15868
2.615,2661,-1605.2,0.17453,0.8741,16124
2.62,2639,-1647.3,0.17453,0.8931,16124
2.625,2639,-1647.4,0.17453,0.8931,16124
2.63,2640,-1645.9,0.17453,0.89222,15868
2.635,2646,-1636.5,0.17453,0.88701,15868
2.64,2642,-1645.3,0.17453,0.89048,15868
2.645,2637,-1654.9,0.17453,0.89484,15868
2.65,2640,-1650,0.17453,0.89222,15868
2.655,2639,-1652.7,0.17453,0.8931,15868
2.66,2638,-1655.2,0.17453,0.89397,15868
2.665,2638,-1655.9,0.17453,0.89397,15868
2.67,2641,-1651.7,0.17453,0.89135,15868
2.675,2644,-1648.3,0.17453,0.88875,15868
2.68,2643,-1652.3,0.17453,0.88961,15868
2.685,2640,-1659.3,0.17453,0.89222,15868
2.69,2640,-1660.6,0.17453,0.89222,15868
2.695,2664,-1621.9,0.17453,0.87154,15868
2.7,2658,-1638.4,0.17453,0.87667,15868
2.705,2639,-1674.8,0.17453,0.8931,15868
2.71,2641,-1671.4,0.17453,0.89135,15868
2.7151,2647,-1662,0.17453,0.88614,16124
2.72,2644,-1669.1,0.17453,0.88875,16124
2.725,2641,-1675.5,0.17453,0.89135,16124
2.73,2641,-1676.3,0.17453,0.89135,16124
2.735,2639,-1680.5,0.17453,0.8931,16124
2.74,2643,-1674.2,0.17453,0.88961,16124
2.745,2638,-1684.2,0.17453,0.89397,15868
2.75,2641,-1679.5,0.17453,0.89135,15868
2.755,2646,-1672.4,0.17453,0.88701,15868
2.76,2641,-1683.2,0.17453,0.89135,15868
2.765,2641,-1684.3,0.17453,0.89135,15868
2.77,2642,-1683.9,0.17453,0.89048,15868
2.775,2638,-1692.1,0.17453,0.89397,16124
2.78,2639,-1691,0.17453,0.8931,16124
2.785,2636,-1697,0.17453,0.89572,15868
2.79,2643,-1685.6,0.17453,0.88961,15868
2.795,2649,-1677.6,0.17453,0.88441,15868
2.8,2643,-1691,0.17453,0.88961,15868
2.805,2642,-1694.4,0.17453,0.89048,15868
2.81,2641,-1697.6,0.17453,0.89135,15868
2.815,2641,-1698.9,0.17453,0.89135,15868
2.82,2639,-1703.5,0.17453,0.8931,15868
2.825,2638,-1706.1,0.17453,0.89397,15868
2.83,2642,-1700.1,0.17453,0.89048,15868
2.835,2645,-1696.8,0.17453,0.88788,15868
2.84,2641,-1705.9,0.17453,0.89135,15868
2.845,2642,-1705.6,0.17453,0.89048,16124
2.85,2639,-1712.3,0.17453,0.8931,16124
2.855,2639,-1713.2,0.17453,0.8931,16124
2.86,2637,-1717.6,0.17453,0.89484,15868
2.865,2636,-1719.9,0.17453,0.89572,15868
2.87,2641,-1711.9,0.17453,0.89135,15868
2.875,2663,-1677,0.17453,0.87239,15868
2.88,2661,-1686.9,0.17453,0.8741,15868
2.885,2644,-1720.7,0.17453,0.88875,16124
2.89,2642,-1725.1,0.17453,0.89048,16124
2.895,2640,-1729.2,0.17453,0.89222,16124
2.9,2639,-1731.3,0.17453,0.8931,16124
2.905,2638,-1733.3,0.17453,0.89397,16124
2.91,2643,-1725.1,0.17453,0.88961,16124
2.9151,2645,-1723.2,0.17453,0.88788,15868
2.92,2643,-1728.5,0.17453,0.88961,15868
2.9251,2641,-1733.3,0.17453,0.89135,15868
2.93,2639,-1737.7,0.17453,0.8931,15868
2.9351,2639,-1738.3,0.17453,0.8931,15868
2.94,2638,-1740.7,0.17453,0.89397,15868
2.9451,2640,-1737.9,0.17453,0.89222,15868
2.95,2644,-1732.3,0.17453,0.88875,15868
2.9551,2644,-1734.4,0.17453,0.88875,15868
2.9601,2657,-1714.7,0.17453,0.87753,15868
2.9651,2658,-1717.8,0.17453,0.87667,15868
2.9701,2644,-1745.7,0.17453,0.88875,16124
2.9751,2641,-1751.8,0.17453,0.89135,16124
2.9801,2637,-1758.9,0.17453,0.89484,16124
2.9851,2637,-1758.5,0.17453,0.89484,16124
2.9901,2643,-1748.3,0.17453,0.88961,16124
2.9951,2645,-1746.3,0.17453,0.88788,16124
3.0001,2641,-1754.9,0.17453,0.89135,15868
3.0051,2642,-1754.1,0.17453,0.89048,15868
3.0101,2638,-1762.1,0.17453,0.89397,15868
3.0151,2639,-1760.7,0.17453,0.8931,16124
3.0201,2638,-1763.1,0.17453,0.89397,16124
3.0251,2638,-1763.7,0.17453,0.89397,16124
3.0301,2642,-1757.6,0.17453,0.89048,16124
3.0351,2642,-1759.3,0.17453,0.89048,16124
3.0401,2640,-1764.3,0.17453,0.89222,16124
3.0451,2640,-1765.4,0.17453,0.89222,15612
3.0501,2656,-1739.8,0.17453,0.87838,15612
3.0551,2660,-1737.9,0.17453,0.87496,16124
3.0601,2638,-1779.8,0.17453,0.89397,16124
3.0651,2640,-1776.2,0.17453,0.89222,16124
3.0701,2645,-1768.2,0.17453,0.88788,15868
3.0751,2644,-1771.6,0.17453,0.88875,15868
3.0801,2641,-1778,0.17453,0.89135,15868
3.0851,2640,-1780.4,0.17453,0.89222,15868
3.0901,2641,-1779.3,0.17453,0.89135,15868
3.0951,2640,-1781.9,0.17453,0.89222,15868
3.1001,2638,-1786,0.17453,0.89397,15868
3.1051,2641,-1781.3,0.17453,0.89135,15868
3.1101,2645,-1775.7,0.17453,0.88788,15868
3.1151,2644,-1779.5,0.17453,0.88875,16124
3.1201,2641,-1786.3,0.17453,0.89135,16124
3.1251,2639,-1790.7,0.17453,0.8931,16124
3.1301,2639,-1791.3,0.17453,0.8931,16124
3.1351,2662,-1753.6,0.17453,0.87325,16124
3.1401,2657,-1767.8,0.17453,0.87753,16124
3.1451,2639,-1802,0.17453,0.8931,15868
3.1501,2646,-1790,0.17453,0.88701,15868
3.1551,2644,-1794.9,0.17453,0.88875,15868
3.1601,2644,-1796,0.17453,0.88875,15868
3.1651,2639,-1805.5,0.17453,0.8931,15868
3.1701,2641,-1802.1,0.17453,0.89135,15868
3.1751,2639,-1806.1,0.17453,0.8931,15868
3.1801,2637,-1809.7,0.17453,0.89484,15868
3.1851,2640,-1804.6,0.17453,0.89222,15868
3.1901,2644,-1798.7,0.17453,0.88875,15868
3.1951,2643,-1802.1,0.17453,0.88961,15868
3.2001,2639,-1810.3,0.17453,0.8931,15868
3.2051,2639,-1810.9,0.17453,0.8931,15868
3.2101,2639,-1811.5,0.17453,0.8931,15868
3.2151,2640,-1810.6,0.17453,0.89222,15868
3.2201,2638,-1815,0.17453,0.89397,15868
3.2251,2641,-1810.6,0.17453,0.89135,15868
3.2301,2663,-1775.3,0.17453,0.87239,15612
3.2351,2644,-1813.1,0.17453,0.88875,15612
3.2401,2641,-1819.5,0.17453,0.89135,15868
3.2451,2640,-1821.8,0.17453,0.89222,15868
3.2501,2640,-1822.3,0.17453,0.89222,15868
3.2551,2641,-1821.3,0.17453,0.89135,15868
3.2601,2638,-1827.3,0.17453,0.89397,15868
3.2651,2640,-1824.2,0.17453,0.89222,15868
3.2701,2644,-1818.3,0.17453,0.88875,15612
3.2751,2644,-1820.1,0.17453,0.88875,15612
3.2801,2640,-1828.6,0.17453,0.89222,15612
3.2851,2640,-1829.4,0.17453,0.89222,15868
3.2901,2639,-1831.9,0.17453,0.8931,15868
3.2951,2639,-1832.6,0.17453,0.8931,15868
3.3001,2637,-1836.7,0.17453,0.89484,16124
3.3051,2641,-1830.3,0.17453,0.89135,16124
3.3101,2645,-1824.9,0.17453,0.88788,16124
3.3151,2660,-1802.2,0.17453,0.87496,15868
3.3201,2660,-1807.6,0.17453,0.87496,15868
3.3251,2639,-1847.5,0.17453,0.8931,15868
3.3301,2641,-1843.8,0.17453,0.89135,15868
3.3351,2641,-1844.1,0.17453,0.89135,15868
3.3401,2637,-1851.3,0.17453,0.89484,15868
3.3451,2641,-1844.2,0.17453,0.89135,15868
3.3501,2645,-1838.2,0.17453,0.88788,15868
3.3551,2644,-1841.6,0.17453,0.88875,15868
3.3601,2641,-1848.1,0.17453,0.89135,15868
3.3651,2638,-1853.9,0.17453,0.89397,15868
3.3701,2639,-1852.3,0.17453,0.8931,15868
3.3751,2638,-1854.4,0.17453,0.89397,15868
3.3801,2640,-1851.4,0.17453,0.89222,15868
3.3851,2643,-1847.3,0.17453,0.88961,15868
3.3901,2645,-1845.5,0.17453,0.88788,15868
3.3951,2641,-1854.3,0.17453,0.89135,15868
3.4001,2644,-1850.2,0.17453,0.88875,15868
3.4051,2658,-1828.5,0.17453,0.87667,15868
3.4101,2651,-1844.9,0.17453,0.88269,15868
3.4151,2641,-1864.3,0.17453,0.89135,16124
3.4201,2639,-1867.9,0.17453,0.8931,16124
3.4251,2642,-1862.8,0.17453,0.89048,15868
3.4301,2646,-1856.8,0.17453,0.88701,15868
3.4351,2642,-1865.2,0.17453,0.89048,15868
3.4401,2641,-1867.6,0.17453,0.89135,15868
3.4451,2637,-1874.9,0.17453,0.89484,15868
3.4501,2640,-1869.6,0.17453,0.89222,15868
3.4551,2640,-1870.2,0.17453,0.89222,15868
3.4601,2639,-1872.6,0.17453,0.8931,15868
3.4651,2642,-1868.1,0.17453,0.89048,15868
3.4701,2643,-1867.7,0.17453,0.88961,15868
3.4751,2643,-1869.1,0.17453,0.88961,15868
3.4801,2640,-1875.6,0.17453,0.89222,15868
3.4851,2639,-1878,0.17453,0.8931,15868
3.4901,2657,-1848.5,0.17453,0.87753,15868
3.4951,2658,-1851.4,0.17453,0.87667,15868
3.5001,2638,-1889.2,0.17453,0.89397,16124
3.5051,2643,-1880.3,0.17453,0.88961,16124
3.5101,2643,-1881.1,0.17453,0.88961,15868
3.5151,2643,-1881.9,0.17453,0.88961,15868
3.5201,2639,-1889.5,0.17453,0.8931,15868
3.5251,2641,-1886.2,0.17453,0.89135,15868
3.5301,2640,-1888.5,0.17453,0.89222,15868
3.5351,2637,-1894,0.17453,0.89484,15868
3.5401,2642,-1885.4,0.17453,0.89048,15868
3.5451,2644,-1883.2,0.17453,0.88875,15868
3.5501,2642,-1888.2,0.17453,0.89048,15868
3.5551,2643,-1887.6,0.17453,0.88961,15868
3.5601,2640,-1893.9,0.17453,0.89222,15868
3.5651,2636,-1901.3,0.17453,0.89572,15868
3.5701,2640,-1894.3,0.17453,0.89222,15868
3.5751,2664,-1855.2,0.17453,0.87154,15868
3.5801,2641,-1899.7,0.17453,0.89135,15868
3.5851,2664,-1861.7,0.17453,0.87154,15868
3.5901,2644,-1900.6,0.17453,0.88875,15868
3.5951,2642,-1904.5,0.17453,0.89048,15868
3.6001,2641,-1906.3,0.17453,0.89135,15868
3.6051,2638,-1911.4,0.17453,0.89397,15868
3.6101,2638,-1910.9,0.17453,0.89397,15868
3.6151,2641,-1905.6,0.17453,0.89135,15868
3.6201,2640,-1907.9,0.17453,0.89222,15868
3.6251,2643,-1903.3,0.17453,0.88961,15868
3.6301,2643,-1904.4,0.17453,0.88961,15868
3.6351,2641,-1909,0.17453,0.89135,15868
3.6401,2638,-1914.7,0.17453,0.89397,15868
3.6451,2636,-1918.2,0.17453,0.89572,15868
3.6501,2638,-1914.6,0.17453,0.89397,15868
3.6551,2638,-1915,0.17453,0.89397,15868
3.6601,2641,-1910.4,0.17453,0.89135,15868
3.6651,2656,-1886.5,0.17453,0.87838,15868
3.6701,2663,-1879.5,0.17453,0.87239,15868
3.6751,2660,-1890,0.17453,0.87496,15868
3.6801,2641,-1926,0.17453,0.89135,15868
3.6851,2639,-1929,0.17453,0.8931,15868
3.6901,2639,-1928.4,0.17453,0.8931,15868
3.6951,2639,-1927.9,0.17453,0.8931,16124
3.7001,2640,-1926.1,0.17453,0.89222,16124
3.7051,2644,-1919.5,0.17453,0.88875,16124
3.7101,2643,-1922.4,0.17453,0.88961,16124
3.7151,2641,-1926.7,0.17453,0.89135,16124
3.7201,2640,-1928.9,0.17453,0.89222,16124
3.7251,2639,-1930.9,0.17453,0.8931,15868
3.7301,2638,-1932.8,0.17453,0.89397,15868
3.7351,2639,-1931.2,0.17453,0.8931,15868
3.7401,2641,-1928.3,0.17453,0.89135,16124
3.7451,2644,-1924.3,0.17453,0.88875,16124
3.7501,2644,-1925.9,0.17453,0.88875,16124
3.7551,2659,-1902.4,0.17453,0.87581,16124
3.7601,2659,-1907.2,0.17453,0.87581,16124
3.7651,2639,-1944.9,0.17453,0.8931,16124
3.7701,2640,-1942.6,0.17453,0.89222,15868
3.7751,2639,-1944.1,0.17453,0.8931,15868
3.7801,2641,-1940.5,0.17453,0.89135,15868
3.7851,2645,-1934.1,0.17453,0.88788,16124
3.7901,2643,-1938.8,0.17453,0.88961,16124
3.7951,2642,-1941.4,0.17453,0.89048,15868
3.8001,2640,-1945.4,0.17453,0.89222,15868
3.8051,2637,-1950.7,0.17453,0.89484,15868
3.8101,2640,-1945.3,0.17453,0.89222,15868
3.8151,2638,-1949.2,0.17453,0.89397,15868
3.8201,2641,-1944.3,0.17453,0.89135,15868
3.8251,2643,-1941.8,0.17453,0.88961,16124
3.8301,2641,-1946.6,0.17453,0.89135,16124
3.8351,2640,-1949.1,0.17453,0.89222,16124
3.8401,2653,-1928,0.17453,0.88096,15868
3.8451,2657,-1925,0.17453,0.87753,15868
3.8501,2641,-1955.8,0.17453,0.89135,15868
3.8551,2640,-1957.6,0.17453,0.89222,15868
3.8601,2643,-1952.6,0.17453,0.88961,15868
3.8651,2647,-1946.7,0.17453,0.88614,15868
3.8701,2645,-1951.7,0.17453,0.88788,15868
3.8751,2643,-1956.2,0.17453,0.88961,15868
3.8801,2639,-1963.7,0.17453,0.8931,15868
3.8851,2638,-1965.2,0.17453,0.89397,15868
3.8901,2639,-1963.2,0.17453,0.8931,15868
3.8951,2640,-1961.7,0.17453,0.89222,15868
3.9001,2642,-1958.8,0.17453,0.89048,15868
3.9051,2643,-1958.1,0.17453,0.88961,15868
3.9101,2643,-1959.3,0.17453,0.88961,15868
3.9151,2641,-1963.8,0.17453,0.89135,15868
3.9201,2637,-1971.3,0.17453,0.89484,15868
3.9251,2638,-1969.4,0.17453,0.89397,15868
3.9301,2657,-1937.8,0.17453,0.87753,15868
3.9351,2640,-1970.7,0.17453,0.89222,15868
3.9401,2650,-1954.2,0.17453,0.88355,16124
3.9451,2645,-1965.1,0.17453,0.88788,16124
3.9501,2642,-1971.4,0.17453,0.89048,16124
3.9551,2642,-1971.9,0.17453,0.89048,15868
3.9601,2640,-1975.8,0.17453,0.89222,15868
3.9651,2639,-1977.7,0.17453,0.8931,15868
3.9701,2640,-1976.1,0.17453,0.89222,15868
3.9751,2639,-1978.1,0.17453,0.8931,15868
3.9801,2644,-1969.9,0.17453,0.88875,15868
3.9851,2642,-1974.7,0.17453,0.89048,15868
3.9901,2642,-1975.7,0.17453,0.89048,15868
3.9951,2641,-1978.3,0.17453,0.89135,15868
4.0001,2639,-1982.3,0.17453,0.8931,15868
4.0051,2638,-1984.3,0.17453,0.89397,15868
4.0101,2639,-1982.7,0.17453,0.8931,15868
4.0151,2642,-1978.2,0.17453,0.89048,15868
4.0201,2663,-1944.4,0.17453,0.87239,15868
4.0251,2663,-1950.1,0.17453,0.87239,15868
4.0301,2642,-1990.2,0.17453,0.89048,15868
4.0351,2640,-1993.5,0.17453,0.89222,15868
4.0401,2642,-1989.7,0.17453,0.89048,15868
4.0451,2638,-1996.6,0.17453,0.89397,15868
4.0501,2640,-1992.6,0.17453,0.89222,15868
4.0551,2639,-1994.3,0.17453,0.8931,15868
4.0601,2643,-1987.5,0.17453,0.88961,15868
4.0651,2643,-1988.5,0.17453,0.88961,15868
4.0701,2642,-1991.1,0.17453,0.89048,15868
4.0751,2639,-1996.9,0.17453,0.8931,15868
4.0801,2639,-1996.9,0.17453,0.8931,16124
4.0851,2639,-1997.1,0.17453,0.8931,16124
4.0901,2638,-1999.1,0.17453,0.89397,16124
4.0951,2642,-1992.5,0.17453,0.89048,15868
4.1001,2643,-1991.9,0.17453,0.88961,15868
4.1051,2648,-1984.8,0.17453,0.88528,15868
4.1101,2660,-1967.2,0.17453,0.87496,15868
4.1151,2655,-1980.3,0.17453,0.87924,15868
4.1201,2640,-2008.5,0.17453,0.89222,15868
4.1251,2639,-2009.7,0.17453,0.8931,16124
4.1301,2639,-2009.2,0.17453,0.8931,16124
4.1351,2642,-2003.8,0.17453,0.89048,16124
4.1401,2646,-1997.5,0.17453,0.88701,15868
4.1451,2644,-2002.3,0.17453,0.88875,15868
4.1501,2642,-2006.5,0.17453,0.89048,15868
4.1551,2641,-2008.7,0.17453,0.89135,15868
4.1601,2639,-2012.3,0.17453,0.8931,15868
4.1651,2636,-2017.3,0.17453,0.89572,15868
4.1701,2640,-2009.9,0.17453,0.89222,15868
4.1751,2642,-2007,0.17453,0.89048,15868
4.1801,2644,-2004.6,0.17453,0.88875,15612
4.1851,2640,-2012.7,0.17453,0.89222,15612
4.1901,2642,-2009.7,0.17453,0.89048,15612
4.1951,2657,-1985.6,0.17453,0.87753,15868
4.2001,2659,-1986.5,0.17453,0.87581,15868
4.2051,2641,-2020.7,0.17453,0.89135,15868
4.2101,2638,-2025.5,0.17453,0.89397,15868
4.2151,2643,-2016.3,0.17453,0.88961,15868
4.2201,2645,-2013.5,0.17453,0.88788,15868
4.2251,2643,-2017.9,0.17453,0.88961,15868
4.2301,2643,-2018.4,0.17453,0.88961,15868
4.2351,2640,-2024,0.17453,0.89222,15868
4.2401,2640,-2024,0.17453,0.89222,15868
4.2451,2638,-2027.4,0.17453,0.89397,15868
4.2501,2640,-2023.8,0.17453,0.89222,15868
4.2551,2643,-2019,0.17453,0.88961,15868
4.2601,2642,-2021.8,0.17453,0.89048,15868
4.2651,2645,-2017.5,0.17453,0.88788,15612
4.2701,2642,-2024,0.17453,0.89048,15612
4.2751,2641,-2026.4,0.17453,0.89135,15612
4.2801,2663,-1990.2,0.17453,0.87239,15868
4.2851,2660,-2000.5,0.17453,0.87496,15868
4.2901,2638,-2041.4,0.17453,0.89397,15868
4.2951,2642,-2033.4,0.17453,0.89048,15868
4.3001,2643,-2031.7,0.17453,0.88961,15868
4.3051,2644,-2030.2,0.17453,0.88875,15868
4.3101,2641,-2035.8,0.17453,0.89135,15868
4.3151,2641,-2035.8,0.17453,0.89135,15868
4.3201,2639,-2039.2,0.17453,0.8931,15868
4.3251,2639,-2038.9,0.17453,0.8931,15868
4.3301,2640,-2037,0.17453,0.89222,15868
4.3351,2644,-2030.5,0.17453,0.88875,15868
4.3401,2643,-2033.3,0.17453,0.88961,15868
4.3451,2640,-2039.2,0.17453,0.89222,15868
4.3501,2640,-2039.4,0.17453,0.89222,15868
4.3551,2640,-2039.7,0.17453,0.89222,15868
4.3601,2638,-2043.4,0.17453,0.89397,15868
4.3651,2638,-2043.4,0.17453,0.89397,15868
4.3701,2641,-2038.4,0.17453,0.89135,15868
4.3751,2664,-2000.9,0.17453,0.87154,15868
4.3801,2664,-2006.8,0.17453,0.87154,15868
4.3851,2640,-2052,0.17453,0.89222,15868
4.3901,2641,-2049.6,0.17453,0.89135,15868
4.3951,2640,-2051,0.17453,0.89222,15868
4.4001,2642,-2047.2,0.17453,0.89048,15868
4.4051,2638,-2054.2,0.17453,0.89397,15868
4.4101,2640,-2050.2,0.17453,0.89222,15868
4.4151,2645,-2041.8,0.17453,0.88788,15868
4.4201,2642,-2048.1,0.17453,0.89048,15868
4.4251,2640,-2052,0.17453,0.89222,15868
4.4301,2641,-2050.4,0.17453,0.89135,15868
4.4351,2640,-2052.5,0.17453,0.89222,15868
4.4401,2639,-2054.4,0.17453,0.8931,15868
4.4451,2638,-2056.1,0.17453,0.89397,15868
4.4501,2641,-2051,0.17453,0.89135,15868
4.4551,2645,-2045,0.17453,0.88788,15868
4.4601,2661,-2020,0.17453,0.8741,15868
4.4651,2662,-2023.3,0.17453,0.87325,15868
4.4701,2642,-2061.3,0.17453,0.89048,15868
4.4751,2640,-2064.4,0.17453,0.89222,15868
4.4801,2640,-2063.7,0.17453,0.89222,15868
4.4851,2638,-2066.7,0.17453,0.89397,15868
4.4901,2640,-2062.6,0.17453,0.89222,15868
4.4951,2646,-2052.4,0.17453,0.88701,16124
4.5001,2642,-2060.5,0.17453,0.89048,16124
4.5051,2642,-2060.9,0.17453,0.89048,16124
4.5101,2642,-2061.3,0.17453,0.89048,15868
4.5151,2639,-2066.8,0.17453,0.8931,15868
4.5201,2640,-2064.9,0.17453,0.89222,15868
4.5251,2639,-2066.8,0.17453,0.8931,15868
4.5301,2643,-2060.1,0.17453,0.88961,15868
4.5351,2645,-2057.8,0.17453,0.88788,15868
4.5401,2641,-2065.9,0.17453,0.89135,15868
4.5451,2656,-2041.2,0.17453,0.87838,15868
4.5501,2660,-2038.4,0.17453,0.87496,15868
4.5551,2642,-2072.6,0.17453,0.89048,15868
4.5601,2640,-2075.8,0.17453,0.89222,15868
4.5651,2636,-2082,0.17453,0.89572,16124
4.5701,2642,-2070.6,0.17453,0.89048,16124
4.5751,2647,-2062.5,0.17453,0.88614,16124
4.5801,2643,-2070.7,0.17453,0.88961,16124
4.5851,2639,-2077.9,0.17453,0.8931,16124
4.5901,2641,-2074.2,0.17453,0.89135,16124
4.5951,2641,-2074.4,0.17453,0.89135,15868
4.6001,2639,-2078.1,0.17453,0.8931,15868
4.6051,2637,-2081.3,0.17453,0.89484,15868
4.6101,2642,-2072.5,0.17453,0.89048,15868
4.6151,2644,-2069.9,0.17453,0.88875,15868
4.6201,2641,-2076.2,0.17453,0.89135,16124
4.6251,2640,-2078.4,0.17453,0.89222,16124
4.6301,2639,-2080.4,0.17453,0.8931,16124
4.6351,2658,-2048.8,0.17453,0.87667,15868
4.6401,2659,-2051.5,0.17453,0.87581,15868
4.6451,2639,-2089.1,0.17453,0.8931,15868
4.6501,2644,-2079.9,0.17453,0.88875,15868
4.6551,2646,-2077,0.17453,0.88701,15868
4.6601,2642,-2084.7,0.17453,0.89048,15868
4.6651,2641,-2086.5,0.17453,0.89135,15868
4.6701,2641,-2086.4,0.17453,0.89135,15868
4.6751,2640,-2088.1,0.17453,0.89222,15868
4.6801,2640,-2088,0.17453,0.89222,15868
4.6851,2638,-2091.3,0.17453,0.89397,15868
4.6901,2643,-2082.5,0.17453,0.88961,15868
4.6951,2644,-2081.7,0.17453,0.88875,15868
4.7001,2642,-2086.2,0.17453,0.89048,15868
4.7051,2639,-2091.8,0.17453,0.8931,15868
4.7101,2641,-2088.4,0.17453,0.89135,15868
4.7151,2640,-2090.5,0.17453,0.89222,15868
4.7201,2662,-2054.1,0.17453,0.87325,16124
4.7251,2638,-2099.3,0.17453,0.89397,16124
4.7301,2643,-2090.2,0.17453,0.88961,16124
4.7351,2646,-2085.7,0.17453,0.88701,15868
4.7401,2641,-2095.3,0.17453,0.89135,15868
4.7451,2642,-2093.7,0.17453,0.89048,15868
4.7501,2641,-2095.7,0.17453,0.89135,15868
4.7551,2641,-2095.8,0.17453,0.89135,15868
4.7601,2637,-2102.8,0.17453,0.89484,15868
4.7651,2638,-2100.5,0.17453,0.89397,15868
4.7701,2644,-2090.2,0.17453,0.88875,15868
4.7751,2643,-2093.1,0.17453,0.88961,15868
4.7801,2640,-2099.1,0.17453,0.89222,15868
4.7851,2639,-2101,0.17453,0.8931,15868
4.7901,2639,-2101.1,0.17453,0.8931,15868
4.7951,2639,-2101.2,0.17453,0.8931,16124
4.8001,2639,-2101.4,0.17453,0.8931,16124
4.8051,2638,-2103.4,0.17453,0.89397,15868
4.8101,2668,-2053.5,0.17453,0.86814,15868
4.8151,2664,-2066.9,0.17453,0.87154,15868
4.8201,2658,-2081.9,0.17453,0.87667,15868
4.8251,2640,-2115.1,0.17453,0.89222,15868
4.8301,2640,-2113.9,0.17453,0.89222,15868
4.8351,2639,-2114.6,0.17453,0.8931,15868
4.8401,2637,-2117,0.17453,0.89484,15868
4.8451,2639,-2112.4,0.17453,0.8931,15868
4.8501,2645,-2101.8,0.17453,0.88788,15868
4.8551,2644,-2104.5,0.17453,0.88875,15868
4.8601,2642,-2108.6,0.17453,0.89048,15868
4.8651,2640,-2112.2,0.17453,0.89222,16124
4.8701,2639,-2113.7,0.17453,0.8931,16124
4.8751,2639,-2113.5,0.17453,0.8931,16124
4.8801,2637,-2116.7,0.17453,0.89484,15868
4.8851,2638,-2114.5,0.17453,0.89397,15868
4.8901,2645,-2102.6,0.17453,0.88788,15868
4.8951,2645,-2104.2,0.17453,0.88788,15868
4.9001,2659,-2082.3,0.17453,0.87581,15868
4.9051,2659,-2086.6,0.17453,0.87581,16124
4.9101,2641,-2120.6,0.17453,0.89135,16124
4.9151,2641,-2120,0.17453,0.89135,16124
4.9201,2636,-2128,0.17453,0.89572,15868
4.9251,2640,-2119.9,0.17453,0.89222,15868
4.9301,2645,-2111.2,0.17453,0.88788,15868
4.9351,2644,-2113.9,0.17453,0.88875,15868
4.9401,2643,-2116.3,0.17453,0.88961,15868
4.9451,2641,-2120.2,0.17453,0.89135,15868
4.9501,2640,-2121.9,0.17453,0.89222,15868
4.9551,2639,-2123.5,0.17453,0.8931,15868
4.9601,2638,-2124.9,0.17453,0.89397,15868
4.9651,2641,-2119.6,0.17453,0.89135,15868
4.9701,2645,-2113.3,0.17453,0.88788,15868
4.9751,2642,-2119.7,0.17453,0.89048,15868
4.9801,2641,-2122,0.17453,0.89135,15868
4.9851,2655,-2098.9,0.17453,0.87924,15868
4.9901,2658,-2097.4,0.17453,0.87667,15868
4.9951,2641,-2129.6,0.17453,0.89135,15868
5.0001,2638,-2134.2,0.17453,0.89397,15868
5.0051,2640,-2129.8,0.17453,0.89222,15868
5.0101,2647,-2117.7,0.17453,0.88614,15868
5.0151,2644,-2124.1,0.17453,0.88875,15868
5.0201,2640,-2131.4,0.17453,0.89222,15868
5.0251,2640,-2131.1,0.17453,0.89222,15868
5.0301,2638,-2134.3,0.17453,0.89397,15868
5.0351,2640,-2130.4,0.17453,0.89222,15612
5.0401,2637,-2135.5,0.17453,0.89484,15612
5.0451,2639,-2131.6,0.17453,0.8931,15612
5.0501,2642,-2126.6,0.17453,0.89048,15868
5.0551,2643,-2125.7,0.17453,0.88961,15868
5.0601,2640,-2131.8,0.17453,0.89222,15868
5.0651,2640,-2132.1,0.17453,0.89222,15868
5.0701,2638,-2135.7,0.17453,0.89397,15868
5.0751,2658,-2102.2,0.17453,0.87667,15868
5.0801,2636,-2143.4,0.17453,0.89572,15868
5.0851,2642,-2132.3,0.17453,0.89048,15868
5.0901,2646,-2126.2,0.17453,0.88701,15868
5.0951,2646,-2127.6,0.17453,0.88701,15868
5.1001,2639,-2140.7,0.17453,0.8931,15868
5.1051,2640,-2138.7,0.17453,0.89222,15868
5.1101,2640,-2138.7,0.17453,0.89222,15868
5.1151,2639,-2140.4,0.17453,0.8931,15868
5.1201,2639,-2140.4,0.17453,0.8931,15868
5.1251,2641,-2137,0.17453,0.89135,15868
5.1301,2643,-2134.2,0.17453,0.88961,15868
5.1351,2642,-2136.8,0.17453,0.89048,16124
5.1401,2639,-2142.6,0.17453,0.8931,16124
5.1451,2639,-2142.6,0.17453,0.8931,16124
5.1501,2637,-2146,0.17453,0.89484,15868
5.1551,2637,-2145.7,0.17453,0.89484,15868
5.1601,2638,-2143.9,0.17453,0.89397,15868
5.1651,2642,-2137.3,0.17453,0.89048,15868
5.1701,2664,-2101.7,0.17453,0.87154,15868
5.1751,2644,-2140.8,0.17453,0.88875,15868
5.1801,2640,-2148.3,0.17453,0.89222,16124
5.1851,2641,-2146.4,0.17453,0.89135,16124
5.1901,2641,-2146.5,0.17453,0.89135,15868
5.1951,2639,-2150.1,0.17453,0.8931,15868
5.2001,2638,-2151.5,0.17453,0.89397,15868
5.2051,2643,-2142.8,0.17453,0.88961,15868
5.2101,2644,-2142,0.17453,0.88875,15868
5.2151,2642,-2146.4,0.17453,0.89048,15868
5.2201,2639,-2152,0.17453,0.8931,15868
5.2251,2637,-2155.3,0.17453,0.89484,15868
5.2301,2640,-2149.7,0.17453,0.89222,15868
5.2351,2639,-2151.8,0.17453,0.8931,15868
5.2401,2639,-2151.9,0.17453,0.8931,15868
5.2451,2643,-2145.3,0.17453,0.88961,15868
5.2501,2648,-2138.1,0.17453,0.88528,15868
5.2551,2661,-2118.6,0.17453,0.8741,15868
