0,-0.05358,-0.05974,-0.000974,0,0,189.1
0.09999,-0.05358,-0.060013,-0.000974,-0.005755,-1e-06,-40.171
0.19999,-0.05358,-0.059779,-0.000974,-0.011117,-5e-06,52.317
0.3,-0.05376,-0.059974,-0.000974,-0.016063,-1e-05,15.169
0.4,-0.05358,-0.059857,-0.000974,-0.020662,-1.7e-05,29.993
0.5,-0.052681,-0.059974,-0.000974,-0.024907,-2.6e-05,24.16
0.6,-0.052681,-0.059896,-0.000974,-0.028842,-3.6e-05,26.383
0.7,-0.052322,-0.059974,-0.000974,-0.032471,-4.7e-05,25.596
0.80001,-0.052681,-0.059974,-0.000974,-0.035829,-6e-05,25.864
0.90001,-0.052681,-0.059896,-0.000974,-0.038926,-7.4e-05,25.693
1,-0.052322,-0.060052,-0.000974,-0.041772,-8.8e-05,25.939
1.1,-0.051603,-0.059818,-0.000974,-0.044408,-0.000103,25.549
1.2,-0.048726,-0.0567,-0.000974,-0.046809,-0.000119,23.342
1.3,-0.027869,-0.048839,0.000575,-0.048713,-0.000135,19.926
1.4,0.019059,-0.021912,0.000575,-0.049701,-0.00015,4.7049
1.5,0.085944,0.02789,0.000575,-0.048,-0.000162,-11.756
1.6,0.14797,0.10412,-0.000974,-0.041603,-0.000171,-34.119
1.7,0.19041,0.16178,-0.000974,-0.028308,-0.000179,-21.845
1.8,0.20228,0.20139,-0.000974,-0.010409,-0.000188,-21.154
1.9,0.18681,0.19401,-0.000974,0.010011,-0.000198,10.377
2,0.15463,0.15403,-0.000974,0.028232,-0.000209,25.056
2.1,0.13557,0.13293,-0.000974,0.041264,-0.000221,10.05
2.2,0.14312,0.12558,-0.000974,0.051293,-0.000234,8.2885
2.3,0.16434,0.13042,-0.000974,0.059856,-0.000247,0.30146
2.4,0.19472,0.17434,-0.000974,0.068229,-0.000261,-28.759
2.5001,0.22583,0.20304,-0.000974,0.080186,-0.000275,-11.491
2.6,0.22853,0.21756,-0.000974,0.093998,-0.000289,-11.47
2.7,0.21414,0.22107,-0.000974,0.10816,-0.000304,-4.8336
2.8,0.19131,0.1943,-0.000974,0.12157,-0.000319,16.375
2.9001,0.16811,0.17285,-0.000974,0.13137,-0.000334,7.6231
3.0001,0.16434,0.15353,-0.000974,0.13833,-0.000349,12.769
3.1001,0.17459,0.15768,-0.000974,0.14285,-0.000364,-5.2816
3.2001,0.19257,0.17747,-0.000974,0.14737,-0.000379,-11.23
3.3001,0.20749,0.19313,-0.000974,0.1534,-0.000394,-8.5476
3.4001,0.20767,0.20259,-0.000974,0.16042,-0.00041,-7.0455
3.5001,0.19886,0.20184,-0.000974,0.16778,-0.000425,-0.87613
3.6001,0.18645,0.19386,-0.000974,0.17445,-0.00044,2.5756
3.7001,0.17441,0.16964,-0.000974,0.17979,-0.000454,15.519
3.8001,0.17099,0.16204,-0.000974,0.18232,-0.000469,0.60604
3.9001,0.18088,0.16858,-0.000974,0.18387,-0.000483,-3.5951
4.0001,0.19418,0.17761,-0.000974,0.18585,-0.000498,-4.9137
4.1001,0.20228,0.19357,-0.000974,0.18847,-0.000512,-11.368
4.2001,0.20209,0.19415,-0.000974,0.19237,-0.000526,1.1922
4.3001,0.19562,0.19401,-0.000974,0.19596,-0.000539,-3.397
4.4001,0.19742,0.1943,-0.000974,0.1992,-0.000553,-1.8688
4.5001,0.17962,0.17775,-0.000974,0.20216,-0.000566,11.062
4.6001,0.1753,0.16937,-0.000974,0.20322,-0.000579,1.7794
4.7001,0.18106,0.16924,0.000575,0.20333,-0.000591,0.18261
4.8001,0.19185,0.18064,0.000575,0.20334,-0.000602,-8.4596
4.9001,0.1994,0.19386,0.000575,0.20438,-0.000609,-8.1873
5.0001,0.1994,0.19371,0.000575,0.20654,-0.000612,0.44662
5.1001,0.194,0.19415,0.000575,0.20846,-0.000612,-3.4979
5.2001,0.18663,0.18498,0.000575,0.21021,-0.000609,5.7903
5.3001,0.18196,0.17775,0.000575,0.21088,-0.000604,1.8772
5.4001,0.18142,0.17529,0.000575,0.21074,-0.000597,0.72645
5.5001,0.18699,0.17747,0.000575,0.21031,-0.000587,-2.1743
5.6001,0.18969,0.18413,0.000575,0.21005,-0.000576,-4.9507
5.7001,0.20066,0.18596,0.000575,0.21039,-0.000563,-0.95832
5.8001,0.19203,0.18526,0.000575,0.21081,-0.000548,-0.80876
5.9001,0.19113,0.18582,-0.000974,0.21108,-0.000533,-1.7864
6.0001,0.19167,0.1854,-0.000974,0.21133,-0.000518,-0.6796
6.1001,0.19113,0.18582,0.000575,0.21146,-0.000505,-1.7466
6.2001,0.1931,0.18568,0.000575,0.21156,-0.000493,-0.92375
6.3001,0.19203,0.18582,0.000575,0.21158,-0.00048,-1.4634
6.4001,0.19365,0.18554,0.000575,0.21157,-0.000465,-0.92442
6.5001,0.19454,0.18596,0.000575,0.21147,-0.00045,-1.6695
6.6001,0.19382,0.18582,0.000575,0.21138,-0.000433,-0.97679
6.7001,0.19526,0.18824,-0.000974,0.21122,-0.000416,-3.2985
6.8001,0.19346,0.19401,-0.000974,0.21126,-0.000399,-5.4375
6.9001,0.19023,0.18554,-0.000974,0.21181,-0.000386,6.0251
7.0001,0.18555,0.18582,-0.000974,0.21145,-0.000376,-4.3699
7.1001,0.18466,0.17665,-0.000974,0.2111,-0.000367,7.4289
7.2001,0.18699,0.17747,-0.000974,0.20985,-0.000361,-3.9994
7.3001,0.19365,0.18484,0.000575,0.20873,-0.000358,-4.7793
7.4002,0.19778,0.19342,0.000575,0.20836,-0.000354,-6.5885
7.5002,0.19275,0.18611,0.000575,0.2088,-0.000348,5.6547
7.6002,0.18987,0.18611,-0.000974,0.20846,-0.000341,-4.0791
7.7002,0.18771,0.18512,-0.000974,0.20812,-0.000334,0.66138
7.8002,0.18358,0.18611,-0.000974,0.20766,-0.000329,-2.7023
7.9002,0.18951,0.17733,0.000575,0.2073,-0.000326,6.3861
8.0002,0.18088,0.17802,0.000575,0.20609,-0.000323,-3.5736
8.1002,0.18555,0.1772,0.000575,0.205,-0.000319,1.5717
8.2002,0.18825,0.17788,-0.000974,0.20387,-0.000312,-1.6023
8.3002,0.19185,0.18568,-0.000974,0.20287,-0.000306,-6.1649
8.4002,0.19113,0.18611,0.000575,0.20266,-0.000303,0.43092
8.5002,0.18789,0.18582,0.000575,0.20247,-0.000299,-1.7351
8.6002,0.18393,0.17733,0.000575,0.20225,-0.000293,5.8097
8.7002,0.18322,0.17706,-0.000974,0.2012,-0.000286,-2.5656
8.8002,0.18573,0.17733,-0.000974,0.20017,-0.00028,0.42667
8.9002,0.18627,0.17761,-0.000974,0.19922,-0.000276,-0.82774
9.0002,0.19059,0.18231,-0.000974,0.19835,-0.000274,-3.9371
9.1002,0.18807,0.18582,-0.000974,0.19796,-0.000274,-2.4428
9.2002,0.18789,0.18498,-0.000974,0.19793,-0.000275,-0.072201
9.3002,0.1825,0.17775,-0.000974,0.19779,-0.000278,4.2515
9.4002,0.18358,0.17665,-0.000974,0.19695,-0.000282,-1.335
9.5002,0.18591,0.17761,-0.000974,0.19604,-0.000288,-0.56066
9.6002,0.18987,0.18526,0.000575,0.19528,-0.000295,-6.4239
9.7002,0.18987,0.18582,0.000575,0.19529,-0.000301,0.48771
9.8002,0.18448,0.1854,0.000575,0.19533,-0.000304,-1.6006
9.9002,0.18429,0.17788,0.000575,0.19532,-0.000305,5.0359
10,0.18052,0.17733,0.000575,0.19457,-0.000303,-2.1153
10.1,0.18717,0.17775,0.000575,0.1938,-0.0003,0.091051
10.2,0.18951,0.1854,-0.000974,0.19312,-0.000295,-6.7123
10.3,0.19293,0.18611,-0.000974,0.19321,-0.00029,0.46822
10.4,0.18717,0.18568,-0.000974,0.19334,-0.000288,-1.6361
10.5,0.18735,0.18568,-0.000974,0.19342,-0.000287,-1.0608
10.6,0.18519,0.18568,-0.000974,0.19347,-0.000288,-1.2938
10.7,0.18178,0.17733,-0.000974,0.19351,-0.00029,5.5387
10.8,0.1834,0.17788,-0.000974,0.19273,-0.000294,-3.1196
10.9,0.18501,0.1772,-0.000974,0.19205,-0.000299,1.2982
11,0.18825,0.17761,-0.000974,0.19134,-0.000306,-1.2701
11.1,0.18987,0.18498,-0.000974,0.19071,-0.000313,-5.9089
11.2,0.19329,0.18596,-0.000974,0.19083,-0.000321,-0.019108
11.3,0.18951,0.1854,-0.000974,0.19103,-0.00033,-1.3031
11.4,0.18609,0.18596,-0.000974,0.19115,-0.00034,-1.6083
11.5,0.18448,0.17843,-0.000974,0.1913,-0.00035,4.9643
11.6,0.1825,0.17816,-0.000974,0.19071,-0.000361,-2.392
11.7,0.18483,0.1772,-0.000974,0.19013,-0.000372,1.1828
11.8,0.18789,0.18596,-0.000974,0.18948,-0.000384,-7.9685
11.9,0.19005,0.1854,-0.000974,0.18973,-0.000396,1.9164
12,0.18681,0.18596,-0.000974,0.18989,-0.000408,-2.9122
12.1,0.18645,0.18582,-0.000974,0.19009,-0.00042,-0.47349
12.2,0.18717,0.17871,-0.000974,0.19026,-0.000433,4.1903
12.3,0.18429,0.17761,-0.000974,0.18971,-0.000445,-1.4557
12.4,0.18789,0.17761,-0.000974,0.1891,-0.000458,0.11351
12.5,0.19185,0.18582,-0.000974,0.18853,-0.000471,-7.153
12.6,0.1949,0.18596,-0.000974,0.18878,-0.000484,1.0376
12.7,0.19113,0.18596,-0.000974,0.18902,-0.000496,-2.1873
12.8,0.19149,0.18554,-0.000974,0.18924,-0.000509,-0.53892
12.9,0.18807,0.18596,-0.000974,0.1894,-0.000522,-1.8256
13,0.18735,0.1854,-0.000974,0.18958,-0.000534,-0.57143
13.1,0.18429,0.17816,-0.000974,0.18969,-0.000546,4.3974
13.2,0.18501,0.17692,-0.000974,0.18909,-0.000559,-1.346
13.3,0.18843,0.17788,-0.000974,0.1884,-0.000571,-0.59926
13.4,0.19239,0.18526,-0.000974,0.18786,-0.000583,-6.2292
13.5,0.19436,0.18596,-0.000974,0.18806,-0.000594,0.29469
13.6,0.18933,0.18526,-0.000974,0.18831,-0.000606,-1.3162
13.7,0.18843,0.18582,-0.000974,0.18847,-0.000617,-1.5809
13.8,0.18376,0.17802,-0.000974,0.18867,-0.000628,5.1937
13.9,0.18304,0.17775,0.000575,0.1881,-0.000639,-2.4215
14,0.18466,0.1772,0.000575,0.18754,-0.000648,0.92596
14.1,0.18735,0.17775,0.000575,0.18696,-0.000653,-1.23
14.2,0.18915,0.18554,-0.000974,0.18648,-0.000655,-6.2912
14.3,0.18699,0.18596,-0.000974,0.18678,-0.000656,0.50408
14.4,0.1825,0.17775,-0.000974,0.1871,-0.000657,4.6632
14.5,0.1789,0.17761,-0.000974,0.1866,-0.000659,-2.2751
14.6,0.18214,0.17775,-0.000974,0.18612,-0.000661,0.33468
14.7,0.18178,0.17775,-0.000974,0.18568,-0.000664,-0.63278
14.8,0.18555,0.17775,-0.000974,0.18528,-0.000668,-0.24096
