0,3488,461.83,0.17453,-0.064266,15868
0.0050201,3497,405.79,0.17453,-0.066889,15868
0.009989,3486,346.35,0.17453,-0.063681,15868
0.014989,3488,302.52,0.17453,-0.064266,15868
0.019991,3627,338.45,0.17453,-0.10289,15868
0.02499,3592,277.2,0.17453,-0.09353,15868
0.029997,3494,189.36,0.17453,-0.066016,15868
0.034989,3501,170.67,0.17453,-0.068048,15868
0.039994,3466,130.97,0.17453,-0.057781,15868
0.044989,3469,118.42,0.17453,-0.058672,15868
0.050018,3476,110.08,0.17453,-0.060742,15868
0.054992,3484,103.65,0.17453,-0.063095,15868
0.059989,3478,90.383,0.17453,-0.061332,15868
0.06499,3479,83.111,0.17453,-0.061626,15868
0.06999,3495,85.54,0.17453,-0.066307,15868
0.07499,3499,81.089,0.17453,-0.067469,15868
0.079992,3488,69.039,0.17453,-0.064266,15868
0.084996,3487,64.463,0.17453,-0.063974,15868
0.08999,3487,61.299,0.17453,-0.063974,15868
0.09502,3487,58.791,0.17453,-0.063974,15868
0.099991,3488,57.415,0.17453,-0.064266,15868
0.10499,3572,101.93,0.17453,-0.088074,15868
0.10999,3493,51.521,0.17453,-0.065725,15868
0.11499,3510,60.792,0.17453,-0.070646,15868
0.11999,3459,30.632,0.17453,-0.055695,15868
0.12499,3459,33.611,0.17453,-0.055695,15868
0.13,3476,46.162,0.17453,-0.060742,15868
0.135,3473,45.781,0.17453,-0.059856,16124
0.14001,3476,49.091,0.17453,-0.060742,16124
0.14499,3481,53.309,0.17453,-0.062214,15868
0.14999,3494,61.688,0.17453,-0.066016,15868
0.15499,3500,65.189,0.17453,-0.067759,15868
0.15999,3486,57.192,0.17453,-0.063681,15868
0.16499,3483,56.663,0.17453,-0.062802,15868
0.16999,3485,59.252,0.17453,-0.063388,16124
0.175,3486,61.144,0.17453,-0.063681,16124
0.17999,3489,64.128,0.17453,-0.064558,15868
0.18501,3487,64.102,0.17453,-0.063974,15868
0.18999,3495,69.937,0.17453,-0.066307,15868
0.19499,3634,145.01,0.17453,-0.10473,15868
0.19999,3598,117.53,0.17453,-0.095151,15868
0.20499,3444,27.468,0.17453,-0.051187,15868
0.20999,3458,42.753,0.17453,-0.055396,15868
0.21499,3463,50.94,0.17453,-0.056888,15868
0.22,3472,60.512,0.17453,-0.05956,15868
0.22499,3481,68.974,0.17453,-0.062214,15868
0.23,3499,81.543,0.17453,-0.067469,15868
0.23499,3490,77.424,0.17453,-0.06485,15868
0.23999,3485,76.298,0.17453,-0.063388,15868
0.24499,3482,76.655,0.17453,-0.062508,15868
0.24999,3486,81.137,0.17453,-0.063681,15868
0.25499,3486,82.96,0.17453,-0.063681,15868
0.26,3485,84.178,0.17453,-0.063388,15868
0.265,3484,85.438,0.17453,-0.063095,15868
0.26999,3497,94.638,0.17453,-0.066889,15868
0.275,3495,94.36,0.17453,-0.066307,15868
0.27999,3492,93.763,0.17453,-0.065434,15868
0.28502,3594,150.52,0.17453,-0.094071,15868
0.29,3582,138.29,0.17453,-0.090812,15868
0.295,3458,65.743,0.17453,-0.055396,16124
0.3,3466,76.148,0.17453,-0.057781,16124
0.305,3487,92.718,0.17453,-0.063974,16124
0.30999,3498,101.5,0.17453,-0.067179,15868
0.315,3481,93.517,0.17453,-0.062214,15868
0.32,3478,94.686,0.17453,-0.061332,15868
0.325,3480,98.738,0.17453,-0.06192,15868
0.33,3481,101.88,0.17453,-0.062214,15868
0.335,3483,105.36,0.17453,-0.062802,15868
0.34,3483,107.44,0.17453,-0.062802,15868
0.345,3485,110.57,0.17453,-0.063388,15868
0.35,3495,117.99,0.17453,-0.066307,15868
0.355,3489,115.59,0.17453,-0.064558,15868
0.36,3487,115.97,0.17453,-0.063974,15868
0.36502,3618,188.27,0.17453,-0.1005,15868
0.37,3607,174.87,0.17453,-0.097569,16124
0.375,3584,157.17,0.17453,-0.091357,16124
0.38,3456,83.377,0.17453,-0.054797,16124
0.38502,3490,109.73,0.17453,-0.06485,16124
0.39,3499,118.38,0.17453,-0.067469,16124
0.395,3478,109.14,0.17453,-0.061332,16124
0.4,3479,113.75,0.17453,-0.061626,16124
0.405,3479,117.36,0.17453,-0.061626,16124
0.41002,3481,121.82,0.17453,-0.062214,15868
0.415,3485,127,0.17453,-0.063388,15868
0.42,3482,127.7,0.17453,-0.062508,15868
0.425,3491,135.3,0.17453,-0.065142,15868
0.43,3497,140.36,0.17453,-0.066889,15868
0.435,3489,137.05,0.17453,-0.064558,15868
0.44,3488,138.31,0.17453,-0.064266,15868
0.445,3489,140.73,0.17453,-0.064558,15868
0.45,3489,142.45,0.17453,-0.064558,15868
0.45501,3605,206.93,0.17453,-0.097033,16124
0.46,3585,189.81,0.17453,-0.091629,16124
0.465,3494,136.12,0.17453,-0.066016,16124
0.47,3496,140.43,0.17453,-0.066598,15868
0.475,3468,127.32,0.17453,-0.058375,15868
0.48,3470,133.18,0.17453,-0.058968,15868
0.48502,3479,142.42,0.17453,-0.061626,15868
0.49,3477,144.33,0.17453,-0.061037,15868
0.495,3483,150.72,0.17453,-0.062802,16124
0.5,3481,151.89,0.17453,-0.062214,16124
0.505,3492,160.44,0.17453,-0.065434,16124
0.51,3498,165.19,0.17453,-0.067179,15868
0.515,3486,159.36,0.17453,-0.063681,15868
0.52,3485,160.68,0.17453,-0.063388,15868
0.525,3488,164.27,0.17453,-0.064266,15868
0.53,3487,165.3,0.17453,-0.063974,15868
0.535,3486,166.38,0.17453,-0.063681,15868
0.54,3601,230.48,0.17453,-0.095959,16124
0.545,3494,165.95,0.17453,-0.066016,16124
0.55,3500,171.47,0.17453,-0.067759,16124
0.555,3457,148.59,0.17453,-0.055097,15868
0.56,3460,155.13,0.17453,-0.055993,15868
0.565,3470,164.99,0.17453,-0.058968,15868
0.57,3476,171.38,0.17453,-0.060742,15868
0.575,3483,177.64,0.17453,-0.062802,15868
0.58,3477,175.85,0.17453,-0.061037,15868
0.58503,3494,187.52,0.17453,-0.066016,15868
0.59,3497,189.87,0.17453,-0.066889,15868
0.595,3486,184.19,0.17453,-0.063681,16124
0.6,3486,185.66,0.17453,-0.063681,16124
0.605,3490,189.36,0.17453,-0.06485,16124
0.61,3486,188.23,0.17453,-0.063681,15868
0.615,3484,188.55,0.17453,-0.063095,15868
0.62,3485,190.71,0.17453,-0.063388,15868
0.625,3494,197.26,0.17453,-0.066016,15612
0.63,3617,264.22,0.17453,-0.10024,15612
0.635,3589,241.77,0.17453,-0.092716,15612
0.64,3457,164.32,0.17453,-0.055097,15868
0.645,3460,171.83,0.17453,-0.055993,15868
0.65,3469,181.94,0.17453,-0.058672,15868
0.655,3471,186.83,0.17453,-0.059264,15868
0.66,3476,192.94,0.17453,-0.060742,15868
0.665,3497,207.43,0.17453,-0.066889,15868
0.67,3491,204.9,0.17453,-0.065142,15868
0.675,3485,202.87,0.17453,-0.063388,15868
0.68001,3483,203.53,0.17453,-0.062802,15868
0.68503,3485,206.54,0.17453,-0.063388,15868
0.69,3484,207.62,0.17453,-0.063095,15868
0.695,3486,210.42,0.17453,-0.063681,15868
0.7,3485,211.32,0.17453,-0.063388,15868
0.705,3499,220.72,0.17453,-0.067469,15868
0.71001,3494,218.34,0.17453,-0.066016,15868
0.715,3616,284.93,0.17453,-0.099972,15868
0.72,3593,265.28,0.17453,-0.0938,15868
0.725,3459,186.69,0.17453,-0.055695,15868
0.73001,3458,191.84,0.17453,-0.055396,15868
0.73501,3477,207.94,0.17453,-0.061037,15868
0.74001,3471,207.71,0.17453,-0.059264,15868
0.74501,3496,225.28,0.17453,-0.066598,15868
0.75001,3484,219.72,0.17453,-0.063095,15868
0.75501,3481,220.13,0.17453,-0.062214,15868
0.76,3482,222.92,0.17453,-0.062508,15868
0.76501,3486,227.2,0.17453,-0.063681,15868
0.77001,3486,228.8,0.17453,-0.063681,15868
0.77501,3485,229.79,0.17453,-0.063388,15868
0.78,3483,230.24,0.17453,-0.062802,15868
0.78503,3496,239.26,0.17453,-0.066598,15868
0.79,3491,237.09,0.17453,-0.065142,15868
0.79501,3488,236.5,0.17453,-0.064266,15868
0.80001,3626,312.02,0.17453,-0.10262,15868
0.80501,3594,286.99,0.17453,-0.094071,15868
0.81001,3457,206.67,0.17453,-0.055097,15868
0.81501,3459,213.71,0.17453,-0.055695,15868
0.82001,3490,236.51,0.17453,-0.06485,15868
0.82501,3497,242.67,0.17453,-0.066889,15868
0.83001,3479,234.04,0.17453,-0.061626,15868
0.83501,3479,236.9,0.17453,-0.061626,15868
0.84001,3480,240.1,0.17453,-0.06192,15868
0.84501,3491,248.68,0.17453,-0.065142,15868
0.85001,3481,244.39,0.17453,-0.062214,16124
0.85501,3484,248.19,0.17453,-0.063095,16124
0.86001,3491,253.89,0.17453,-0.065142,16124
0.86501,3497,258.41,0.17453,-0.066889,16124
0.87001,3491,255.73,0.17453,-0.065142,16124
0.87501,3486,254.12,0.17453,-0.063681,16124
0.88001,3485,255.14,0.17453,-0.063388,16124
0.88501,3488,258.44,0.17453,-0.064266,16124
0.89001,3598,319.49,0.17453,-0.095151,16124
0.89501,3497,258.23,0.17453,-0.066889,15868
0.90001,3492,257.12,0.17453,-0.065434,15868
0.90501,3500,263.63,0.17453,-0.067759,15868
0.91001,3480,253.64,0.17453,-0.06192,15868
0.91501,3475,253.57,0.17453,-0.060447,15868
0.92001,3476,257.08,0.17453,-0.060742,15868
0.92501,3481,262.54,0.17453,-0.062214,15868
0.93001,3480,264,0.17453,-0.06192,15868
0.93501,3485,268.82,0.17453,-0.063388,15868
0.94001,3492,274.27,0.17453,-0.065434,15868
0.94501,3498,278.57,0.17453,-0.067179,15868
0.95001,3488,273.44,0.17453,-0.064266,15868
0.95501,3489,275.35,0.17453,-0.064558,15868
0.96001,3488,276.02,0.17453,-0.064266,15868
0.96501,3488,277.31,0.17453,-0.064266,15868
0.97001,3488,278.59,0.17453,-0.064266,15868
0.97501,3601,341.13,0.17453,-0.095959,15868
0.98001,3496,277.48,0.17453,-0.066598,15868
0.98501,3500,281.48,0.17453,-0.067759,15868
0.99001,3460,260.1,0.17453,-0.055993,15868
0.99501,3465,267.33,0.17453,-0.057484,15868
1,3471,274.3,0.17453,-0.059264,15868
1.005,3476,279.89,0.17453,-0.060742,15868
1.01,3478,283.16,0.17453,-0.061332,15868
1.015,3481,286.71,0.17453,-0.062214,15868
1.02,3499,298.38,0.17453,-0.067469,16124
1.025,3499,298.48,0.17453,-0.067469,16124
1.03,3487,291.97,0.17453,-0.063974,16124
1.035,3490,294.92,0.17453,-0.06485,15868
1.04,3486,293.67,0.17453,-0.063681,15868
1.045,3487,295.55,0.17453,-0.063974,15868
1.05,3487,296.77,0.17453,-0.063974,15612
1.055,3487,297.96,0.17453,-0.063974,15612
1.06,3492,301.97,0.17453,-0.065434,15612
1.065,3612,367.5,0.17453,-0.098906,15868
1.07,3584,345.16,0.17453,-0.091357,15868
1.075,3460,272.2,0.17453,-0.055993,15868
1.08,3464,279.78,0.17453,-0.057186,15868
1.085,3470,287.61,0.17453,-0.058968,15868
1.09,3475,293.95,0.17453,-0.060447,15868
1.095,3478,298.42,0.17453,-0.061332,15868
1.1,3499,312.6,0.17453,-0.067469,15868
1.105,3490,308.09,0.17453,-0.06485,15868
1.11,3483,305.43,0.17453,-0.062802,16124
1.115,3482,306.66,0.17453,-0.062508,16124
1.12,3485,310.12,0.17453,-0.063388,15868
1.125,3484,311,0.17453,-0.063095,15868
1.13,3483,311.9,0.17453,-0.062802,15868
1.135,3485,314.51,0.17453,-0.063388,15868
1.14,3496,321.99,0.17453,-0.066598,15868
1.145,3496,322.41,0.17453,-0.066598,15868
1.15,3606,382.29,0.17453,-0.097301,15868
1.155,3586,364.57,0.17453,-0.091901,15868
1.16,3456,288.08,0.17453,-0.054797,15868
1.165,3464,298.27,0.17453,-0.057186,15868
1.17,3469,305.47,0.17453,-0.058672,15868
1.175,3473,311.26,0.17453,-0.059856,15868
1.18,3496,327.15,0.17453,-0.066598,15868
1.185,3485,321.82,0.17453,-0.063388,15868
1.19,3482,321.84,0.17453,-0.062508,15868
1.195,3483,324.25,0.17453,-0.062802,15868
1.2,3481,324.78,0.17453,-0.062214,15868
1.205,3483,327.63,0.17453,-0.062802,15868
1.21,3484,329.67,0.17453,-0.063095,15868
1.215,3483,330.44,0.17453,-0.062802,15868
1.22,3497,339.7,0.17453,-0.066889,15868
1.225,3496,339.41,0.17453,-0.066598,15868
1.23,3491,337.04,0.17453,-0.065142,15868
1.235,3596,394.92,0.17453,-0.094611,15868
1.24,3589,384.63,0.17453,-0.092716,15868
1.245,3456,306.21,0.17453,-0.054797,15868
1.25,3461,314.58,0.17453,-0.056292,15868
1.255,3487,333.91,0.17453,-0.063974,15868
1.26,3496,341.01,0.17453,-0.066598,15868
1.265,3479,332.61,0.17453,-0.061626,15868
1.27,3479,335.07,0.17453,-0.061626,15868
1.275,3481,338.46,0.17453,-0.062214,15868
1.28,3480,339.82,0.17453,-0.06192,15868
1.285,3483,343.4,0.17453,-0.062802,15868
1.29,3487,347.19,0.17453,-0.063974,15868
1.295,3492,351.17,0.17453,-0.065434,15868
1.3,3499,355.85,0.17453,-0.067469,15868
1.305,3492,352.18,0.17453,-0.065434,16124
1.31,3489,351.36,0.17453,-0.064558,16124
1.315,3487,351.35,0.17453,-0.063974,16124
1.32,3605,416.53,0.17453,-0.097033,16124
1.325,3589,400.93,0.17453,-0.092716,16124
1.33,3458,323.76,0.17453,-0.055396,16124
1.335,3494,349.68,0.17453,-0.066016,15868
1.34,3501,355.67,0.17453,-0.068048,15868
1.345,3471,340.07,0.17453,-0.059264,15868
1.35,3477,347.08,0.17453,-0.061037,15868
1.355,3480,351.56,0.17453,-0.06192,15868
1.36,3478,352.71,0.17453,-0.061332,15868
1.365,3480,356.1,0.17453,-0.06192,15868
1.37,3483,359.73,0.17453,-0.062802,15868
1.375,3494,367.51,0.17453,-0.066016,15868
1.38,3497,369.85,0.17453,-0.066889,15868
1.385,3495,369.2,0.17453,-0.066307,15868
1.39,3486,364.8,0.17453,-0.063681,15868
1.395,3486,366.19,0.17453,-0.063681,15868
1.4,3487,368.09,0.17453,-0.063974,15868
1.405,3627,444.55,0.17453,-0.10289,15868
1.41,3593,418.18,0.17453,-0.0938,15868
1.415,3496,360.45,0.17453,-0.066598,15868
1.42,3497,363.71,0.17453,-0.066889,15868
1.425,3465,347.91,0.17453,-0.057484,15868
1.43,3469,354.8,0.17453,-0.058672,15868
1.435,3473,360.87,0.17453,-0.059856,15868
1.44,3476,365.67,0.17453,-0.060742,15868
1.445,3481,371.07,0.17453,-0.062214,15868
1.45,3481,373.03,0.17453,-0.062214,15868
1.455,3495,382.75,0.17453,-0.066307,15868
1.46,3500,386.2,0.17453,-0.067759,15868
1.465,3499,385.94,0.17453,-0.067469,15868
1.47,3484,377.95,0.17453,-0.063095,15868
1.475,3487,381.29,0.17453,-0.063974,15868
1.48,3490,384.3,0.17453,-0.06485,15868
1.485,3490,385.34,0.17453,-0.06485,15868
1.49,3606,449.11,0.17453,-0.097301,16124
1.495,3501,385.23,0.17453,-0.068048,16124
1.5,3600,440.02,0.17453,-0.09569,16124
1.505,3461,358.02,0.17453,-0.056292,15868
1.51,3462,363.81,0.17453,-0.05659,15868
1.515,3477,376.96,0.17453,-0.061037,15868
1.52,3470,375.86,0.17453,-0.058968,15868
1.525,3478,383.58,0.17453,-0.061332,15868
1.53,3478,385.82,0.17453,-0.061332,15868
1.535,3493,396.36,0.17453,-0.065725,16124
1.54,3489,394.86,0.17453,-0.064558,16124
1.545,3491,397.07,0.17453,-0.065142,16124
1.55,3486,395.14,0.17453,-0.063681,15868
1.555,3485,395.84,0.17453,-0.063388,15868
1.56,3488,398.83,0.17453,-0.064266,15868
1.565,3485,398.14,0.17453,-0.063388,15868
1.57,3485,399.35,0.17453,-0.063388,15868
1.575,3500,408.96,0.17453,-0.067759,16124
1.58,3631,478.94,0.17453,-0.10394,16124
1.585,3595,451.23,0.17453,-0.094341,16124
1.59,3450,365.99,0.17453,-0.052996,15868
1.595,3459,377.36,0.17453,-0.055695,15868
1.6,3464,384.98,0.17453,-0.057186,15868
1.605,3474,394.53,0.17453,-0.060152,16124
1.61,3479,400.03,0.17453,-0.061626,16124
1.615,3496,411.67,0.17453,-0.066598,16124
1.62,3486,406.61,0.17453,-0.063681,15868
1.625,3484,406.85,0.17453,-0.063095,15868
1.63,3484,408.29,0.17453,-0.063095,15868
1.635,3482,408.52,0.17453,-0.062508,15868
1.64,3486,412.23,0.17453,-0.063681,15868
1.645,3487,413.85,0.17453,-0.063974,15868
1.65,3486,414.23,0.17453,-0.063681,15612
1.655,3509,428.15,0.17453,-0.070358,15612
1.66,3492,417.9,0.17453,-0.065434,15868
1.665,3486,415.26,0.17453,-0.063681,15868
1.67,3599,477.86,0.17453,-0.09542,15868
1.675,3650,496.98,0.17453,-0.10891,15868
1.68,3459,384.73,0.17453,-0.055695,15868
1.685,3466,394.48,0.17453,-0.057781,15868
1.69,3489,412.09,0.17453,-0.064558,15868
1.695,3497,418.86,0.17453,-0.066889,15868
1.7,3480,410.72,0.17453,-0.06192,15868
1.705,3480,413.37,0.17453,-0.06192,15868
1.71,3481,416.34,0.17453,-0.062214,15868
1.715,3482,419.01,0.17453,-0.062508,15868
1.72,3482,420.86,0.17453,-0.062508,15868
1.725,3485,424.27,0.17453,-0.063388,15868
1.73,3489,427.9,0.17453,-0.064558,15868
1.735,3499,434.51,0.17453,-0.067469,15868
1.74,3490,429.65,0.17453,-0.06485,15868
1.745,3489,430.05,0.17453,-0.064558,15868
1.75,3488,430.5,0.17453,-0.064266,15868
1.755,3603,493.9,0.17453,-0.096496,15868
1.76,3583,476.21,0.17453,-0.091085,15868
1.765,3457,401.89,0.17453,-0.055097,15868
1.77,3492,427.15,0.17453,-0.065434,15868
1.775,3499,433.08,0.17453,-0.067469,15868
1.78,3478,422.53,0.17453,-0.061332,15868
1.785,3477,424.78,0.17453,-0.061037,15868
1.79,3479,428.53,0.17453,-0.061626,15868
1.795,3481,431.88,0.17453,-0.062214,15868
1.8,3483,434.88,0.17453,-0.062802,15868
1.805,3484,437.01,0.17453,-0.063095,15868
1.81,3497,445.72,0.17453,-0.066889,15868
1.815,3499,447.17,0.17453,-0.067469,15868
1.82,3489,441.78,0.17453,-0.064558,15868
1.825,3487,441.7,0.17453,-0.063974,15868
1.83,3489,444,0.17453,-0.064558,15868
1.835,3489,444.97,0.17453,-0.064558,15868
1.84,3605,508.71,0.17453,-0.097033,15868
1.845,3586,491.39,0.17453,-0.091901,16124
1.85,3494,436.38,0.17453,-0.066016,16124
1.855,3499,441.67,0.17453,-0.067469,16124
1.86,3472,428.25,0.17453,-0.05956,15868
1.865,3472,432,0.17453,-0.05956,15868
1.87,3475,437.05,0.17453,-0.060447,15868
1.875,3479,442.09,0.17453,-0.061626,16124
1.88,3481,445.41,0.17453,-0.062214,16124
1.885,3483,448.37,0.17453,-0.062802,16124
1.89,3497,457.81,0.17453,-0.066889,15868
1.895,3505,462.66,0.17453,-0.069205,15868
1.9,3487,452.38,0.17453,-0.063974,15868
1.905,3485,452.55,0.17453,-0.063388,15868
1.91,3488,455.62,0.17453,-0.064266,15868
1.915,3486,455.55,0.17453,-0.063681,15868
1.92,3488,457.85,0.17453,-0.064266,15868
1.925,3595,516.98,0.17453,-0.094341,15868
1.93,3499,458.24,0.17453,-0.067469,15868
1.935,3593,510.32,0.17453,-0.0938,15868
1.94,3458,430.41,0.17453,-0.055396,15868
1.945,3464,438.95,0.17453,-0.057186,16124
1.95,3467,444.7,0.17453,-0.058078,16124
1.955,3474,452.05,0.17453,-0.060152,16124
1.96,3479,457.35,0.17453,-0.061626,16124
1.965,3480,459.75,0.17453,-0.06192,16124
1.97,3497,470.97,0.17453,-0.066889,16124
1.975,3490,467.23,0.17453,-0.06485,15868
1.98,3483,464.07,0.17453,-0.062802,15868
1.985,3484,465.95,0.17453,-0.063095,15868
1.99,3490,470.51,0.17453,-0.06485,15868
1.995,3485,468.32,0.17453,-0.063388,15868
2,3485,469.35,0.17453,-0.063388,15868
2.005,3491,473.73,0.17453,-0.065142,15868
2.01,3497,477.6,0.17453,-0.066889,15868
2.015,3611,539.09,0.17453,-0.098639,15868
2.02,3588,519.15,0.17453,-0.092445,15868
2.025,3455,440.6,0.17453,-0.054498,15868
2.03,3463,450.59,0.17453,-0.056888,15868
2.035,3472,459.87,0.17453,-0.05956,15868
2.04,3475,464.54,0.17453,-0.060447,15868
2.045,3477,468.11,0.17453,-0.061037,15868
2.05,3497,481.45,0.17453,-0.066889,15868
2.055,3494,480.11,0.17453,-0.066016,15868
2.06,3480,472.81,0.17453,-0.06192,15868
2.065,3484,476.76,0.17453,-0.063095,15868
2.07,3484,478.01,0.17453,-0.063095,15868
2.075,3485,479.74,0.17453,-0.063388,15868
2.08,3486,481.33,0.17453,-0.063681,15868
2.085,3486,482.23,0.17453,-0.063681,15868
2.09,3497,489.3,0.17453,-0.066889,15868
2.095,3492,486.51,0.17453,-0.065434,15868
2.1,3594,542.38,0.17453,-0.094071,15868
2.105,3589,532.95,0.17453,-0.092716,15868
2.11,3459,455.93,0.17453,-0.055695,15868
2.115,3465,464.3,0.17453,-0.057484,15868
2.12,3470,471.03,0.17453,-0.058968,15868
2.125,3489,484.89,0.17453,-0.064558,15868
2.13,3499,491.81,0.17453,-0.067469,15868
2.135,3481,482.1,0.17453,-0.062214,15868
2.14,3481,483.93,0.17453,-0.062214,15868
2.145,3481,485.61,0.17453,-0.062214,15868
2.15,3484,488.84,0.17453,-0.063095,15868
2.155,3485,490.6,0.17453,-0.063388,15868
2.16,3485,491.64,0.17453,-0.063388,15868
2.165,3492,496.58,0.17453,-0.065434,15868
2.17,3498,500.38,0.17453,-0.067179,15868
2.175,3490,495.88,0.17453,-0.06485,15868
2.18,3489,496,0.17453,-0.064558,15868
2.185,3623,568.85,0.17453,-0.10183,15868
2.19,3595,545.57,0.17453,-0.094341,15868
2.195,3464,468.16,0.17453,-0.057186,15868
2.2,3459,470.1,0.17453,-0.055695,15868
2.205,3496,495.82,0.17453,-0.066598,15868
2.21,3499,498.79,0.17453,-0.067469,15868
2.215,3475,486.19,0.17453,-0.060447,16124
2.22,3477,490.07,0.17453,-0.061037,16124
2.225,3480,494.08,0.17453,-0.06192,16124
2.23,3481,496.49,0.17453,-0.062214,15868
2.235,3481,498.09,0.17453,-0.062214,15868
2.24,3483,500.69,0.17453,-0.062802,15868
2.245,3494,508.11,0.17453,-0.066016,15868
2.25,3498,510.66,0.17453,-0.067179,15868
2.255,3488,505.08,0.17453,-0.064266,15868
2.26,3485,504.26,0.17453,-0.063388,15868
2.265,3488,507.02,0.17453,-0.064266,15868
2.27,3593,564.92,0.17453,-0.0938,15868
2.275,3593,558.13,0.17453,-0.0938,15868
2.28,3440,467.61,0.17453,-0.049977,15868
2.285,3497,506.67,0.17453,-0.066889,15868
2.29,3501,510.14,0.17453,-0.068048,15868
2.295,3477,497.44,0.17453,-0.061037,15868
2.3,3475,498.92,0.17453,-0.060447,15868
2.305,3483,505.96,0.17453,-0.062802,15868
2.31,3481,506.46,0.17453,-0.062214,15868
2.315,3482,508.67,0.17453,-0.062508,15868
2.32,3480,508.96,0.17453,-0.06192,15868
2.325,3495,518.91,0.17453,-0.066307,15868
2.33,3502,523.06,0.17453,-0.068338,16124
2.335,3487,514.38,0.17453,-0.063974,16124
2.34,3483,513.11,0.17453,-0.062802,16124
2.345,3487,516.62,0.17453,-0.063974,15868
2.35,3487,517.47,0.17453,-0.063974,15868
2.355,3488,518.86,0.17453,-0.064266,15868
2.36,3598,579.3,0.17453,-0.095151,15868
2.365,3497,517.44,0.17453,-0.066889,15868
2.37,3464,499.79,0.17453,-0.057186,15868
2.375,3463,502.75,0.17453,-0.056888,15868
2.38,3468,508.83,0.17453,-0.058375,15868
2.385,3483,519.85,0.17453,-0.062802,15868
2.39,3479,518.65,0.17453,-0.061626,15868
2.395,3481,521.09,0.17453,-0.062214,15868
2.4,3480,521.57,0.17453,-0.06192,15868
2.405,3496,531.68,0.17453,-0.066598,15868
2.41,3491,528.67,0.17453,-0.065142,15868
2.415,3487,526.69,0.17453,-0.063974,16124
2.42,3481,523.91,0.17453,-0.062214,16124
2.425,3485,527.25,0.17453,-0.063388,16124
2.43,3486,528.51,0.17453,-0.063681,15868
2.435,3486,529.12,0.17453,-0.063681,15868
2.44,3487,530.29,0.17453,-0.063974,15868
2.445,3499,537.58,0.17453,-0.067469,15868
2.45,3603,593.35,0.17453,-0.096496,15868
2.455,3511,536.25,0.17453,-0.070933,15868
2.46,3460,507.39,0.17453,-0.055993,15868
2.465,3467,515.36,0.17453,-0.058078,15868
2.47,3469,519.44,0.17453,-0.058672,15868
2.475,3476,525.91,0.17453,-0.060742,15868
2.48,3478,528.71,0.17453,-0.061332,15868
2.485,3498,541.38,0.17453,-0.067179,15868
2.49,3487,534.94,0.17453,-0.063974,15868
2.495,3487,535.63,0.17453,-0.063974,15868
2.5,3483,534.04,0.17453,-0.062802,15868
2.505,3484,535.56,0.17453,-0.063095,15868
2.51,3486,537.52,0.17453,-0.063681,15868
2.515,3487,538.73,0.17453,-0.063974,15868
2.52,3486,538.71,0.17453,-0.063681,15868
2.525,3504,549.47,0.17453,-0.068916,15868
2.53,3492,542.01,0.17453,-0.065434,15868
2.535,3606,603.99,0.17453,-0.097301,15868
2.54,3582,583.66,0.17453,-0.090812,15868
2.545,3456,509.06,0.17453,-0.054797,16124
2.55,3464,518.71,0.17453,-0.057186,16124
2.555,3471,526.54,0.17453,-0.059264,16124
2.56,3488,539.04,0.17453,-0.064266,15868
2.565,3498,545.91,0.17453,-0.067179,15868
2.57,3482,537.27,0.17453,-0.062508,15868
2.575,3482,538.88,0.17453,-0.062508,15868
2.58,3483,540.91,0.17453,-0.062802,15868
2.585,3481,541.04,0.17453,-0.062214,15868
2.59,3485,544.63,0.17453,-0.063388,15868
2.595,3486,546.1,0.17453,-0.063681,15868
2.6,3492,550.27,0.17453,-0.065434,15868
2.605,3504,557.31,0.17453,-0.068916,15868
2.61,3488,547.75,0.17453,-0.064266,15868
2.615,3487,547.97,0.17453,-0.063974,15868
2.62,3600,610.14,0.17453,-0.09569,15868
2.625,3587,596.01,0.17453,-0.092173,15868
2.63,3457,518.97,0.17453,-0.055097,15868
2.635,3464,527.99,0.17453,-0.057186,15868
2.64,3492,547.78,0.17453,-0.065434,15868
2.645,3498,552.42,0.17453,-0.067179,16124
2.65,3480,542.97,0.17453,-0.06192,16124
2.655,3480,545.01,0.17453,-0.06192,15868
2.66,3482,547.98,0.17453,-0.062508,15868
2.665,3482,549.48,0.17453,-0.062508,15868
2.67,3483,551.42,0.17453,-0.062802,15868
2.675,3483,552.6,0.17453,-0.062802,15868
2.68,3494,559.9,0.17453,-0.066016,15868
2.685,3498,562.34,0.17453,-0.067179,15868
2.69,3489,557.2,0.17453,-0.064558,15868
2.695,3486,556.19,0.17453,-0.063681,15868
2.7,3488,558.21,0.17453,-0.064266,15868
2.705,3603,621.24,0.17453,-0.096496,15868
2.71,3590,606.87,0.17453,-0.092988,15868
2.715,3461,530.34,0.17453,-0.056292,15868
2.72,3497,555.53,0.17453,-0.066889,15868
2.725,3498,557.49,0.17453,-0.067179,15868
2.73,3472,543.96,0.17453,-0.05956,15868
2.735,3474,548.17,0.17453,-0.060152,15868
2.74,3477,552.44,0.17453,-0.061037,15868
2.745,3480,556.21,0.17453,-0.06192,15612
2.75,3481,558.39,0.17453,-0.062214,15612
2.755,3483,560.91,0.17453,-0.062802,15868
2.76,3497,569.92,0.17453,-0.066889,15868
2.765,3500,571.59,0.17453,-0.067759,15868
2.77,3487,564.1,0.17453,-0.063974,15868
2.775,3488,565.56,0.17453,-0.064266,15868
2.7801,3484,564.06,0.17453,-0.063095,15868
2.7851,3486,566.22,0.17453,-0.063681,15868
2.79,3622,640.3,0.17453,-0.10157,15868
2.795,3600,620,0.17453,-0.09569,15868
2.8,3498,558.75,0.17453,-0.067179,15868
2.805,3467,543.26,0.17453,-0.058078,15868
2.8101,3463,545.18,0.17453,-0.056888,15868
2.8151,3472,554.37,0.17453,-0.05956,15868
2.82,3472,557.21,0.17453,-0.05956,15868
2.8251,3475,561.45,0.17453,-0.060447,15868
2.83,3479,565.74,0.17453,-0.061626,15868
2.835,3481,568.38,0.17453,-0.062214,15868
2.8401,3498,579.19,0.17453,-0.067179,15868
2.8451,3491,575.08,0.17453,-0.065142,15868
2.85,3488,573.84,0.17453,-0.064266,15868
2.8551,3486,573.38,0.17453,-0.063681,15868
2.86,3485,573.62,0.17453,-0.063388,15868
2.8651,3487,575.58,0.17453,-0.063974,15868
2.8701,3485,575.08,0.17453,-0.063388,15868
2.8751,3623,650.19,0.17453,-0.10183,15868
2.88,3496,572.94,0.17453,-0.066598,15868
2.8851,3599,629.92,0.17453,-0.09542,15868
2.89,3460,547.43,0.17453,-0.055993,15868
2.8951,3460,552.22,0.17453,-0.055993,15868
2.9001,3473,563.89,0.17453,-0.059856,15868
2.9051,3474,567.16,0.17453,-0.060152,15868
2.9101,3476,570.61,0.17453,-0.060742,15868
2.9151,3481,575.37,0.17453,-0.062214,15868
2.9201,3500,587.42,0.17453,-0.067759,15868
2.9251,3487,579.89,0.17453,-0.063974,15868
2.9301,3485,579.62,0.17453,-0.063388,15868
2.9351,3483,579.44,0.17453,-0.062802,15868
2.9401,3485,581.6,0.17453,-0.063388,15868
2.9451,3484,581.84,0.17453,-0.063095,15868
2.9501,3485,583.24,0.17453,-0.063388,15868
2.9551,3487,585.08,0.17453,-0.063974,15868
2.9601,3496,590.68,0.17453,-0.066598,15868
2.9651,3631,662.74,0.17453,-0.10394,15868
2.9701,3595,634.55,0.17453,-0.094341,15868
2.9751,3456,552.3,0.17453,-0.054797,15868
2.9801,3457,558.11,0.17453,-0.055097,15868
2.9851,3475,572.95,0.17453,-0.060447,15868
2.9901,3476,576.09,0.17453,-0.060742,15868
2.9951,3489,585.67,0.17453,-0.064558,15868
3.0001,3499,592.28,0.17453,-0.067469,15868
3.0051,3482,582.86,0.17453,-0.062508,15868
3.0101,3483,584.9,0.17453,-0.062802,15868
3.0151,3482,585.59,0.17453,-0.062508,15868
3.0201,3486,589.08,0.17453,-0.063681,15868
3.0251,3483,588.2,0.17453,-0.062802,15868
3.0301,3487,591.46,0.17453,-0.063974,15868
3.0351,3492,594.89,0.17453,-0.065434,15868
3.0401,3497,597.92,0.17453,-0.066889,15868
3.0451,3492,594.99,0.17453,-0.065434,15868
3.0501,3573,639.63,0.17453,-0.088349,15868
3.0551,3597,646.74,0.17453,-0.094881,15868
3.0601,3462,566.33,0.17453,-0.05659,15868
3.0651,3462,570.72,0.17453,-0.05659,15868
3.0701,3467,577.45,0.17453,-0.058078,15868
3.0751,3492,594.67,0.17453,-0.065434,15868
3.0801,3497,598.24,0.17453,-0.066889,15868
3.0851,3479,588.41,0.17453,-0.061626,15868
3.0901,3480,590.68,0.17453,-0.06192,15868
3.0951,3484,594.41,0.17453,-0.063095,15868
3.1001,3481,593.72,0.17453,-0.062214,16124
3.1051,3484,596.58,0.17453,-0.063095,16124
3.1101,3484,597.41,0.17453,-0.063095,16124
3.1151,3495,604.4,0.17453,-0.066307,16124
3.1201,3496,604.86,0.17453,-0.066598,16124
3.1251,3489,600.82,0.17453,-0.064558,15868
3.1301,3489,601.32,0.17453,-0.064558,15868
3.1351,3486,600.11,0.17453,-0.063681,15868
3.1401,3600,662.72,0.17453,-0.09569,15868
3.1451,3588,648.91,0.17453,-0.092445,15868
3.1501,3457,571.1,0.17453,-0.055097,15868
3.1551,3495,597.59,0.17453,-0.066307,15868
3.1601,3498,600.62,0.17453,-0.067179,15868
3.1651,3478,590.3,0.17453,-0.061332,15868
3.1701,3480,593.86,0.17453,-0.06192,15868
3.1751,3480,595.84,0.17453,-0.06192,15868
3.1801,3482,598.75,0.17453,-0.062508,15868
3.1851,3482,600.19,0.17453,-0.062508,16124
3.1901,3482,601.48,0.17453,-0.062508,16124
3.1951,3498,611.69,0.17453,-0.067179,15868
3.2001,3497,611,0.17453,-0.066889,15868
3.2051,3488,605.95,0.17453,-0.064266,15868
3.2101,3487,606.14,0.17453,-0.063974,15868
3.2151,3487,606.91,0.17453,-0.063974,15868
3.2201,3488,608.21,0.17453,-0.064266,15868
3.2251,3613,676.32,0.17453,-0.099173,15868
3.2301,3586,653.91,0.17453,-0.091901,15868
3.2351,3494,598.58,0.17453,-0.066016,15868
3.2401,3471,587.67,0.17453,-0.059264,15868
3.2451,3465,587.87,0.17453,-0.057484,15868
3.2501,3472,595.55,0.17453,-0.05956,15868
3.2551,3478,601.65,0.17453,-0.061332,15868
3.2601,3480,604.69,0.17453,-0.06192,15868
3.2651,3479,605.67,0.17453,-0.061626,15868
3.2701,3483,609.41,0.17453,-0.062802,16124
3.2751,3495,617.21,0.17453,-0.066307,16124
3.2801,3492,615.55,0.17453,-0.065434,16124
3.2851,3487,613.04,0.17453,-0.063974,16124
3.2901,3489,614.86,0.17453,-0.064558,16124
3.2951,3486,613.67,0.17453,-0.063681,16124
3.3001,3489,616.08,0.17453,-0.064558,16124
3.3051,3487,615.4,0.17453,-0.063974,16124
3.3101,3600,677.32,0.17453,-0.09569,15868
3.3151,3496,613.5,0.17453,-0.066598,15868
3.3201,3682,712.22,0.17453,-0.11713,15868
3.3251,3456,579.67,0.17453,-0.054797,16124
3.3301,3465,590.53,0.17453,-0.057484,16124
3.3351,3474,599.95,0.17453,-0.060152,16124
3.3401,3472,601.85,0.17453,-0.05956,15868
3.3451,3478,608.11,0.17453,-0.061332,15868
3.3501,3480,611.28,0.17453,-0.06192,15868
3.3551,3499,623.67,0.17453,-0.067469,15868
3.3601,3486,616.41,0.17453,-0.063681,15868
3.3651,3486,617.49,0.17453,-0.063681,15868
3.3701,3487,619.04,0.17453,-0.063974,15868
3.3751,3483,617.6,0.17453,-0.062802,15868
3.3801,3484,619.23,0.17453,-0.063095,15868
3.3851,3486,621.26,0.17453,-0.063681,15868
3.3901,3489,623.63,0.17453,-0.064558,15868
3.3951,3497,628.55,0.17453,-0.066889,15868
3.4001,3611,689.76,0.17453,-0.098639,15868
3.4051,3586,668.49,0.17453,-0.091901,15868
3.4101,3455,590.84,0.17453,-0.054498,15868
3.4151,3469,603.97,0.17453,-0.058672,15868
3.4201,3469,607.32,0.17453,-0.058672,15868
3.4251,3475,613.69,0.17453,-0.060447,15868
3.4301,3491,624.89,0.17453,-0.065142,15868
3.4351,3496,628.39,0.17453,-0.066598,15868
3.4401,3484,621.89,0.17453,-0.063095,15868
3.4451,3483,622.5,0.17453,-0.062802,15868
3.4501,3483,623.64,0.17453,-0.062802,15868
3.4551,3485,625.81,0.17453,-0.063388,15868
3.4601,3487,627.74,0.17453,-0.063974,15868
3.4651,3488,628.89,0.17453,-0.064266,15868
3.4701,3492,631.62,0.17453,-0.065434,15868
3.4751,3497,634.6,0.17453,-0.066889,15868
3.4801,3493,632.17,0.17453,-0.065725,15868
3.4851,3598,689.27,0.17453,-0.095151,15868
3.4901,3590,677.78,0.17453,-0.092988,15868
3.4951,3469,605.72,0.17453,-0.058672,15868
3.5001,3459,603.91,0.17453,-0.055695,15868
3.5051,3470,614.45,0.17453,-0.058968,15868
3.5101,3495,631.49,0.17453,-0.066307,15868
3.5151,3500,634.92,0.17453,-0.067759,15868
3.5201,3482,624.98,0.17453,-0.062508,15868
3.5251,3481,625.99,0.17453,-0.062214,15868
3.5301,3484,629.18,0.17453,-0.063095,15868
3.5351,3482,629.15,0.17453,-0.062508,15868
3.5401,3480,629.17,0.17453,-0.06192,16124
3.5451,3484,632.63,0.17453,-0.063095,16124
3.5501,3497,640.74,0.17453,-0.066889,16124
3.5551,3499,641.61,0.17453,-0.067469,15868
3.5601,3490,636.23,0.17453,-0.06485,15868
3.5651,3487,634.98,0.17453,-0.063974,15868
3.5701,3621,707.82,0.17453,-0.1013,15868
3.5751,3592,683.86,0.17453,-0.09353,15868
3.5801,3455,602.72,0.17453,-0.054498,15868
3.5851,3459,610.21,0.17453,-0.055695,15868
3.5901,3496,635.5,0.17453,-0.066598,15868
3.5951,3500,638.63,0.17453,-0.067759,15868
3.6001,3475,625,0.17453,-0.060447,15868
3.6051,3481,630.78,0.17453,-0.062214,15868
3.6101,3483,633.55,0.17453,-0.062802,15868
3.6151,3481,633.72,0.17453,-0.062214,15868
3.6201,3483,636.18,0.17453,-0.062802,15868
3.6251,3485,638.35,0.17453,-0.063388,15868
3.6301,3496,645.35,0.17453,-0.066598,15868
3.6351,3500,647.5,0.17453,-0.067759,15868
3.6401,3488,640.42,0.17453,-0.064266,15868
3.6451,3489,641.64,0.17453,-0.064558,15868
3.6501,3487,641.05,0.17453,-0.063974,15868
3.6551,3626,716.45,0.17453,-0.10262,15868
3.6601,3593,690.12,0.17453,-0.0938,15868
3.6651,3455,608.43,0.17453,-0.054498,15868
3.6701,3498,638.18,0.17453,-0.067179,15868
3.6751,3474,625.9,0.17453,-0.060152,15868
3.6801,3470,626.58,0.17453,-0.058968,15868
3.6851,3482,636.34,0.17453,-0.062508,15868
3.6901,3476,634.58,0.17453,-0.060742,15868
3.6951,3478,637.64,0.17453,-0.061332,15868
3.7001,3482,641.47,0.17453,-0.062508,15868
3.7051,3480,641.41,0.17453,-0.06192,15868
3.7101,3494,650.46,0.17453,-0.066016,15868
3.7151,3498,652.67,0.17453,-0.067179,15868
3.7201,3485,645.06,0.17453,-0.063388,15868
3.7251,3487,646.97,0.17453,-0.063974,16124
3.7301,3486,646.96,0.17453,-0.063681,16124
3.7351,3487,648.13,0.17453,-0.063974,16124
3.7401,3599,709.44,0.17453,-0.09542,16124
3.7451,3595,699.77,0.17453,-0.094341,16124
3.7501,3496,639.91,0.17453,-0.066598,15868
3.7551,3465,624.1,0.17453,-0.057484,15868
3.7601,3458,624.01,0.17453,-0.055396,15868
3.7651,3473,636.61,0.17453,-0.059856,15868
3.7701,3474,639.51,0.17453,-0.060152,15868
3.7751,3479,644.34,0.17453,-0.061626,15868
3.7801,3480,646.28,0.17453,-0.06192,15868
3.7851,3483,649.13,0.17453,-0.062802,15868
3.7901,3496,657.28,0.17453,-0.066598,15868
3.7951,3489,653.1,0.17453,-0.064558,16124
3.8001,3487,652.34,0.17453,-0.063974,16124
3.8051,3488,653.41,0.17453,-0.064266,16124
3.8101,3486,652.68,0.17453,-0.063681,15868
3.8151,3485,652.66,0.17453,-0.063388,15868
3.8201,3484,652.68,0.17453,-0.063095,15868
3.8251,3488,655.56,0.17453,-0.064266,15868
3.8301,3496,660.35,0.17453,-0.066598,15868
3.8351,3598,715.26,0.17453,-0.095151,15868
3.8401,3456,629.68,0.17453,-0.054797,15868
3.8451,3457,634.14,0.17453,-0.055097,15868
3.8501,3468,643.79,0.17453,-0.058375,15868
3.8551,3477,651,0.17453,-0.061037,15868
3.8601,3478,652.7,0.17453,-0.061332,15868
3.8651,3490,660.45,0.17453,-0.06485,15868
3.8701,3499,665.46,0.17453,-0.067469,15868
3.8751,3487,658.03,0.17453,-0.063974,15868
3.8801,3484,656.69,0.17453,-0.063095,15868
3.8851,3483,656.69,0.17453,-0.062802,15868
3.8901,3483,657.3,0.17453,-0.062802,15868
3.8951,3484,658.44,0.17453,-0.063095,15868
3.9001,3486,660.02,0.17453,-0.063681,15868
3.9051,3496,665.95,0.17453,-0.066598,15868
3.9101,3499,667.17,0.17453,-0.067469,15868
3.9151,3492,662.65,0.17453,-0.065434,15868
3.9201,3596,719.14,0.17453,-0.094611,15868
3.9251,3581,703.89,0.17453,-0.090539,15868
3.9301,3457,630.09,0.17453,-0.055097,15868
3.9351,3466,639.87,0.17453,-0.057781,15868
3.9401,3469,644.9,0.17453,-0.058672,15868
3.9451,3492,660.65,0.17453,-0.065434,15868
3.9501,3499,665.19,0.17453,-0.067469,15868
3.9551,3490,660.17,0.17453,-0.06485,15868
3.9601,3483,656.96,0.17453,-0.062802,15868
3.9651,3482,657.6,0.17453,-0.062508,15868
3.9701,3484,659.9,0.17453,-0.063095,15868
3.9751,3485,661.35,0.17453,-0.063388,15868
3.9801,3485,662.09,0.17453,-0.063388,15868
3.9851,3499,670.65,0.17453,-0.067469,15868
3.9901,3499,670.22,0.17453,-0.067469,15868
3.9951,3487,663.14,0.17453,-0.063974,15868
4.0001,3489,664.92,0.17453,-0.064558,15868
4.0051,3606,728.7,0.17453,-0.097301,15868
4.0101,3587,710.83,0.17453,-0.092173,15868
4.0151,3460,635.37,0.17453,-0.055993,15868
4.0201,3464,642.26,0.17453,-0.057186,15868
4.0251,3494,663.02,0.17453,-0.066016,15868
4.0301,3501,667.91,0.17453,-0.068048,15868
4.0351,3479,655.84,0.17453,-0.061626,16124
4.0401,3479,657.82,0.17453,-0.061626,16124
4.0451,3481,660.71,0.17453,-0.062214,16124
4.0501,3481,662.1,0.17453,-0.062214,15868
4.0551,3487,666.75,0.17453,-0.063974,15868
4.0601,3481,664,0.17453,-0.062214,15868
4.0651,3495,672.97,0.17453,-0.066307,15868
4.0701,3498,674.56,0.17453,-0.067179,15868
4.0751,3489,669.22,0.17453,-0.064558,15868
4.0801,3485,667.44,0.17453,-0.063388,15868
4.0851,3488,669.88,0.17453,-0.064266,15868
4.0901,3598,730.07,0.17453,-0.095151,15868
4.0951,3587,716.85,0.17453,-0.092173,15868
4.1001,3457,639.51,0.17453,-0.055097,15868
4.1051,3497,667.01,0.17453,-0.066889,15868
4.1101,3474,655.04,0.17453,-0.060152,15868
4.1151,3471,656.01,0.17453,-0.059264,15868
4.1201,3475,660.87,0.17453,-0.060447,15868
4.1251,3482,666.81,0.17453,-0.062508,15868
4.1301,3480,666.87,0.17453,-0.06192,15868
4.1351,3483,669.79,0.17453,-0.062802,15868
4.1401,3483,670.65,0.17453,-0.062802,15868
4.1451,3494,677.65,0.17453,-0.066016,15868
4.1501,3491,675.84,0.17453,-0.065142,15868
4.1551,3489,674.87,0.17453,-0.064558,15868
4.1601,3486,673.5,0.17453,-0.063681,15868
4.1651,3487,674.61,0.17453,-0.063974,15868
4.1701,3485,673.9,0.17453,-0.063388,15868
4.1751,3598,735.89,0.17453,-0.095151,15868
4.1801,3586,721.99,0.17453,-0.091901,15868
4.1851,3495,666.81,0.17453,-0.066307,15868
4.1901,3463,650.29,0.17453,-0.056888,15868
4.1951,3469,657.66,0.17453,-0.058672,15868
4.2001,3471,661.76,0.17453,-0.059264,15868
4.2051,3476,667.05,0.17453,-0.060742,15868
4.2101,3476,668.8,0.17453,-0.060742,15868
4.2151,3477,670.92,0.17453,-0.061037,15868
4.2201,3481,674.49,0.17453,-0.062214,15868
4.2251,3499,685.5,0.17453,-0.067469,15868
4.2301,3492,680.99,0.17453,-0.065434,15868
4.2351,3487,678.22,0.17453,-0.063974,15868
4.2401,3487,678.68,0.17453,-0.063974,15868
4.2451,3486,678.54,0.17453,-0.063681,15868
4.2501,3485,678.46,0.17453,-0.063388,15868
4.2551,3487,680.11,0.17453,-0.063974,15868
4.2601,3487,680.45,0.17453,-0.063974,15868
4.2651,3498,686.97,0.17453,-0.067179,15868
4.2701,3591,736.91,0.17453,-0.093259,15868
4.2751,3460,657.76,0.17453,-0.055993,15868
4.2801,3463,662.97,0.17453,-0.056888,15868
4.2851,3471,670.38,0.17453,-0.059264,15868
4.2901,3473,673.37,0.17453,-0.059856,15868
4.2951,3477,677.12,0.17453,-0.061037,15868
4.3001,3491,686.06,0.17453,-0.065142,15868
4.3051,3498,689.84,0.17453,-0.067179,15868
4.3101,3490,684.72,0.17453,-0.06485,15868
4.3151,3496,688.19,0.17453,-0.066598,15868
4.3201,3486,682.22,0.17453,-0.063681,16124
4.3251,3485,682.14,0.17453,-0.063388,16124
4.3301,3487,683.81,0.17453,-0.063974,16124
4.3351,3488,684.72,0.17453,-0.064266,15868
4.3401,3492,687.24,0.17453,-0.065434,15868
4.3451,3501,692.25,0.17453,-0.068048,15868
4.3501,3600,745.03,0.17453,-0.09569,15868
4.3551,3595,734.8,0.17453,-0.094341,15868
4.3601,3459,653.88,0.17453,-0.055695,15868
4.3651,3459,658.5,0.17453,-0.055695,15868
4.3701,3471,669.41,0.17453,-0.059264,15868
4.3751,3473,673.13,0.17453,-0.059856,15868
4.3801,3493,686.59,0.17453,-0.065725,15868
4.3851,3498,689.74,0.17453,-0.067179,15868
4.3901,3483,681.24,0.17453,-0.062802,15868
4.3951,3495,689.13,0.17453,-0.066307,15868
4.4001,3482,681.89,0.17453,-0.062508,15868
4.4051,3484,684.11,0.17453,-0.063095,15868
4.4101,3485,685.51,0.17453,-0.063388,15868
4.4151,3487,687.31,0.17453,-0.063974,15868
4.4201,3491,690.02,0.17453,-0.065142,15868
4.4251,3499,694.65,0.17453,-0.067469,15868
4.4301,3492,690.26,0.17453,-0.065434,15868
4.4351,3625,761.84,0.17453,-0.10236,15868
4.4401,3596,737.58,0.17453,-0.094611,15868
4.4451,3455,654.04,0.17453,-0.054498,15868
4.4501,3460,662.11,0.17453,-0.055993,15868
4.4551,3475,674.83,0.17453,-0.060447,15868
4.4601,3499,690.84,0.17453,-0.067469,15868
4.4651,3499,691.17,0.17453,-0.067469,15868
4.4701,3479,680.2,0.17453,-0.061626,15868
4.4751,3486,685.98,0.17453,-0.063681,15868
4.4801,3482,684.77,0.17453,-0.062508,15868
4.4851,3483,686.59,0.17453,-0.062802,15868
4.4901,3484,688.19,0.17453,-0.063095,16124
4.4951,3485,689.61,0.17453,-0.063388,16124
4.5001,3498,697.63,0.17453,-0.067179,16124
4.5051,3502,699.52,0.17453,-0.068338,15868
4.5101,3487,690.52,0.17453,-0.063974,15868
4.5151,3490,692.88,0.17453,-0.06485,15868
4.5201,3596,750.81,0.17453,-0.094611,15868
4.5251,3594,742.51,0.17453,-0.094071,15868
4.5301,3440,651.16,0.17453,-0.049977,15868
4.5351,3460,668.89,0.17453,-0.055993,15868
4.5401,3499,694.83,0.17453,-0.067469,15868
4.5451,3491,690.65,0.17453,-0.065142,15868
4.5501,3476,683.04,0.17453,-0.060742,15868
4.5551,3477,685.55,0.17453,-0.061037,15868
4.5601,3481,689.45,0.17453,-0.062214,16124
4.5651,3481,690.58,0.17453,-0.062214,16124
4.5701,3484,693.29,0.17453,-0.063095,16124
4.5751,3482,692.82,0.17453,-0.062508,15868
4.5801,3495,700.93,0.17453,-0.066307,15868
4.5851,3492,698.95,0.17453,-0.065434,15868
4.5901,3488,696.69,0.17453,-0.064266,15868
4.5951,3484,694.76,0.17453,-0.063095,15868
4.6001,3487,697.08,0.17453,-0.063974,15868
4.6051,3488,697.98,0.17453,-0.064266,15868
4.6101,3597,757.43,0.17453,-0.094881,15868
4.6151,3583,742.49,0.17453,-0.091085,15868
4.6201,3495,689.04,0.17453,-0.066307,15868
4.6251,3465,673.59,0.17453,-0.057484,15868
4.6301,3469,679.57,0.17453,-0.058672,15868
4.6351,3473,684.76,0.17453,-0.059856,15868
4.6401,3476,688.7,0.17453,-0.060742,15868
4.6451,3477,690.99,0.17453,-0.061037,15868
4.6501,3485,696.98,0.17453,-0.063388,15868
4.6551,3481,695.37,0.17453,-0.062214,15868
4.6601,3497,705.32,0.17453,-0.066889,15868
4.6651,3488,699.85,0.17453,-0.064266,15868
4.6701,3488,700.22,0.17453,-0.064266,15868
4.6751,3487,700,0.17453,-0.063974,15868
4.6801,3486,699.83,0.17453,-0.063681,15868
4.6851,3485,699.71,0.17453,-0.063388,15868
4.6901,3487,701.33,0.17453,-0.063974,16124
4.6951,3488,702.2,0.17453,-0.064266,16124
4.7001,3499,708.6,0.17453,-0.067469,16124
4.7051,3457,684.07,0.17453,-0.055097,15868
4.7101,3459,687.9,0.17453,-0.055695,15868
4.7151,3473,698.12,0.17453,-0.059856,15868
4.7201,3471,697.8,0.17453,-0.059264,16124
4.7251,3476,701.56,0.17453,-0.060742,16124
4.7301,3478,703.11,0.17453,-0.061332,16124
4.7351,3489,709.59,0.17453,-0.064558,16124
4.7401,3497,713.49,0.17453,-0.066889,16124
4.7451,3491,709.03,0.17453,-0.065142,15868
4.7501,3484,704.61,0.17453,-0.063095,15868
4.7551,3484,704.76,0.17453,-0.063095,15868
4.7601,3486,706.05,0.17453,-0.063681,15868
4.7651,3485,705.5,0.17453,-0.063388,15868
4.7701,3488,707.31,0.17453,-0.064266,15868
4.7751,3491,708.9,0.17453,-0.065142,15868
4.7801,3499,713.11,0.17453,-0.067469,15868
4.7851,3602,767.92,0.17453,-0.096228,15868
4.7901,3586,751.52,0.17453,-0.091901,15868
4.7951,3458,675.14,0.17453,-0.055396,15868
4.8001,3463,682.42,0.17453,-0.056888,15868
4.8051,3468,688.74,0.17453,-0.058375,15868
4.8101,3479,697.64,0.17453,-0.061626,15868
4.8151,3492,706.45,0.17453,-0.065434,15868
4.8201,3498,710.12,0.17453,-0.067179,15868
4.8251,3488,704.33,0.17453,-0.064266,15868
4.8301,3482,701.56,0.17453,-0.062508,15868
4.8351,3482,702.59,0.17453,-0.062508,15868
4.8401,3485,705.2,0.17453,-0.063388,15868
4.8451,3482,704.09,0.17453,-0.062508,15868
4.8501,3485,706.54,0.17453,-0.063388,15868
4.8551,3495,712.64,0.17453,-0.066307,15868
4.8601,3498,714,0.17453,-0.067179,15868
4.8651,3490,709.01,0.17453,-0.06485,15868
4.8701,3604,770.94,0.17453,-0.096765,15868
4.8751,3587,754.1,0.17453,-0.092173,16124
4.8801,3457,676.75,0.17453,-0.055097,16124
4.8851,3462,684.3,0.17453,-0.05659,16124
4.8901,3470,692.56,0.17453,-0.058968,15868
4.8951,3497,710.45,0.17453,-0.066889,15868
4.9001,3501,712.91,0.17453,-0.068048,15868
4.9051,3483,702.68,0.17453,-0.062802,15868
4.9101,3481,702.85,0.17453,-0.062214,15868
4.9151,3480,703.58,0.17453,-0.06192,15868
4.9201,3485,707.64,0.17453,-0.063388,15868
4.9251,3486,708.91,0.17453,-0.063681,15868
4.9301,3485,708.9,0.17453,-0.063388,15868
4.9351,3498,716.81,0.17453,-0.067179,15868
4.9401,3499,716.92,0.17453,-0.067469,15868
4.9451,3489,710.86,0.17453,-0.064558,15868
4.9501,3488,710.7,0.17453,-0.064266,15868
