0,4743,416.3,0.19114
0.004992,4725,352.54,0.18738
0.0099909,4749,316.47,0.19238
0.01499,4764,281.15,0.19548
0.019991,4765,244.32,0.19568
0.024992,4757,208.44,0.19404
0.029992,4744,175.13,0.19134
0.034991,4723,142.62,0.18696
0.039992,4729,126.78,0.18822
0.044991,4761,124.82,0.19486
0.049991,4769,112.25,0.1965
0.054991,4769,97.813,0.1965
0.059993,4754,78.601,0.19342
0.064991,4751,67.346,0.1928
0.069992,4737,52.628,0.18989
0.074992,4761,57.046,0.19486
0.079992,4779,58.09,0.19855
0.084992,4773,48.301,0.19732
0.089994,4776,43.835,0.19794
0.094993,4785,42.632,0.19977
0.099993,4780,35.384,0.19875
0.10499,4776,29.549,0.19794
0.10999,4786,30.714,0.19997
0.11499,4780,24.628,0.19875
0.11999,4776,20.241,0.19794
0.12499,4783,21.327,0.19936
0.12999,4781,18.274,0.19896
0.13499,4774,13.405,0.19753
0.13999,4779,14.523,0.19855
0.14499,4782,14.598,0.19916
0.14999,4773,9.33,0.19732
0.15499,4776,10.102,0.19794
0.15999,4784,12.985,0.19957
0.16499,4775,7.9336,0.19773
0.16999,4776,7.9975,0.19794
0.17499,4779,8.9398,0.19855
0.17999,4777,7.5318,0.19814
0.18499,4800,17.367,0.20281
0.18999,4781,7.3284,0.19896
0.19499,4776,4.7995,0.19794
0.2,4777,5.2727,0.19814
0.20499,4783,7.8995,0.19936
0.21,4804,16.769,0.20361
0.215,4774,1.9339,0.19753
0.22,4779,4.5624,0.19855
0.22499,4781,5.5008,0.19896
0.23,4774,2.3114,0.19753
0.23499,4782,6.2132,0.19916
0.24,4749,-8.7266,0.19238
0.245,4740,-10.982,0.19051
0.25,4760,0.14593,0.19465
0.255,4773,6.5763,0.19732
0.25999,4811,23.102,0.20502
0.265,4777,5.6615,0.19814
0.27,4781,7.3168,0.19896
0.275,4777,5.1952,0.19814
0.28,4774,3.7968,0.19753
0.285,4783,7.9171,0.19936
0.29,4778,5.2662,0.19834
0.295,4774,3.4074,0.19753
0.3,4780,6.2423,0.19875
0.305,4781,6.472,0.19896
0.31,4774,3.1131,0.19753
0.315,4757,-4.2918,0.19404
0.32,4748,-7.1592,0.19217
0.325,4738,-10.121,0.1901
0.33,4762,2.6552,0.19507
0.335,4772,7.368,0.19712
0.34,4773,7.4249,0.19732
0.345,4777,8.8075,0.19814
0.35,4780,9.5566,0.19875
0.355,4775,6.6485,0.19773
0.36,4776,6.7955,0.19794
0.365,4781,8.698,0.19896
0.37,4780,7.6792,0.19875
0.375,4776,5.4612,0.19794
0.38,4765,0.40785,0.19568
0.385,4781,8.0648,0.19896
0.39,4773,4.0092,0.19732
0.395,4777,5.8319,0.19814
0.4,4785,9.1787,0.19977
0.405,4774,3.6413,0.19753
0.41,4777,5.0625,0.19814
0.415,4783,7.6207,0.19936
0.42,4776,4.0626,0.19794
0.425,4803,16.017,0.20341
0.43,4784,6.0653,0.19957
0.435,4779,3.6025,0.19855
0.44,4775,1.9063,0.19773
0.445,4782,5.3235,0.19916
0.45,4776,2.506,0.19794
0.455,4772,0.94673,0.19712
0.46,4779,4.4898,0.19855
0.465,4778,3.9976,0.19834
0.47,4800,13.737,0.20281
0.475,4778,2.727,0.19834
0.48,4778,2.9106,0.19834
0.485,4774,1.2876,0.19753
0.49,4777,2.9937,0.19814
0.495,4777,3.1343,0.19814
0.5,4771,0.58158,0.19691
0.505,4775,2.8221,0.19773
0.51,4779,4.757,0.19855
0.515,4776,3.3189,0.19794
0.52,4774,2.5144,0.19753
0.525,4779,4.9295,0.19855
0.53,4775,3.017,0.19773
0.535,4783,6.6908,0.19936
0.54,4779,4.543,0.19855
0.545,4776,3.122,0.19794
0.55,4773,1.8869,0.19732
0.555,4777,3.9309,0.19814
0.56,4807,17.158,0.20422
0.565,4773,0.35901,0.19732
0.57,4777,2.6039,0.19814
0.575,4776,2.321,0.19794
0.58,4771,0.29098,0.19691
0.585,4778,3.874,0.19834
0.59,4779,4.3035,0.19855
0.595,4773,1.56,0.19732
0.6,4758,-4.8594,0.19424
0.605,4769,1.2113,0.1965
0.61,4732,-15.137,0.18884
0.615,4743,-7.6347,0.19114
0.62,4766,4.2151,0.19589
0.62501,4788,13.915,0.20038
0.63001,4765,2.3045,0.19568
0.635,4750,-4.2623,0.19259
0.64001,4738,-8.6447,0.1901
0.645,4730,-10.655,0.18843
0.65,4761,5.2457,0.19486
0.655,4769,8.5878,0.1965
0.66001,4768,7.4563,0.1963
0.665,4777,10.933,0.19814
0.67,4777,9.9342,0.19814
0.675,4770,5.9499,0.19671
0.68001,4774,7.3991,0.19753
0.685,4780,9.5384,0.19875
0.69001,4777,7.3903,0.19814
0.695,4774,5.5265,0.19753
0.70001,4782,8.8016,0.19916
0.70501,4780,7.195,0.19875
0.71001,4770,2.2385,0.19671
0.71501,4809,19.627,0.20462
0.72001,4783,6.0094,0.19936
0.72501,4773,1.2173,0.19732
0.73001,4777,3.2891,0.19814
0.73501,4780,4.6346,0.19875
0.74001,4771,0.46036,0.19691
0.74501,4779,4.4085,0.19855
0.75001,4781,5.154,0.19896
0.75501,4772,0.90734,0.19712
0.76001,4779,4.3448,0.19855
0.76501,4783,5.9811,0.19936
0.77001,4776,2.5135,0.19794
0.77501,4775,2.1717,0.19773
0.78001,4780,4.5415,0.19875
0.78501,4779,3.9261,0.19855
0.79001,4775,2.0569,0.19773
0.79501,4782,5.325,0.19916
0.80001,4796,11.232,0.202
0.80501,4772,-0.47265,0.19712
0.81001,4776,1.8014,0.19794
0.81501,4778,2.8773,0.19834
0.82001,4798,11.762,0.20241
0.82501,4776,0.88213,0.19794
0.83001,4778,2.0776,0.19834
0.83501,4772,-0.44894,0.19712
0.84001,4799,11.986,0.20261
0.84501,4781,2.8516,0.19896
0.85001,4773,-0.66862,0.19732
0.85501,4772,-0.60875,0.19712
0.86001,4805,14.475,0.20382
0.86501,4776,0.14704,0.19794
0.87001,4775,0.094985,0.19773
0.87501,4780,2.7156,0.19875
0.88001,4799,11.156,0.20261
0.88501,4774,-0.98973,0.19753
0.89001,4779,1.7733,0.19855
0.89501,4774,-0.283,0.19753
0.90001,4797,10.341,0.2022
0.90501,4777,0.51241,0.19814
0.91001,4777,0.84457,0.19814
0.91501,4771,-1.5419,0.19691
0.92001,4803,13.218,0.20341
0.92501,4778,0.80665,0.19834
0.93001,4774,-0.68583,0.19753
0.93501,4775,0.24387,0.19773
0.94001,4803,12.977,0.20341
0.94501,4776,-0.29694,0.19794
0.95001,4775,-0.31295,0.19773
0.95501,4777,1.0058,0.19814
0.96001,4800,11.424,0.20281
0.96501,4774,-1.2206,0.19753
0.97001,4777,0.66114,0.19814
0.97501,4776,0.50933,0.19794
0.98001,4777,1.2655,0.19814
0.98501,4778,1.9185,0.19834
0.99001,4780,2.9264,0.19875
0.99501,4772,-0.64967,0.19712
1,4776,1.5911,0.19794
1.005,4781,3.9708,0.19896
1.01,4773,0.25195,0.19732
1.015,4775,1.4767,0.19773
1.02,4814,18.834,0.20562
1.025,4782,2.6054,0.19916
1.03,4775,-0.4864,0.19773
1.035,4784,3.9406,0.19957
1.04,4781,2.4471,0.19896
1.045,4773,-1.0753,0.19732
1.05,4783,3.8733,0.19936
1.055,4780,2.3834,0.19875
1.06,4773,-0.69132,0.19732
1.065,4778,1.9818,0.19834
1.07,4781,3.4032,0.19896
1.075,4771,-1.1482,0.19691
1.08,4776,1.5834,0.19794
1.085,4783,4.8296,0.19936
1.09,4775,0.97822,0.19773
1.095,4774,0.74878,0.19753
1.1,4780,3.6617,0.19875
1.105,4767,-2.2755,0.19609
1.11,4767,-1.6297,0.19609
1.115,4787,7.8212,0.20018
1.12,4784,5.7862,0.19957
1.125,4782,4.4644,0.19916
1.13,4770,-1.1338,0.19671
1.135,4767,-1.9863,0.19609
1.14,4780,4.4041,0.19875
1.145,4788,7.6925,0.20038
1.15,4786,6.1116,0.19997
1.155,4762,-5.0626,0.19507
1.16,4784,5.7469,0.19957
1.165,4786,6.1929,0.19997
1.17,4782,3.9207,0.19916
1.175,4765,-3.8494,0.19568
1.18,4767,-2.1155,0.19609
1.185,4782,5.1689,0.19916
1.19,4784,5.6862,0.19957
1.195,4785,5.6903,0.19977
1.2,4763,-4.5479,0.19527
1.205,4765,-2.7261,0.19568
1.21,4786,7.3,0.19997
1.215,4783,5.3107,0.19936
1.22,4779,3.1407,0.19855
1.225,4768,-1.8653,0.1963
1.23,4783,5.3718,0.19936
1.235,4780,3.6342,0.19875
1.24,4785,5.6763,0.19977
1.245,4767,-2.7808,0.19609
1.25,4761,-4.7868,0.19486
1.255,4783,5.967,0.19936
1.26,4786,6.803,0.19997
1.265,4782,4.4259,0.19916
1.27,4763,-4.3303,0.19527
1.275,4767,-1.6599,0.19609
1.28,4781,5.0969,0.19896
1.285,4784,6.0448,0.19957
1.29,4786,6.4211,0.19997
1.295,4764,-3.9321,0.19548
1.3,4764,-3.11,0.19548
1.305,4788,8.2779,0.20038
1.31,4785,6.1375,0.19977
1.315,4761,-5.0838,0.19486
1.32,4767,-1.4268,0.19609
1.325,4788,8.3894,0.20038
1.33,4780,4.0124,0.19875
1.335,4783,5.0958,0.19936
1.34,4772,-0.18736,0.19712
1.345,4764,-3.4493,0.19548
1.35,4784,6.2041,0.19957
1.355,4790,8.3135,0.20078
1.36,4775,0.83497,0.19773
1.365,4772,-0.32964,0.19712
1.37,4781,3.9996,0.19896
1.375,4804,13.893,0.20361
1.38,4773,-1.3864,0.19732
1.385,4784,3.9679,0.19957
1.39,4780,1.9436,0.19875
1.395,4773,-1.1505,0.19732
1.4,4779,1.9505,0.19855
1.405,4781,2.8542,0.19896
1.41,4777,0.97127,0.19814
1.415,4778,1.5604,0.19834
1.42,4781,2.9573,0.19896
1.425,4777,1.0574,0.19814
1.43,4761,-5.9571,0.19486
1.435,4751,-9.3873,0.1928
1.44,4739,-13.292,0.19031
1.445,4782,8.0302,0.19916
1.45,4773,3.2156,0.19732
1.455,4773,3.0454,0.19732
1.46,4774,3.3427,0.19753
1.465,4782,6.7099,0.19916
1.47,4779,4.7395,0.19855
1.475,4774,2.14,0.19753
1.48,4779,4.3352,0.19855
1.485,4780,4.4566,0.19875
1.49,4774,1.4491,0.19753
1.495,4780,4.1791,0.19875
1.5,4778,2.9869,0.19834
1.505,4777,2.3973,0.19814
1.51,4778,2.775,0.19834
1.515,4780,3.5452,0.19875
1.52,4777,1.9904,0.19814
1.525,4775,1.0858,0.19773
1.53,4780,3.4138,0.19875
1.535,4776,1.4291,0.19794
1.54,4774,0.59637,0.19753
1.545,4782,4.3198,0.19916
1.55,4779,2.6575,0.19855
1.555,4775,0.76974,0.19773
1.56,4805,14.164,0.20382
1.565,4779,1.0438,0.19855
1.57,4774,-1.0737,0.19753
1.575,4756,-8.7396,0.19383
1.58,4747,-11.385,0.19197
1.585,4738,-13.699,0.1901
1.59,4729,-15.728,0.18822
1.595,4726,-14.765,0.18759
1.6,4720,-15.312,0.18633
1.605,4764,6.8762,0.19548
1.61,4767,7.5169,0.19609
1.615,4769,7.6241,0.1965
1.62,4774,9.0538,0.19753
1.625,4780,10.732,0.19875
1.63,4817,25.792,0.20622
1.635,4774,3.6276,0.19753
1.64,4782,6.9244,0.19916
1.645,4784,7.1117,0.19957
1.65,4776,2.8357,0.19794
1.655,4780,4.4608,0.19875
1.66,4785,6.3078,0.19977
1.665,4776,1.6957,0.19794
1.67,4777,2.1395,0.19814
1.675,4810,16.63,0.20482
1.68,4775,-0.80775,0.19773
1.685,4778,0.86089,0.19834
1.6901,4784,3.6336,0.19957
1.695,4780,1.5983,0.19875
1.7,4777,0.27542,0.19814
1.705,4783,3.1254,0.19936
1.71,4779,1.1546,0.19855
1.715,4766,-4.5728,0.19589
1.72,4755,-8.6755,0.19362
1.725,4746,-11.357,0.19176
1.73,4742,-11.435,0.19093
1.735,4765,0.65407,0.19568
1.74,4772,3.9001,0.19712
1.745,4771,3.1394,0.19691
1.75,4775,4.7084,0.19773
1.755,4778,5.6195,0.19834
1.76,4772,2.4037,0.19712
1.765,4800,14.683,0.20281
1.77,4779,3.6484,0.19855
1.775,4775,1.5898,0.19773
1.78,4773,0.69374,0.19732
1.785,4805,14.951,0.20382
1.7901,4773,-0.98329,0.19732
1.795,4771,-1.5361,0.19691
1.8,4778,1.9919,0.19834
1.805,4778,1.9307,0.19834
1.81,4773,-0.34813,0.19732
1.815,4778,2.1269,0.19834
1.82,4776,1.1557,0.19794
1.825,4774,0.31271,0.19753
1.83,4804,13.731,0.20361
1.835,4776,-0.2713,0.19794
1.84,4772,-1.8148,0.19712
1.845,4776,0.40962,0.19794
1.85,4779,1.8878,0.19855
1.855,4775,0.055112,0.19773
1.86,4777,1.135,0.19814
1.865,4779,2.0688,0.19855
1.87,4776,0.6545,0.19794
1.875,4800,11.375,0.20281
1.88,4779,0.77146,0.19855
1.885,4773,-1.8054,0.19732
1.8901,4773,-1.3696,0.19732
1.895,4777,0.78708,0.19814
1.9,4776,0.42909,0.19794
1.905,4772,-1.2187,0.19712
1.91,4778,1.8049,0.19834
1.915,4777,1.3082,0.19814
1.92,4798,10.61,0.20241
1.925,4775,-0.79717,0.19773
1.93,4779,1.2769,0.19855
1.935,4772,-1.8212,0.19712
1.94,4798,10.124,0.20241
1.945,4779,0.55805,0.19855
1.95,4777,-0.21858,0.19814
1.955,4773,-1.7841,0.19732
1.96,4781,2.1964,0.19896
1.965,4781,2.0866,0.19896
1.97,4773,-1.5666,0.19732
1.975,4784,3.7128,0.19957
1.98,4783,2.9549,0.19936
1.985,4772,-2.149,0.19712
1.9901,4778,0.98931,0.19834
1.995,4782,2.8124,0.19916
2,4770,-2.7238,0.19671
2.005,4777,0.93624,0.19814
2.01,4780,2.3207,0.19875
2.015,4772,-1.3728,0.19712
2.02,4758,-7.2785,0.19424
2.025,4751,-9.282,0.1928
2.03,4765,-1.585,0.19568
2.035,4749,-8.3938,0.19238
2.04,4773,3.6542,0.19732
2.045,4773,3.3303,0.19732
2.05,4772,2.6039,0.19712
2.055,4779,5.5353,0.19855
2.06,4778,4.5155,0.19834
2.065,4772,1.4057,0.19712
2.07,4778,4.053,0.19834
2.075,4783,5.8949,0.19936
2.08,4772,0.38112,0.19712
2.085,4777,2.7205,0.19814
2.09,4779,3.4095,0.19855
2.095,4771,-0.44389,0.19691
2.1,4779,3.3394,0.19855
2.105,4780,3.4996,0.19875
2.11,4775,0.97123,0.19773
2.115,4759,-6.1484,0.19445
2.12,4747,-10.569,0.19197
2.125,4733,-15.345,0.18905
2.13,4741,-9.5097,0.19072
2.135,4785,11.619,0.19977
2.14,4771,3.9929,0.19691
2.145,4771,3.6096,0.19691
2.15,4776,5.505,0.19794
2.155,4800,15.533,0.20281
2.16,4770,0.32312,0.19671
2.165,4778,3.9961,0.19834
2.17,4777,3.1704,0.19814
2.175,4797,11.748,0.2022
2.18,4776,1.039,0.19794
2.185,4778,1.944,0.19834
2.19,4774,0.058459,0.19753
2.195,4786,5.5321,0.19997
2.2,4777,0.95304,0.19814
2.205,4773,-0.80185,0.19732
2.21,4774,-0.09701,0.19753
2.215,4803,12.888,0.20341
2.22,4773,-1.9482,0.19732
2.225,4773,-1.5355,0.19732
2.23,4778,1.0459,0.19834
2.235,4802,11.658,0.20321
2.24,4772,-3.0212,0.19712
2.245,4777,-0.24008,0.19814
2.25,4775,-0.94794,0.19773
2.255,4797,9.066,0.2022
2.26,4774,-2.1798,0.19753
2.265,4780,0.92863,0.19875
2.27,4773,-2.161,0.19732
2.275,4777,0.055461,0.19814
2.28,4780,1.5272,0.19875
2.285,4779,1.0245,0.19855
2.29,4774,-1.1915,0.19753
2.295,4785,3.9972,0.19977
2.3,4782,2.2772,0.19916
2.305,4773,-1.8846,0.19732
2.31,4784,3.3979,0.19957
2.315,4799,9.7073,0.20261
2.32,4771,-3.8473,0.19691
2.325,4777,-0.51806,0.19814
2.33,4778,0.13737,0.19834
2.335,4777,-0.18475,0.19814
2.34,4777,-0.020039,0.19814
2.345,4781,1.8988,0.19896
2.35,4773,-1.7737,0.19732
2.355,4778,0.82636,0.19834
2.36,4779,1.2974,0.19855
2.365,4777,0.37167,0.19814
2.37,4775,-0.43182,0.19773
2.375,4780,1.984,0.19875
2.38,4774,-0.81453,0.19753
2.385,4774,-0.57162,0.19753
2.39,4790,6.7348,0.20078
2.395,4777,0.20638,0.19814
2.4,4771,-2.3602,0.19691
2.405,4776,0.31488,0.19794
2.41,4803,12.334,0.20341
2.415,4771,-3.3392,0.19691
2.42,4776,-0.53323,0.19794
2.425,4777,0.11404,0.19814
2.43,4782,2.4499,0.19916
2.435,4784,3.1392,0.19957
2.44,4786,3.7355,0.19997
2.445,4763,-6.8746,0.19527
2.45,4783,3.085,0.19936
2.455,4787,4.5722,0.20018
2.46,4786,3.6468,0.19997
2.465,4763,-6.9533,0.19527
2.47,4786,4.344,0.19997
2.475,4784,3.0041,0.19957
2.48,4782,1.8424,0.19916
2.485,4769,-4.063,0.1965
2.49,4766,-4.7354,0.19589
2.495,4782,3.1468,0.19916
2.5,4788,5.5063,0.20038
2.505,4776,-0.42901,0.19794
2.51,4761,-6.9483,0.19486
2.515,4784,4.3531,0.19957
2.52,4793,7.8706,0.20139
2.525,4784,2.9615,0.19957
2.53,4764,-6.2199,0.19548
2.535,4786,4.5252,0.19997
2.54,4784,3.1547,0.19957
2.545,4792,6.3909,0.20119
2.55,4767,-5.4455,0.19609
2.555,4789,5.1804,0.20058
2.56,4787,3.7232,0.20018
2.565,4784,2.0172,0.19957
2.57,4765,-6.5925,0.19568
2.575,4783,2.4236,0.19936
2.58,4785,3.1034,0.19977
2.585,4793,6.342,0.20139
2.59,4766,-6.3789,0.19589
2.595,4764,-6.3042,0.19548
2.6,4798,9.742,0.20241
2.605,4783,1.9308,0.19936
2.61,4767,-5.334,0.19609
2.615,4774,-1.3835,0.19753
2.62,4795,8.2173,0.2018
2.625,4785,2.8153,0.19977
2.63,4773,-2.7777,0.19732
2.635,4769,-4.0774,0.1965
2.64,4782,2.3648,0.19916
2.645,4797,8.7878,0.2022
2.65,4770,-4.2414,0.19671
2.655,4758,-8.9349,0.19424
2.66,4755,-8.9797,0.19362
2.665,4757,-6.7741,0.19404
2.67,4714,-25.3,0.18507
2.675,4751,-4.9841,0.1928
2.68,4786,11.41,0.19997
2.685,4786,9.9818,0.19997
2.69,4747,-8.6906,0.19197
2.695,4734,-13.322,0.18926
2.7,4748,-5.1056,0.19217
2.705,4767,4.2026,0.19609
2.71,4760,0.59797,0.19465
2.715,4764,2.402,0.19548
2.72,4774,6.6375,0.19753
2.725,4762,0.48147,0.19507
2.7301,4734,-12.129,0.18926
2.735,4723,-15.434,0.18696
2.74,4778,11.509,0.19834
2.745,4783,12.277,0.19936
2.75,4759,0.018703,0.19445
2.755,4739,-8.9177,0.19031
2.7601,4753,-1.3132,0.19321
2.765,4741,-6.4713,0.19072
2.7701,4743,-4.6169,0.19114
2.775,4775,10.445,0.19773
2.7801,4783,12.686,0.19936
2.7851,4785,11.962,0.19977
2.7901,4786,10.894,0.19997
2.7951,4764,-0.26511,0.19548
2.8001,4775,4.7712,0.19773
2.805,4761,-2.0304,0.19486
2.8101,4739,-11.589,0.19031
2.8151,4725,-16.324,0.18738
2.8201,4774,8.0423,0.19753
2.8251,4784,11.493,0.19957
2.8301,4785,10.485,0.19977
2.8351,4790,11.383,0.20078
2.8401,4790,9.951,0.20078
2.8451,4788,7.8285,0.20038
2.8501,4769,-1.5675,0.1965
2.8551,4731,-18.4,0.18864
2.8601,4744,-9.9518,0.19134
2.8651,4763,0.01576,0.19527
2.8701,4781,8.1232,0.19896
2.8751,4756,-4.0431,0.19383
2.8801,4768,1.9597,0.1963
2.8851,4753,-4.945,0.19321
2.8901,4747,-6.9062,0.19197
2.8951,4713,-21.392,0.18485
2.9001,4716,-17.078,0.18549
2.9051,4738,-4.6851,0.1901
2.9101,4729,-8.082,0.18822
2.9151,4711,-15.177,0.18443
2.9201,4737,-1.2025,0.18989
2.9251,4727,-5.5304,0.1878
2.9301,4727,-4.73,0.1878
2.9351,4714,-9.9899,0.18507
2.9401,4704,-13.203,0.18295
2.9451,4733,1.9067,0.18905
2.9501,4742,5.7895,0.19093
2.9551,4712,-8.6192,0.18464
2.9601,4715,-6.036,0.18528
2.9651,4704,-10.243,0.18295
2.9701,4694,-13.456,0.18083
2.9751,4658,-28.481,0.17308
2.9801,4679,-14.756,0.17762
2.9851,4679,-12.749,0.17762
2.9901,4676,-12.419,0.17697
2.9951,4652,-22.047,0.17178
3.0001,4677,-7.292,0.17719
3.0051,4672,-8.6415,0.17611
3.0101,4676,-5.5918,0.17697
3.0151,4655,-14.722,0.17243
3.0201,4672,-4.7223,0.17611
3.0251,4675,-2.6716,0.17676
3.0301,4656,-11.255,0.17265
3.0351,4652,-11.638,0.17178
3.0401,4678,2.1771,0.1774
3.0451,4677,1.4237,0.17719
3.0501,4673,-0.63568,0.17633
3.0551,4638,-17.122,0.16871
3.0601,4642,-12.92,0.16959
3.0651,4637,-13.582,0.16849
3.0701,4633,-13.685,0.16762
3.0751,4638,-9.4692,0.16871
3.0801,4663,3.6594,0.17416
3.0851,4671,6.9274,0.17589
3.0901,4671,5.9939,0.17589
3.0951,4651,-4.2586,0.17156
3.1001,4666,3.3975,0.17481
3.1051,4673,6.2285,0.17633
3.1101,4676,6.7981,0.17697
3.1151,4647,-7.8058,0.17068
3.1201,4654,-3.4424,0.17221
3.1251,4645,-7.2634,0.17025
3.1301,4628,-14.432,0.16651
3.1351,4619,-16.847,0.16452
3.1401,4665,7.3343,0.1746
3.1451,4669,8.2241,0.17546
3.1501,4667,6.1728,0.17503
3.1551,4668,5.8091,0.17525
3.1601,4654,-1.587,0.17221
3.1651,4672,7.1092,0.17611
3.1701,4675,7.56,0.17676
3.1751,4673,5.6066,0.17633
3.1801,4646,-7.9074,0.17047
3.1851,4671,4.9674,0.17589
3.1901,4670,3.8296,0.17568
3.1951,4646,-8.0374,0.17047
3.2001,4649,-5.5403,0.17112
3.2051,4675,7.4673,0.17676
3.2101,4678,7.87,0.1774
3.2151,4648,-7.3378,0.1709
3.2201,4657,-2.0911,0.17286
3.2251,4681,9.4711,0.17805
3.2301,4689,11.933,0.17976
3.2351,4700,15.443,0.1821
3.2401,4706,16.154,0.18338
3.2451,4722,21.352,0.18675
3.2501,4702,9.313,0.18253
3.2551,4674,-4.955,0.17654
3.2601,4660,-10.869,0.17351
3.2651,4679,-0.47114,0.17762
3.2701,4682,1.0055,0.17826
3.2751,4650,-14.191,0.17134
3.2801,4651,-11.81,0.17156
3.2851,4688,7.1708,0.17954
3.2901,4674,-0.32404,0.17654
3.2951,4649,-12.078,0.17112
3.3001,4656,-7.138,0.17265
3.3051,4675,2.7705,0.17676
3.3101,4668,-0.88488,0.17525
3.3151,4653,-7.8498,0.17199
3.3201,4674,3.1051,0.17654
3.3251,4680,5.5012,0.17783
3.3301,4711,19.147,0.18443
3.3351,4699,11.055,0.18189
3.3401,4723,20.629,0.18696
3.3451,4708,11,0.1838
3.3501,4692,2.1421,0.1804
3.3551,4659,-13.594,0.1733
3.3601,4654,-14.129,0.17221
3.3651,4680,0.011983,0.17783
3.3701,4678,-0.91452,0.1774
3.3751,4649,-14.46,0.17112
3.3801,4665,-4.9468,0.1746
3.3851,4673,-0.51722,0.17633
3.3901,4673,-0.44241,0.17633
3.3951,4654,-9.339,0.17221
3.4001,4672,0.40497,0.17611
3.4051,4668,-1.526,0.17525
3.4101,4672,0.56118,0.17611
3.4151,4652,-8.9511,0.17178
3.4201,4649,-9.1778,0.17112
3.4251,4715,22.879,0.18528
3.4301,4724,23.946,0.18717
3.4351,4701,10.18,0.18231
3.4401,4707,11.601,0.18359
3.4451,4700,6.8314,0.1821
3.4501,4685,-1.0339,0.1789
3.4551,4698,5.1627,0.18168
3.4601,4723,15.995,0.18696
3.4651,4727,15.704,0.1878
3.4701,4720,10.428,0.18633
3.4751,4708,3.5482,0.1838
3.4801,4730,13.181,0.18843
3.4851,4720,6.8816,0.18633
3.4901,4695,-5.5301,0.18104
3.4951,4668,-17.375,0.17525
3.5001,4684,-7.5283,0.17869
3.5051,4717,8.7691,0.1857
3.5101,4728,12.653,0.18801
3.5151,4701,-1.4096,0.18231
3.5201,4729,11.663,0.18822
3.5251,4734,12.411,0.18926
3.5301,4725,6.684,0.18738
3.5351,4705,-3.3573,0.18316
3.5401,4735,10.865,0.18947
3.5451,4735,9.4484,0.18947
3.5501,4721,1.8389,0.18654
3.5551,4715,-1.1186,0.18528
3.5601,4732,6.8405,0.18884
3.5651,4717,-0.88754,0.1857
3.5701,4706,-5.7891,0.18338
3.5751,4672,-20.801,0.17611
3.5801,4685,-11.903,0.1789
3.5851,4720,5.8934,0.18633
3.5901,4727,8.3361,0.1878
3.5951,4700,-5.1523,0.1821
3.6001,4728,8.4307,0.18801
3.6051,4734,10.069,0.18926
3.6101,4727,5.5693,0.1878
3.6151,4706,-4.7733,0.18338
3.6201,4735,9.1774,0.18947
3.6251,4730,5.7123,0.18843
3.6301,4728,4.0751,0.18801
3.6351,4711,-4.2179,0.18443
3.6401,4730,5.0828,0.18843
3.6451,4719,-0.58371,0.18612
3.6501,4706,-6.4437,0.18338
3.6551,4669,-22.779,0.17546
3.6601,4680,-14.543,0.17783
3.6651,4680,-12.571,0.17783
3.6701,4677,-12.269,0.17719
3.6751,4648,-24.292,0.1709
3.6801,4674,-8.7489,0.17654
3.6851,4677,-6.1595,0.17719
3.6901,4672,-7.6687,0.17611
3.6951,4681,-2.4172,0.17805
3.7001,4724,17.787,0.18717
3.7051,4726,16.336,0.18759
3.7101,4710,6.8338,0.18422
3.7151,4675,-10.321,0.17676
3.7201,4687,-3.3161,0.17933
3.7251,4676,-7.9966,0.17697
3.7301,4656,-16.334,0.17265
3.7351,4651,-16.511,0.17156
3.7401,4669,-5.7925,0.17546
3.7451,4676,-1.7278,0.17697
3.7501,4678,-0.55647,0.1774
3.7551,4648,-14.632,0.1709
3.7601,4673,-0.86527,0.17633
3.7651,4674,-0.28056,0.17654
3.7701,4665,-4.4747,0.1746
3.7751,4649,-11.45,0.17112
3.7801,4674,1.881,0.17654
3.7851,4673,1.1567,0.17633
3.7901,4673,0.9988,0.17633
3.7951,4650,-9.997,0.17134
3.8001,4669,0.31462,0.17546
3.8051,4657,-5.3939,0.17286
3.8101,4643,-11.329,0.16981
3.8151,4607,-27.151,0.16185
3.8201,4637,-9.073,0.16849
3.8251,4664,4.9445,0.17438
3.8301,4645,-4.7367,0.17025
3.8351,4641,-6.0276,0.16937
3.8401,4649,-1.4302,0.17112
3.8451,4641,-5.0679,0.16937
3.8501,4603,-22.729,0.16096
3.8551,4596,-23.13,0.15939
3.8601,4625,-6.0018,0.16585
3.8651,4618,-8.6065,0.1643
3.8701,4592,-20.137,0.15849
3.8751,4598,-14.548,0.15984
3.8801,4621,-1.4827,0.16497
3.8851,4614,-4.7086,0.16341
3.8901,4598,-11.9,0.15984
3.8951,4596,-11.331,0.15939
3.9001,4613,-1.5917,0.16319
3.9051,4618,0.99212,0.1643
3.9101,4598,-8.9011,0.15984
3.9151,4587,-13.146,0.15737
3.9201,4614,1.7253,0.16341
3.9251,4623,5.7901,0.16541
3.9301,4590,-11.074,0.15804
3.9351,4592,-8.6646,0.15849
3.9401,4618,5.088,0.1643
3.9451,4613,1.9368,0.16319
3.9501,4577,-15.979,0.15511
3.9551,4560,-22.329,0.15124
3.9601,4567,-15.922,0.15283
3.9651,4583,-5.9474,0.15647
3.9701,4586,-3.7411,0.15714
3.9751,4608,7.4416,0.16208
3.9801,4601,2.9777,0.16051
3.9851,4587,-4.3324,0.15737
3.9901,4554,-20.166,0.14986
3.9951,4576,-6.6037,0.15488
4.0001,4601,6.4797,0.16051
4.0051,4615,12.346,0.16364
4.0101,4586,-3.5082,0.15714
4.0151,4591,-0.64878,0.15827
4.0201,4577,-7.5119,0.15511
4.0251,4569,-10.53,0.15329
4.0301,4573,-7.2076,0.1542
4.0351,4602,7.9272,0.16074
4.0401,4611,11.176,0.16275
4.0451,4591,-0.13106,0.15827
4.0501,4560,-15.495,0.15124
4.0551,4575,-6.0445,0.15465
4.0601,4581,-2.3421,0.15601
4.0651,4585,-0.12729,0.15692
4.0701,4587,0.80579,0.15737
4.0751,4605,9.4298,0.16141
4.0801,4617,13.924,0.16408
4.0851,4605,6.1833,0.16141
4.0901,4588,-3.0086,0.15759
4.0951,4616,10.977,0.16386
4.1001,4614,8.4861,0.16341
4.1051,4597,-0.96929,0.15962
4.1101,4607,3.9793,0.16185
4.1151,4611,5.3368,0.16275
4.1201,4608,3.1169,0.16208
4.1251,4591,-5.6431,0.15827
4.1301,4615,6.7482,0.16364
4.1351,4613,4.8289,0.16319
4.1401,4615,5.1042,0.16364
4.1451,4595,-5.3529,0.15917
4.1501,4599,-2.7298,0.16007
4.1551,4602,-0.94903,0.16074
4.1601,4608,2.0494,0.16208
4.1651,4597,-3.6289,0.15962
4.1701,4610,3.1382,0.16252
4.1751,4656,24.72,0.17265
4.1801,4659,22.794,0.1733
4.1851,4645,13.068,0.17025
4.1901,4674,24.996,0.17654
4.1951,4676,22.567,0.17697
4.2001,4671,17.184,0.17589
4.2051,4629,-5.0801,0.16673
4.2101,4640,0.85079,0.16915
4.2151,4628,-5.0273,0.16651
4.2201,4620,-8.2246,0.16474
4.2251,4643,3.8884,0.16981
4.2301,4668,15.191,0.17525
4.2351,4666,12.204,0.17481
4.2401,4651,3.4675,0.17156
4.2451,4660,7.256,0.17351
4.2501,4668,10.049,0.17525
4.2551,4669,9.1696,0.17546
4.2601,4652,-0.091216,0.17178
4.2651,4655,1.3394,0.17243
4.2701,4665,5.8817,0.1746
4.2751,4674,9.3244,0.17654
4.2801,4645,-5.6291,0.17025
4.2851,4668,6.0101,0.17525
4.2901,4676,8.9628,0.17697
4.2951,4673,6.3597,0.17633
4.3001,4648,-6.2969,0.1709
4.3051,4673,6.3571,0.17633
4.3101,4670,4.1017,0.17568
4.3151,4667,2.1466,0.17503
4.3201,4652,-5.2249,0.17178
4.3251,4675,6.3255,0.17676
4.3301,4671,3.6078,0.17589
4.3351,4649,-7.2638,0.17112
4.3401,4648,-6.7635,0.1709
4.3451,4666,2.6624,0.17481
4.3501,4648,-6.2089,0.1709
4.3551,4615,-21.206,0.16364
4.3601,4604,-23.711,0.16118
4.3651,4611,-17.148,0.16275
4.3701,4623,-9.0678,0.16541
4.3751,4592,-22.93,0.15849
4.3801,4591,-20.374,0.15827
4.3851,4616,-5.5032,0.16386
4.3901,4613,-6.2453,0.16319
4.3951,4588,-17.628,0.15759
4.4001,4594,-12.361,0.15894
4.4051,4615,-0.52448,0.16364
4.4101,4607,-4.3676,0.16185
4.4151,4568,-22.968,0.15306
4.4201,4582,-13.016,0.15624
4.4251,4572,-16.256,0.15397
4.4301,4600,-0.37019,0.16029
4.4351,4586,-7.221,0.15714
4.4401,4610,5.4149,0.16252
4.4451,4590,-5.1104,0.15804
4.4501,4582,-8.4054,0.15624
4.4551,4550,-23.224,0.14894
4.4601,4561,-14.679,0.15146
4.4651,4566,-10.286,0.15261
4.4701,4542,-20.968,0.1471
4.4751,4533,-22.767,0.14501
4.4801,4564,-4.2494,0.15215
4.4851,4562,-4.7459,0.15169
4.4901,4526,-22.275,0.14339
4.4951,4515,-24.971,0.14082
4.5001,4521,-18.654,0.14222
4.5051,4515,-19.303,0.14082
4.5101,4486,-31.733,0.13397
4.5151,4486,-27.585,0.13397
4.5201,4501,-16.251,0.13752
4.5251,4502,-13.669,0.13776
4.5301,4484,-21.249,0.13349
4.5351,4476,-22.682,0.13158
4.5401,4533,9.5007,0.14501
4.5451,4553,18.173,0.14963
4.5501,4533,5.5762,0.14501
4.5551,4536,6.2384,0.14571
4.5601,4523,-1.286,0.14269
4.5651,4518,-3.7641,0.14152
4.5701,4485,-20.337,0.13373
4.5751,4506,-6.8924,0.1387
4.5801,4505,-6.5946,0.13847
4.5851,4494,-11.487,0.13587
4.5901,4481,-16.802,0.13277
4.5951,4502,-3.8134,0.13776
4.6001,4492,-8.5761,0.13539
4.6051,4501,-2.907,0.13752
4.6101,4481,-12.981,0.13277
4.6151,4497,-3.0822,0.13658
4.6201,4497,-2.7913,0.13658
4.6251,4504,1.0624,0.13823
4.6301,4479,-12.127,0.13229
4.6351,4497,-1.3027,0.13658
4.6401,4500,0.29461,0.13729
4.6451,4504,2.1902,0.13823
4.6501,4476,-12.713,0.13158
4.6551,4499,0.78319,0.13705
4.6601,4499,0.55669,0.13705
4.6651,4501,1.3906,0.13752
4.6701,4480,-9.7798,0.13253
4.6751,4499,1.2415,0.13705
4.6801,4495,-1.1072,0.1361
4.6851,4504,3.554,0.13823
4.6901,4480,-9.4465,0.13253
4.6951,4498,1.0165,0.13681
4.7001,4497,0.24572,0.13658
4.7051,4478,-9.7517,0.13206
4.7101,4478,-8.568,0.13206
4.7151,4502,4.876,0.13776
4.7201,4502,4.104,0.13776
4.7251,4477,-9.5041,0.13182
4.7301,4476,-8.8743,0.13158
4.7351,4498,3.5947,0.13681
4.7401,4498,2.9942,0.13681
4.7451,4477,-8.4069,0.13182
4.7501,4479,-6.3606,0.13229
4.7551,4503,6.7825,0.13799
4.7601,4497,2.6691,0.13658
4.7651,4478,-7.6508,0.13206
4.7701,4494,1.5521,0.13587
4.7751,4493,0.71086,0.13563
4.7801,4496,2.0481,0.13634
4.7851,4480,-6.63,0.13253
4.7901,4476,-7.9432,0.13158
4.7951,4529,20.244,0.14408
4.8001,4557,31.505,0.15055
4.8051,4536,16.648,0.14571
4.8101,4535,13.817,0.14548
4.8151,4565,26.903,0.15238
4.8201,4557,19.232,0.15055
4.8251,4522,-1.0563,0.14245
4.8301,4532,4.0736,0.14478
4.8351,4522,-1.6252,0.14245
4.8401,4511,-7.1009,0.13988
4.8451,4482,-21.189,0.13301
4.8501,4509,-4.5125,0.13941
4.8551,4499,-9.133,0.13705
4.8601,4528,6.8153,0.14385
4.8651,4529,6.3229,0.14408
4.8701,4550,15.971,0.14894
4.8751,4540,8.7307,0.14664
4.8801,4529,1.9273,0.14408
4.8851,4491,-17.861,0.13515
4.8901,4506,-7.8281,0.1387
4.8951,4502,-8.919,0.13776
4.9001,4480,-19.19,0.13253
4.9051,4497,-7.9084,0.13658
4.9101,4548,18.99,0.14848
4.9151,4553,18.869,0.14963
4.9201,4545,12.256,0.14779
4.9251,4507,-8.7453,0.13894
4.9301,4516,-3.0514,0.14105
4.9351,4509,-6.301,0.13941
4.9401,4481,-19.989,0.13277
4.9451,4484,-15.842,0.13349
4.9501,4504,-3.4838,0.13823
4.9551,4531,10.659,0.14455
4.9601,4527,7.122,0.14362
4.9651,4527,6.0866,0.14362
4.9701,4541,12.266,0.14687
4.9751,4530,4.9939,0.14432
4.9801,4492,-15.192,0.13539
4.9851,4483,-17.904,0.13325
4.9901,4507,-3.2063,0.13894
4.9951,4509,-1.8361,0.13941
5.0001,4489,-11.973,0.13468
5.0051,4522,6.4763,0.14245
5.0101,4556,22.66,0.15032
5.0151,4529,5.9715,0.14408
5.0201,4533,7.1213,0.14501
5.0251,4525,2.0417,0.14315
5.0301,4515,-3.3957,0.14082
5.0351,4517,-1.9947,0.14128
5.0401,4529,4.2981,0.14408
5.0451,4552,15.232,0.1494
5.0501,4535,4.5811,0.14548
5.0551,4538,5.4156,0.14617
5.0601,4491,-19.375,0.13515
5.0651,4525,0.57041,0.14315
5.0701,4550,13.034,0.14894
5.0751,4527,-0.36795,0.14362
5.0801,4528,0.12331,0.14385
5.0851,4560,16.125,0.15124
5.0901,4560,13.908,0.15124
5.0951,4527,-4.5984,0.14362
5.1001,4509,-13.215,0.13941
5.1051,4528,-1.8271,0.14385
5.1101,4515,-8.2566,0.14082
5.1151,4516,-6.7043,0.14105
5.1201,4552,12.32,0.1494
5.1251,4552,10.612,0.1494
5.1301,4559,12.632,0.15101
5.1351,4542,2.3749,0.1471
5.1401,4536,-1.0194,0.14571
5.1451,4556,9.1046,0.15032
5.1501,4564,11.823,0.15215
5.1551,4537,-3.3282,0.14594
5.1601,4563,10.094,0.15192
5.1651,4600,26.924,0.16029
5.1701,4611,28.634,0.16275
5.1751,4581,10.11,0.15601
5.1801,4586,11.189,0.15714
5.1851,4578,5.7267,0.15534
5.1901,4566,-1.0049,0.15261
5.1951,4540,-13.899,0.14664
5.2001,4558,-3.0468,0.15078
5.2051,4564,0.31991,0.15215
5.2101,4585,10.631,0.15692
5.2151,4583,8.2001,0.15647
5.2201,4584,7.5718,0.15669
5.2251,4637,32.245,0.16849
5.2301,4643,30.784,0.16981
5.2351,4643,26.66,0.16981
5.2401,4657,29.745,0.17286
5.2451,4640,17.692,0.16915
5.2501,4609,0.41268,0.1623
5.2551,4598,-4.9867,0.15984
5.2601,4620,6.3688,0.16474
5.2651,4624,7.4566,0.16563
5.2701,4592,-9.0693,0.15849
5.2751,4592,-7.8459,0.15849
5.2801,4613,3.4409,0.16319
5.2851,4612,2.5057,0.16297
5.2901,4592,-7.5637,0.15849
5.2951,4597,-4.0983,0.15962
5.3001,4615,5.2082,0.16364
5.3051,4613,3.5518,0.16319
5.3101,4593,-6.6532,0.15872
5.3151,4591,-6.7356,0.15827
5.3201,4588,-7.3004,0.15759
5.3251,4615,6.8384,0.16364
5.3301,4594,-4.2884,0.15894
5.3351,4589,-6.16,0.15782
5.3401,4616,7.8184,0.16386
5.3451,4613,5.3259,0.16319
5.3501,4591,-6.0989,0.15827
5.3551,4658,26.98,0.17308
5.3601,4658,23.383,0.17308
5.3651,4660,21.218,0.17351
5.3701,4646,11.763,0.17047
5.3751,4669,21.096,0.17546
5.3801,4672,19.714,0.17611
5.3851,4666,14.289,0.17481
5.3901,4649,4.372,0.17112
5.3951,4672,14.69,0.17611
5.4001,4666,9.9446,0.17481
5.4051,4668,9.5993,0.17525
5.4101,4651,0.32584,0.17156
5.4151,4645,-2.5259,0.17025
5.4201,4644,-2.6205,0.17003
5.4251,4629,-9.4028,0.16673
5.4301,4606,-19.219,0.16163
5.4351,4662,10.214,0.17395
5.4401,4669,12.184,0.17546
5.4451,4661,6.8254,0.17373
5.4501,4625,-11.209,0.16585
5.4551,4642,-1.5249,0.16959
5.4601,4625,-9.4278,0.16585
5.4651,4650,3.8228,0.17134
5.4701,4647,1.9225,0.17068
5.4751,4666,10.697,0.17481
5.4801,4654,3.6359,0.17221
5.4851,4620,-13.071,0.16474
5.4901,4611,-15.64,0.16275
5.4951,4636,-1.4733,0.16827
5.5001,4657,8.7497,0.17286
5.5051,4647,2.8689,0.17068
5.5101,4639,-1.2939,0.16893
5.5151,4646,2.2516,0.17047
5.5201,4637,-2.309,0.16849
5.5251,4601,-19.349,0.16051
5.5301,4614,-10.417,0.16341
5.5351,4615,-8.5133,0.16364
5.5401,4610,-9.7729,0.16252
5.5451,4573,-26.573,0.1542
5.5501,4584,-17.577,0.15669
5.5551,4576,-19.159,0.15488
5.5601,4566,-21.543,0.15261
5.5651,4540,-31.665,0.14664
5.5701,4560,-17.417,0.15124
5.5751,4561,-14.6,0.15146
5.5801,4538,-24.186,0.14617
5.5851,4537,-21.475,0.14594
5.5901,4558,-8.0932,0.15078
5.5951,4558,-7.0368,0.15078
5.6001,4539,-15.649,0.1464
5.6051,4532,-17.121,0.14478
5.6101,4561,-0.31141,0.15146
5.6151,4562,0.19339,0.15169
5.6201,4532,-14.92,0.14478
5.6251,4534,-11.952,0.14525
5.6301,4564,4.6432,0.15215
5.6351,4556,-0.002995,0.15032
5.6401,4534,-11.092,0.14525
5.6451,4567,6.8771,0.15283
5.6501,4557,0.94062,0.15055
5.6551,4533,-11.28,0.14501
5.6601,4537,-7.7926,0.14594
5.6651,4557,3.2417,0.15055
5.6701,4554,1.2677,0.14986
5.6751,4559,3.5527,0.15101
5.6801,4535,-9.0053,0.14548
5.6851,4553,1.2029,0.14963
5.6901,4560,4.4946,0.15124
5.6951,4534,-9.193,0.14525
5.7001,4531,-9.5233,0.14455
5.7051,4556,4.2736,0.15032
5.7101,4557,4.158,0.15055
5.7151,4532,-9.0012,0.14478
5.7201,4546,-0.78644,0.14802
5.7251,4562,7.2729,0.15169
5.7301,4561,5.7605,0.15146
5.7351,4531,-10.111,0.14455
5.7401,4540,-4.2578,0.14664
5.7451,4564,8.2783,0.15215
5.7501,4570,10.109,0.15352
5.7551,4582,14.647,0.15624
5.7601,4598,20.499,0.15984
5.7651,4608,22.597,0.16208
5.7701,4616,23.428,0.16386
5.7751,4596,10.553,0.15939
5.7801,4608,14.972,0.16208
5.7851,4618,17.802,0.1643
5.7901,4613,12.994,0.16319
5.7951,4588,-0.93853,0.15759
5.8001,4610,9.9178,0.16252
5.8051,4618,12.462,0.1643
5.8101,4614,8.8611,0.16341
5.8151,4588,-4.996,0.15759
5.8201,4612,7.3789,0.16297
5.8251,4611,5.9103,0.16275
5.8301,4625,11.887,0.16585
5.8351,4635,15.105,0.16806
5.8401,4666,27.817,0.17481
5.8451,4664,23.172,0.17438
5.8501,4643,10.139,0.16981
5.8551,4609,-7.5483,0.1623
5.8601,4619,-1.6748,0.16452
5.8651,4618,-1.9115,0.1643
5.8701,4614,-3.5685,0.16341
5.8751,4588,-15.745,0.15759
5.8801,4611,-2.4016,0.16275
5.8851,4611,-2.0641,0.16275
5.8901,4610,-2.2574,0.16252
5.8951,4617,1.4493,0.16408
5.9001,4656,19.929,0.17265
5.9051,4668,22.948,0.17525
5.9101,4667,19.434,0.17503
5.9151,4649,8.3505,0.17112
5.9201,4671,17.661,0.17589
5.9251,4666,12.982,0.17481
5.9301,4624,-8.7183,0.16563
5.9351,4609,-14.768,0.1623
5.9401,4624,-5.5088,0.16563
5.9451,4658,11.486,0.17308
5.9501,4644,3.337,0.17003
5.9551,4661,10.989,0.17373
5.9601,4650,4.3464,0.17134
5.9651,4636,-2.872,0.16827
5.9701,4603,-18.381,0.16096
5.9751,4595,-19.795,0.15917
5.9801,4614,-7.876,0.16341
5.9851,4609,-9.2215,0.1623
5.9901,4589,-17.725,0.15782
5.9951,4613,-3.6372,0.16319
6.0001,4612,-3.6178,0.16297
6.0051,4610,-4.0873,0.16252
6.0101,4593,-11.81,0.15872
6.0151,4614,0.005247,0.16341
6.0201,4606,-3.8641,0.16163
6.0251,4568,-21.999,0.15306
6.0301,4556,-25.024,0.15032
6.0351,4566,-16.697,0.15261
6.0401,4561,-16.954,0.15146
6.0451,4540,-25.212,0.14664
6.0501,4539,-22.358,0.1464
6.0551,4561,-8.3658,0.15146
6.0601,4565,-5.2779,0.15238
6.0651,4540,-17.101,0.14664
6.0701,4533,-18.372,0.14501
6.0751,4565,0.094158,0.15238
6.0801,4565,0.051809,0.15238
6.0851,4534,-15.519,0.14525
6.0901,4542,-9.4429,0.1471
6.0951,4559,0.29869,0.15101
6.1001,4552,-3.2725,0.1494
6.1051,4512,-23.104,0.14011
6.1101,4503,-24.669,0.13799
6.1151,4508,-18.85,0.13917
6.1201,4507,-16.893,0.13894
6.1251,4485,-26.036,0.13373
6.1301,4500,-14.862,0.13729
6.1351,4505,-10.368,0.13847
6.1401,4481,-21.447,0.13277
6.1451,4481,-18.649,0.13277
6.1501,4524,5.8727,0.14292
6.1551,4550,18.131,0.14894
6.1601,4531,6.0721,0.14455
6.1651,4521,0.11937,0.14222
6.1701,4526,2.5787,0.14339
6.1751,4520,-0.88046,0.14199
6.1801,4483,-19.855,0.13325
6.1851,4483,-17.269,0.13325
6.1901,4505,-3.6718,0.13847
6.1951,4498,-6.8535,0.13681
6.2001,4478,-16.372,0.13206
6.2051,4499,-3.3842,0.13705
6.2101,4502,-1.466,0.13776
6.2151,4481,-12.206,0.13277
6.2201,4446,-29.031,0.12433
6.2251,4458,-18.895,0.12725
6.2301,4477,-6.5053,0.13182
6.2351,4491,1.5415,0.13515
6.2401,4472,-8.6337,0.13062
6.2451,4481,-2.8798,0.13277
6.2501,4475,-5.7127,0.13134
6.2551,4437,-25.077,0.12214
6.2601,4427,-27.164,0.11969
6.2651,4452,-10.336,0.12579
6.2701,4445,-12.766,0.12409
6.2751,4424,-22.371,0.11895
6.2801,4462,0.68459,0.12821
6.2851,4496,18.181,0.13634
6.2901,4487,10.988,0.1342
6.2951,4477,4.2162,0.13182
6.3001,4498,14.431,0.13681
6.3051,4504,15.488,0.13823
6.3101,4477,-0.64654,0.13182
6.3151,4480,0.90742,0.13253
6.3201,4495,8.4651,0.1361
6.3251,4500,9.8185,0.13729
6.3301,4479,-2.4536,0.13229
6.3351,4478,-2.735,0.13206
6.3401,4495,6.3561,0.1361
6.3451,4497,6.4508,0.13658
6.3501,4480,-3.3014,0.13253
6.3551,4474,-6.0722,0.1311
6.3601,4494,5.0375,0.13587
6.3651,4501,7.887,0.13752
6.3701,4477,-5.6766,0.13182
6.3751,4480,-3.4384,0.13253
6.3801,4506,10.371,0.1387
6.3851,4506,8.9036,0.1387
6.3901,4504,6.6084,0.13823
6.3951,4557,32.481,0.15055
6.4001,4557,28.07,0.15055
6.4051,4552,21.756,0.1494
6.4101,4539,12.263,0.1464
6.4151,4560,21.094,0.15124
6.4201,4557,16.73,0.15055
6.4251,4561,16.445,0.15146
6.4301,4537,2.1775,0.14594
6.4351,4549,7.8827,0.14871
6.4401,4557,10.794,0.15055
6.4451,4540,0.79446,0.14664
6.4501,4532,-3.3823,0.14478
6.4551,4557,9.5978,0.15055
6.4601,4560,9.7796,0.15124
6.4651,4532,-5.6136,0.14478
6.4701,4574,16.114,0.15443
6.4751,4606,29.625,0.16163
6.4801,4597,21.259,0.15962
6.4851,4571,5.6131,0.15375
6.4901,4580,9.298,0.15579
6.4951,4569,2.6066,0.15329
6.5001,4577,6.2076,0.15511
6.5051,4597,15.193,0.15962
6.5101,4605,17.057,0.16141
6.5151,4604,14.29,0.16118
6.5201,4615,17.721,0.16364
6.5251,4592,4.1618,0.15849
6.5301,4611,12.874,0.16275
6.5351,4616,13.585,0.16386
6.5401,4606,6.9347,0.16163
6.5451,4591,-1.298,0.15827
6.5501,4613,9.6106,0.16319
6.5551,4615,9.312,0.16364
6.5601,4589,-4.5805,0.15782
6.5651,4589,-3.9487,0.15782
6.5701,4614,8.7813,0.16341
6.5751,4608,4.7179,0.16208
6.5801,4588,-5.6569,0.15759
6.5851,4593,-2.4297,0.15872
6.5901,4613,7.6535,0.16319
6.5951,4622,11,0.16519
6.6001,4633,14.84,0.16762
6.6051,4664,27.619,0.17438
6.6101,4665,24.43,0.1746
6.6151,4646,12.202,0.17047
6.6201,4610,-6.688,0.16252
6.6251,4617,-2.3644,0.16408
6.6301,4622,0.4041,0.16519
6.6351,4619,-1.0587,0.16452
6.6401,4590,-14.99,0.15804
6.6451,4613,-1.7417,0.16319
6.6501,4616,-0.022989,0.16386
6.6551,4613,-1.4383,0.16319
6.6602,4630,6.9846,0.16695
6.6651,4658,19.427,0.17308
6.6701,4665,20.173,0.1746
6.6751,4635,3.2689,0.16806
6.6801,4618,-5.2999,0.1643
6.6851,4636,4.1058,0.16827
6.6901,4623,-2.6421,0.16541
6.6951,4597,-14.86,0.15962
6.7001,4600,-11.37,0.16029
6.7051,4615,-2.5269,0.16364
6.7102,4616,-1.6703,0.16386
6.7151,4600,-9.1832,0.16029
6.7201,4608,-4.0295,0.16208
6.7251,4612,-1.5192,0.16297
6.7301,4601,-6.6322,0.16051
6.7351,4595,-8.6462,0.15917
6.7401,4610,-0.15724,0.16252
6.7451,4618,3.763,0.1643
6.7501,4595,-7.8925,0.15917
6.7551,4610,0.49422,0.16252
6.7601,4612,1.4229,0.16297
6.7651,4617,3.6777,0.16408
6.7701,4589,-10.423,0.15782
6.7751,4621,6.5603,0.16497
6.7801,4615,2.8091,0.16364
6.7851,4614,1.9747,0.16341
6.7901,4593,-8.4873,0.15872
6.7951,4612,1.9258,0.16297
6.8001,4610,0.72221,0.16252
6.8051,4592,-8.1252,0.15849
6.8101,4595,-5.5486,0.15917
6.8151,4610,2.52,0.16252
6.8201,4611,2.6888,0.16275
6.8251,4597,-4.4633,0.15962
6.8301,4592,-6.2921,0.15849
6.8351,4639,17.304,0.16893
6.8401,4660,24.99,0.17351
6.8451,4645,14.561,0.17025
6.8501,4659,19.289,0.1733
6.8551,4643,9.1491,0.16981
6.8601,4634,3.6626,0.16784
6.8651,4597,-14.687,0.15962
6.8701,4615,-3.9369,0.16364
6.8751,4617,-2.4094,0.16408
6.8801,4592,-14.219,0.15849
6.8851,4592,-12.288,0.15849
6.8901,4616,1.0628,0.16386
6.8951,4614,-0.020483,0.16341
6.9001,4589,-12.175,0.15782
6.9051,4616,2.6279,0.16386
6.9101,4611,-0.12096,0.16275
6.9151,4607,-2.0227,0.16185
6.9201,4591,-9.5371,0.15827
6.9251,4614,2.962,0.16341
6.9301,4611,1.1337,0.16275
6.9351,4593,-7.7664,0.15872
6.9401,4591,-7.688,0.15827
6.9451,4610,2.6222,0.16252
6.9501,4617,5.6793,0.16408
6.9551,4590,-8.2053,0.15804
6.9601,4610,2.664,0.16252
6.9651,4646,19.625,0.17047
6.9701,4658,22.717,0.17308
6.9751,4641,11.63,0.16937
6.9801,4647,12.964,0.17068
6.9851,4637,6.4933,0.16849
6.9901,4620,-2.5077,0.16474
6.9951,4618,-3.1044,0.1643
7.0001,4662,18.355,0.17395
7.0051,4669,19.235,0.17546
7.0101,4643,4.3929,0.16981
7.0151,4674,18.507,0.17654
7.0201,4678,17.953,0.1774
7.0251,4660,7.137,0.17351
7.0301,4652,2.4462,0.17178
7.0351,4657,4.5404,0.17286
7.0401,4669,9.6472,0.17546
7.0451,4671,9.3519,0.17589
7.0501,4655,0.60962,0.17243
7.0551,4668,6.7224,0.17525
7.0601,4669,6.3516,0.17546
7.0651,4675,8.3784,0.17676
7.0701,4651,-4.0039,0.17156
7.0751,4667,4.155,0.17503
7.0801,4674,6.9487,0.17654
7.0851,4650,-5.2477,0.17134
7.0901,4644,-7.3407,0.17003
7.0951,4675,8.3505,0.17676
7.1001,4672,5.8856,0.17611
7.1051,4653,-3.8071,0.17199
7.1101,4689,13.674,0.17976
7.1151,4721,26.677,0.18654
7.1201,4720,22.719,0.18633
7.1251,4705,12.858,0.18316
7.1301,4729,22.222,0.18822
7.1351,4723,16.592,0.18696
7.1401,4725,15.371,0.18738
7.1451,4710,6.5246,0.18422
7.1501,4732,15.81,0.18884
7.1551,4723,9.6818,0.18696
7.1601,4708,1.595,0.1838
7.1651,4709,1.9356,0.18401
7.1701,4719,6.3636,0.18612
7.1751,4700,-3.1419,0.1821
7.1801,4664,-19.445,0.17438
7.1851,4683,-7.8423,0.17847
7.1901,4719,9.9418,0.18612
7.1951,4725,11.444,0.18738
7.2001,4702,-0.56502,0.18253
7.2051,4732,13.359,0.18884
7.2101,4738,14.391,0.1901
7.2151,4706,-2.0785,0.18338
7.2201,4708,-0.78506,0.1838
7.2251,4733,10.858,0.18905
7.2301,4729,7.6798,0.18822
7.2351,4706,-3.7977,0.18338
7.2401,4706,-3.1952,0.18338
7.2451,4726,6.5035,0.18759
7.2501,4714,0.23282,0.18507
7.2551,4677,-16.866,0.17719
7.2601,4690,-8.4536,0.17997
7.2651,4692,-6.3064,0.1804
7.2701,4709,2.4863,0.18401
7.2751,4701,-1.4533,0.18231
7.2801,4718,6.6529,0.18591
7.2851,4705,-0.13101,0.18316
7.2901,4672,-15.391,0.17611
7.2951,4660,-18.904,0.17351
7.3001,4675,-9.2405,0.17676
7.3051,4677,-6.9944,0.17719
7.3101,4648,-19.673,0.1709
7.3151,4649,-16.501,0.17112
7.3201,4675,-1.9597,0.17676
7.3251,4678,-0.23127,0.1774
7.3301,4648,-14.293,0.1709
7.3351,4678,1.8286,0.1774
7.3401,4680,2.5768,0.17783
7.3451,4647,-13.275,0.17068
7.3501,4654,-8.1217,0.17221
7.3551,4678,4.3207,0.1774
7.3601,4667,-1.3683,0.17503
7.3651,4652,-8.2231,0.17178
7.3701,4656,-5.1778,0.17265
7.3751,4669,1.6972,0.17546
7.3801,4673,3.3976,0.17633
7.3851,4653,-6.4434,0.17199
7.3901,4672,3.4312,0.17611
7.3951,4651,-6.8951,0.17156
7.4001,4618,-21.731,0.1643
7.4051,4606,-24.601,0.16163
7.4102,4619,-14.978,0.16452
7.4151,4625,-10.052,0.16585
7.4202,4593,-24.213,0.15872
7.4252,4610,-12.669,0.16252
7.4302,4661,13.456,0.17373
7.4351,4669,15.449,0.17546
7.4402,4639,-0.81173,0.16893
7.4452,4622,-8.8365,0.16519
7.4502,4638,0.048703,0.16871
7.4552,4601,-17.796,0.16051
7.4602,4631,-0.88904,0.16717
7.4652,4666,15.886,0.17481
7.4702,4668,14.725,0.17525
7.4752,4628,-6.2391,0.16651
7.4802,4613,-12.618,0.16319
7.4852,4625,-5.1161,0.16585
7.4902,4644,4.6862,0.17003
7.4952,4641,2.6491,0.16937
7.5002,4666,14.169,0.17481
7.5052,4667,12.769,0.17503
7.5102,4675,14.846,0.17676
7.5152,4648,0.14329,0.1709
7.5202,4680,15.243,0.17783
7.5252,4710,27.156,0.18422
7.5302,4716,26.322,0.18549
7.5352,4698,14.549,0.18168
7.5402,4703,14.965,0.18274
7.5452,4691,7.4549,0.18019
7.5502,4658,-8.9634,0.17308
7.5552,4684,4.5012,0.17869
7.5602,4719,20.135,0.18612
7.5652,4718,17.04,0.18591
7.5702,4702,7.4564,0.18253
7.5752,4726,17.546,0.18759
7.5802,4722,13.437,0.18675
7.5852,4722,11.709,0.18675
7.5902,4708,3.7856,0.1838
7.5952,4726,11.606,0.18759
7.6002,4726,10.128,0.18759
7.6052,4708,0.5932,0.1838
7.6102,4707,0.12823,0.18359
7.6152,4722,7.0748,0.18675
7.6202,4726,8.0329,0.18759
7.6252,4707,-1.6805,0.18359
7.6302,4729,8.7064,0.18822
7.6352,4731,8.5317,0.18864
7.6402,4731,7.4708,0.18864
7.6452,4702,-6.7516,0.18253
7.6502,4726,5.2557,0.18759
7.6552,4735,8.7322,0.18947
7.6602,4712,-2.8676,0.18464
7.6652,4705,-5.6283,0.18316
7.6702,4741,11.664,0.19072
7.6752,4733,6.5539,0.18905
7.6802,4704,-7.5312,0.18295
7.6852,4718,-0.002743,0.18591
7.6902,4729,5.1055,0.18822
7.6952,4726,3.1346,0.18759
7.7002,4706,-6.3819,0.18338
7.7052,4733,6.9182,0.18905
7.7102,4729,4.2516,0.18822
7.7152,4720,-0.34841,0.18633
7.7202,4709,-5.2737,0.18401
7.7252,4728,4.2176,0.18801
7.7302,4729,4.1884,0.18822
7.7352,4709,-5.456,0.18401
7.7402,4706,-6.0315,0.18338
7.7452,4724,3.1154,0.18717
7.7502,4730,5.5126,0.18843
7.7552,4706,-6.1498,0.18338
7.7602,4709,-3.8695,0.18401
7.7652,4699,-7.8959,0.18189
7.7702,4685,-13.274,0.1789
7.7752,4655,-25.532,0.17243
7.7802,4676,-12.162,0.17697
7.7852,4674,-11.415,0.17654
7.7902,4654,-19.263,0.17221
7.7952,4651,-18.06,0.17156
7.8002,4677,-3.3394,0.17719
7.8052,4673,-4.7232,0.17633
7.8102,4651,-14.432,0.17156
7.8152,4675,-1.1401,0.17676
7.8202,4674,-1.4172,0.17654
7.8252,4647,-13.943,0.17068
7.8302,4656,-7.7719,0.17265
7.8352,4669,-0.56477,0.17546
7.8402,4661,-4.2265,0.17373
7.8452,4620,-23.203,0.16474
7.8502,4624,-18.146,0.16563
7.8552,4629,-13.293,0.16673
7.8602,4661,3.7436,0.17373
7.8652,4643,-5.2789,0.16981
7.8702,4660,3.5135,0.17351
7.8752,4638,-7.3934,0.16871
7.8802,4611,-19.387,0.16275
7.8852,4600,-22.132,0.16029
7.8902,4623,-8.0158,0.16541
7.8952,4616,-10.318,0.16386
7.9002,4591,-21.107,0.15827
7.9052,4589,-19.268,0.15782
7.9102,4619,-2.0972,0.16452
7.9152,4613,-4.7261,0.16319
7.9202,4577,-21.708,0.15511
7.9252,4585,-14.878,0.15692
7.9302,4575,-17.835,0.15465
7.9352,4555,-25.41,0.15009
7.9402,4579,-10.126,0.15556
7.9452,4609,5.8777,0.1623
7.9502,4606,3.6062,0.16163
7.9552,4592,-3.735,0.15849
7.9602,4614,7.4498,0.16341
7.9652,4611,4.9742,0.16275
7.9702,4594,-3.996,0.15894
7.9752,4597,-2.0203,0.15962
7.9802,4613,6.0072,0.16319
7.9852,4611,4.2105,0.16275
7.9902,4600,-1.725,0.16029
7.9952,4612,4.3166,0.16297
8.0002,4609,2.2622,0.1623
8.0052,4618,6.2964,0.1643
8.0102,4594,-6.2339,0.15894
8.0152,4608,1.4032,0.16208
8.0202,4619,6.5215,0.16452
8.0252,4593,-7.0105,0.15872
8.0302,4588,-8.5448,0.15759
8.0352,4614,5.2498,0.16341
8.0402,4612,3.5578,0.16297
8.0452,4587,-9.135,0.15737
8.0502,4629,12.463,0.16673
8.0552,4666,28.376,0.17481
8.0602,4663,23.154,0.17416
8.0652,4650,13.897,0.17134
8.0702,4675,23.833,0.17676
8.0752,4671,18.77,0.17589
8.0802,4651,6.8216,0.17156
8.0852,4652,6.3921,0.17178
8.0902,4671,14.518,0.17589
8.0952,4673,13.528,0.17633
8.1002,4651,1.3509,0.17156
8.1052,4672,11.102,0.17611
8.1102,4670,8.6963,0.17568
8.1152,4651,-1.4211,0.17156
8.1202,4651,-1.2107,0.17156
8.1252,4671,8.4165,0.17589
8.1302,4706,23.606,0.18338
8.1352,4700,17.705,0.1821
8.1402,4724,26.405,0.18717
8.1452,4706,14.647,0.18338
8.1502,4691,5.7826,0.18019
8.1552,4661,-9.0059,0.17373
8.1602,4703,11.856,0.18274
8.1652,4722,19.048,0.18675
8.1702,4722,16.547,0.18675
8.1752,4700,4.2623,0.1821
8.1802,4726,15.693,0.18759
8.1852,4729,15.017,0.18822
8.1902,4705,2.0586,0.18316
8.1952,4732,14.215,0.18884
8.2002,4731,11.92,0.18864
8.2052,4726,8.1093,0.18759
8.2102,4708,-1.1663,0.1838
8.2152,4727,7.7661,0.1878
8.2202,4721,4.0512,0.18654
8.2252,4738,11.323,0.1901
8.2302,4768,23.383,0.1963
8.2352,4787,28.777,0.20018
8.2402,4775,19.683,0.19773
8.2452,4728,-4.0412,0.18801
8.2502,4736,0.22301,0.18968
8.2552,4732,-1.5429,0.18884
8.2602,4727,-3.5334,0.1878
8.2652,4707,-12.154,0.18359
8.2702,4743,5.9923,0.19114
8.2752,4776,20.076,0.19794
8.2802,4775,17.029,0.19773
8.2852,4757,6.788,0.19404
8.2902,4785,18.457,0.19977
8.2952,4789,17.85,0.20058
8.3002,4759,2.1959,0.19445
8.3052,4747,-3.4055,0.19197
8.3102,4758,2.0968,0.19424
8.3152,4742,-5.3047,0.19093
8.3202,4711,-18.653,0.18443
8.3252,4742,-1.9227,0.19093
8.3302,4735,-4.7549,0.18947
8.3352,4705,-17.774,0.18316
8.3402,4712,-12.092,0.18464
8.3452,4729,-2.6161,0.18822
8.3502,4716,-8.1367,0.18549
8.3552,4683,-22.25,0.17847
8.3602,4674,-23.419,0.17654
8.3652,4684,-15.548,0.17869
8.3702,4717,1.8548,0.1857
8.3752,4705,-3.857,0.18316
8.3802,4725,5.8976,0.18738
8.3852,4726,5.6227,0.18759
8.3902,4710,-2.4058,0.18422
8.3952,4705,-4.3314,0.18316
8.4002,4727,6.3996,0.1878
8.4052,4726,5.1445,0.18759
8.4102,4708,-3.7413,0.1838
8.4152,4716,0.49469,0.18549
8.4202,4697,-8.2771,0.18146
8.4252,4664,-22.542,0.17438
8.4302,4674,-14.776,0.17654
8.4352,4722,9.4798,0.18675
8.4402,4725,9.6304,0.18738
8.4452,4703,-1.7148,0.18274
8.4502,4708,0.86989,0.1838
8.4552,4736,13.611,0.18968
8.4602,4734,10.933,0.18926
8.4652,4708,-2.3757,0.1838
8.4702,4734,9.8952,0.18926
