0,4895,1360.2,0.22152
0.0049939,4905,1039.2,0.22344
0.0099928,4951,842.43,0.23215
0.014994,4949,641.1,0.23177
0.019995,4936,478.73,0.22933
0.024995,4925,360.1,0.22725
0.030023,4917,275.19,0.22573
0.034993,4895,195.45,0.22152
0.039993,4903,171.12,0.22306
0.044994,4903,143.7,0.22306
0.049994,4884,100.85,0.2194
0.054994,4898,107.74,0.2221
0.059994,4917,118.77,0.22573
0.064994,4886,68.432,0.21979
0.069994,4895,77.701,0.22152
0.074994,4909,90.524,0.22421
0.079995,4891,62.555,0.22075
0.084995,4907,81.554,0.22383
0.090017,4951,128.12,0.23215
0.094994,4946,106.49,0.23121
0.099994,4953,104.11,0.23252
0.105,4921,57.375,0.22649
0.11001,4905,40.452,0.22344
0.115,4889,27.477,0.22037
0.12,4921,74.066,0.22649
0.12499,4900,46.916,0.22248
0.12999,4884,32.106,0.2194
0.135,4900,58.697,0.22248
0.14,4917,79.689,0.22573
0.14499,4886,39.08,0.21979
0.15001,4894,54.4,0.22133
0.155,4906,70.548,0.22363
0.16,4912,75.602,0.22478
0.165,4892,48.851,0.22095
0.17,4908,71.05,0.22402
0.175,4893,51.245,0.22114
0.18,4910,73.969,0.2244
0.185,4904,64.028,0.22325
0.19,4895,52.974,0.22152
0.195,4886,44.563,0.21979
0.2,4923,92.307,0.22687
0.205,4898,55.513,0.2221
0.21,4884,40.523,0.2194
0.215,4899,63.476,0.22229
0.22,4923,91.103,0.22687
0.225,4884,37.978,0.2194
0.23,4897,59.17,0.22191
0.235,4903,66.769,0.22306
0.24,4910,73.636,0.2244
0.245,4891,48.225,0.22075
0.25,4906,69.109,0.22363
0.255,4890,48.276,0.22056
0.26,4911,76.145,0.22459
0.265,4905,65.367,0.22344
0.27,4894,51.331,0.22133
0.275,4887,45.4,0.21998
0.28,4924,92.627,0.22706
0.285,4895,50.766,0.22152
0.29,4885,41.386,0.2196
0.295,4933,102.39,0.22876
0.3,4970,134.58,0.23568
0.305,4937,78.662,0.22952
0.31,4926,61.724,0.22744
0.315,4914,47.723,0.22516
0.32,4915,52.294,0.22535
0.325,4896,32.196,0.22172
0.33,4908,53.414,0.22402
0.335,4891,35.182,0.22075
0.34,4909,62.607,0.22421
0.345,4907,59.677,0.22383
0.35,4893,43.308,0.22114
0.355,4890,43.867,0.22056
0.36,4940,106.23,0.23008
0.365,4945,100.58,0.23102
0.37,4939,83.743,0.22989
0.37501,4924,60.653,0.22706
0.38,4909,43.133,0.22421
0.385,4887,21.464,0.21998
0.39,4899,45.154,0.22229
0.395,4902,52.263,0.22287
0.4,4887,36.319,0.21998
0.405,4892,47.876,0.22095
0.41,4906,67.099,0.22363
0.415,4896,53.294,0.22172
0.42,4904,64.071,0.22325
0.42503,4973,142.5,0.23624
0.43,4944,88.81,0.23083
0.435,4961,101.18,0.23401
0.44,4922,46.078,0.22668
0.445,4906,30.848,0.22363
0.45,4889,17.949,0.22037
0.455,4961,111.93,0.23401
0.46,4953,89.837,0.23252
0.465,4934,60.548,0.22895
0.47,4925,49.951,0.22725
0.47502,4920,46.555,0.2263
0.48,4895,20.425,0.22152
0.485,4896,31.152,0.22172
0.49,4912,56.752,0.22478
0.495,4912,57.178,0.22478
0.5,4889,30.389,0.22037
0.505,4910,61.965,0.2244
0.51,4896,44.504,0.22172
0.515,4894,45.415,0.22133
0.52,4942,104.45,0.23046
0.52503,4945,96.405,0.23102
0.53,4938,78.914,0.22971
0.53504,4957,95.737,0.23327
0.54,4955,84.337,0.23289
0.545,4937,57.385,0.22952
0.55,4978,104.75,0.23716
0.55501,4962,75.358,0.2342
0.56001,4942,48.521,0.23046
0.56501,4951,61.598,0.23215
0.57,4986,100.92,0.23864
0.57501,4947,46.302,0.2314
0.58,4930,29.959,0.2282
0.58501,4922,27.9,0.22668
0.59001,4913,25.031,0.22497
0.59501,4899,16.821,0.22229
0.60001,4946,81.696,0.23121
0.60501,4945,74.657,0.23102
0.61001,4940,64.779,0.23008
0.61501,4922,42.237,0.22668
0.62001,4906,27.375,0.22363
0.62503,4884,8.8206,0.2194
0.63001,4900,39.603,0.22248
0.63501,4901,44.948,0.22268
0.64001,4884,27.638,0.2194
0.64501,4910,65.289,0.2244
0.65001,4903,54.733,0.22306
0.65501,4889,38.465,0.22037
0.66001,4888,41.498,0.22018
0.66501,4927,90.678,0.22763
0.67001,4890,38.593,0.22056
0.67501,4887,39.187,0.21998
0.68001,4902,60.843,0.22287
0.68501,4912,71.157,0.22478
0.69001,4885,35.378,0.2196
0.69501,4903,61.483,0.22306
0.70001,4895,50.429,0.22152
0.70501,4881,34.92,0.21882
0.71001,4899,61.077,0.22229
0.71501,4901,61.806,0.22268
0.72001,4882,37.526,0.21902
0.72503,4895,57.072,0.22152
0.73001,4903,65.795,0.22306
0.73501,4885,41.68,0.2196
0.74001,4890,50.678,0.22056
0.74501,4903,66.835,0.22306
0.75001,4888,45.962,0.22018
0.75501,4889,49.113,0.22037
0.76001,4904,67.969,0.22325
0.76501,4892,50.331,0.22095
0.77001,4886,44.077,0.21979
0.77501,4903,66.515,0.22306
0.78001,4898,57.449,0.2221
0.78501,4885,41.132,0.2196
0.79001,4935,102.79,0.22914
0.79501,4956,114.89,0.23308
0.80001,4935,75.788,0.22914
0.80501,4925,58.996,0.22725
0.81001,4914,45.132,0.22516
0.81501,4891,20.427,0.22075
0.82001,4893,31.148,0.22114
0.82504,4906,52.081,0.22363
0.83001,4891,34.807,0.22075
0.83501,4904,54.754,0.22325
0.84001,4946,103.28,0.23121
0.84501,4940,84.142,0.23008
0.85001,4936,72.111,0.22933
0.85501,4921,50.3,0.22649
0.86001,4902,29.028,0.22287
0.86501,4909,43.41,0.22421
0.87001,4903,38.913,0.22306
0.87501,4902,41.339,0.22287
0.88001,4885,24.196,0.2196
0.88501,4895,43.127,0.22152
0.89001,4906,58.44,0.22363
0.89501,4892,40.506,0.22095
0.90001,4916,71.679,0.22554
0.90501,4908,57.589,0.22402
0.91001,4895,41.053,0.22152
0.91501,4891,39.136,0.22075
0.92001,4910,64.744,0.2244
0.92504,4893,41.643,0.22114
0.93001,4886,35.938,0.21979
0.93501,4905,62.304,0.22344
0.94001,4898,51.483,0.2221
0.94501,4883,33.811,0.21921
0.95001,4923,85.252,0.22687
0.95501,4904,54.755,0.22325
0.96001,4881,26.84,0.21882
0.96501,4910,67.184,0.2244
0.97001,4905,57.46,0.22344
0.97501,4887,34.768,0.21998
0.98002,4891,43.614,0.22075
0.98501,4926,86.55,0.22744
0.99001,4889,34.462,0.22037
0.99501,4891,40.999,0.22075
1,4930,89.207,0.2282
1.005,4891,34.168,0.22075
1.01,4887,33.657,0.21998
1.015,4903,56.838,0.22306
1.02,4895,45.957,0.22152
1.025,4906,60.123,0.22363
1.03,4899,49.603,0.22229
1.035,4924,79.188,0.22706
1.04,4882,22.829,0.21902
1.045,4897,47.495,0.22191
1.05,4902,54.156,0.22287
1.055,4889,37.922,0.22037
1.06,4893,45.737,0.22114
1.065,4903,58.647,0.22306
1.07,4889,40.052,0.22037
1.075,4891,44.91,0.22075
1.08,4904,61.499,0.22325
1.085,4896,49.243,0.22172
1.09,4888,39.966,0.22018
1.095,4905,62.465,0.22344
1.1,4894,46.392,0.22133
1.105,4889,41.321,0.22037
1.11,4906,63.431,0.22363
1.115,4895,47.086,0.22152
1.12,4890,41.809,0.22056
1.125,4902,57.877,0.22287
1.13,4902,55.812,0.22287
1.135,4891,41.281,0.22075
1.14,4908,63.321,0.22402
1.145,4907,58.725,0.22383
1.15,4898,45.865,0.2221
1.155,4899,47.931,0.22229
1.16,4907,57.698,0.22383
1.165,4896,42.697,0.22172
1.17,4878,22.982,0.21824
1.175,4909,66.037,0.22421
1.18,4902,53.604,0.22287
1.185,4893,41.858,0.22114
1.19,4891,41.234,0.22075
1.195,4907,61.95,0.22383
1.2,4890,38.662,0.22056
1.205,4907,61.178,0.22383
1.21,4897,46.332,0.22191
1.215,4895,44.548,0.22152
1.22,4903,54.969,0.22306
1.225,4889,36.859,0.22037
1.23,4892,43.261,0.22095
1.235,4899,52.761,0.22229
1.24,4910,64.572,0.2244
1.245,4879,23.944,0.21843
1.25,4898,52.42,0.2221
1.255,4919,75.966,0.22611
1.26,4903,50.371,0.22306
1.265,4891,35.694,0.22075
1.27,4912,63.477,0.22478
1.275,4902,47.952,0.22287
1.28,4874,14.813,0.21746
1.285,4879,28.909,0.21843
1.29,4877,31.102,0.21805
1.295,4877,35.07,0.21805
1.3,4857,14.052,0.21415
1.305,4876,44.841,0.21785
1.31,4882,52.368,0.21902
1.315,4872,38.975,0.21707
1.32,4875,44.36,0.21766
1.325,4879,49.578,0.21843
1.33,4875,43.967,0.21766
1.335,4861,27.732,0.21493
1.34,4883,58.491,0.21921
1.345,4877,48.234,0.21805
1.35,4879,50.033,0.21843
1.355,4880,50.192,0.21863
1.36,4876,44.357,0.21785
1.365,4878,47.096,0.21824
1.37,4864,30.031,0.21551
1.375,4880,52.978,0.21863
1.38,4878,48.756,0.21824
1.385,4881,51.527,0.21882
1.39,4860,24.939,0.21473
1.395,4877,50.312,0.21805
1.4,4879,51.439,0.21843
1.405,4867,35.582,0.2161
1.41,4871,42.724,0.21688
1.415,4886,61.152,0.21979
1.42,4878,47.68,0.21824
1.425,4855,19.495,0.21375
1.43,4880,55.687,0.21863
1.435,4880,53.001,0.21863
1.44,4875,45.035,0.21766
1.445,4854,19.802,0.21356
1.45,4875,51.095,0.21766
1.455,4879,54.229,0.21843
1.46,4880,53.026,0.21863
1.465,4877,47.371,0.21805
1.47,4879,49.065,0.21843
1.475,4875,43.191,0.21766
1.48,4855,19.544,0.21375
1.485,4878,53.195,0.21824
1.49,4879,52.164,0.21843
1.495,4879,50.208,0.21843
1.5,4873,41.587,0.21727
1.505,4874,43.427,0.21746
1.51,4878,48.371,0.21824
1.515,4860,25.785,0.21473
1.52,4873,45.834,0.21727
1.525,4871,42.948,0.21688
1.53,4874,46.733,0.21746
1.535,4780,-68.899,0.19875
1.54,4755,-72.848,0.19362
1.545,4765,-32.038,0.19568
1.55,4746,-38.296,0.19176
1.555,4744,-21.716,0.19134
1.56,4765,19.744,0.19568
1.565,4743,-3.6701,0.19114
1.57,4703,-45.075,0.18274
1.575,4587,-180.7,0.15737
1.58,4464,-303.69,0.12869
1.585,4365,-371.75,0.10417
1.59,4255,-451.02,0.075276
1.595,4188,-448.35,0.056763
1.6,4127,-441.51,0.039265
1.605,4116,-350.09,0.036043
1.61,4108,-277.08,0.033685
1.615,4090,-241.33,0.02834
1.62,4065,-228.52,0.020821
1.625,4049,-203.3,0.015948
1.63,4031,-189.01,0.01041
1.635,4009,-186.86,0.003559
1.64,3997,-166.88,-0.000217
1.645,3974,-174.05,-0.007533
1.65,3959,-164.64,-0.01236
1.655,3967,-112.52,-0.00978
1.66,3968,-87.454,-0.009458
1.665,3941,-124.52,-0.018212
1.67,3928,-125.16,-0.022479
1.675,3900,-156.91,-0.031788
1.68,3882,-161.31,-0.03786
1.685,3847,-201.46,-0.049864
1.69,3821,-214.31,-0.058957
1.695,3806,-201.33,-0.064272
1.7,3794,-185.77,-0.068561
1.705,3783,-172.5,-0.072521
1.71,3781,-143.05,-0.073244
1.715,3781,-116.76,-0.073244
1.72,3786,-86.124,-0.071438
1.725,3785,-76.512,-0.071799
1.73,3786,-64.954,-0.071438
1.735,3793,-43.074,-0.068919
1.74,3789,-50.909,-0.070357
1.745,3774,-81.31,-0.075783
1.75,3768,-84.401,-0.077968
1.755,3754,-104.94,-0.0831
1.76,3737,-127.72,-0.089394
1.765,3737,-106.46,-0.089394
1.77,3739,-86.07,-0.08865
1.775,3716,-128.33,-0.097267
1.78,3741,-49.985,-0.087907
1.785,3733,-66.809,-0.090885
1.79,3714,-105.06,-0.098023
1.795,3801,106.11,-0.066055
1.8,3827,125.7,-0.056845
1.805,3819,67.125,-0.059663
1.81,3826,55.829,-0.057197
1.815,3865,115.62,-0.043657
1.82,3841,27.034,-0.051949
1.825,3831,-9.9423,-0.055442
1.83,3824,-31.322,-0.0579
1.835,3810,-62.68,-0.062849
1.84,3777,-128.68,-0.074694
1.845,3802,-50.644,-0.065698
1.85,3799,-53.782,-0.066769
1.855,3788,-73.843,-0.070717
1.86,3812,-12.127,-0.06214
1.865,3845,52.832,-0.050559
1.87,3842,24.474,-0.051601
1.875,3828,-20.307,-0.056494
1.88,3839,-0.27613,-0.052646
1.885,3852,18.992,-0.048133
1.89,3878,60.687,-0.039218
1.895,3883,48.036,-0.03752
1.9,3898,59.421,-0.032459
1.905,3922,86.311,-0.02446
1.91,3940,94.142,-0.018539
1.915,3940,64.055,-0.018539
1.92,3969,99.431,-0.009137
1.925,4007,142.8,0.002931
1.93,4008,103.77,0.003245
1.935,4007,70.94,0.002931
1.94,4066,160.15,0.021124
1.945,4084,149.4,0.026546
1.95,4072,86.381,0.022937
1.955,4088,90.938,0.027743
1.96,4095,78.002,0.029831
1.965,4085,37.396,0.026845
1.97,4114,78.188,0.035454
1.975,4138,99.352,0.042467
1.98,4140,76.108,0.043047
1.985,4146,65.975,0.044783
1.99,4158,69.12,0.048236
1.995,4153,41.7,0.0468
2,4159,40.607,0.048523
2.005,4156,24.066,0.047662
2.01,4175,50.297,0.053086
2.015,4175,36.894,0.053086
2.02,4173,23.445,0.052518
2.025,4155,-14.682,0.047375
2.03,4166,7.5161,0.050525
2.035,4172,15.407,0.052234
2.04,4174,14.395,0.052802
2.045,4169,1.4622,0.05138
2.05,4178,16.18,0.053937
2.055,4178,11.608,0.053937
2.06,4157,-28.555,0.047949
2.065,4177,12.942,0.053654
2.07,4180,14.401,0.054504
2.075,4158,-28.152,0.048236
2.08,4158,-21.761,0.048236
2.085,4176,14.512,0.05337
2.09,4172,3.3549,0.052234
2.095,4158,-22.592,0.048236
2.1,4177,15.639,0.053654
2.105,4181,18.148,0.054787
2.11,4158,-27.079,0.048236
2.115,4162,-13.925,0.049382
2.12,4180,20.353,0.054504
2.125,4181,16.499,0.054787
2.13,4160,-24.782,0.048809
2.135,4181,17.495,0.054787
2.14,4187,23.064,0.056481
2.145,4158,-33.697,0.048236
2.15,4190,29.939,0.057326
2.155,4183,9.9807,0.055352
2.16,4161,-31.295,0.049095
2.165,4160,-25.78,0.048809
2.17,4189,30.621,0.057044
2.1751,4172,-6.9488,0.052234
2.18,4158,-30.239,0.048236
2.185,4189,30.785,0.057044
2.19,4186,17.521,0.056199
2.195,4162,-29.067,0.049382
2.2,4167,-13.572,0.05081
2.205,4184,18.906,0.055635
2.21,4182,10.311,0.055069
2.215,4165,-22.307,0.050239
2.22,4184,15.877,0.055635
2.225,4177,-0.63092,0.053654
2.23,4163,-25.36,0.049668
2.235,4163,-19.561,0.049668
2.24,4186,24.853,0.056199
2.245,4163,-21.856,0.049668
2.25,4163,-16.955,0.049668
2.255,4184,23.325,0.055635
2.26,4183,15.336,0.055352
2.265,4161,-27.303,0.049095
2.27,4184,19.107,0.055635
2.2751,4160,-27.971,0.048809
2.28,4163,-16.289,0.049668
2.285,4158,-21.603,0.048236
2.29,4183,26.824,0.055352
2.295,4180,14.445,0.054504
2.3,4159,-26.332,0.048523
2.305,4172,2.427,0.052234
2.31,4182,18.702,0.055069
2.315,4182,13.599,0.055069
2.32,4158,-32.15,0.048236
2.325,4174,3.3344,0.052802
2.33,4176,5.4968,0.05337
2.335,4158,-27.862,0.048236
2.34,4340,282.57,0.097761
2.345,4568,552.45,0.15306
2.35,4655,536.5,0.17243
2.355,4743,522.05,0.19114
2.36,4760,419.43,0.19465
2.365,4754,314.22,0.19342
2.37,4811,314.79,0.20502
2.375,4832,270.55,0.20921
2.38,4820,197.56,0.20682
2.385,4834,174.91,0.20961
2.39,4846,155.73,0.21198
2.395,4831,108.84,0.20901
2.4,4828,88.33,0.20842
2.405,4846,98.575,0.21198
2.41,4833,68.77,0.20941
2.415,4841,71.928,0.211
2.42,4887,119.83,0.21998
2.425,4885,98.539,0.2196
2.43,4878,76.723,0.21824
2.435,4856,42.37,0.21395
2.44,4847,31.989,0.21218
2.445,4833,17.996,0.20941
2.45,4828,18.274,0.20842
2.455,4855,57.248,0.21375
2.46,4833,27.187,0.20941
2.465,4826,22.621,0.20802
2.47,4845,50.775,0.21179
2.475,4847,51.268,0.21218
2.48,4850,52.856,0.21277
2.485,4827,22.496,0.20822
2.49,4845,49.423,0.21179
2.495,4846,49.001,0.21198
2.5,4825,21.925,0.20782
2.505,4841,46.527,0.211
2.51,4844,49.178,0.21159
2.515,4847,51.175,0.21218
2.52,4826,23.517,0.20802
2.525,4846,52.51,0.21198
2.53,4844,47.588,0.21159
2.535,4826,24.401,0.20802
2.54,4841,47.069,0.211
2.545,4844,49.492,0.21159
2.55,4847,51.319,0.21218
2.555,4829,27.201,0.20862
2.5601,4842,46.692,0.21119
2.5651,4841,44.325,0.211
2.5701,4844,47.39,0.21159
2.575,4848,50.903,0.21238
2.58,4844,43.877,0.21159
2.585,4846,45.847,0.21198
2.59,4824,18.129,0.20762
2.595,4848,53.165,0.21238
2.6001,4849,51.558,0.21257
2.605,4842,40.682,0.21119
2.61,4842,40.959,0.21119
2.6151,4853,54.456,0.21336
2.62,4837,31.956,0.2102
2.6251,4825,19.726,0.20782
2.6301,4847,51.846,0.21218
2.6351,4848,50.476,0.21238
2.6401,4847,47.042,0.21218
2.6451,4836,32.326,0.21001
2.6501,4851,52.739,0.21297
2.6551,4845,42.684,0.21179
2.6601,4817,8.2166,0.20622
2.6651,4826,27.352,0.20802
2.6701,4808,8.5556,0.20442
2.6751,4806,13.946,0.20402
2.6801,4783,-8.1977,0.19936
2.6851,4788,9.8037,0.20038
2.6901,4682,-118.81,0.17826
2.6951,4521,-301.53,0.14222
2.7001,4390,-413.55,0.11049
2.7051,4279,-480.93,0.081736
2.7101,4193,-501.3,0.058169
2.7151,4117,-507.56,0.036336
2.7201,4090,-428.88,0.02834
2.7251,4069,-360.65,0.022031
2.7301,4034,-337.33,0.011337
2.7351,4024,-274.16,0.00824
2.7401,4023,-210.32,0.007929
2.7451,4020,-166.73,0.006996
2.7501,4012,-143.99,0.004499
2.7551,4001,-133.16,0.001045
2.7601,3980,-145.03,-0.005614
2.7651,3954,-164.82,-0.013979
2.7701,3909,-219.66,-0.028778
2.7751,3881,-228.48,-0.038199
2.7801,3855,-232.53,-0.047097
2.7851,3851,-190.05,-0.048479
2.7901,3852,-147.96,-0.048133
2.7951,3841,-142.2,-0.051949
2.8001,3830,-138.36,-0.055792
2.8051,3816,-142.46,-0.060723
2.8101,3796,-159.31,-0.067843
2.8151,3786,-150.71,-0.071438
2.8201,3790,-113.65,-0.069998
2.8251,3786,-103.69,-0.071438
2.8301,3770,-123.14,-0.077239
2.8351,3757,-131.62,-0.081996
2.8401,3737,-154.48,-0.089394
2.8451,3723,-158.74,-0.094631
2.8501,3729,-116.31,-0.092381
2.8551,3724,-109.92,-0.094255
2.8601,3721,-100.71,-0.095383
2.8651,3758,-2.5681,-0.081629
2.8701,3774,22.857,-0.075783
2.8751,3787,35.199,-0.071078
2.8801,3782,4.7634,-0.072883
2.8851,3777,-18.014,-0.074694
2.8901,3796,18.114,-0.067843
2.8951,3779,-34.181,-0.073969
2.9001,3747,-107.81,-0.085683
2.9051,3753,-77.865,-0.083468
2.9101,3771,-28.548,-0.076874
2.9151,3829,95.415,-0.056143
2.9201,3819,40.204,-0.059663
2.9251,3834,52.892,-0.054392
2.9301,3824,8.8242,-0.0579
2.9351,3793,-70.297,-0.068919
2.9401,3781,-88.807,-0.073244
2.9451,3803,-27.791,-0.065341
2.9501,3790,-58.964,-0.069998
2.9551,3771,-96.098,-0.076874
2.9601,3774,-75.273,-0.075783
2.9651,3800,-8.8662,-0.066412
2.9701,3769,-85.053,-0.077603
2.9751,3819,36.371,-0.059663
2.9801,3890,168.3,-0.035153
2.9851,3879,94.823,-0.038878
2.9901,3894,93.976,-0.033804
2.9951,3947,170.34,-0.016254
3.0001,3950,126.65,-0.015278
3.0051,3956,100.22,-0.013331
3.0101,4001,157.04,0.001045
3.0151,4013,135.21,0.004811
3.0201,4012,94.232,0.004499
3.0251,4016,73.354,0.005749
3.0301,4025,67.465,0.008551
3.0351,4014,25.058,0.005124
3.0401,4087,151.38,0.027444
3.0451,4137,200.34,0.042177
3.0501,4133,140.24,0.041015
3.0551,4166,161.02,0.050525
3.0601,4202,181.2,0.060691
3.0651,4196,124.23,0.059011
3.0701,4195,90.357,0.058731
3.0751,4207,87.486,0.062086
3.0801,4206,63.29,0.061808
3.0851,4205,45.287,0.061529
3.0901,4203,30.171,0.06097
3.0951,4204,24.038,0.06125
3.1001,4190,-6.3042,0.057326
3.1051,4207,24.172,0.062086
3.1101,4209,21.369,0.062643
3.1151,4210,17.617,0.062921
3.1201,4189,-22.944,0.057044
3.1251,4214,25.465,0.064033
3.1301,4211,13.94,0.063199
3.1351,4209,7.0135,0.062643
3.1401,4210,6.948,0.062921
3.1451,4207,0.083864,0.062086
3.1501,4208,1.7584,0.062365
3.1551,4192,-26.171,0.057888
3.1601,4215,19.651,0.06431
3.1651,4215,14.757,0.06431
3.1701,4191,-30.037,0.057607
3.1751,4191,-22.672,0.057607
3.1801,4215,23.958,0.06431
3.1851,4203,-2.5483,0.06097
3.1901,4191,-22.641,0.057607
3.1951,4209,13.746,0.062643
3.2001,4214,18.776,0.064033
3.2051,4191,-25.366,0.057607
3.2101,4201,-1.9815,0.060412
3.2151,4212,17.214,0.063477
3.2201,4197,-12.816,0.059292
3.2251,4191,-20.089,0.057607
3.2301,4211,19.059,0.063199
3.2351,4217,24.458,0.064864
3.2401,4191,-26.187,0.057607
3.2451,4209,11.112,0.062643
3.2501,4209,8.2874,0.062643
3.2551,4194,-19.556,0.05845
3.2601,4224,36.448,0.0668
3.2651,4555,538.84,0.15009
3.2701,4660,550.84,0.17351
3.2751,4667,426.99,0.17503
3.2801,4747,429.74,0.19197
3.2851,4773,361.93,0.19732
3.2901,4749,248.71,0.19238
3.2951,4803,262.25,0.20341
3.3001,4838,248.31,0.2104
3.3051,4828,183.37,0.20842
3.3101,4819,136.11,0.20662
3.3151,4847,145.97,0.21218
3.3201,4831,100.15,0.20901
3.3251,4843,99.877,0.21139
3.3301,4889,140.37,0.22037
3.3351,4883,108.88,0.21921
3.3401,4880,88.932,0.21863
3.3451,4900,101.29,0.22248
3.3501,4894,79.999,0.22133
3.3551,4884,59.306,0.2194
3.3601,4898,72.182,0.2221
3.3651,4895,61.833,0.22152
3.3701,4890,51.712,0.22056
3.3751,4899,60.649,0.22229
3.3801,4907,66.185,0.22383
3.3851,4876,24.316,0.21785
3.3901,4879,32.988,0.21843
3.3951,4872,27.541,0.21707
3.4001,4867,25.746,0.2161
3.4051,4862,24.31,0.21512
3.4101,4868,36.346,0.2163
3.4151,4865,34.578,0.21571
3.4201,4844,11.492,0.21159
3.4251,4869,49.423,0.21649
3.4301,4863,40.677,0.21532
3.4351,4844,18.356,0.21159
3.4401,4864,48.496,0.21551
3.4451,4863,45.867,0.21532
3.4501,4861,42.683,0.21493
3.4551,4845,23.379,0.21179
3.4601,4860,46.179,0.21473
3.4651,4867,53.633,0.2161
3.4701,4843,21.946,0.21139
3.4751,4873,63.043,0.21727
3.4801,4871,55.53,0.21688
3.4851,4860,39.11,0.21473
3.4901,4848,25.451,0.21238
3.4951,4870,56.032,0.21669
3.5001,4860,40.626,0.21473
3.5051,4864,45.809,0.21551
3.5101,4847,24.425,0.21218
3.5151,4862,46.828,0.21512
3.5201,4865,49.206,0.21571
3.5251,4860,41.404,0.21473
3.5301,4868,51.117,0.2163
3.5351,4862,41.651,0.21512
3.5401,4867,47.705,0.2161
3.5451,4844,18.562,0.21159
3.5501,4863,47.171,0.21532
3.5551,4870,54.174,0.21669
3.5601,4848,24.628,0.21238
3.5651,4732,-115.7,0.18884
3.5701,4731,-78.552,0.18864
3.5751,4728,-53.543,0.18801
3.5801,4701,-66.117,0.18231
3.5851,4654,-102.98,0.17221
3.5901,4557,-202.1,0.15055
3.5951,4414,-353.6,0.11648
3.6001,4278,-474.5,0.081468
3.6051,4200,-483.02,0.060132
3.6101,4129,-484.48,0.039849
3.6151,4080,-451.59,0.025346
3.6201,4068,-361.39,0.021729
3.6251,4043,-319.2,0.014109
3.6301,3999,-325.72,0.000414
3.6351,3995,-255.25,-0.000849
3.6401,3968,-248.07,-0.009458
3.6451,3961,-204.36,-0.011714
3.6501,3966,-148.29,-0.010102
3.6551,3955,-138.21,-0.013655
3.6601,3946,-127.12,-0.01658
3.6651,3941,-111.15,-0.018212
3.6701,3919,-133.84,-0.025453
3.6751,3908,-129.23,-0.029112
3.6801,3888,-144.85,-0.035828
3.6851,3866,-161.68,-0.043315
3.6901,3850,-162.6,-0.048825
3.6951,3800,-237.84,-0.066412
3.7001,3769,-255.8,-0.077603
3.7051,3738,-271.36,-0.089022
3.7101,3760,-163.75,-0.080895
3.7151,3775,-99.448,-0.07542
3.7201,3776,-82.622,-0.075056
3.7251,3772,-81.234,-0.07651
3.7301,3787,-38.015,-0.071078
3.7351,3781,-52.137,-0.073244
3.7401,3775,-62.833,-0.07542
3.7451,3767,-75.465,-0.078333
3.7501,3749,-107.76,-0.084944
3.7551,3736,-121.27,-0.089767
3.7601,3774,-16.177,-0.075783
3.7651,3779,-11.738,-0.073969
3.7701,3792,9.366,-0.069279
3.7751,3760,-74.706,-0.080895
3.7801,3745,-100.67,-0.086423
3.7851,3724,-134.5,-0.094255
3.7901,3710,-144.56,-0.099537
3.7951,3699,-145.68,-0.10372
3.8001,3673,-182.59,-0.11373
3.8051,3731,-13.587,-0.091633
3.8101,3754,30.377,-0.0831
3.8151,3760,24.848,-0.080895
3.8201,3784,61.009,-0.07216
3.8251,3796,61.423,-0.067843
3.8301,3780,0.17706,-0.073606
3.8351,3800,33.8,-0.066412
3.8401,3837,95.404,-0.053344
3.8451,3826,38.279,-0.057197
3.8501,3819,4.0639,-0.059663
3.8551,3867,96.083,-0.042972
3.8601,3897,125.73,-0.032795
3.8651,3889,69.508,-0.03549
3.8701,3928,123.97,-0.022479
3.8751,3950,129.75,-0.015278
3.8801,3953,96.358,-0.014303
3.8851,3973,105.24,-0.007853
3.8901,4015,154.33,0.005436
3.8951,4010,100.61,0.003872
3.9001,4034,116.02,0.011337
3.9051,4083,173.73,0.026246
3.9101,4085,129.88,0.026845
3.9151,4087,97.342,0.027444
3.9201,4129,145.7,0.039849
3.9251,4135,117.13,0.041596
3.9301,4131,78.152,0.040432
3.9351,4182,146.12,0.055069
3.9401,4199,137.22,0.059852
3.9451,4193,91.275,0.058169
3.9501,4192,65.607,0.057888
3.9551,4196,55.131,0.059011
3.9601,4180,12.858,0.054504
3.9651,4201,45.057,0.060412
3.9701,4201,33.155,0.060412
3.9751,4183,-6.7552,0.055352
3.9801,4203,28.768,0.06097
3.9851,4203,21.093,0.06097
3.9901,4184,-17.373,0.055635
3.9951,4182,-17.066,0.055069
4.0001,4202,21.107,0.060691
4.0051,4200,11.947,0.060132
4.0101,4180,-26.025,0.054504
4.0151,4203,19.598,0.06097
4.0201,4206,19.422,0.061808
4.0251,4178,-34.11,0.053937
4.0301,4197,6.7193,0.059292
4.0351,4205,18.321,0.061529
4.0401,4202,8.234,0.060691
4.0451,4179,-33.911,0.05422
4.0501,4205,18.885,0.061529
4.0551,4201,6.9384,0.060412
4.0601,4224,44.059,0.0668
4.0651,4513,484.48,0.14035
4.0701,4596,482.66,0.15939
4.0751,4643,429.74,0.16981
4.0801,4704,407.9,0.18295
4.0851,4707,315.87,0.18359
4.0901,4706,242.31,0.18338
4.0951,4761,259.42,0.19486
4.1001,4771,215.09,0.19691
4.1051,4764,160.86,0.19548
4.1101,4808,184.16,0.20442
4.1151,4829,173,0.20862
4.1201,4820,128.22,0.20682
4.1251,4858,151.97,0.21434
4.1301,4889,161.02,0.22037
4.1351,4881,121.68,0.21882
4.1401,4885,106.56,0.2196
4.1451,4894,101.28,0.22133
4.1501,4888,79.707,0.22018
4.1551,4893,76.596,0.22114
4.1601,4902,79.04,0.22287
4.1651,4893,59.741,0.22114
4.1701,4887,48.768,0.21998
4.1751,4866,22.585,0.21591
4.1801,4854,13.417,0.21356
4.1851,4829,-9.4914,0.20862
4.1901,4846,24.096,0.21198
4.1951,4856,40.705,0.21395
4.2001,4847,30.246,0.21218
4.2051,4830,12.536,0.20882
4.2101,4850,44.047,0.21277
4.2151,4851,44.675,0.21297
4.2201,4832,20.886,0.20921
4.2251,4854,52.633,0.21356
4.2301,4854,49.87,0.21356
4.2351,4851,44.184,0.21297
4.2401,4829,16.812,0.20862
4.2451,4848,45.926,0.21238
4.2501,4849,45.956,0.21257
4.2551,4829,20.478,0.20862
4.2601,4848,48.614,0.21238
4.2651,4846,44.289,0.21198
4.2701,4846,43.452,0.21198
4.2751,4848,45.237,0.21238
4.2801,4849,45.37,0.21257
4.2851,4847,41.845,0.21218
4.2901,4831,22.166,0.20901
4.2951,4859,60.636,0.21454
4.3001,4849,43.663,0.21257
4.3051,4855,50.185,0.21375
4.3101,4856,49.073,0.21395
4.3151,4848,37.39,0.21238
4.3201,4849,39.44,0.21257
4.3251,4831,17.904,0.20901
4.3301,4850,46.536,0.21277
4.3351,4852,47.436,0.21316
4.3401,4849,42.085,0.21257
4.3451,4849,41.675,0.21257
4.3501,4845,36.519,0.21179
4.3551,4839,30.178,0.2106
4.3601,4801,-13.964,0.20301
4.3651,4715,-109.62,0.18528
4.3701,4571,-266.78,0.15375
4.3751,4432,-393.92,0.12091
4.3801,4293,-506.95,0.085463
4.3851,4238,-466.92,0.070647
4.3901,4188,-432.55,0.056763
4.3951,4118,-446.41,0.03663
4.4001,4089,-387.34,0.028042
4.4051,4046,-371.24,0.015029
4.4101,4028,-314.41,0.009481
4.4151,4033,-229.03,0.011029
4.4201,4026,-188.26,0.008861
4.4251,4011,-173.52,0.004185
4.4301,4002,-151.55,0.001359
4.4351,3987,-147.21,-0.003385
4.4401,3967,-154.46,-0.00978
4.4451,3918,-219.33,-0.025785
4.4501,3889,-230.05,-0.03549
4.4551,3860,-239.83,-0.045374
4.4601,3873,-159.8,-0.040921
4.4651,3894,-83.627,-0.033804
4.4701,3889,-80.523,-0.03549
4.4751,3867,-113.92,-0.042972
4.4801,3840,-150.61,-0.052298
4.4851,3806,-194.82,-0.064272
4.4901,3783,-205.7,-0.072521
4.4951,3772,-188.23,-0.07651
4.5001,3745,-211.91,-0.086423
4.5051,3735,-192.18,-0.090139
4.5101,3734,-157.26,-0.090512
4.5151,3736,-124.45,-0.089767
4.5201,3723,-134.44,-0.094631
4.5251,3711,-140.15,-0.099158
4.5301,3694,-156.67,-0.10563
4.5351,3682,-158,-0.11025
4.5401,3672,-154.77,-0.11412
4.5451,3677,-116.95,-0.11218
4.5501,3674,-107.73,-0.11334
4.5551,3691,-53.52,-0.10678
4.5601,3707,-15.51,-0.10067
4.5651,3728,24.334,-0.092755
4.5701,3728,5.9244,-0.092755
4.5751,3720,-26.188,-0.095759
4.5801,3719,-34.131,-0.096136
4.5851,3740,10.511,-0.088278
4.5901,3795,119.31,-0.068202
4.5951,3816,124.34,-0.060723
4.6001,3840,134.46,-0.052298
4.6051,3803,10.8,-0.065341
4.6101,3795,-19.544,-0.068202
4.6151,3807,1.5864,-0.063916
4.6201,3802,-19.635,-0.065698
4.6251,3782,-68.704,-0.072883
4.6301,3792,-39.45,-0.069279
4.6351,3838,60.426,-0.052995
4.6401,3900,166.11,-0.031788
4.6451,3868,49.467,-0.04263
4.6501,3911,117.69,-0.028112
4.6551,3955,169.11,-0.013655
4.6601,3935,79.603,-0.020177
4.6651,3945,72.735,-0.016906
4.6701,3963,83.64,-0.011068
4.6751,3962,54.365,-0.011391
4.6801,3937,-15.346,-0.019521
4.6851,3996,98.749,-0.000533
4.6901,4013,101.2,0.004811
4.6951,4010,64.845,0.003872
4.7001,4079,173.53,0.025046
4.7051,4131,220.37,0.040432
4.7101,4140,177.91,0.043047
4.7151,4148,144.7,0.04536
4.7201,4171,146.45,0.051949
4.7251,4171,107.79,0.051949
4.7301,4167,72.058,0.05081
4.7351,4180,75.099,0.054504
4.7401,4167,32.277,0.05081
4.7451,4169,26.358,0.05138
4.7501,4171,21.999,0.051949
4.7551,4176,24.03,0.05337
4.7601,4168,2.9545,0.051095
4.7651,4167,-0.6587,0.05081
4.7701,4153,-26.232,0.0468
4.7751,4174,15.935,0.052802
4.7801,4169,2.1378,0.05138
4.7851,4168,-1.2379,0.051095
4.7901,4157,-21.332,0.047949
4.7951,4179,21.321,0.05422
4.8001,4180,16.724,0.054504
4.8051,4158,-26.893,0.048236
4.8101,4177,11.973,0.053654
4.8151,4181,14.954,0.054787
4.8201,4187,20.704,0.056481
4.8251,4441,423.84,0.12312
4.8301,4607,557.14,0.16185
4.8351,4647,475.46,0.17068
4.8401,4643,355.83,0.16981
4.8451,4701,348.99,0.18231
4.8501,4719,291.42,0.18612
4.8551,4702,203.49,0.18253
4.8601,4751,222.97,0.1928
4.8651,4770,199.18,0.19671
4.8701,4759,143.88,0.19445
4.8751,4833,208.36,0.20941
4.8801,4873,213.76,0.21727
4.8851,4865,160.52,0.21571
4.8901,4899,170.82,0.22229
4.8951,4946,193.29,0.23121
4.9001,4937,145.5,0.22952
4.9051,4932,114.44,0.22858
4.9101,4914,76.103,0.22516
4.9151,4903,55.401,0.22306
4.9201,4888,35.038,0.22018
4.9251,4869,14.761,0.21649
4.9301,4848,-3.2319,0.21238
4.9351,4824,-20.862,0.20762
4.9401,4833,5.8544,0.20941
4.9451,4831,12.403,0.20901
4.9501,4815,0.072254,0.20582
4.9551,4835,34.718,0.20981
4.9601,4842,44.789,0.21119
4.9651,4815,10.889,0.20582
4.9701,4838,46.368,0.2104
4.9751,4845,53.443,0.21179
4.9801,4816,14.921,0.20602
4.9851,4839,49.329,0.2106
4.9901,4835,42.266,0.20981
4.9951,4832,38.155,0.20921
5.0001,4815,17.884,0.20582
5.0051,4830,41.74,0.20882
5.0101,4830,41.308,0.20882
5.0151,4815,22.601,0.20582
5.0201,4832,47.649,0.20921
5.0251,4831,44.474,0.20901
5.0301,4833,45.745,0.20941
5.0351,4815,22.237,0.20582
5.0401,4832,47.331,0.20921
5.0451,4832,45.409,0.20921
5.0501,4813,20.696,0.20542
5.0551,4834,51.017,0.20961
5.0601,4834,48.143,0.20961
5.0651,4832,43.558,0.20921
5.0701,4834,44.982,0.20961
5.0751,4839,49.703,0.2106
5.0801,4838,45.978,0.2104
5.0851,4814,15.052,0.20562
5.0901,4829,39.427,0.20862
5.0951,4817,24.677,0.20622
5.1001,4725,-87.485,0.18738
5.1051,4614,-203.71,0.16341
5.1101,4494,-313.88,0.13587
5.1151,4372,-412.36,0.10595
5.1201,4268,-470.9,0.078786
5.1251,4198,-467.62,0.059572
5.1301,4158,-418.26,0.048236
5.1351,4147,-332.24,0.045072
5.1401,4116,-304.56,0.036043
5.1451,4085,-285.7,0.026845
5.1501,4069,-245.45,0.022031
5.1551,4046,-229.33,0.015029
5.1601,4021,-222.29,0.007307
5.1651,4006,-199.01,0.002617
5.1701,3983,-197.93,-0.004658
5.1751,3969,-180.5,-0.009137
5.1801,3969,-140.37,-0.009137
5.1851,3967,-114.49,-0.00978
5.1901,3957,-111.16,-0.013007
5.1951,3915,-173.68,-0.026781
5.2001,3890,-188,-0.035153
5.2051,3856,-219.07,-0.046752
5.2101,3856,-171.81,-0.046752
5.2151,3858,-132.43,-0.046063
5.2201,3840,-145.63,-0.052298
5.2251,3841,-115.47,-0.051949
5.2301,3847,-82.354,-0.049864
5.2351,3846,-72.509,-0.050211
5.2401,3821,-116.78,-0.058957
5.2451,3785,-175.47,-0.071799
5.2501,3755,-208.31,-0.082731
5.2551,3738,-205.03,-0.089022
5.2601,3728,-187.34,-0.092755
5.2651,3731,-144.64,-0.091633
5.2701,3725,-133.51,-0.09388
5.2751,3761,-29.606,-0.080528
5.2801,3773,-6.455,-0.076146
5.2851,3771,-20.28,-0.076874
5.2901,3757,-57.573,-0.081996
5.2951,3757,-54.212,-0.081996
5.3001,3736,-99.412,-0.089767
5.3051,3753,-47.186,-0.083468
5.3101,3774,0.62348,-0.075783
5.3151,3779,0.69709,-0.073969
5.3201,3783,-1.3537,-0.072521
5.3251,3796,17.079,-0.067843
5.3301,3773,-48.563,-0.076146
5.3351,3766,-62.642,-0.078698
5.3401,3793,2.4259,-0.068919
5.3451,3789,-17.344,-0.070357
5.3501,3768,-70.031,-0.077968
5.3551,3801,10.132,-0.066055
5.3601,3795,-15.72,-0.068202
5.3651,3769,-79.622,-0.077603
5.3701,3772,-63.369,-0.07651
5.3751,3771,-60.141,-0.076874
5.3801,3731,-146.14,-0.091633
5.3851,3763,-47.842,-0.079795
5.3901,3833,107.26,-0.054742
5.3951,3825,53.346,-0.057548
5.4001,3821,21.666,-0.058957
5.4051,3856,81.614,-0.046752
5.4101,3847,33.042,-0.049864
5.4151,3830,-20.566,-0.055792
5.4201,3872,64.773,-0.041262
5.4251,3892,81.734,-0.034478
5.4301,3891,51.13,-0.034815
5.4351,3918,85.886,-0.025785
5.4401,3950,121.47,-0.015278
5.4451,3949,82.195,-0.015603
5.4501,3957,70.928,-0.013007
5.4551,3963,58.718,-0.011068
5.4601,3960,31.948,-0.012037
5.4651,3977,51.482,-0.006573
5.4701,3993,64.122,-0.001482
5.4751,4008,71.673,0.003245
5.4801,4031,92.611,0.01041
5.4851,4085,165.63,0.026845
5.4901,4082,114.7,0.025946
5.4951,4087,91.503,0.027444
5.5001,4135,152.08,0.041596
5.5051,4140,120.17,0.043047
5.5101,4137,82.32,0.042177
5.5151,4189,150.75,0.057044
5.5201,4206,140.69,0.061808
5.5251,4178,55.991,0.053937
5.5301,4200,78.82,0.060132
5.5351,4203,63.363,0.06097
5.5401,4203,46.791,0.06097
5.5451,4193,17.277,0.058169
5.5501,4204,31.244,0.06125
5.5551,4203,21.229,0.06097
5.5601,4178,-27.704,0.053937
5.5651,4201,18.34,0.060412
5.5701,4203,16.724,0.06097
5.5751,4193,-5.0648,0.058169
5.5801,4198,4.3428,0.059572
5.5851,4200,6.2659,0.060132
5.5901,4199,2.5815,0.059852
5.5951,4182,-27.824,0.055069
5.6001,4206,19.96,0.061808
5.6051,4201,6.0321,0.060412
5.6101,4180,-32.125,0.054504
5.6151,4183,-19.441,0.055352
5.6201,4204,21.052,0.06125
5.6251,4203,13.662,0.06097
5.6301,4183,-24.633,0.055352
5.6351,4207,22.332,0.062086
5.6401,4199,2.6727,0.059852
5.6451,4183,-26.015,0.055352
5.6501,4184,-18.307,0.055635
5.6551,4204,20.185,0.06125
5.6601,4194,-2.4525,0.05845
5.6651,4183,-21.32,0.055352
5.6701,4210,29.926,0.062921
5.6751,4190,-12.255,0.057326
5.6801,4185,-18.316,0.055917
5.6851,4208,25.317,0.062365
5.6901,4208,18.636,0.062365
5.6951,4186,-24.187,0.056199
5.7001,4195,-3.0682,0.058731
5.7051,4205,14.448,0.061529
5.7101,4182,-29.161,0.055069
5.7151,4184,-18.924,0.055635
5.7201,4208,26.58,0.062365
5.7251,4183,-23.479,0.055352
5.7301,4182,-19.884,0.055069
5.7351,4205,24.163,0.061529
5.7401,4203,14.294,0.06097
5.7451,4185,-20.683,0.055917
5.7501,4205,18.43,0.061529
5.7551,4204,11.749,0.06125
5.7601,4180,-32.944,0.054504
5.7651,4192,-4.4593,0.057888
5.7701,4201,11.673,0.060412
5.7751,4204,13.505,0.06125
5.7801,4218,33.679,0.065141
5.7851,4516,491.15,0.14105
5.7901,4618,513.49,0.1643
5.7951,4616,386.34,0.16386
5.8001,4678,377.68,0.1774
5.8051,4709,329.67,0.18401
5.8101,4707,251.3,0.18359
5.8151,4727,221.48,0.1878
5.8201,4767,224.68,0.19609
5.8251,4768,178.01,0.1963
5.8301,4763,135.76,0.19527
5.8351,4780,131.95,0.19875
5.8401,4777,104.24,0.19814
5.8451,4770,78.559,0.19671
5.8501,4815,124.11,0.20582
5.8551,4828,118.6,0.20842
5.8601,4815,82.822,0.20582
5.8651,4831,91.551,0.20901
5.8701,4836,84.762,0.21001
5.8751,4822,56.596,0.20722
5.8801,4834,67.193,0.20961
5.8851,4837,64.227,0.2102
5.8901,4835,55.972,0.20981
5.8951,4827,42.471,0.20822
5.9001,4844,62.749,0.21159
5.9051,4839,51.307,0.2106
5.9101,4827,34.162,0.20822
5.9151,4846,58.959,0.21198
5.9201,4828,32.662,0.20842
5.9251,4831,38.387,0.20901
5.9301,4841,51.179,0.211
5.9351,4853,63.173,0.21336
5.9401,4820,17.598,0.20682
5.9451,4836,42.905,0.21001
5.9501,4846,54.531,0.21198
5.9551,4823,23.169,0.20742
5.9601,4840,48.239,0.2108
5.9651,4844,51.234,0.21159
5.9701,4841,45.017,0.211
5.9751,4821,19.585,0.20702
5.9801,4840,47.947,0.2108
5.9851,4843,49.756,0.21139
5.9901,4820,19.448,0.20682
5.9951,4844,53.871,0.21159
6.0001,4840,45.69,0.2108
6.0051,4841,45.604,0.211
6.0101,4838,40.686,0.2104
6.0151,4842,45.474,0.21119
6.0201,4841,43.01,0.211
6.0251,4820,16.746,0.20682
6.0301,4835,40.849,0.20981
6.0351,4840,46.724,0.2108
6.0401,4821,21.895,0.20702
6.0451,4843,53.146,0.21139
6.0501,4839,45.013,0.2106
6.0551,4843,48.606,0.21139
6.0601,4823,22.101,0.20742
6.0651,4840,47.191,0.2108
6.0701,4841,46.563,0.211
6.0751,4824,24.168,0.20762
6.0801,4843,51.121,0.21139
6.0851,4840,44.639,0.2108
6.0901,4822,21.452,0.20722
6.0951,4842,50.274,0.21119
6.1001,4844,50.023,0.21159
6.1051,4842,45.006,0.21119
6.1101,4814,9.4581,0.20562
6.1151,4830,36.416,0.20882
6.1201,4805,6.3749,0.20382
6.1251,4664,-166.36,0.17438
6.1302,4564,-252.72,0.15215
6.1351,4431,-375.37,0.12067
6.1401,4315,-456.16,0.091261
6.1451,4223,-489.71,0.066524
6.1501,4172,-452.36,0.052234
6.1551,4144,-387.22,0.044205
6.1601,4116,-340.24,0.036043
6.1651,4099,-286.65,0.03102
6.1701,4070,-269.69,0.022334
6.1751,4043,-254.9,0.014109
6.1801,4026,-226.24,0.008861
6.1851,4007,-209.51,0.002931
6.1901,3986,-201.85,-0.003703
6.1951,3968,-191.24,-0.009458
6.2001,3948,-188.17,-0.015928
6.2051,3931,-180.8,-0.021491
6.2101,3911,-182.22,-0.028112
6.2151,3906,-153.36,-0.02978
6.2201,3908,-117.68,-0.029112
6.2251,3901,-109.58,-0.031453
6.2301,3886,-120.37,-0.036504
6.2351,3868,-135.35,-0.04263
6.2401,3851,-145.24,-0.048479
6.2451,3832,-157.7,-0.055092
6.2501,3808,-178.84,-0.06356
6.2551,3794,-173.88,-0.068561
6.2601,3778,-175.29,-0.074331
6.2651,3780,-136.87,-0.073606
6.2701,3784,-103.82,-0.07216
6.2751,3773,-112.5,-0.076146
6.2801,3754,-137.44,-0.0831
6.2851,3743,-138.76,-0.087165
6.2901,3733,-137.91,-0.090885
6.2951,3749,-78.221,-0.084944
6.3001,3775,-11.405,-0.07542
6.3051,3778,-12.817,-0.074331
6.3101,3767,-45.029,-0.078333
6.3151,3768,-42.44,-0.077968
6.3201,3752,-78.751,-0.083836
6.3251,3731,-118,-0.091633
6.3301,3728,-106.76,-0.092755
6.3351,3739,-66.376,-0.08865
6.3401,3714,-118.8,-0.098023
6.3451,3729,-66.254,-0.092381
6.3501,3733,-52.229,-0.090885
6.3551,3713,-97.006,-0.098401
6.3601,3774,54.188,-0.075783
6.3651,3779,40.524,-0.073969
6.3701,3767,-7.4197,-0.078333
6.3751,3793,41.232,-0.068919
6.3801,3791,15.896,-0.069638
6.3851,3783,-16.268,-0.072521
6.3901,3814,45.426,-0.061431
6.3951,3839,77.958,-0.052646
6.4001,3822,12.283,-0.058604
6.4051,3836,29.78,-0.053693
6.4101,3843,27.983,-0.051253
6.4151,3852,31.022,-0.048133
6.4201,3846,1.6046,-0.050211
6.4251,3881,66.114,-0.038199
6.4301,3899,78.511,-0.032124
6.4351,3876,3.1463,-0.039899
6.4401,3897,37.919,-0.032795
6.4451,3901,28.929,-0.031453
6.4501,3895,1.7429,-0.033468
6.4551,3911,26.656,-0.028112
6.4601,3953,97.476,-0.014303
6.4651,3952,64.373,-0.014628
6.4701,3983,102.96,-0.004658
6.4751,4072,240.61,0.022937
6.4801,4075,181.1,0.023842
6.4851,4073,127.69,0.023239
6.4901,4141,215.06,0.043337
6.4951,4144,163.42,0.044205
6.5001,4141,114.46,0.043337
6.5051,4187,164.04,0.056481
6.5101,4189,124.63,0.057044
6.5151,4189,91.921,0.057044
6.5201,4191,71.071,0.057607
6.5251,4193,55.615,0.058169
6.5301,4189,33.813,0.057044
6.5351,4190,26.162,0.057326
6.5401,4191,20.497,0.057607
6.5451,4189,11.126,0.057044
6.5501,4187,4.116,0.056481
6.5551,4178,-13.294,0.053937
6.5601,4177,-12.544,0.053654
6.5651,4196,22.631,0.059011
6.5701,4215,48.811,0.06431
6.5751,4178,-27.559,0.053937
6.5801,4197,11.475,0.059292
6.5851,4201,14.885,0.060412
6.5901,4178,-29.125,0.053937
6.5951,4197,10.314,0.059292
6.6001,4200,12.307,0.060132
6.6051,4177,-31.083,0.053654
6.6101,4180,-18.818,0.054504
6.6151,4201,21.417,0.060412
6.6201,4399,336.82,0.11275
6.6251,4465,353.2,0.12893
6.6301,4574,423.71,0.15443
6.6351,4659,437.35,0.1733
6.6401,4631,295.43,0.16717
6.6451,4678,289.88,0.1774
6.6501,4723,282.41,0.18696
6.6551,4700,189.05,0.1821
6.6601,4719,173.78,0.18612
6.6651,4808,250.42,0.20442
6.6701,4817,207.45,0.20622
6.6751,4815,162.11,0.20582
6.6801,4869,196.32,0.21649
6.6851,4888,179.66,0.22018
6.6901,4873,127.08,0.21727
6.6951,4923,164.57,0.22687
6.7001,4948,163.11,0.23158
6.7051,4941,125.37,0.23027
6.7101,4926,87.894,0.22744
6.7151,4922,72.54,0.22668
6.7201,4896,35.223,0.22172
6.7251,4871,7.9011,0.21688
6.7301,4866,10.932,0.21591
6.7351,4843,-8.6371,0.21139
6.7401,4831,-10.402,0.20901
6.7451,4826,-3.4185,0.20802
6.7501,4832,15.116,0.20921
6.7551,4826,14.317,0.20802
6.7601,4830,25.832,0.20882
6.7651,4836,36.863,0.21001
6.7701,4835,36.61,0.20981
6.7751,4840,43.69,0.2108
6.7801,4835,36.857,0.20981
6.7851,4836,38.988,0.21001
6.7901,4839,43.004,0.2106
6.7951,4814,11.814,0.20562
6.8001,4845,56.647,0.21179
6.8051,4833,38.002,0.20941
6.8101,4815,16.501,0.20582
6.8151,4841,54.031,0.211
6.8201,4836,44.464,0.21001
6.8251,4830,36.032,0.20882
6.8301,4832,39.415,0.20921
6.8351,4842,51.666,0.21119
6.8401,4832,36.589,0.20921
6.8451,4811,11.647,0.20502
6.8501,4827,38.155,0.20822
6.8551,4833,45.77,0.20941
6.8601,4827,36.865,0.20822
6.8651,4830,41.13,0.20882
6.8701,4835,46.763,0.20981
6.8751,4823,30.267,0.20742
6.8801,4716,-102.21,0.18549
6.8851,4589,-237.52,0.15782
6.8901,4472,-337.29,0.13062
6.8951,4335,-456.15,0.096468
6.9001,4264,-452.54,0.077709
6.9051,4228,-396.29,0.067902
6.9101,4163,-406.97,0.049668
6.9151,4159,-311.34,0.048523
6.9201,4099,-340.8,0.03102
6.9251,4056,-335.94,0.018086
6.9301,4031,-301.01,0.01041
6.9351,4027,-236.1,0.009171
6.9401,4025,-184.15,0.008551
6.9451,4010,-170.49,0.003872
6.9501,3975,-200.03,-0.007213
6.9551,3944,-216.26,-0.017232
6.9601,3914,-228.21,-0.027113
6.9651,3910,-185.34,-0.028445
6.9701,3909,-147.43,-0.028778
6.9751,3900,-135.71,-0.031788
6.9801,3887,-135.62,-0.036166
6.9851,3875,-134,-0.040239
6.9901,3847,-167.18,-0.049864
6.9951,3822,-187.11,-0.058604
7.0001,3799,-199.04,-0.066769
7.0051,3756,-254.11,-0.082364
7.0101,3729,-261.96,-0.092381
7.0151,3723,-220.83,-0.094631
7.0201,3724,-174.3,-0.094255
7.0251,3710,-174.42,-0.099537
7.0301,3743,-66.486,-0.087165
