0,4822,1450.6,0.20722
0.0049942,4827,1073.8,0.20822
0.0099921,4832,800.63,0.20921
0.014992,4826,587.21,0.20802
0.019992,4818,429.27,0.20642
0.024993,4806,308.58,0.20402
0.029993,4794,220.35,0.2016
0.034994,4784,158.46,0.19957
0.039992,4816,172.31,0.20602
0.044992,4827,152.43,0.20822
0.049992,4846,148.6,0.21198
0.054992,4833,101.17,0.20941
0.059993,4839,92.325,0.2106
0.064995,4829,63.19,0.20862
0.069992,4833,60.757,0.20941
0.074993,4841,63.962,0.211
0.079993,4835,46.381,0.20981
0.084993,4831,35.683,0.20901
0.089994,4840,45.288,0.2108
0.094995,4834,30.954,0.20961
0.099993,4829,21.216,0.20862
0.10499,4840,35.677,0.2108
0.10999,4834,22.108,0.20961
0.11499,4851,43.376,0.21297
0.12,4835,12.801,0.20981
0.125,4834,10.502,0.20961
0.12999,4826,-1.5497,0.20802
0.13499,4833,9.8385,0.20941
0.14,4836,11.993,0.21001
0.14499,4830,0.4747,0.20882
0.15,4832,2.5274,0.20921
0.155,4835,4.8048,0.20981
0.16,4830,-5.2378,0.20882
0.165,4831,-4.8771,0.20901
0.17,4837,1.7143,0.2102
0.175,4831,-10.703,0.20901
0.18,4853,18.335,0.21336
0.185,4838,-12.043,0.2104
0.19,4833,-21.138,0.20941
0.195,4828,-28.447,0.20842
0.2,4834,-19.147,0.20961
0.205,4835,-19.897,0.20981
0.21,4829,-30.775,0.20862
0.215,4833,-25.471,0.20941
0.22,4835,-24.975,0.20981
0.225,4843,-16.905,0.21139
0.23,4833,-36.494,0.20941
0.235,4834,-36.218,0.20961
0.24,4828,-46.356,0.20842
0.245,4832,-40.508,0.20921
0.25,4837,-35.456,0.2102
0.255,4829,-50.393,0.20862
0.26,4831,-48.063,0.20901
0.265,4837,-41.417,0.2102
0.27,4831,-53.791,0.20901
0.275,4828,-59.311,0.20842
0.28,4835,-50.071,0.20981
0.285,4834,-55.008,0.20961
0.29,4852,-32.954,0.21316
0.295,4834,-67.076,0.20961
0.3,4834,-67.815,0.20961
0.305,4828,-77.315,0.20842
0.31,4834,-68.223,0.20961
0.315,4834,-70.506,0.20961
0.32,4828,-81.122,0.20842
0.325,4830,-78.396,0.20882
0.33,4836,-71.457,0.21001
0.335,4854,-50.438,0.21356
0.34,4830,-93.592,0.20882
0.345,4838,-81.549,0.2104
0.35,4834,-89.975,0.20961
0.355,4828,-99.554,0.20842
0.36,4840,-82.2,0.2108
0.365,4839,-88.106,0.2106
0.37,4828,-106.91,0.20842
0.375,4836,-94.922,0.21001
0.38,4838,-95.078,0.2104
0.385,4827,-113.83,0.20822
0.39,4833,-104.57,0.20941
0.395,4834,-105.35,0.20961
0.4,4828,-116.24,0.20842
0.405,4832,-110.93,0.20921
0.41,4838,-104.87,0.2104
0.415,4830,-120.44,0.20882
0.42,4832,-118.56,0.20921
0.425,4838,-112.24,0.2104
0.43,4831,-126.23,0.20901
0.435,4828,-131.54,0.20842
0.44,4856,-93.151,0.21395
0.445,4833,-136.01,0.20941
0.45,4826,-146,0.20802
0.455,4833,-134.48,0.20941
0.46,4855,-105.99,0.21375
0.465,4827,-154.75,0.20822
0.47,4831,-146.82,0.20901
0.475,4832,-145.8,0.20921
0.48,4848,-124.9,0.21238
0.485,4833,-153.03,0.20941
0.49,4833,-153.49,0.20941
0.495,4827,-162.79,0.20822
0.5,4852,-127.27,0.21316
0.505,4837,-157.09,0.2102
0.51,4845,-147.76,0.21179
0.51501,4828,-176.12,0.20842
0.52,4859,-131.14,0.21454
0.525,4830,-181.58,0.20882
0.53,4828,-181.9,0.20842
0.535,4835,-170.27,0.20981
0.54,4835,-172.07,0.20981
0.54501,4828,-183.72,0.20842
0.55,4833,-176.19,0.20941
0.555,4830,-182.39,0.20882
0.56,4827,-187.54,0.20822
0.565,4810,-211.54,0.20482
0.57,4795,-227.16,0.2018
0.57501,4776,-245.19,0.19794
0.58,4804,-192.36,0.20361
0.58501,4824,-165.93,0.20762
0.59,4822,-177.91,0.20722
0.595,4827,-177.45,0.20822
0.6,4835,-173.48,0.20981
0.60501,4831,-187.76,0.20901
0.61,4827,-198.78,0.20822
0.61501,4836,-189.35,0.21001
0.62001,4831,-202.43,0.20901
0.62501,4827,-211.21,0.20822
0.63001,4833,-204.32,0.20941
0.63501,4832,-209.57,0.20921
0.64001,4826,-220.96,0.20802
0.64501,4855,-181.42,0.21375
0.65001,4837,-217.9,0.2102
0.65501,4826,-235.67,0.20802
0.66001,4832,-225.67,0.20921
0.66501,4862,-185.9,0.21512
0.67001,4835,-235.84,0.20981
0.67501,4828,-245.55,0.20842
0.68001,4839,-228.29,0.2106
0.68501,4858,-205.31,0.21434
0.69001,4828,-256.63,0.20842
0.69501,4838,-239.52,0.2104
0.70001,4833,-248.4,0.20941
0.70501,4853,-220.94,0.21336
0.71001,4835,-253.85,0.20981
0.71501,4834,-255.09,0.20961
0.72001,4827,-264.96,0.20822
0.72501,4833,-254.74,0.20941
0.73001,4835,-253.41,0.20981
0.73501,4826,-268.32,0.20802
0.74001,4830,-261.76,0.20882
0.74501,4854,-229.94,0.21356
0.75001,4828,-276.27,0.20842
0.75501,4830,-272.08,0.20882
0.76001,4836,-264.07,0.21001
0.76501,4831,-274.04,0.20901
0.77001,4822,-287.55,0.20722
0.77501,4801,-315.01,0.20301
0.78001,4784,-330.44,0.19957
0.78501,4783,-319.8,0.19936
0.79001,4817,-263.23,0.20622
0.79501,4825,-259.15,0.20782
0.80001,4822,-272.02,0.20722
0.80501,4833,-262.47,0.20941
0.81001,4833,-271.29,0.20941
0.81501,4826,-288,0.20802
0.82001,4844,-266.1,0.21159
0.82501,4834,-289.37,0.20961
0.83001,4827,-302.86,0.20822
0.83501,4828,-302.21,0.20842
0.84001,4859,-260.87,0.21454
0.84501,4830,-313.93,0.20882
0.85001,4830,-313.36,0.20882
0.85501,4834,-307.98,0.20961
0.86001,4830,-315.74,0.20882
0.86501,4829,-317.84,0.20862
0.87004,4835,-310.25,0.20981
0.87501,4843,-302.51,0.21139
0.88001,4827,-330.66,0.20822
0.88501,4834,-319.95,0.20961
0.89001,4832,-325.19,0.20921
0.89501,4849,-303.31,0.21257
0.90001,4831,-336.23,0.20901
0.90501,4831,-336.03,0.20901
0.91001,4828,-340.66,0.20842
0.91501,4831,-336.3,0.20901
0.92001,4833,-335.08,0.20941
0.92501,4829,-343.1,0.20862
0.93001,4852,-312.18,0.21316
0.93501,4835,-345.33,0.20981
0.94001,4830,-353.66,0.20882
0.94501,4829,-354.8,0.20862
0.95001,4878,-287.49,0.21824
0.95501,4830,-371.9,0.20882
0.96001,4828,-371.2,0.20842
0.96501,4835,-358.79,0.20981
0.97001,4836,-358.64,0.21001
0.97501,4826,-374.39,0.20802
0.98001,4833,-362.9,0.20941
0.98501,4864,-322.08,0.21551
0.99001,4827,-386.42,0.20822
0.99502,4830,-378.94,0.20882
1,4839,-365.75,0.2106
1.005,4832,-378.85,0.20921
1.01,4831,-380.72,0.20901
1.015,4836,-374.34,0.21001
1.02,4848,-360.59,0.21238
1.025,4830,-392.55,0.20882
1.03,4838,-380.53,0.2104
1.035,4832,-391.72,0.20921
1.04,4853,-363.16,0.21336
1.045,4836,-395.24,0.21001
1.05,4832,-401.41,0.20921
1.055,4826,-409.32,0.20802
1.06,4835,-394.87,0.20981
1.065,4834,-398.75,0.20961
1.07,4825,-413.3,0.20782
1.075,4854,-371.89,0.21356
1.08,4835,-408.42,0.20981
1.085,4829,-417.87,0.20862
1.09,4816,-435.2,0.20602
1.095,4796,-458.55,0.202
1.1,4777,-475.22,0.19814
1.105,4792,-439.79,0.20119
1.11,4819,-397.78,0.20662
1.115,4821,-402.73,0.20702
1.12,4824,-405.46,0.20762
1.125,4833,-399.62,0.20941
1.13,4828,-415.31,0.20842
1.135,4823,-427.34,0.20742
1.14,4831,-418.6,0.20901
1.145,4831,-423.86,0.20901
1.15,4823,-439.4,0.20742
1.155,4830,-430.45,0.20882
1.16,4832,-431.42,0.20921
1.165,4826,-443.8,0.20802
1.17,4828,-442.3,0.20842
1.175,4831,-440.37,0.20901
1.18,4825,-452.03,0.20782
1.185,4827,-450.01,0.20822
1.19,4833,-443.53,0.20941
1.195,4825,-458.81,0.20782
1.2,4826,-458.04,0.20802
1.205,4833,-449.71,0.20941
1.21,4827,-462.22,0.20822
1.215,4824,-467.8,0.20762
1.22,4831,-458.52,0.20901
1.225,4830,-463.41,0.20882
1.23,4824,-474.52,0.20762
1.235,4829,-467.9,0.20862
1.24,4828,-471.97,0.20842
1.245,4825,-478.29,0.20782
1.25,4829,-473.74,0.20862
1.255,4830,-475.14,0.20882
1.26,4827,-482.28,0.20822
1.265,4827,-483.89,0.20822
1.27,4835,-474.51,0.20981
1.275,4831,-484.85,0.20901
1.28,4826,-494.38,0.20802
1.285,4839,-476.91,0.2106
1.29,4835,-488.24,0.20981
1.295,4824,-506.84,0.20762
1.3,4832,-494.62,0.20921
1.305,4834,-494.58,0.20961
1.31,4823,-513.18,0.20742
1.315,4829,-503.72,0.20862
1.32,4833,-500.16,0.20941
1.325,4824,-516.17,0.20762
1.33,4829,-508.99,0.20862
1.335,4835,-502.91,0.20981
1.34,4829,-515.67,0.20862
1.345,4816,-535.38,0.20602
1.35,4800,-554.8,0.20281
1.355,4781,-574.13,0.19896
1.36,4789,-550.65,0.20058
1.365,4821,-500.37,0.20702
1.37,4823,-506.29,0.20742
1.375,4822,-515.3,0.20722
1.38,4831,-508.47,0.20901
1.385,4828,-520.66,0.20842
1.39,4825,-530.1,0.20782
1.395,4829,-527.81,0.20862
1.4,4831,-529.44,0.20901
1.405,4826,-540.9,0.20802
1.41,4812,-562.47,0.20522
1.415,4791,-588.93,0.20099
1.42,4774,-603.58,0.19753
1.425,4772,-593.65,0.19712
1.43,4776,-578.45,0.19794
1.435,4768,-585.11,0.1963
1.44,4789,-549.15,0.20058
1.445,4820,-509.62,0.20682
1.45,4821,-523.32,0.20702
1.455,4822,-533.79,0.20722
1.46,4832,-529.37,0.20921
1.465,4829,-544.67,0.20862
1.47,4824,-559.16,0.20762
1.475,4829,-556.36,0.20862
1.48,4829,-561.78,0.20862
1.485,4824,-573.24,0.20762
1.49,4831,-565.46,0.20901
1.495,4829,-572.81,0.20862
1.5,4824,-582.92,0.20762
1.505,4829,-576.95,0.20862
1.51,4831,-577.29,0.20901
1.515,4823,-592,0.20742
1.52,4827,-586.62,0.20822
1.525,4834,-579.07,0.20961
1.53,4827,-593.52,0.20822
1.535,4826,-596.32,0.20802
1.54,4833,-587.8,0.20941
1.545,4829,-597.38,0.20862
1.55,4823,-607.75,0.20742
1.555,4831,-596.4,0.20901
1.56,4829,-602.55,0.20862
1.565,4824,-611.79,0.20762
1.57,4829,-605.18,0.20862
1.575,4833,-602.28,0.20941
1.58,4824,-618.78,0.20762
1.585,4829,-611.93,0.20862
1.59,4836,-604.69,0.21001
1.595,4828,-620.75,0.20842
1.6,4828,-621.95,0.20842
1.605,4840,-606.72,0.2108
1.61,4830,-626.6,0.20882
1.615,4825,-634.8,0.20782
1.62,4835,-620.51,0.20981
1.625,4831,-630.03,0.20901
1.63,4825,-640.35,0.20782
1.635,4830,-633.16,0.20882
1.64,4831,-634.01,0.20901
1.645,4825,-644.91,0.20782
1.65,4830,-638.15,0.20882
1.655,4831,-639.3,0.20901
1.66,4824,-651.82,0.20762
1.665,4829,-644.84,0.20862
1.67,4835,-638.89,0.20981
1.675,4825,-657.3,0.20782
1.68,4827,-654.64,0.20822
1.685,4834,-646.3,0.20961
1.69,4824,-664.36,0.20762
1.695,4825,-662.84,0.20782
1.7,4833,-652.55,0.20941
1.705,4829,-662.22,0.20862
1.71,4826,-668.46,0.20802
1.715,4831,-662.44,0.20901
1.72,4828,-669.7,0.20842
1.725,4825,-675.56,0.20782
1.73,4809,-698.64,0.20462
1.735,4798,-709.26,0.20241
1.74,4787,-717.76,0.20018
1.745,4812,-673.72,0.20522
1.75,4824,-660.5,0.20762
1.755,4822,-670.86,0.20722
1.76,4827,-669.18,0.20822
1.765,4832,-668.45,0.20921
1.77,4825,-685.1,0.20782
1.775,4827,-685.28,0.20822
1.78,4833,-680.38,0.20941
1.785,4827,-693.97,0.20822
1.79,4818,-708.69,0.20642
1.795,4808,-721.51,0.20442
1.8,4797,-732.98,0.2022
1.805,4786,-742.1,0.19997
1.81,4816,-691.46,0.20602
1.815,4823,-687.41,0.20742
1.82,4821,-697.49,0.20702
1.825,4829,-691.42,0.20862
1.83,4830,-697.21,0.20882
1.835,4822,-714.48,0.20722
1.84,4827,-709.53,0.20822
1.845,4832,-706.43,0.20921
1.85,4823,-724.16,0.20742
1.855,4826,-720.96,0.20802
1.86,4833,-713.59,0.20941
1.865,4827,-726.79,0.20822
1.87,4827,-728.64,0.20822
1.875,4834,-720.79,0.20961
1.88,4832,-728.06,0.20921
1.885,4826,-739.49,0.20802
1.89,4832,-731.7,0.20921
1.895,4834,-732.09,0.20961
1.9,4822,-752.38,0.20722
1.905,4831,-738.56,0.20901
1.91,4836,-734.56,0.21001
1.915,4822,-758.56,0.20722
1.92,4829,-747.47,0.20862
1.925,4834,-742.69,0.20961
1.93,4827,-756.38,0.20822
1.935,4829,-754.43,0.20862
1.94,4835,-747.98,0.20981
1.945,4827,-763.23,0.20822
1.95,4826,-765.22,0.20802
1.955,4833,-756.09,0.20941
1.96,4828,-766.6,0.20842
1.965,4825,-772.07,0.20782
1.97,4832,-762.7,0.20921
1.975,4829,-770.27,0.20862
1.98,4823,-780.54,0.20742
1.985,4831,-769.1,0.20901
1.99,4828,-776.56,0.20842
1.995,4823,-785.36,0.20742
2,4829,-777.01,0.20862
2.005,4832,-775.61,0.20921
2.01,4824,-790.41,0.20762
2.015,4827,-786.47,0.20822
2.02,4833,-779.95,0.20941
2.025,4825,-795.16,0.20782
2.03,4826,-794.32,0.20802
2.035,4831,-788.67,0.20901
2.04,4828,-796.18,0.20842
2.045,4825,-802.21,0.20782
2.05,4833,-791.86,0.20941
2.055,4829,-801.47,0.20862
2.06,4824,-810.45,0.20762
2.065,4831,-800.85,0.20901
2.07,4829,-806.87,0.20862
2.075,4822,-818.78,0.20722
2.08,4831,-805.75,0.20901
2.085,4832,-807.87,0.20921
2.09,4823,-823.85,0.20742
2.095,4813,-837.58,0.20542
2.1,4796,-858.17,0.202
2.105,4776,-878.39,0.19794
2.11,4793,-841.22,0.20139
2.115,4819,-802.14,0.20662
2.12,4820,-809.17,0.20682
2.125,4825,-809.19,0.20782
2.13,4831,-808.29,0.20901
2.135,4827,-821.99,0.20822
2.14,4822,-833.93,0.20722
2.145,4832,-822.27,0.20921
2.15,4829,-832.32,0.20862
2.155,4823,-844.37,0.20742
2.16,4831,-834.22,0.20901
2.165,4831,-838.43,0.20901
2.17,4824,-851.77,0.20762
2.175,4829,-845.35,0.20862
2.18,4833,-842.58,0.20941
2.185,4829,-852.16,0.20862
2.19,4815,-873.7,0.20582
2.195,4808,-880.33,0.20442
2.2,4801,-885.81,0.20301
2.205,4797,-886.21,0.2022
2.21,4829,-836.53,0.20862
2.215,4828,-846.87,0.20842
2.22,4823,-860.48,0.20742
2.225,4832,-851.45,0.20921
2.23,4831,-859.22,0.20901
2.235,4822,-876.55,0.20722
2.24,4831,-864.69,0.20901
2.245,4832,-867.65,0.20921
2.25,4823,-884.24,0.20742
2.255,4828,-877.42,0.20842
2.26,4833,-872.96,0.20941
2.265,4827,-885.48,0.20822
2.27,4827,-886.83,0.20822
2.275,4832,-881.39,0.20921
2.28,4828,-890.43,0.20842
2.285,4825,-896.18,0.20782
2.29,4833,-885.62,0.20941
2.295,4825,-900.65,0.20782
2.3,4824,-902.45,0.20762
2.305,4832,-891.77,0.20921
2.31,4828,-901.14,0.20842
2.315,4821,-912.73,0.20702
2.32,4830,-899.45,0.20882
2.325,4828,-905.56,0.20842
2.33,4823,-914.73,0.20742
2.335,4827,-909.43,0.20822
2.34,4832,-904.69,0.20921
2.345,4825,-918.4,0.20782
2.35,4825,-919.24,0.20782
2.355,4831,-912.01,0.20901
2.36,4825,-923.93,0.20782
2.365,4826,-923.43,0.20802
2.37,4833,-915.24,0.20941
2.375,4826,-929.21,0.20802
2.3801,4826,-930.23,0.20802
2.385,4834,-920.37,0.20961
2.39,4827,-934.5,0.20822
2.395,4824,-939.82,0.20762
2.4,4831,-930.31,0.20901
2.405,4828,-937.77,0.20842
2.41,4822,-947.95,0.20722
2.415,4829,-937.81,0.20862
2.42,4830,-939.25,0.20882
2.425,4824,-950.57,0.20762
2.4301,4829,-944.05,0.20862
2.435,4829,-946.75,0.20862
2.44,4824,-956.2,0.20762
2.445,4827,-952.5,0.20822
2.45,4832,-947.53,0.20921
2.455,4824,-962.47,0.20762
2.46,4825,-961.41,0.20782
2.465,4834,-950.03,0.20961
2.47,4829,-961.64,0.20862
2.475,4823,-972.07,0.20742
2.48,4832,-959.35,0.20921
2.485,4834,-960.28,0.20961
2.49,4823,-979.54,0.20742
2.495,4829,-970.51,0.20862
2.5,4837,-961.65,0.2102
2.505,4825,-983.43,0.20782
2.51,4828,-979.06,0.20842
2.515,4836,-969.43,0.21001
2.52,4828,-985.1,0.20842
2.525,4814,-1005.5,0.20562
2.5301,4806,-1012.8,0.20402
2.535,4789,-1031.5,0.20058
2.54,4793,-1016.1,0.20139
2.545,4823,-968.82,0.20742
2.55,4825,-974.06,0.20782
2.555,4823,-983.92,0.20742
2.56,4830,-979.06,0.20882
2.565,4830,-985.71,0.20882
2.57,4822,-1002.2,0.20722
2.575,4829,-993.87,0.20862
2.58,4831,-995.23,0.20901
2.5851,4824,-1009.2,0.20762
2.59,4829,-1003.3,0.20862
2.595,4831,-1003.6,0.20901
2.6,4824,-1016.9,0.20762
2.605,4827,-1013.2,0.20822
2.61,4832,-1008.2,0.20921
2.6151,4824,-1023.1,0.20762
2.62,4827,-1019.3,0.20822
2.625,4831,-1015.6,0.20901
2.6301,4825,-1027.3,0.20782
2.635,4820,-1035,0.20682
2.64,4802,-1059.5,0.20321
2.6451,4782,-1081.1,0.19916
2.65,4769,-1087.8,0.1965
2.655,4774,-1067.6,0.19753
2.6601,4772,-1063.4,0.19712
2.6651,4766,-1066.7,0.19589
2.67,4804,-1006.9,0.20361
2.6751,4819,-996.55,0.20662
2.6801,4820,-1009,0.20682
2.6851,4812,-1031,0.20522
2.6901,4798,-1056.2,0.20241
2.6951,4774,-1089.5,0.19753
2.7001,4793,-1053.4,0.20139
2.7051,4820,-1016.4,0.20682
2.7101,4820,-1027.8,0.20682
2.7151,4822,-1033.7,0.20722
2.7201,4832,-1027.3,0.20921
2.7251,4827,-1043.9,0.20822
2.7301,4822,-1056.6,0.20722
2.7351,4831,-1046.8,0.20901
2.7401,4829,-1055.4,0.20862
2.7451,4824,-1066.4,0.20762
2.7501,4831,-1058.2,0.20901
2.7551,4829,-1065.2,0.20862
2.7601,4823,-1076.4,0.20742
2.7651,4828,-1069.8,0.20842
2.7701,4832,-1066.9,0.20921
2.7751,4826,-1079.1,0.20802
2.7801,4827,-1078.9,0.20822
2.7851,4835,-1069.4,0.20981
2.7901,4831,-1079.7,0.20901
2.7951,4825,-1090.5,0.20782
2.8001,4837,-1073.9,0.2102
2.8051,4837,-1078.8,0.2102
2.8101,4824,-1101,0.20762
2.8151,4829,-1092.8,0.20862
2.8201,4834,-1087.3,0.20961
2.8251,4823,-1106,0.20742
2.8301,4829,-1096.5,0.20862
2.8351,4831,-1095.7,0.20901
2.8401,4822,-1110.9,0.20722
2.8451,4829,-1100.3,0.20862
2.8501,4833,-1097.2,0.20941
2.8551,4825,-1112.1,0.20782
2.8601,4828,-1108.2,0.20842
2.8651,4834,-1101.7,0.20961
2.8701,4828,-1114,0.20842
2.8751,4825,-1119.5,0.20782
2.8801,4834,-1107.2,0.20961
2.8851,4828,-1119.6,0.20842
2.8901,4823,-1127.8,0.20742
2.8951,4831,-1116.2,0.20901
2.9001,4829,-1122.2,0.20862
2.9051,4823,-1132.6,0.20742
2.9101,4829,-1124,0.20862
2.9151,4828,-1128,0.20842
2.9201,4821,-1139.7,0.20702
2.9251,4829,-1127.9,0.20862
2.9301,4831,-1128.2,0.20901
2.9351,4823,-1142.7,0.20742
2.9401,4827,-1137.2,0.20822
2.9451,4833,-1130.9,0.20941
2.9501,4825,-1146.2,0.20782
2.9551,4825,-1146.8,0.20782
2.9601,4833,-1136.6,0.20941
2.9651,4826,-1150.4,0.20802
2.9701,4824,-1154.1,0.20762
2.9751,4831,-1144.8,0.20901
2.9801,4828,-1152.4,0.20842
2.9851,4823,-1161.3,0.20742
2.9901,4831,-1150.1,0.20901
2.9951,4828,-1157.8,0.20842
3.0001,4822,-1168,0.20722
3.0051,4830,-1156.6,0.20882
3.0101,4829,-1161.2,0.20862
3.0151,4821,-1174.8,0.20702
3.0201,4828,-1164.4,0.20842
3.0251,4832,-1161.5,0.20921
3.0301,4823,-1177.9,0.20742
3.0351,4813,-1191.9,0.20542
3.0401,4799,-1208.4,0.20261
3.0451,4779,-1229.7,0.19855
3.0501,4784,-1210.5,0.19957
3.0551,4815,-1160.3,0.20582
3.0601,4822,-1157.9,0.20722
3.0651,4822,-1166.4,0.20722
3.0701,4830,-1161.9,0.20882
3.0751,4828,-1172.9,0.20842
3.0801,4822,-1187,0.20722
3.0851,4831,-1176.9,0.20901
3.0901,4834,-1178.3,0.20961
3.0951,4822,-1200.7,0.20722
3.1001,4828,-1192.5,0.20842
3.1051,4838,-1181.5,0.2104
3.1101,4828,-1201.6,0.20842
3.1151,4825,-1207.1,0.20782
3.1201,4835,-1193.6,0.20981
3.1251,4827,-1209.2,0.20822
3.1301,4814,-1228.1,0.20562
3.1351,4809,-1231.4,0.20462
3.1401,4798,-1242.8,0.20241
3.1451,4790,-1247.6,0.20078
3.1501,4817,-1202.3,0.20622
3.1551,4823,-1199.2,0.20742
3.1601,4822,-1207.2,0.20722
3.1651,4830,-1200.9,0.20882
3.1701,4831,-1206.5,0.20901
3.1751,4820,-1227.7,0.20682
3.1801,4829,-1215.9,0.20862
3.1851,4832,-1216.1,0.20921
3.1901,4824,-1232,0.20762
3.1951,4827,-1228.8,0.20822
3.2001,4831,-1225.5,0.20901
3.2051,4826,-1236.1,0.20802
3.2101,4824,-1240.2,0.20762
3.2151,4831,-1231.2,0.20901
3.2201,4827,-1240.4,0.20822
3.2251,4824,-1246.2,0.20762
3.2301,4831,-1237,0.20901
3.2351,4827,-1246,0.20822
3.2401,4822,-1254.6,0.20722
3.2451,4831,-1241.8,0.20901
3.2501,4827,-1251,0.20822
3.2551,4821,-1261.1,0.20702
3.2601,4828,-1250.8,0.20842
3.2651,4832,-1247.9,0.20921
3.2701,4822,-1265.8,0.20722
3.2751,4827,-1258.5,0.20822
3.2801,4832,-1253.6,0.20921
3.2851,4824,-1268.6,0.20762
3.2901,4824,-1269,0.20762
3.2951,4831,-1260,0.20901
3.3001,4825,-1271.9,0.20782
3.3051,4824,-1274.2,0.20762
3.3101,4833,-1262.5,0.20941
3.3151,4827,-1275.2,0.20822
3.3201,4823,-1282.2,0.20742
3.3251,4833,-1268.4,0.20941
3.3301,4828,-1279.6,0.20842
3.3351,4821,-1291.1,0.20702
3.3401,4831,-1276.3,0.20901
3.3451,4831,-1279.8,0.20901
3.3501,4823,-1294.1,0.20742
3.3551,4812,-1309.2,0.20522
3.3601,4798,-1325.2,0.20241
3.3651,4787,-1333.4,0.20018
3.3701,4798,-1308.8,0.20241
3.3751,4825,-1268.9,0.20782
3.3801,4828,-1273.8,0.20842
3.3851,4823,-1289,0.20742
3.3901,4837,-1274.1,0.2102
3.3951,4831,-1291.4,0.20901
3.4001,4823,-1307.3,0.20742
3.4051,4832,-1295.8,0.20921
3.4101,4830,-1303.1,0.20882
3.4151,4823,-1315.9,0.20742
3.4201,4830,-1306.2,0.20882
3.4251,4833,-1305.2,0.20941
3.4301,4822,-1324.4,0.20722
3.4351,4827,-1316.7,0.20822
3.4401,4833,-1310.1,0.20941
3.4451,4825,-1325.2,0.20782
3.4501,4812,-1343.9,0.20522
3.4551,4804,-1351.1,0.20361
3.4601,4794,-1359.9,0.2016
3.4651,4797,-1348.5,0.2022
3.4701,4822,-1309.7,0.20722
3.4751,4822,-1316.9,0.20722
3.4801,4824,-1319.8,0.20762
3.4851,4833,-1312.6,0.20941
3.4901,4827,-1328.6,0.20822
3.4951,4821,-1340.8,0.20702
3.5001,4831,-1327.9,0.20901
3.5051,4829,-1335.6,0.20862
3.5101,4821,-1350.1,0.20702
3.5151,4828,-1340.3,0.20842
3.5201,4830,-1340.5,0.20882
3.5251,4822,-1355.1,0.20722
3.5301,4826,-1349.5,0.20802
3.5351,4829,-1347.3,0.20862
3.5401,4825,-1355.9,0.20782
3.5451,4828,-1352.9,0.20842
3.5501,4832,-1349.8,0.20921
3.5551,4824,-1364.7,0.20762
3.5601,4821,-1369.2,0.20702
3.5651,4806,-1389.8,0.20402
3.5701,4793,-1402.7,0.20139
3.5751,4782,-1410.1,0.19916
3.5801,4817,-1351,0.20622
3.5851,4822,-1350.5,0.20722
3.5901,4819,-1361.8,0.20662
3.5951,4828,-1353.7,0.20842
3.6001,4831,-1356.6,0.20901
3.6051,4823,-1374.4,0.20742
3.6101,4812,-1392.2,0.20522
3.6151,4803,-1403,0.20341
3.6201,4790,-1417.2,0.20078
3.6251,4780,-1424,0.19875
3.6301,4778,-1418.1,0.19834
3.6351,4769,-1424.4,0.1965
3.6401,4783,-1396.7,0.19936
3.6451,4817,-1348.8,0.20622
3.6501,4823,-1353.7,0.20742
3.6551,4819,-1371.6,0.20662
3.6601,4831,-1362.8,0.20901
3.6651,4833,-1370.6,0.20941
3.6701,4822,-1394.9,0.20722
3.6751,4828,-1389.4,0.20842
3.6801,4837,-1381.6,0.2102
3.6851,4825,-1405.6,0.20782
3.6901,4827,-1404.1,0.20822
3.6951,4835,-1395.2,0.20981
3.7001,4827,-1411.3,0.20822
3.7051,4827,-1412.4,0.20822
3.7101,4834,-1404,0.20961
3.7151,4825,-1420.6,0.20782
3.7201,4825,-1420.6,0.20782
3.7251,4834,-1408.7,0.20961
3.7301,4827,-1422.6,0.20822
3.7351,4824,-1427.7,0.20762
3.7401,4832,-1416.6,0.20921
3.7451,4830,-1422.9,0.20882
3.7501,4822,-1436.3,0.20722
3.7551,4829,-1425.7,0.20862
3.7601,4833,-1422.6,0.20941
3.7651,4825,-1437.4,0.20782
3.7701,4829,-1432.1,0.20862
3.7751,4831,-1431.4,0.20901
3.7801,4823,-1445.3,0.20742
3.7851,4828,-1437.9,0.20842
3.7901,4831,-1435.7,0.20901
3.7951,4824,-1448.5,0.20762
3.8001,4826,-1445.8,0.20802
3.8051,4833,-1437.3,0.20941
3.8101,4826,-1451,0.20802
3.8151,4818,-1463,0.20642
3.8201,4804,-1480.7,0.20361
3.8251,4794,-1488.8,0.2016
3.8301,4776,-1506.7,0.19794
3.8351,4812,-1443.8,0.20522
3.8401,4823,-1433.7,0.20742
3.8451,4820,-1446.3,0.20682
3.8501,4826,-1443.4,0.20802
3.8551,4830,-1444.5,0.20882
3.8601,4824,-1459.6,0.20762
3.8651,4828,-1457.2,0.20842
3.8701,4831,-1457.2,0.20901
3.8751,4823,-1473,0.20742
3.8801,4828,-1466.9,0.20842
3.8851,4832,-1464.3,0.20921
3.8901,4825,-1478.2,0.20782
3.8951,4824,-1480.4,0.20762
3.9001,4831,-1471.4,0.20901
3.9051,4827,-1480.5,0.20822
3.9101,4822,-1489.1,0.20722
3.9151,4830,-1477.7,0.20882
3.9201,4830,-1481,0.20882
3.9251,4824,-1492.2,0.20762
3.9301,4829,-1485.6,0.20862
3.9351,4828,-1489.5,0.20842
3.9401,4824,-1497,0.20762
3.9451,4829,-1490.5,0.20862
3.9501,4831,-1490.3,0.20901
3.9551,4828,-1497.6,0.20842
3.9601,4827,-1500.6,0.20822
3.9651,4837,-1488,0.2102
3.9701,4831,-1501.4,0.20901
3.9751,4824,-1513.1,0.20762
3.9801,4840,-1490.2,0.2108
3.9851,4831,-1508.5,0.20901
3.9901,4823,-1521,0.20742
3.9951,4831,-1508.5,0.20901
4.0001,4831,-1510.8,0.20901
4.0051,4822,-1525.6,0.20722
4.0101,4829,-1514.5,0.20862
4.0151,4831,-1513.9,0.20901
4.0201,4825,-1525,0.20782
4.0251,4829,-1519.7,0.20862
4.0301,4832,-1517.6,0.20921
4.0351,4824,-1531.9,0.20762
4.0401,4828,-1526.1,0.20842
4.0451,4833,-1521,0.20941
4.0501,4825,-1535.7,0.20782
4.0551,4824,-1537.2,0.20762
4.0601,4834,-1523.5,0.20961
4.0651,4827,-1537.5,0.20822
4.0701,4824,-1542.7,0.20762
4.0751,4831,-1533.1,0.20901
4.0801,4828,-1540.4,0.20842
4.0851,4823,-1549,0.20742
4.0901,4829,-1540.4,0.20862
4.0951,4829,-1542.9,0.20862
4.1001,4823,-1553.6,0.20742
4.1051,4828,-1546.5,0.20842
4.1101,4830,-1546,0.20882
4.1151,4822,-1560,0.20722
4.1201,4828,-1551.2,0.20842
4.1251,4831,-1549.4,0.20901
4.1301,4824,-1562.4,0.20762
4.1351,4826,-1559.9,0.20802
4.1401,4830,-1555.8,0.20882
4.1451,4828,-1561.5,0.20842
4.1501,4824,-1568.9,0.20762
4.1551,4831,-1559.5,0.20901
4.1601,4828,-1567,0.20842
4.1651,4823,-1575.7,0.20742
4.1701,4831,-1564.5,0.20901
4.1751,4828,-1572,0.20842
4.1801,4823,-1580.7,0.20742
4.1851,4830,-1570.9,0.20882
4.1901,4829,-1575.3,0.20862
4.1951,4822,-1587.3,0.20722
4.2001,4829,-1577,0.20862
4.2051,4831,-1576.9,0.20901
4.2101,4822,-1592.6,0.20722
4.2151,4825,-1587.9,0.20782
4.2201,4832,-1579.3,0.20921
4.2251,4825,-1592.9,0.20782
4.2301,4816,-1606.2,0.20602
4.2351,4805,-1619.3,0.20382
4.2401,4798,-1623.8,0.20241
4.2451,4787,-1633.4,0.20018
4.2501,4816,-1584.4,0.20602
4.2551,4827,-1574.5,0.20822
4.2601,4821,-1591.4,0.20702
4.2651,4831,-1581.8,0.20901
4.2701,4835,-1583.6,0.20981
4.2751,4822,-1608.9,0.20722
4.2801,4830,-1598.6,0.20882
4.2851,4835,-1595.8,0.20981
4.2901,4826,-1613.5,0.20802
4.2951,4824,-1617.3,0.20762
4.3001,4837,-1599.6,0.2102
4.3051,4827,-1619,0.20822
4.3101,4824,-1624,0.20762
4.3151,4833,-1611.4,0.20941
4.3201,4830,-1619.3,0.20882
4.3251,4825,-1628.3,0.20782
4.3301,4831,-1620.1,0.20901
4.3351,4827,-1628.4,0.20822
4.3401,4824,-1633.6,0.20762
4.3451,4832,-1622.5,0.20921
4.3501,4830,-1628.7,0.20882
4.3551,4822,-1642.1,0.20722
4.3601,4830,-1630.1,0.20882
4.3651,4833,-1628.7,0.20941
4.3701,4824,-1644.8,0.20762
4.3751,4827,-1640.3,0.20822
4.3801,4832,-1634.8,0.20921
4.3851,4825,-1647.8,0.20782
4.3901,4824,-1649.5,0.20762
4.3951,4831,-1640,0.20901
4.4001,4827,-1648.8,0.20822
4.4051,4826,-1651.5,0.20802
4.4101,4831,-1645.6,0.20901
4.4151,4827,-1654.3,0.20822
4.4201,4824,-1659.6,0.20762
4.4251,4831,-1650.1,0.20901
4.4301,4829,-1656.1,0.20862
4.4351,4823,-1666.5,0.20742
4.4401,4813,-1680.2,0.20542
4.4451,4803,-1690.8,0.20341
4.4501,4789,-1704.9,0.20058
4.4551,4806,-1671.9,0.20402
4.4601,4823,-1648.3,0.20742
4.4651,4821,-1658.1,0.20702
4.4701,4824,-1658.7,0.20762
4.4751,4831,-1653.9,0.20901
4.4801,4826,-1667.5,0.20802
4.4851,4825,-1672.4,0.20782
4.4901,4831,-1666.6,0.20901
4.4951,4826,-1678.1,0.20802
4.5001,4821,-1686.9,0.20702
4.5051,4809,-1703.7,0.20462
4.5101,4796,-1718.1,0.202
4.5151,4780,-1733.5,0.19875
4.5201,4812,-1677.3,0.20522
4.5251,4825,-1663.7,0.20782
4.5301,4820,-1679.2,0.20682
4.5351,4825,-1677,0.20782
4.5401,4832,-1673,0.20921
4.5451,4828,-1685.8,0.20842
4.5501,4826,-1692.8,0.20802
4.5551,4837,-1680.3,0.2102
4.5601,4833,-1692.3,0.20941
4.5651,4828,-1702.9,0.20842
4.5701,4837,-1691.7,0.2102
4.5751,4831,-1704.7,0.20901
4.5801,4825,-1714.7,0.20782
4.5851,4830,-1707.2,0.20882
4.5901,4832,-1706.3,0.20921
4.5951,4821,-1724.2,0.20702
4.6001,4831,-1708.5,0.20901
4.6051,4833,-1708.6,0.20941
4.6101,4822,-1727.2,0.20722
4.6151,4827,-1719,0.20822
4.6201,4834,-1710.7,0.20961
4.6251,4825,-1727.2,0.20782
4.6301,4828,-1723.1,0.20842
4.6351,4832,-1719.2,0.20921
4.6401,4827,-1729.2,0.20822
4.6451,4825,-1732.8,0.20782
4.6501,4833,-1722,0.20941
4.6551,4826,-1735.4,0.20802
4.6601,4819,-1745.7,0.20662
4.6651,4810,-1756.5,0.20482
4.6701,4796,-1772.1,0.202
