0,4841,430.85,0.211
0.004993,4841,323.48,0.211
0.009994,4828,238.48,0.20842
0.014993,4838,184.64,0.2104
0.019994,4844,143.05,0.21159
0.024993,4830,104.1,0.20882
0.029993,4837,83.62,0.2102
0.034993,4842,67.616,0.21119
0.039993,4831,49.275,0.20901
0.044994,4835,41.683,0.20981
0.049994,4837,35.243,0.2102
0.054993,4832,27.628,0.20921
0.059993,4826,21.539,0.20802
0.064993,4841,25.506,0.211
0.069994,4824,15.529,0.20762
0.074994,4822,14.134,0.20722
0.079995,4836,19.585,0.21001
0.084993,4825,13.527,0.20782
0.089994,4820,11.413,0.20682
0.094994,4840,19.974,0.2108
0.099994,4831,14.634,0.20901
0.105,4817,8.5772,0.20622
0.10999,4830,15.019,0.20882
0.115,4832,15.359,0.20921
0.11999,4817,8.6974,0.20622
0.12499,4826,13.468,0.20802
0.13,4831,15.397,0.20901
0.135,4818,9.5206,0.20642
0.14,4827,14.065,0.20822
0.14499,4835,17.043,0.20981
0.15,4819,9.5275,0.20662
0.15499,4822,11.615,0.20722
0.16,4837,18.035,0.2102
0.165,4823,11.077,0.20742
0.17,4820,10.317,0.20682
0.17499,4833,16.245,0.20941
0.18,4826,12.559,0.20802
0.18499,4815,8.1494,0.20582
0.19,4830,15.429,0.20882
0.195,4829,14.363,0.20862
0.20002,4816,8.6734,0.20602
0.205,4829,14.991,0.20862
0.21,4831,15.237,0.20901
0.215,4829,13.798,0.20862
0.22,4828,13.123,0.20842
0.225,4841,18.283,0.211
0.23,4839,16.082,0.2106
0.235,4824,9.1603,0.20762
0.24,4859,24.17,0.21454
0.245,4842,14.477,0.21119
0.25,4819,4.7144,0.20662
0.255,4836,13.622,0.21001
0.26,4838,14.19,0.2104
0.265,4817,5.2713,0.20622
0.27002,4831,12.805,0.20901
0.275,4836,14.768,0.21001
0.28,4817,6.4876,0.20622
0.285,4829,12.882,0.20862
0.29,4837,16.019,0.2102
0.295,4820,8.2251,0.20682
0.3,4852,22.227,0.21316
0.305,4837,13.736,0.2102
0.31,4821,6.9222,0.20702
0.315,4824,9.5227,0.20762
0.32,4840,16.723,0.2108
0.325,4876,30.037,0.21785
0.33,4819,2.703,0.20662
0.335,4836,12.049,0.21001
0.34,4826,8.0765,0.20802
0.345,4818,5.885,0.20642
0.35,4897,39.106,0.22191
0.355,4828,4.8621,0.20842
0.36,4817,2.2686,0.20622
0.365,4831,10.481,0.20901
0.37,4829,10.11,0.20862
0.375,4907,41.691,0.22383
0.38,4830,3.6874,0.20882
0.385,4834,7.481,0.20961
0.39,4815,0.9527,0.20582
0.395,4823,7.0333,0.20742
0.4,4835,13.178,0.20981
0.405,4819,6.4013,0.20662
0.41,4818,7.4053,0.20642
0.415,4835,15.462,0.20981
0.42,4822,9.3062,0.20722
0.425,4813,6.2908,0.20542
0.43,4792,-0.9499,0.20119
0.435,4778,-3.5734,0.19834
0.44,4762,-6.4556,0.19507
0.445,4808,17.14,0.20442
0.45,4816,18.99,0.20602
0.455,4822,19.558,0.20722
0.46,4826,19.175,0.20802
0.465,4800,6.6279,0.20281
0.47,4785,1.6572,0.19977
0.475,4801,10.731,0.20301
0.48,4838,25.999,0.2104
0.485,4902,47.815,0.22287
0.49,4816,4.3677,0.20602
0.495,4857,22.798,0.21415
0.5,4837,11.985,0.2102
0.505,4817,3.8024,0.20622
0.51,4894,36.634,0.22133
0.515,4833,6.0714,0.20941
0.52006,4815,0.1854,0.20582
0.525,4830,9.1872,0.20882
0.53,4839,13.451,0.2106
0.535,4885,31.367,0.2196
0.54,4831,4.8414,0.20901
0.545,4836,8.5944,0.21001
0.55,4817,1.6435,0.20622
0.555,4826,7.8063,0.20802
0.56,4840,14.413,0.2108
0.565,4822,6.3868,0.20722
0.57,4828,10.104,0.20842
0.575,4844,16.913,0.21159
0.58003,4828,9.0704,0.20842
0.585,4825,8.4428,0.20782
0.59001,4834,12.835,0.20961
0.59501,4828,10.035,0.20842
0.60001,4820,7.1087,0.20682
0.60501,4834,13.851,0.20961
0.61,4825,9.5563,0.20782
0.61501,4818,7.133,0.20642
0.62001,4800,0.77549,0.20281
0.62501,4783,-3.6629,0.19936
0.63001,4759,-10.023,0.19445
0.63501,4799,11.865,0.20261
0.64001,4820,20.202,0.20682
0.64501,4876,40.369,0.21785
0.65001,4822,11.299,0.20722
0.65501,4831,14.894,0.20901
0.66001,4821,9.8636,0.20702
0.66501,4822,10.564,0.20722
0.67001,4898,41.057,0.2221
0.67501,4823,3.5909,0.20742
0.68001,4822,5.0847,0.20722
0.68502,4899,37.367,0.22229
0.69001,4823,0.44817,0.20742
0.69501,4882,26.819,0.21902
0.70001,4796,-11.828,0.202
0.70501,4780,-12.705,0.19875
0.71001,4766,-12.63,0.19589
0.71501,4774,-3.4304,0.19753
0.72001,4780,2.5785,0.19875
0.72501,4779,4.139,0.19855
0.73001,4791,10.689,0.20099
0.73501,4836,29.023,0.21001
0.74001,4833,23.155,0.20941
0.74501,4819,14.304,0.20662
0.75001,4853,27.13,0.21336
0.75501,4897,40.462,0.22191
0.76001,4821,2.6498,0.20702
0.76501,4832,9.185,0.20921
0.77001,4830,8.7871,0.20882
0.77501,4817,3.9989,0.20622
0.78001,4901,39.285,0.22268
0.78501,4838,7.0995,0.2104
0.79001,4819,0.33591,0.20662
0.79501,4805,-2.7715,0.20382
0.80001,4789,-5.9998,0.20058
0.80501,4766,-11.439,0.19589
0.81001,4795,6.0945,0.2018
0.81501,4886,43.879,0.21979
0.82001,4812,5.7505,0.20522
0.82501,4843,19.531,0.21139
0.83001,4793,-3.1491,0.20139
0.83501,4769,-9.7329,0.1965
0.84001,4774,-2.6317,0.19753
0.84501,4815,17.506,0.20582
0.85001,4880,41.801,0.21863
0.85501,4812,6.5296,0.20522
0.86001,4898,41.95,0.2221
0.86501,4821,3.2768,0.20702
0.87001,4810,0.59323,0.20482
0.87501,4828,10.402,0.20842
0.88001,4826,9.5834,0.20802
0.88501,4814,4.8831,0.20562
0.89001,4822,9.5093,0.20722
0.89501,4892,37.725,0.22095
0.90001,4818,1.2239,0.20642
0.90501,4820,4.3428,0.20682
0.91001,4829,9.5078,0.20862
0.91501,4814,3.5931,0.20562
0.92001,4822,8.5265,0.20722
0.92501,4832,13.011,0.20921
0.93001,4886,33.902,0.21979
0.93501,4815,-0.52576,0.20582
0.94001,4855,18.381,0.21375
0.94501,4822,3.0222,0.20722
0.95001,4809,-0.47625,0.20462
0.95501,4828,9.9484,0.20842
0.96001,4828,9.9936,0.20842
0.96501,4800,-1.4326,0.20281
0.97001,4798,0.61559,0.20241
0.97501,4863,29.323,0.21532
0.98001,4785,-7.2722,0.19977
0.98501,4790,-0.88583,0.20078
0.99001,4839,21.839,0.2106
0.99501,4826,13.563,0.20802
1,4827,13.046,0.20822
1.005,4847,20.342,0.21218
1.01,4890,34.85,0.22056
1.015,4810,-3.4969,0.20482
1.02,4792,-7.5121,0.20119
1.025,4782,-7.2934,0.19916
1.03,4759,-12.642,0.19445
1.035,4780,1.7134,0.19875
1.04,4774,1.1514,0.19753
1.045,4763,-1.3949,0.19527
1.05,4767,2.9569,0.19609
1.055,4831,30.907,0.20901
1.06,4761,-3.4158,0.19486
1.065,4790,11.86,0.20078
1.07,4823,24.753,0.20742
1.075,4812,16.389,0.20522
1.08,4858,33.25,0.21434
1.085,4790,-0.38206,0.20078
1.09,4779,-2.475,0.19855
1.095,4773,-2.0047,0.19732
1.1,4817,19,0.20622
1.105,4813,14.931,0.20542
1.11,4820,16.388,0.20682
1.115,4845,24.762,0.21179
1.12,4798,1.7706,0.20241
1.125,4837,19.621,0.2102
1.13,4841,18.691,0.211
1.135,4819,7.4665,0.20662
1.14,4836,14.89,0.21001
1.145,4803,0.083551,0.20341
1.15,4864,27.15,0.21551
1.155,4863,22.338,0.21532
1.16,4835,7.9013,0.20981
1.165,4820,2.2441,0.20682
1.17,4740,-29.222,0.19051
1.175,4816,12.114,0.20602
1.18,4839,20.738,0.2106
1.185,4851,22.703,0.21297
1.19,4837,13.723,0.2102
1.195,4762,-18.268,0.19507
1.2,4811,8.9638,0.20502
1.205,4754,-14.681,0.19342
1.21,4813,15.779,0.20542
1.215,4842,25.862,0.21119
1.22,4833,18.021,0.20941
1.225,4845,20.65,0.21179
1.23,4812,4.3889,0.20522
1.235,4874,30.599,0.21746
1.24,4831,8.0138,0.20901
1.245,4851,16.421,0.21297
1.25,4809,-2.389,0.20462
1.255,4762,-18.967,0.19507
1.26,4856,26.63,0.21395
1.265,4803,0.72759,0.20341
1.27,4848,21.131,0.21238
1.275,4801,-1.0023,0.20301
1.28,4860,25.467,0.21473
1.285,4824,6.8555,0.20762
1.29,4766,-16.528,0.19589
1.295,4812,8.9307,0.20522
1.3,4732,-24.516,0.18884
1.305,4801,12.737,0.20301
1.31,4751,-9.148,0.1928
1.315,4775,5.3617,0.19773
1.32,4808,19.794,0.20442
1.325,4749,-7.6172,0.19238
1.33,4795,15.631,0.2018
1.335,4735,-11.35,0.18947
1.34,4794,18.334,0.2016
1.345,4737,-8.0882,0.18989
1.35,4797,21.143,0.2022
1.355,4803,20.381,0.20341
1.36,4735,-11.111,0.18947
1.365,4776,11.021,0.19794
1.37,4748,-1.4543,0.19217
1.375,4807,25.54,0.20422
1.38,4788,13.351,0.20038
1.385,4793,14.142,0.20139
1.39,4803,16.797,0.20341
1.395,4728,-16.782,0.18801
1.4,4805,21.757,0.20382
1.405,4779,7.6005,0.19855
1.41,4787,11.079,0.20018
1.415,4802,16.559,0.20321
1.42,4808,16.944,0.20442
1.425,4788,6.5314,0.20038
1.43,4750,-8.931,0.19259
1.435,4777,6.6967,0.19814
1.44,4697,-26.995,0.18146
1.445,4717,-9.6,0.1857
1.45,4729,-0.11623,0.18822
1.455,4694,-13.273,0.18083
1.46,4730,7.4458,0.18843
1.465,4688,-10.702,0.17954
1.47,4765,26.758,0.19568
1.475,4718,1.9339,0.18591
1.48,4746,15.238,0.19176
1.485,4709,-2.5601,0.18401
1.49,4750,17.433,0.19259
1.495,4729,5.9767,0.18822
1.5,4668,-20.167,0.17525
1.505,4721,9.7453,0.18654
1.51,4632,-30.009,0.1674
1.515,4711,14.03,0.18443
1.52,4653,-13.177,0.17199
1.525,4663,-3.7549,0.17416
1.53,4627,-17.234,0.16629
1.535,4623,-13.109,0.16541
1.54,4628,-6.0016,0.16651
1.545,4574,-27.645,0.15443
1.55,4632,7.2408,0.1674
1.555,4557,-27.52,0.15055
1.56,4626,12.481,0.16607
1.565,4616,6.2223,0.16386
1.57,4585,-8.1144,0.15692
1.575,4606,4.9189,0.16163
1.58,4572,-10.591,0.15397
1.585,4571,-7.0641,0.15375
1.59,4573,-3.0584,0.1542
1.595,4577,0.84707,0.15511
1.6,4576,1.4437,0.15488
1.605,4503,-32.14,0.13799
1.61,4537,-6.6498,0.14594
1.615,4513,-15.245,0.14035
1.62,4519,-7.4279,0.14175
1.625,4506,-10.702,0.1387
1.63,4510,-5.0338,0.13964
1.635,4512,-1.773,0.14011
1.64,4483,-14.318,0.13325
1.645,4522,9.0573,0.14245
1.65,4444,-30.219,0.12385
1.655,4501,6.2168,0.13752
1.66,4474,-7.539,0.1311
1.665,4507,11.262,0.13894
1.67,4481,-3.2414,0.13277
1.675,4424,-29.759,0.11895
1.68,4484,8.2385,0.13349
1.685,4426,-21.681,0.11944
1.69,4477,9.8234,0.13182
1.695,4401,-29.771,0.11324
1.7,4444,0.088272,0.12385
1.705,4407,-17.812,0.11474
1.71,4411,-10.631,0.11573
1.715,4439,6.7675,0.12263
1.72,4412,-7.8492,0.11598
1.725,4487,31.964,0.1342
1.73,4394,-21.744,0.11149
1.735,4462,18.498,0.12821
1.74,4430,-1.3814,0.12042
1.745,4457,13.067,0.127
1.75,4429,-3.4713,0.12018
1.755,4380,-26.849,0.10797
1.76,4430,5.9275,0.12042
1.765,4396,-12.157,0.112
1.77,4442,14.688,0.12336
1.775,4398,-10.58,0.1125
1.78,4381,-16.059,0.10823
1.785,4411,3.847,0.11573
1.79,4360,-22.789,0.1029
1.795,4395,1.499,0.11174
1.8,4371,-10.74,0.1057
1.805,4415,14.943,0.11672
1.81,4336,-29.157,0.096727
1.815,4405,14.359,0.11424
1.82,4380,-1.5982,0.10797
1.825,4337,-23.192,0.096986
1.83,4395,13.164,0.11174
1.835,4384,4.6291,0.10898
1.84,4395,9.526,0.11174
1.845,4354,-13.636,0.10136
1.85,4437,32.619,0.12214
1.855,4448,30.367,0.12482
1.86,4434,16.283,0.1214
1.865,4435,13.244,0.12165
1.87,4380,-17.435,0.10797
1.875,4396,-4.3103,0.112
1.88,4411,4.9235,0.11573
1.885,4437,17.29,0.12214
1.89,4448,18.977,0.12482
1.895,4444,12.808,0.12385
1.9,4445,10.696,0.12409
1.905,4422,-2.8781,0.11845
1.91,4455,14.927,0.12652
1.915,4430,-0.63619,0.12042
1.92,4450,10.126,0.12531
1.925,4444,5.2456,0.12385
1.93,4438,1.5859,0.12238
1.935,4457,11.268,0.127
1.94,4431,-3.8372,0.12067
1.945,4452,8.2382,0.12579
1.95,4395,-21.858,0.11174
1.955,4442,7.959,0.12336
1.96,4487,28.717,0.1342
1.965,4460,8.9536,0.12773
1.97,4478,16.221,0.13206
1.975,4458,3.0333,0.12725
1.98,4494,20.581,0.13587
1.985,4449,-5.902,0.12506
1.99,4489,15.937,0.13468
1.995,4524,29.513,0.14292
2,4457,-9.5993,0.127
2.0051,4512,20.355,0.14011
2.01,4431,-23.652,0.12067
2.015,4459,-3.0307,0.12749
2.02,4433,-14.451,0.12116
2.025,4436,-8.6164,0.12189
2.03,4468,10.08,0.12966
2.035,4441,-5.1173,0.12312
2.04,4491,21.424,0.13515
2.045,4465,4.0563,0.12893
2.05,4490,15.964,0.13492
2.055,4456,-3.9572,0.12676
2.06,4469,4.1649,0.1299
2.065,4457,-2.064,0.127
2.07,4400,-29.437,0.11299
2.075,4453,5.235,0.12603
2.08,4395,-24.609,0.11174
2.085,4443,6.3848,0.1236
2.09,4430,-1.1126,0.12042
2.095,4460,14.68,0.12773
2.1,4449,6.1677,0.12506
2.105,4429,-4.7359,0.12018
2.11,4446,5.552,0.12433
2.115,4420,-8.244,0.11796
2.12,4463,15.844,0.12845
2.1251,4450,6.0574,0.12531
2.13,4441,0.68578,0.12312
2.135,4452,6.5992,0.12579
2.14,4432,-4.3937,0.12091
2.145,4438,0.32291,0.12238
2.15,4428,-4.1571,0.11993
2.155,4453,9.9432,0.12603
2.16,4424,-6.4213,0.11895
2.165,4446,6.7811,0.12433
2.17,4454,9.6408,0.12628
2.175,4424,-7.1395,0.11895
2.18,4445,5.7477,0.12409
2.185,4418,-8.6281,0.11747
2.19,4448,9.1298,0.12482
2.195,4414,-9.6181,0.11648
2.2,4464,18.306,0.12869
2.205,4408,-13.69,0.11499
2.21,4371,-28.667,0.1057
2.215,4373,-19.935,0.1062
2.22,4384,-8.8025,0.10898
2.2251,4361,-18.073,0.10315
2.23,4377,-4.8488,0.10722
2.235,4403,10.069,0.11374
2.24,4371,-8.5074,0.1057
2.245,4418,18.032,0.11747
2.25,4420,14.909,0.11796
2.255,4367,-15.531,0.10468
2.26,4389,0.11596,0.11024
2.265,4353,-18.18,0.10111
2.27,4386,3.846,0.10949
2.275,4346,-17.555,0.099308
2.28,4355,-8.117,0.10162
2.285,4381,7.7072,0.10823
2.29,4320,-25.901,0.092568
2.295,4381,12.829,0.10823
2.3,4359,-1.5295,0.10264
2.305,4379,9.4944,0.10772
2.31,4396,16.118,0.112
2.315,4389,8.7972,0.11024
2.3201,4384,4.346,0.10898
2.3251,4355,-11.452,0.10162
2.33,4388,8.8264,0.10999
2.335,4362,-6.5114,0.10341
2.34,4367,-1.9701,0.10468
2.345,4323,-24.311,0.093351
2.35,4342,-7.8975,0.098277
2.355,4357,2.1797,0.10213
2.36,4362,4.4681,0.10341
2.365,4380,12.908,0.10797
2.37,4349,-6.1971,0.10008
2.375,4362,2.3993,0.10341
2.38,4325,-17.427,0.093872
2.385,4337,-6.4799,0.096986
2.39,4339,-3.6027,0.097503
2.395,4332,-6.2135,0.095691
2.4,4328,-6.6037,0.094652
2.405,4302,-18.694,0.087844
2.41,4333,2.6714,0.09595
2.415,4305,-12.821,0.088634
2.42,4336,7.0177,0.096727
2.425,4334,4.3014,0.096209
2.43,4313,-7.843,0.090736
2.435,4352,14.873,0.10085
2.44,4361,15.962,0.10315
2.445,4382,22.986,0.10848
2.45,4346,-1.3142,0.099308
2.455,4383,18.455,0.10873
2.46,4353,-1.5188,0.10111
2.465,4336,-9.8494,0.096727
2.47,4340,-5.0574,0.097761
2.475,4322,-13.132,0.09309
2.48,4328,-6.4777,0.094652
2.485,4313,-12.697,0.090736
2.49,4340,4.9599,0.097761
2.495,4310,-12.108,0.089949
2.5,4335,4.3513,0.096468
2.505,4336,3.8991,0.096727
2.51,4322,-4.3886,0.09309
2.515,4333,2.6641,0.09595
2.52,4318,-5.8653,0.092045
2.525,4328,1.0322,0.094652
2.53,4304,-11.952,0.088371
2.535,4332,6.0746,0.095691
2.54,4341,9.3906,0.098019
2.545,4303,-13.103,0.088107
2.55,4337,8.3978,0.096986
2.555,4305,-10.672,0.088634
2.56,4308,-6.3065,0.089424
2.565,4310,-3.5906,0.089949
2.57,4338,12.259,0.097245
2.575,4314,-3.5009,0.090999
2.58,4350,16.513,0.10034
2.585,4383,29.606,0.10873
2.59,4357,8.8482,0.10213
2.595,4363,9.93,0.10366
2.6,4335,-7.0577,0.096468
2.605,4343,-0.88465,0.098535
2.61,4334,-5.2358,0.096209
2.615,4323,-9.5945,0.093351
2.62,4335,-0.67551,0.096468
2.625,4307,-15.289,0.089161
2.63,4334,3.0523,0.096209
2.635,4314,-8.2439,0.090999
2.64,4338,6.6753,0.097245
2.645,4313,-8.1854,0.090736
2.65,4311,-7.1117,0.090212
2.6551,4330,4.8767,0.095172
2.66,4363,21.069,0.10366
2.665,4384,26.766,0.10898
2.67,4356,5.7029,0.10187
2.675,4367,10.189,0.10468
2.68,4364,6.2772,0.10392
2.6851,4345,-5.0176,0.09905
2.69,4316,-18.923,0.091522
2.6951,4285,-30.718,0.083337
2.7001,4302,-13.697,0.087844
2.705,4273,-25.937,0.080129
2.7101,4324,8.1279,0.093611
2.715,4301,-6.1977,0.08758
2.7201,4326,8.7603,0.094132
2.725,4333,10.31,0.09595
2.7301,4316,-1.2634,0.091522
2.7351,4325,3.9078,0.093872
2.7401,4346,14.09,0.099308
2.7451,4389,32.966,0.11024
2.7501,4356,7.757,0.10187
2.7551,4368,12.23,0.10493
2.7601,4352,1.0126,0.10085
2.7651,4304,-24.526,0.088371
2.7701,4361,11.964,0.10315
2.7751,4365,11.207,0.10417
2.7801,4377,14.798,0.10722
2.7851,4346,-4.8506,0.099308
2.7901,4357,2.3362,0.10213
2.7951,4342,-5.9087,0.098277
2.8001,4312,-20.164,0.090474
2.8051,4338,-1.1213,0.097245
2.8101,4301,-20.428,0.08758
2.8151,4327,-1.2802,0.094392
2.8201,4353,12.85,0.10111
2.8251,4380,23.772,0.10797
2.8301,4377,16.424,0.10722
2.8351,4343,-5.2236,0.098535
2.8401,4385,18.13,0.10923
2.8451,4358,-0.18381,0.10238
2.8501,4381,12.015,0.10823
2.8551,4398,17.962,0.1125
2.8601,4399,14.242,0.11275
2.8651,4359,-9.6614,0.10264
2.8701,4338,-17.967,0.097245
2.8751,4344,-10.044,0.098793
2.8801,4323,-18.41,0.093351
2.8851,4375,13.678,0.10671
2.8901,4394,20.222,0.11149
2.8951,4377,6.6524,0.10722
2.9001,4383,8.3345,0.10873
2.9051,4338,-16.939,0.097245
2.9101,4382,10.494,0.10848
2.9151,4365,-0.68194,0.10417
2.9201,4387,11.11,0.10974
2.9251,4358,-6.4223,0.10238
2.9301,4370,1.6908,0.10544
2.9351,4351,-8.3786,0.10059
2.9401,4319,-22.955,0.092307
2.9451,4349,-1.1268,0.10008
2.9501,4351,0.38957,0.10059
2.9551,4390,20.689,0.11049
2.9601,4351,-4.4986,0.10059
2.9651,4369,6.2291,0.10519
2.9701,4349,-5.5451,0.10008
2.9751,4322,-18.214,0.09309
2.9801,4372,12.793,0.10595
2.9851,4364,5.6218,0.10392
2.9901,4380,12.7,0.10797
2.9951,4344,-9.0099,0.098793
3.0001,4384,14.27,0.10898
3.0051,4331,-16.751,0.095432
3.0101,4335,-10.226,0.096468
3.0151,4337,-6.424,0.096986
3.0201,4309,-19.555,0.089687
3.0251,4331,-2.7909,0.095432
3.0301,4328,-3.5687,0.094652
3.0351,4330,-1.5073,0.095172
3.0401,4323,-4.7481,0.093351
3.0451,4331,0.78273,0.095432
3.0501,4327,-1.4466,0.094392
3.0551,4275,-29.028,0.080665
3.0601,4331,8.4433,0.095432
3.0651,4308,-5.9041,0.089424
3.0701,4325,4.692,0.093872
3.0751,4373,28.733,0.1062
3.0801,4382,26.257,0.10848
3.0851,4379,18.264,0.10772
3.0901,4339,-7.0039,0.097503
3.0951,4355,3.3295,0.10162
3.1001,4298,-27.616,0.086787
3.1051,4354,9.2022,0.10136
3.1101,4311,-15.743,0.090212
3.1151,4327,-3.1495,0.094392
3.1201,4337,3.0321,0.096986
3.1251,4317,-8.2532,0.091784
3.1301,4334,2.9387,0.096209
3.1351,4305,-13.182,0.088634
3.1401,4338,7.7712,0.097245
3.1451,4335,4.3076,0.096468
3.1501,4323,-3.059,0.093351
3.1551,4334,3.6221,0.096209
3.1601,4310,-9.9896,0.089949
3.1651,4328,2.1845,0.094652
3.1701,4338,6.9932,0.097245
3.1751,4377,25.676,0.10722
3.1801,4355,7.9232,0.10162
3.1851,4344,0.30888,0.098793
3.1901,4316,-14.471,0.091522
3.1951,4278,-31.252,0.081468
3.2001,4306,-8.1811,0.088898
3.2051,4313,-2.3402,0.090736
3.2101,4358,22.06,0.10238
3.2151,4339,6.6179,0.097503
3.2201,4338,4.5107,0.097245
3.2251,4334,1.3555,0.096209
3.2301,4299,-17.592,0.087051
3.2351,4309,-7.7342,0.089687
3.2401,4252,-36.838,0.074463
3.2451,4290,-6.7809,0.084667
3.2501,4306,3.5122,0.088898
3.2551,4328,14.339,0.094652
3.2601,4309,0.58367,0.089687
3.2651,4296,-6.5751,0.086258
3.2701,4302,-1.7094,0.087844
3.2751,4238,-36.424,0.070647
3.2801,4305,9.357,0.088634
3.2851,4331,20.804,0.095432
3.2901,4328,13.947,0.094652
3.2951,4345,19.414,0.09905
3.3001,4317,-0.27126,0.091784
3.3051,4336,9.9213,0.096727
3.3101,4308,-7.4354,0.089424
3.3151,4306,-6.6072,0.088898
3.3201,4237,-42.754,0.070373
3.3251,4269,-14.35,0.079055
3.3301,4296,3.8668,0.086258
3.3351,4244,-25.724,0.072286
3.3401,4297,9.6711,0.086523
3.3451,4240,-24.179,0.071194
3.3501,4256,-9.3813,0.075547
3.3551,4244,-13.869,0.072286
3.3601,4298,19.015,0.086787
3.3651,4337,34.893,0.096986
3.3701,4297,4.6622,0.086523
3.3751,4316,13.614,0.091522
3.3801,4248,-26.92,0.073375
3.3851,4273,-6.4775,0.080129
3.3901,4293,5.917,0.085463
3.3951,4286,0.52095,0.083603
3.4001,4264,-11.755,0.077709
3.4051,4211,-38.562,0.063199
3.4101,4273,5.4873,0.080129
3.4151,4252,-7.66,0.074463
3.4201,4273,5.6251,0.080129
3.4251,4291,13.822,0.084932
3.4301,4253,-10.643,0.074734
3.4351,4284,8.8671,0.08307
3.4401,4248,-13.325,0.073375
3.4451,4258,-4.6296,0.076089
3.4501,4238,-14.78,0.070647
3.4551,4271,6.9725,0.079593
3.4601,4286,13.198,0.083603
3.4651,4233,-19.557,0.069276
3.4701,4265,2.9054,0.077979
3.4751,4261,-0.24162,0.0769
3.4801,4290,15.468,0.084667
3.4851,4254,-8.3257,0.075005
3.4901,4273,4.0362,0.080129
3.4951,4274,3.3863,0.080397
3.5001,4241,-15.875,0.071467
3.5051,4281,9.9685,0.08227
3.5101,4228,-22.059,0.067902
3.5151,4262,2.1816,0.07717
3.5201,4230,-16.387,0.068452
3.5251,4250,-1.3572,0.073919
3.5301,4221,-17.498,0.065971
3.5351,4226,-10.569,0.067351
3.5401,4298,31.47,0.086787
3.5451,4243,-6.8422,0.072013
3.5501,4266,7.3605,0.078248
3.5551,4253,-1.8952,0.074734
3.5601,4267,6.0739,0.078517
3.5651,4247,-6.725,0.073103
3.5701,4228,-15.886,0.067902
3.5751,4231,-10.469,0.068727
3.5801,4183,-35.429,0.055352
3.5851,4285,30.269,0.083337
3.5901,4246,0.92694,0.072831
3.5951,4269,13.125,0.079055
3.6001,4228,-13.196,0.067902
3.6051,4274,15.362,0.080397
3.6101,4273,10.715,0.080129
3.6151,4252,-3.7636,0.074463
3.6201,4279,11.813,0.081736
3.6251,4235,-15.671,0.069825
3.6301,4267,5.7919,0.078517
3.6351,4262,1.3744,0.07717
3.6401,4272,6.3196,0.079861
3.6451,4273,5.0893,0.080129
3.6501,4255,-6.2772,0.075276
3.6551,4282,9.9373,0.082537
3.6601,4261,-4.2382,0.0769
3.6651,4279,6.5285,0.081736
3.6701,4253,-9.5684,0.074734
3.6751,4268,0.93356,0.078786
3.6801,4274,3.8157,0.080397
3.6851,4255,-7.7641,0.075276
3.6901,4269,1.7251,0.079055
3.6951,4222,-25.034,0.066248
3.7001,4281,13.751,0.08227
3.7051,4291,15.54,0.084932
3.7101,4271,0.57316,0.079593
3.7151,4283,6.831,0.082804
3.7201,4256,-9.8432,0.075547
3.7251,4291,11.636,0.084932
3.7301,4259,-8.9281,0.076359
3.7351,4278,3.5982,0.081468
3.7401,4236,-20.664,0.070099
3.7451,4273,4.8273,0.080129
3.7501,4290,12.709,0.084667
3.7551,4218,-30.498,0.065141
3.7601,4280,11.392,0.082003
3.7651,4240,-13.723,0.071194
3.7701,4243,-8.807,0.072013
3.7751,4264,4.8155,0.077709
3.7801,4275,9.4327,0.080665
3.7851,4265,1.3879,0.077979
3.7901,4248,-8.5439,0.073375
3.7951,4261,0.59979,0.0769
3.8001,4277,9.0364,0.081201
3.8051,4271,3.3059,0.079593
3.8101,4229,-21.002,0.068177
3.8151,4254,-1.9906,0.075005
3.8201,4297,21.817,0.086523
3.8251,4294,14.549,0.085728
3.8301,4324,26.859,0.093611
3.8351,4299,6.6393,0.087051
3.8401,4320,16.175,0.092568
3.8451,4309,6.1997,0.089687
3.8501,4277,-12.7,0.081201
3.8551,4321,14.196,0.092829
3.8601,4296,-2.7999,0.086258
3.8651,4308,4.3521,0.089424
3.8701,4282,-10.811,0.082537
3.8751,4333,19.266,0.09595
3.8801,4337,16.551,0.096986
3.8851,4316,1.2801,0.091522
3.8901,4337,12.162,0.096986
3.8951,4318,-0.91067,0.092045
3.9001,4320,0.45425,0.092568
3.9051,4307,-6.5483,0.089161
3.9101,4339,12.187,0.097503
3.9151,4326,2.3213,0.094132
3.9201,4305,-9.4049,0.088634
3.9251,4343,13.239,0.098535
3.9301,4302,-11.83,0.087844
3.9351,4327,4.5804,0.094392
3.9401,4323,1.3763,0.093351
3.9451,4322,0.57381,0.09309
3.9501,4327,3.1653,0.094392
3.9551,4304,-9.8439,0.088371
3.9601,4316,-0.87428,0.091522
3.9651,4300,-9.1862,0.087316
3.9701,4330,9.2038,0.095172
3.9751,4324,3.762,0.093611
3.9801,4324,2.8816,0.093611
3.9851,4358,20.144,0.10238
3.9901,4296,-17.739,0.086258
3.9951,4324,1.8075,0.093611
4.0001,4314,-3.9058,0.090999
4.0051,4364,23.521,0.10392
4.0101,4349,9.891,0.10008
4.0151,4354,10.159,0.10136
4.0201,4346,3.5667,0.099308
4.0251,4298,-22.737,0.086787
4.0301,4341,6.0242,0.098019
4.0351,4283,-26.437,0.082804
4.0401,4332,6.5888,0.095691
4.0451,4328,2.8925,0.094652
4.0501,4340,8.5994,0.097761
4.0551,4331,1.7837,0.095432
4.0601,4305,-12.44,0.088634
4.0651,4351,15.183,0.10059
4.0701,4303,-14.018,0.088107
4.0751,4333,5.5984,0.09595
4.0801,4343,9.5597,0.098535
4.0851,4330,0.3983,0.095172
4.0901,4321,-4.3778,0.092829
4.0951,4285,-22.563,0.083337
4.1001,4334,9.4429,0.096209
4.1051,4300,-11.022,0.087316
4.1101,4329,7.3064,0.094912
4.1151,4325,3.4068,0.093872
4.1201,4327,3.6809,0.094392
4.1251,4347,13.393,0.099565
4.1301,4309,-10.043,0.089687
4.1351,4325,1.106,0.093872
4.1401,4280,-23.327,0.082003
4.1451,4308,-2.2809,0.089424
4.1501,4328,8.9961,0.094652
4.1551,4344,15.236,0.098793
4.1601,4314,-4.4323,0.090999
4.1651,4317,-1.6485,0.091784
4.1701,4329,5.216,0.094912
4.1751,4287,-18.572,0.083869
4.1801,4347,18.179,0.099565
4.1851,4289,-17.283,0.084401
4.1901,4326,6.9645,0.094132
4.1951,4336,10.562,0.096727
4.2001,4275,-24.821,0.080665
4.2051,4349,21.077,0.10008
4.2101,4308,-5.9167,0.089424
4.2151,4344,14.75,0.098793
4.2201,4289,-18.266,0.084401
4.2251,4274,-21.812,0.080397
4.2301,4300,-2.2103,0.087316
4.2351,4277,-14.151,0.081201
4.2401,4287,-5.1858,0.083869
4.2451,4228,-36.538,0.067902
4.2501,4262,-8.5569,0.07717
4.2551,4279,2.7767,0.081736
4.2601,4273,-1.3352,0.080129
4.2651,4267,-4.4267,0.078517
4.2701,4267,-3.4573,0.078517
4.2751,4275,1.6495,0.080665
4.2801,4233,-22.165,0.069276
4.2851,4279,8.6584,0.081736
4.2901,4224,-24.185,0.0668
4.2951,4248,-4.897,0.073375
4.3001,4286,16.994,0.083603
4.3051,4254,-5.0203,0.075005
4.3101,4299,20.644,0.087051
4.3151,4225,-25.486,0.067076
4.3201,4304,24.201,0.088371
4.3251,4259,-6.5586,0.076359
4.3301,4272,2.0776,0.079861
4.3351,4280,5.773,0.082003
4.3401,4252,-11.218,0.074463
4.3451,4236,-17.475,0.070099
4.3501,4252,-4.373,0.074463
4.3551,4275,9.1854,0.080665
4.3601,4239,-13.208,0.07092
4.3651,4289,17.428,0.084401
4.3701,4278,6.8875,0.081468
4.3751,4245,-13.194,0.072558
4.3801,4276,7.0396,0.080933
4.3851,4253,-7.5544,0.074734
4.3901,4264,0.23852,0.077709
4.3951,4301,20.156,0.08758
4.4001,4232,-22.979,0.069002
4.4051,4287,12.974,0.083869
4.4101,4220,-27.551,0.065695
4.4151,4281,13.011,0.08227
4.4201,4237,-14.731,0.070373
4.4251,4288,16.866,0.084135
4.4301,4268,1.5346,0.078786
4.4351,4276,5.3674,0.080933
4.4401,4268,-0.51841,0.078786
4.4451,4288,10.382,0.084135
4.4501,4364,48.037,0.10392
4.4551,4315,10.094,0.091261
4.4601,4303,1.1103,0.088107
4.4651,4311,5.1228,0.090212
4.4701,4283,-11.287,0.082804
4.4751,4279,-10.65,0.081736
4.4801,4229,-35.702,0.068177
4.4851,4268,-5.1808,0.078786
4.4901,4287,6.3775,0.083869
4.4951,4324,24.559,0.093611
4.5001,4322,17.267,0.09309
4.5051,4298,0.036502,0.086787
4.5101,4335,19.776,0.096468
4.5151,4298,-4.9422,0.086787
4.5201,4315,5.4442,0.091261
4.5251,4334,14.203,0.096209
4.5301,4327,6.9738,0.094392
4.5351,4328,5.8164,0.094652
4.5401,4277,-23.038,0.081201
4.5451,4297,-6.3552,0.086523
4.5501,4238,-37.163,0.070647
4.5551,4296,3.9898,0.086258
4.5601,4348,30.631,0.099822
4.5651,4343,20.316,0.098535
4.5701,4309,-2.8063,0.089687
4.5751,4282,-16.656,0.082537
4.5801,4290,-8.1112,0.084667
4.5851,4264,-20.288,0.077709
4.5901,4269,-12.49,0.079055
4.5951,4273,-7.2317,0.080129
4.6001,4265,-9.8941,0.077979
4.6051,4271,-4.2198,0.079593
4.6101,4251,-14.304,0.074191
4.6151,4270,-0.37212,0.079324
4.6201,4286,8.3169,0.083603
4.6251,4307,17.452,0.089161
4.6301,4317,18.336,0.091784
4.6351,4253,-21.135,0.074734
4.6401,4267,-8.191,0.078517
4.6451,4213,-36.384,0.063755
4.6501,4243,-10.561,0.072013
4.6551,4247,-5.8823,0.073103
4.6601,4271,8.6352,0.079593
4.6651,4284,13.376,0.08307
4.6701,4243,-12.727,0.072013
4.6751,4287,14.495,0.083869
4.6801,4220,-26.415,0.065695
4.6851,4247,-4.8574,0.073103
4.6901,4240,-7.7524,0.071194
4.6951,4236,-8.2697,0.070099
4.7001,4255,4.1357,0.075276
4.7051,4247,-1.5746,0.073103
4.7101,4260,5.7867,0.076629
4.7151,4228,-13.709,0.067902
4.7201,4271,13.361,0.079593
4.7251,4237,-9.0393,0.070373
4.7301,4200,-27.913,0.060132
4.7351,4189,-27.492,0.057044
4.7401,4123,-59.62,0.038096
4.7451,4167,-19.139,0.05081
4.7501,4144,-28.314,0.044205
4.7551,4163,-10.595,0.049668
4.7601,4154,-13.768,0.047088
4.7651,4196,13.451,0.059011
4.7701,4226,26.545,0.067351
4.7751,4181,-6.2777,0.054787
4.7801,4211,11.975,0.063199
4.7851,4199,1.6562,0.059852
4.7901,4209,6.4735,0.062643
4.7951,4212,6.1021,0.063477
4.8001,4201,-2.123,0.060412
4.8051,4210,3.1042,0.062921
4.8101,4173,-19.34,0.052518
4.8151,4161,-21.926,0.049095
4.8201,4163,-15.746,0.049668
4.8251,4161,-13.483,0.049095
4.8301,4137,-24.77,0.042177
4.8351,4097,-43.135,0.030426
4.8401,4113,-23.306,0.03516
4.8451,4087,-33.924,0.027444
4.8501,4107,-14.039,0.03339
4.8551,4082,-26.513,0.025946
4.8601,4140,14.22,0.043047
4.8651,4128,2.7098,0.039557
4.8701,4122,-2.3509,0.037803
4.8751,4134,4.5971,0.041305
4.8801,4106,-14.103,0.033094
4.8851,4105,-11.962,0.032798
4.8901,4061,-36.709,0.019607
4.8951,4061,-28.368,0.019607
4.9001,4038,-36.541,0.012571
4.9051,3997,-54.472,-0.000217
4.9101,4005,-36.74,0.002303
4.9151,3965,-54.663,-0.010424
4.9201,3987,-27.824,-0.003385
4.9251,3995,-16.967,-0.000849
4.9301,4023,3.8874,0.007929
4.9351,4014,-4.1318,0.005124
4.9401,4029,5.1272,0.009791
4.9451,4040,9.4867,0.013187
4.9501,3991,-25.399,-0.002116
4.9551,4007,-10.005,0.002931
4.9601,3974,-30.161,-0.007533
4.9651,3984,-17.413,-0.004339
4.9701,3980,-17.015,-0.005614
4.9751,4021,12.251,0.007307
4.9801,4022,8.4512,0.007618
4.9851,3982,-20.717,-0.004977
4.9901,3992,-10.378,-0.001799
4.9951,3958,-31.361,-0.012683
5.0001,3962,-22.257,-0.011391
5.0051,3925,-42.774,-0.023469
5.0101,3923,-34.897,-0.024129
5.0151,3916,-32.443,-0.026449
5.0201,3900,-36.824,-0.031788
5.0251,3914,-19.714,-0.027113
5.0301,3885,-36.342,-0.036843
5.0351,3911,-11.153,-0.028112
5.0401,3896,-20.379,-0.033131
5.0451,3910,-7.4896,-0.028445
5.0501,3913,-5.3675,-0.027446
5.0551,3891,-20.861,-0.034815
5.0601,3908,-5.7909,-0.029112
5.0651,3885,-21.936,-0.036843
5.0701,3914,1.6041,-0.027113
5.0751,3886,-19.795,-0.036504
5.0801,3923,8.6072,-0.024129
5.0851,3899,-11.686,-0.032124
5.0901,3893,-14.682,-0.034141
5.0951,3903,-5.9601,-0.030783
5.1001,3891,-14.516,-0.034815
5.1051,3911,0.98918,-0.028112
5.1101,3880,-22.363,-0.038538
5.1151,3889,-12.359,-0.03549
5.1201,3834,-49.698,-0.054392
5.1251,3907,11.798,-0.029446
5.1301,3892,-3.331,-0.034478
5.1351,3856,-29.434,-0.046752
5.1401,3898,5.2283,-0.032459
5.1451,3884,-7.6175,-0.037182
5.1501,3912,11.611,-0.027779
5.1551,3888,-9.588,-0.035828
5.1601,3904,1.9609,-0.030448
5.1651,3881,-16.182,-0.038199
5.1701,3850,-35.654,-0.048825
5.1751,3891,0.017737,-0.034815
5.1801,3932,26.017,-0.021162
5.1851,3961,36.969,-0.011714
5.1901,3921,-0.73394,-0.024791
5.1951,3912,-8.3451,-0.027779
5.2001,3888,-24.381,-0.035828
5.2051,3858,-40.883,-0.046063
5.2101,3863,-28.897,-0.044343
5.2151,3843,-37.585,-0.051253
5.2201,3854,-22.256,-0.047442
5.2251,3897,11.32,-0.032795
5.2301,3932,30.347,-0.021162
5.2351,3967,44.163,-0.00978
5.2401,3919,-0.63295,-0.025453
5.2451,3957,23.264,-0.013007
5.2501,3899,-23.232,-0.032124
5.2551,3930,1.9994,-0.02182
5.2601,3961,20.509,-0.011714
5.2651,3956,10.486,-0.013331
5.2701,3947,0.35188,-0.016254
5.2751,3927,-14.636,-0.022809
5.2801,3924,-14.511,-0.023799
5.2851,3886,-38.354,-0.036504
5.2901,3916,-9.7923,-0.026449
5.2951,3914,-10.302,-0.027113
5.3001,3861,-45.92,-0.045031
5.3051,3957,29.313,-0.013007
5.3101,3938,7.6944,-0.019193
5.3151,3972,26.674,-0.008174
5.3201,3912,-21.579,-0.027779
5.3251,3967,19.048,-0.00978
5.3301,3962,9.4791,-0.011391
5.3351,3965,7.6131,-0.010424
5.3401,3974,10.174,-0.007533
5.3451,3944,-13.582,-0.017232
5.3501,3962,0.34925,-0.011391
5.3551,3971,4.7815,-0.008495
5.3601,3972,2.8645,-0.008174
5.3651,3939,-21.04,-0.018866
5.3701,3962,-1.8705,-0.011391
5.3751,3972,3.7969,-0.008174
5.3801,3934,-23.688,-0.020505
5.3851,3982,12.587,-0.004977
5.3901,3948,-14.285,-0.015928
5.3951,3962,-2.7935,-0.011391
5.4001,3945,-14.708,-0.016906
5.4051,3973,6.1005,-0.007853
5.4101,3948,-13.268,-0.015928
5.4151,3985,13.02,-0.004021
5.4201,4018,29.652,0.006373
5.4251,4006,13.287,0.002617
5.4301,4015,14.498,0.005436
5.4351,4016,10.328,0.005749
5.4401,4028,14.223,0.009481
5.4451,4010,-1.8966,0.003872
5.4501,4006,-5.0674,0.002617
5.4551,4032,11.665,0.010719
5.4601,4000,-12.716,0.000729
5.4651,4029,7.9174,0.009791
5.4701,4006,-9.7601,0.002617
5.4751,4025,3.7588,0.008551
5.4801,4013,-5.8527,0.004811
5.4851,4031,6.0175,0.01041
5.4901,4024,-0.93642,0.00824
5.4951,4035,5.2511,0.011646
5.5001,4094,39.475,0.029533
5.5051,4082,21.341,0.025946
5.5101,4094,22.464,0.029533
5.5151,4103,21.495,0.032206
5.5201,4096,11.119,0.030128
5.5251,4090,3.9719,0.02834
5.5301,4083,-1.9892,0.026246
5.5351,4113,16.028,0.03516
5.5401,4091,-1.9595,0.028639
5.5451,4071,-14.368,0.022636
5.5501,4052,-23.206,0.016865
5.5551,4021,-37.599,0.007307
5.5601,4037,-18.81,0.012263
5.5651,4012,-30.747,0.004499
5.5701,4028,-13.71,0.009481
5.5751,4045,-0.44612,0.014723
5.5801,4093,28.424,0.029235
5.5851,4067,4.5277,0.021426
5.5901,4098,21.582,0.030723
5.5951,4106,20.262,0.033094
5.6001,4079,-1.9549,0.025046
5.6051,4099,10.049,0.03102
5.6101,4081,-4.1098,0.025646
5.6151,4084,-1.9022,0.026546
5.6201,4075,-7.6051,0.023842
5.6251,4100,8.9006,0.031317
5.6301,4106,9.6497,0.033094
5.6351,4079,-9.8282,0.025046
5.6401,4137,26.992,0.042177
5.6451,4127,13.694,0.039265
5.6501,4145,20.394,0.044494
5.6551,4153,19.49,0.0468
5.6601,4162,19.42,0.049382
5.6651,4158,11.801,0.048236
5.6701,4136,-4.5008,0.041887
5.6751,4176,19.702,0.05337
5.6801,4094,-34.256,0.029533
5.6851,4088,-29.705,0.027743
5.6901,4053,-44.287,0.017171
5.6951,4050,-35.575,0.016254
5.7001,4043,-31.629,0.014109
5.7051,4075,-4.478,0.023842
5.7101,4095,8.2023,0.029831
5.7151,4069,-10.436,0.022031
5.7201,4104,12.903,0.032502
5.7251,4083,-3.7473,0.026246
5.7301,4095,3.88,0.029831
5.7351,4132,24.528,0.040723
5.7401,4123,12.436,0.038096
5.7451,4148,23.613,0.04536
5.7501,4131,7.1385,0.040432
5.7551,4108,-8.8911,0.033685
5.7601,4135,9.0242,0.041596
5.7651,4151,15.759,0.046225
5.7701,4162,17.833,0.049382
5.7751,4136,-2.3243,0.041887
5.7801,4149,5.5684,0.045649
5.7851,4112,-18.208,0.034865
5.7901,4117,-11.021,0.036336
5.7951,4087,-26.821,0.027444
5.8001,4108,-7.7986,0.033685
5.8051,4104,-8.7279,0.032502
5.8101,4091,-14.911,0.028639
5.8151,4104,-3.7878,0.032502
5.8201,4080,-17.965,0.025346
5.8251,4096,-4.2331,0.030128
5.8301,4067,-21.49,0.021426
5.8351,4109,8.9557,0.033981
5.8401,4100,0.70048,0.031317
5.8451,4094,-3.6766,0.029533
5.8501,4103,2.1453,0.032206
5.8551,4102,0.45034,0.03191
5.8601,4103,0.39778,0.032206
5.8651,4081,-13.636,0.025646
5.8701,4102,2.0196,0.03191
5.8751,4096,-2.6775,0.030128
5.8801,4083,-10.484,0.026246
5.8851,4046,-31.322,0.015029
5.8901,4013,-44.944,0.004811
5.8951,4080,7.5673,0.025346
5.9001,4074,1.2888,0.023541
5.9051,4087,8.254,0.027444
5.9101,4050,-17.327,0.016254
5.9151,4065,-4.3356,0.020821
5.9201,4068,-2.0805,0.021729
5.9251,4040,-19.687,0.013187
5.9301,4095,18.526,0.029831
5.9351,4081,4.6508,0.025646
5.9401,4098,13.19,0.030723
5.9451,4086,1.9436,0.027145
5.9501,4102,10.571,0.03191
5.9551,4101,6.7217,0.031614
5.9601,4084,-5.8833,0.026546
5.9651,4107,8.996,0.03339
5.9701,4076,-12.696,0.024143
5.9751,4104,6.9925,0.032502
5.9801,4085,-6.8674,0.026845
5.9851,4098,2.2164,0.030723
5.9901,4100,2.3225,0.031317
5.9951,4100,1.1993,0.031317
6.0001,4099,-0.24,0.03102
6.0051,4076,-14.749,0.024143
6.0101,4107,7.2861,0.03339
6.0151,4078,-12.73,0.024745
6.0201,4102,4.5472,0.03191
6.0251,4084,-8.0871,0.026546
6.0301,4102,4.349,0.03191
6.0351,4097,-0.30984,0.030426
6.0401,4082,-9.9097,0.025946
6.0451,4101,3.607,0.031614
6.0501,4073,-14.933,0.023239
6.0551,4103,6.5717,0.032206
6.0601,4138,25.334,0.042467
6.0651,4095,-7.3176,0.029831
6.0701,4129,14.486,0.039849
6.0751,4145,19.873,0.044494
6.0801,4155,20.35,0.047375
6.0851,4133,1.8825,0.041015
6.0901,4121,-6.1055,0.03751
6.0951,4087,-25.494,0.027444
6.1001,4125,3.4407,0.038681
6.1051,4148,15.809,0.04536
6.1101,4128,-0.38151,0.039557
6.1151,4151,12.963,0.046225
6.1201,4138,1.6971,0.042467
6.1251,4153,9.7892,0.0468
6.1301,4125,-9.5558,0.038681
6.1351,4134,-2.1182,0.041305
6.1401,4127,-6.0754,0.039265
6.1451,4085,-30.244,0.026845
6.1501,4108,-9.0694,0.033685
6.1551,4091,-17.503,0.028639
6.1601,4096,-10.502,0.030128
6.1651,4080,-18.085,0.025346
6.1701,4111,4.8063,0.034571
6.1751,4104,-1.099,0.032502
6.1801,4102,-2.5048,0.03191
6.1851,4150,26.294,0.045937
6.1901,4129,6.8427,0.039849
6.1951,4150,17.159,0.045937
6.2001,4143,8.3642,0.043916
6.2051,4160,15.919,0.048809
6.2101,4153,7.517,0.0468
6.2151,4138,-3.5007,0.042467
6.2201,4159,9.4582,0.048523
6.2251,4130,-10.298,0.040141
6.2301,4155,6.7802,0.047375
6.2351,4140,-4.026,0.043047
6.2401,4151,3.2029,0.046225
6.2451,4157,5.6578,0.047949
6.2501,4139,-6.613,0.042757
6.2551,4156,4.8055,0.047662
6.2601,4120,-17.978,0.037217
6.2651,4128,-8.9621,0.039557
6.2701,4116,-14.184,0.036043
6.2751,4115,-11.544,0.035748
6.2801,4154,14.168,0.047088
6.2851,4127,-5.6761,0.039265
6.2901,4144,5.5173,0.044205
6.2951,4111,-15.848,0.034571
6.3001,4116,-9.195,0.036043
6.3051,4106,-13.255,0.033094
6.3101,4142,11.208,0.043627
6.3151,4150,12.761,0.045937
6.3201,4132,-1.4087,0.040723
6.3251,4132,-1.3725,0.040723
6.3301,4101,-19.947,0.031614
6.3351,4106,-12.267,0.033094
6.3401,4083,-23.546,0.026246
6.3452,4085,-16.828,0.026845
6.3501,4093,-8.1724,0.029235
6.3551,4095,-5.3677,0.029831
6.3601,4105,1.5694,0.032798
6.3651,4083,-12.668,0.026246
6.3701,4100,0.38381,0.031317
6.3751,4086,-8.7118,0.027145
6.3801,4103,3.32,0.032206
6.3851,4096,-2.2387,0.030128
6.3901,4120,12.317,0.037217
6.3951,4152,27.753,0.046513
6.4001,4093,-14.89,0.029235
6.4051,4132,11.894,0.040723
6.4101,4086,-19.21,0.027145
6.4151,4112,0.95854,0.034865
6.4201,4081,-18.525,0.025646
6.4251,4128,14.085,0.039557
6.4301,4085,-15.83,0.026845
6.4351,4095,-6.203,0.029831
6.4401,4145,24.843,0.044494
6.4451,4079,-21.513,0.025046
6.4501,4118,7.1086,0.03663
6.4551,4138,16.821,0.042467
6.4601,4148,18.12,0.04536
6.4651,4140,8.503,0.043047
6.4701,4136,3.6765,0.041887
6.4751,4118,-8.2908,0.03663
6.4801,4085,-26.511,0.026845
6.4851,4139,12.268,0.042757
6.4901,4092,-19.382,0.028937
6.4951,4137,12.142,0.042177
6.5001,4128,3.3876,0.039557
6.5051,4140,9.3196,0.043047
6.5101,4115,-8.247,0.035748
6.5151,4078,-28.979,0.024745
6.5201,4141,15.877,0.043337
6.5251,4056,-40.03,0.018086
6.5301,4101,-2.7816,0.031614
6.5351,4128,13.704,0.039557
6.5401,4107,-2.7362,0.03339
6.5451,4090,-12.764,0.02834
6.5501,4080,-16.098,0.025346
6.5551,4117,9.9339,0.036336
6.5601,4077,-17.277,0.024444
6.5651,4139,23.998,0.042757
6.5701,4163,31.671,0.049668
6.5751,4148,14.578,0.04536
6.5801,4131,0.54698,0.040432
6.5851,4091,-23.974,0.028639
6.5901,4109,-7.3898,0.033981
6.5951,4084,-21.074,0.026546
6.6001,4108,-1.5996,0.033685
6.6051,4077,-20.467,0.024444
6.6101,4121,10.919,0.03751
6.6151,4150,24.972,0.045937
6.6201,4134,8.8857,0.041305
6.6251,4147,14.011,0.045072
6.6301,4139,5.4636,0.042757
6.6351,4163,17.915,0.049668
6.6401,4148,4.3706,0.04536
6.6451,4131,-7.0261,0.040432
6.6501,4127,-7.891,0.039265
6.6551,4106,-18.771,0.033094
6.6601,4140,5.9717,0.043047
6.6651,4148,8.9117,0.04536
6.6701,4149,7,0.045649
6.6751,4114,-15.82,0.035454
6.6801,4124,-6.1277,0.038389
6.6851,4118,-8.4633,0.03663
6.6901,4096,-19.912,0.030128
6.6951,4116,-3.1696,0.036043
6.7001,4076,-27.012,0.024143
6.7051,4120,6.0788,0.037217
6.7101,4143,17.854,0.043916
6.7151,4145,14.213,0.044494
6.7201,4137,5.607,0.042177
6.7251,4098,-19.48,0.030723
6.7301,4145,13.209,0.044494
6.7351,4060,-41.846,0.019303
6.7401,4145,19.73,0.044494
6.7451,4128,4.3567,0.039557
6.7501,4144,12.43,0.044205
6.7551,4148,11.372,0.04536
6.7601,4159,14.705,0.048523
6.7651,4156,9.0186,0.047662
6.7701,4115,-17.789,0.035748
6.7751,4129,-5.1938,0.039849
6.7801,4099,-22.174,0.03102
6.7851,4127,-0.065078,0.039265
6.7901,4103,-14.76,0.032206
6.7951,4139,10.17,0.042757
6.8001,4152,14.982,0.046513
6.8051,4114,-11.63,0.035454
6.8101,4170,24.106,0.051665
6.8151,4119,-12.287,0.036924
6.8201,4133,-1.1045,0.041015
6.8251,4095,-23.922,0.029831
6.8301,4111,-8.5374,0.034571
6.8351,4100,-13.356,0.031317
6.8401,4105,-7.3182,0.032798
6.8451,4100,-8.8603,0.031317
6.8501,4078,-20.424,0.024745
6.8551,4098,-3.4938,0.030723
6.8601,4077,-15.849,0.024444
6.8651,4099,1.1205,0.03102
6.8701,4085,-8.1196,0.026845
6.8751,4106,6.2344,0.033094
6.8801,4111,7.2533,0.034571
6.8851,4131,16.99,0.040432
6.8901,4194,49.143,0.05845
6.8951,4125,-3.8399,0.038681
6.9001,4157,15.779,0.047949
6.9051,4140,1.5685,0.043047
6.9101,4149,6.2554,0.045649
6.9151,4135,-3.8068,0.041596
6.9201,4123,-10.219,0.038096
6.9251,4105,-18.709,0.032798
6.9301,4079,-30.116,0.025046
6.9351,4105,-7.053,0.032798
6.9401,4076,-23.302,0.024143
6.9451,4122,10.055,0.037803
6.9501,4128,10.744,0.039557
6.9551,4170,32.426,0.051665
6.9601,4144,8.7748,0.044205
6.9651,4108,-15.162,0.033685
6.9701,4118,-5.6182,0.03663
6.9751,4087,-23.253,0.027444
6.9801,4094,-13.477,0.029533
6.9851,4087,-14.714,0.027444
6.9901,4093,-7.744,0.029235
6.9951,4077,-15.978,0.024444
7.0001,4118,12.495,0.03663
7.0051,4102,-0.67896,0.03191
7.0101,4112,5.133,0.034865
7.0151,4152,27.248,0.046513
7.0201,4124,3.4932,0.038389
7.0251,4152,18.896,0.046513
7.0301,4139,6.2134,0.042757
7.0351,4152,12.069,0.046513
7.0401,4158,12.332,0.048236
7.0451,4137,-3.3355,0.042177
7.0501,4180,22.472,0.054504
7.0551,4124,-16.235,0.038389
7.0601,4129,-9.3577,0.039849
7.0651,4127,-8.4009,0.039265
7.0701,4119,-11.29,0.036924
7.0751,4158,14.408,0.048236
7.0801,4127,-7.7371,0.039265
7.0851,4143,3.4825,0.043916
7.0901,4134,-2.9346,0.041305
7.0951,4159,12.325,0.048523
7.1001,4153,5.5229,0.0468
7.1051,4137,-5.4799,0.042177
7.1101,4132,-7.2557,0.040723
7.1151,4097,-26.658,0.030426
7.1201,4115,-9.3411,0.035748
7.1251,4134,4.086,0.041305
7.1301,4156,15.784,0.047662
7.1351,4120,-9.7327,0.037217
7.1401,4138,3.1951,0.042467
7.1451,4119,-9.1582,0.036924
7.1501,4065,-39.986,0.020821
7.1551,4147,19.255,0.045072
7.1601,4130,4.064,0.040141
7.1651,4147,12.839,0.045072
7.1701,4139,4.6438,0.042757
7.1751,4161,16.188,0.049095
7.1801,4153,7.2373,0.0468
7.1851,4136,-4.7937,0.041887
7.1901,4125,-10.323,0.038681
7.1951,4087,-30.882,0.027444
7.2001,4127,0.74899,0.039265
7.2051,4129,1.4886,0.039849
7.2101,4153,15.05,0.0468
7.2151,4141,3.9717,0.043337
7.2201,4124,-7.3456,0.038389
7.2251,4112,-12.922,0.034865
7.2301,4082,-28.14,0.025946
7.2351,4110,-4.3681,0.034276
7.2401,4082,-20.593,0.025946
7.2451,4100,-4.8046,0.031317
7.2501,4083,-14.311,0.026246
7.2551,4103,1.0702,0.032206
7.2601,4096,-3.8213,0.030128
7.2651,4110,5.2241,0.034276
7.2701,4147,25.588,0.045072
7.2751,4125,5.7961,0.038681
7.2801,4152,20.034,0.046513
7.2851,4137,5.8939,0.042177
7.2901,4151,12.439,0.046225
7.2951,4144,4.9789,0.044205
7.3001,4109,-17.349,0.033981
7.3051,4115,-9.6121,0.035748
7.3101,4085,-25.627,0.026845
7.3151,4113,-2.5097,0.03516
7.3201,4080,-22.222,0.025346
7.3251,4109,0.64859,0.033981
7.3301,4160,30.425,0.048809
7.3352,4187,38.172,0.056481
7.3402,4200,35.842,0.060132
7.3451,4166,7.1007,0.050525
7.3501,4181,13.918,0.054787
7.3551,4140,-13.623,0.043047
7.3602,4149,-4.9873,0.045649
7.3651,4113,-25.261,0.03516
7.3702,4121,-14.274,0.03751
7.3751,4123,-9.6786,0.038096
7.3802,4112,-14.049,0.034865
7.3851,4107,-13.764,0.03339
7.3902,4076,-29.446,0.024143
7.3952,4110,-1.6736,0.034276
7.4002,4083,-17.966,0.026246
7.4052,4106,0.18073,0.033094
7.4102,4120,8.2066,0.037217
7.4152,4153,25.387,0.0468
7.4202,4140,11.073,0.043047
7.4252,4136,5.675,0.041887
7.4302,4157,16.397,0.047949
7.4352,4131,-3.2687,0.040432
7.4402,4134,-0.86473,0.041305
7.4452,4100,-21.244,0.031317
7.4502,4115,-7.0993,0.035748
7.4552,4084,-24.362,0.026546
7.4602,4061,-32.712,0.019607
7.4652,4031,-43.639,0.01041
7.4702,4033,-31.864,0.011029
7.4752,4089,10.369,0.028042
7.4802,4063,-8.7082,0.020214
7.4852,4093,11.4,0.029235
7.4902,4096,9.8869,0.030128
7.4952,4103,11.198,0.032206
7.5002,4088,-1.15,0.027743
7.5052,4118,16.868,0.03663
7.5102,4150,31.254,0.045937
7.5152,4126,8.8706,0.038973
7.5202,4154,22.921,0.047088
7.5252,4136,6.3016,0.041887
7.5302,4151,13.352,0.046225
7.5352,4138,2.1295,0.042467
7.5402,4103,-19.547,0.032206
7.5452,4107,-12.446,0.03339
7.5502,4099,-14.408,0.03102
7.5552,4106,-6.8301,0.033094
7.5602,4079,-21.839,0.025046
7.5652,4094,-7.5189,0.029533
7.5702,4097,-4.1503,0.030426
7.5752,4080,-13.829,0.025346
7.5802,4102,2.6758,0.03191
7.5852,4118,11.277,0.03663
7.5902,4150,27.11,0.045937
7.5952,4126,5.8002,0.038973
7.6002,4133,8.2471,0.041015
7.6052,4127,2.3589,0.039265
7.6102,4100,-14.702,0.031317
7.6152,4108,-6.4364,0.033685
7.6202,4089,-16.619,0.028042
7.6252,4104,-3.6417,0.032502
7.6302,4077,-19.494,0.024444
7.6352,4107,3.3228,0.03339
7.6402,4078,-15.504,0.024745
7.6452,4095,-1.59,0.029831
7.6502,4103,3.2934,0.032206
7.6552,4099,-0.31322,0.03102
7.6602,4094,-3.6245,0.029533
7.6652,4079,-12.235,0.025046
7.6702,4101,3.8716,0.031614
7.6752,4074,-13.954,0.023541
7.6802,4135,26.029,0.041596
7.6852,4142,23.299,0.043627
7.6902,4137,14.201,0.042177
7.6952,4132,7.4123,0.040723
7.7002,4102,-12.681,0.03191
7.7052,4106,-7.3349,0.033094
7.7102,4083,-19.746,0.026246
7.7152,4107,-0.50615,0.03339
7.7202,4083,-15.273,0.026246
7.7252,4097,-3.2361,0.030426
7.7302,4110,5.0999,0.034276
7.7352,4094,-6.1908,0.029533
7.7402,4099,-1.9333,0.03102
7.7452,4098,-2.3892,0.030723
7.7502,4103,0.90342,0.032206
7.7552,4073,-17.966,0.023239
7.7602,4099,2.0712,0.03102
7.7652,4078,-11.62,0.024745
7.7702,4098,3.1286,0.030723
7.7752,4103,5.0037,0.032206
7.7802,4080,-10.616,0.025346
7.7852,4094,0.22892,0.029533
7.7902,4078,-9.9742,0.024745
7.7952,4108,10.403,0.033685
7.8002,4077,-11.441,0.024444
7.8052,4093,0.83679,0.029235
7.8102,4102,5.7141,0.03191
7.8152,4080,-9.4846,0.025346
7.8202,4098,3.5033,0.030723
7.8252,4083,-6.8829,0.026246
7.8302,4102,6.0373,0.03191
7.8352,4070,-15.394,0.022334
7.8402,4069,-12.53,0.022031
7.8452,4035,-30.997,0.011646
7.8502,4035,-23.677,0.011646
7.8552,4076,7.2778,0.024143
7.8602,4074,3.7258,0.023541
7.8652,4086,9.6686,0.027145
7.8702,4073,-1.1919,0.023239
7.8752,4107,19.381,0.03339
7.8802,4080,-2.3237,0.025346
7.8852,4101,10.648,0.031614
7.8902,4109,12.422,0.033981
7.8952,4101,4.1122,0.031614
7.9002,4098,0.91742,0.030723
7.9052,4083,-8.7925,0.026246
7.9102,4100,3.4185,0.031317
7.9152,4065,-19.216,0.020821
7.9202,4065,-14.766,0.020821
7.9252,4038,-28.306,0.012571
7.9302,4041,-19.768,0.013494
7.9352,4032,-20.963,0.010719
7.9402,4010,-30.212,0.003872
7.9452,4021,-16.197,0.007307
7.9502,4077,22.247,0.024444
7.9552,4135,51.115,0.041596
7.9602,4117,27.075,0.036336
7.9652,4130,27.645,0.040141
7.9702,4121,14.992,0.03751
7.9752,4086,-10.241,0.027145
7.9802,4105,3.5582,0.032798
7.9852,4085,-9.8003,0.026845
7.9902,4105,4.4929,0.032798
7.9952,4078,-13.394,0.024745
8.0002,4096,0.62672,0.030128
8.0052,4082,-8.4036,0.025946
8.0102,4092,-0.5318,0.028937
8.0152,4070,-14.227,0.022334
8.0202,4030,-36.002,0.010101
8.0252,4036,-23.612,0.011955
8.0302,4055,-6.2673,0.017781
8.0352,4091,16.986,0.028639
8.0402,4071,0.00537,0.022636
8.0452,4099,16.676,0.03102
8.0502,4082,1.7143,0.025946
8.0552,4105,14.873,0.032798
8.0602,4097,5.9221,0.030426
8.0652,4086,-2.6184,0.027145
8.0702,4104,8.6254,0.032502
8.0752,4065,-17.73,0.020821
8.0802,4074,-8.087,0.023541
8.0852,4031,-33.247,0.01041
8.0902,4045,-16.532,0.014723
8.0952,4082,10.066,0.025946
8.1002,4072,0.94433,0.022937
8.1052,4091,11.907,0.028639
8.1102,4094,10.327,0.029533
8.1152,4109,16.426,0.033981
8.1202,4077,-7.5254,0.024444
8.1252,4096,5.61,0.030128
8.1302,4084,-3.4627,0.026546
8.1352,4100,6.7984,0.031317
8.1402,4091,-0.71228,0.028639
8.1452,4106,8.2327,0.033094
8.1502,4104,4.6439,0.032502
8.1552,4077,-13.277,0.024444
8.1602,4102,4.9805,0.03191
8.1652,4077,-11.827,0.024444
8.1702,4110,10.89,0.034276
8.1752,4082,-9.1612,0.025946
8.1802,4103,5.6021,0.032206
8.1852,4107,6.3041,0.03339
8.1902,4078,-13.224,0.024745
8.1952,4105,6.2287,0.032798
8.2002,4081,-10.241,0.025646
8.2052,4131,22.208,0.040432
8.2102,4125,12.783,0.038681
8.2152,4150,24.147,0.045937
8.2202,4133,7.841,0.041015
8.2252,4160,21.618,0.048809
8.2302,4158,14.892,0.048236
8.2352,4131,-4.8769,0.040432
8.2402,4163,15.106,0.049668
8.2452,4131,-7.6167,0.040432
8.2502,4153,7.2171,0.0468
8.2552,4140,-2.3278,0.043047
8.2602,4156,7.6086,0.047662
8.2652,4131,-9.1226,0.040432
8.2702,4156,7.8594,0.047662
8.2752,4161,8.7542,0.049095
8.2802,4131,-11.174,0.040432
8.2852,4154,5.1629,0.047088
8.2902,4136,-6.8046,0.041887
8.2952,4151,3.6999,0.046225
8.3002,4134,-7.3301,0.041305
8.3052,4163,11.518,0.049668
8.3102,4155,3.8969,0.047375
8.3152,4153,1.7071,0.0468
8.3202,4168,10.015,0.051095
8.3252,4138,-10.131,0.042467
8.3302,4168,9.9995,0.051095
8.3352,4190,20.199,0.057326
8.3402,4211,27.147,0.063199
8.3452,4189,7.843,0.057044
8.3502,4211,18.542,0.063199
8.3552,4217,17.421,0.064864
8.3602,4190,-2.1774,0.057326
8.3652,4193,0.25863,0.058169
8.3702,4157,-20.511,0.047949
8.3752,4157,-15.235,0.047949
8.3802,4169,-4.3128,0.05138
8.3852,4204,17.004,0.06125
8.3902,4204,12.845,0.06125
8.3952,4209,12.602,0.062643
8.4002,4218,14.7,0.065141
8.4052,4191,-4.1861,0.057607
8.4102,4209,7.3307,0.062643
8.4152,4197,-1.1599,0.059292
8.4202,4213,8.4363,0.063755
8.4252,4186,-8.9069,0.056199
8.4302,4214,9.5133,0.064033
8.4352,4212,6.1925,0.063477
8.4402,4208,2.579,0.062365
8.4452,4246,23.52,0.072831
8.4502,4239,13.973,0.07092
8.4552,4263,24.064,0.077439
8.4602,4226,-2.2458,0.067351
8.4652,4236,4.2585,0.070099
8.4702,4218,-6.6004,0.065141
8.4752,4216,-5.7557,0.064587
8.4802,4222,-0.61672,0.066248
8.4852,4191,-17.807,0.057607
8.4902,4235,11.875,0.069825
8.4952,4240,11.967,0.071194
8.5002,4271,26.413,0.079593
8.5052,4279,24.507,0.081736
8.5102,4243,-1.1037,0.072013
8.5152,4228,-8.8261,0.067902
8.5202,4198,-23.245,0.059572
8.5252,4258,16.644,0.076089
8.5302,4243,4.4918,0.072013
8.5352,4258,12.044,0.076089
8.5402,4226,-8.4447,0.067351
8.5452,4237,0.20598,0.070373
8.5502,4217,-10.739,0.064864
8.5552,4248,9.6689,0.073375
8.5602,4269,19.184,0.079055
8.5652,4260,9.7928,0.076629
8.5702,4252,3.3066,0.074463
8.5752,4224,-12.77,0.0668
8.5802,4231,-5.2539,0.068727
8.5852,4235,-1.3347,0.069825
8.5902,4265,16.001,0.077979
8.5952,4270,15.109,0.079324
8.6002,4256,4.0082,0.075547
8.6052,4279,16.05,0.081736
8.6102,4252,-2.3932,0.074463
8.6152,4269,8.0181,0.079055
8.6202,4226,-17.452,0.067351
8.6252,4233,-8.7317,0.069276
8.6302,4221,-12.905,0.065971
8.6352,4232,-3.1222,0.069002
8.6402,4218,-9.8787,0.065141
8.6452,4190,-23.038,0.057326
8.6502,4213,-3.8532,0.063755
8.6552,4212,-3.1952,0.063477
8.6602,4214,-1.0106,0.064033
8.6652,4194,-11.913,0.05845
8.6702,4218,4.9603,0.065141
8.6752,4210,-0.59484,0.062921
8.6802,4184,-15.104,0.055635
8.6852,4194,-5.3715,0.05845
8.6902,4153,-27.636,0.0468
8.6952,4167,-12.388,0.05081
8.7002,4179,-2.2216,0.05422
8.7052,4207,14.483,0.062086
8.7102,4183,-2.7945,0.055352
8.7152,4192,3.1931,0.057888
8.7202,4177,-6.1447,0.053654
8.7252,4160,-14.395,0.048809
8.7302,4163,-8.958,0.049668
8.7352,4143,-18.404,0.043916
8.7402,4159,-4.3627,0.048523
8.7452,4134,-18.003,0.041305
8.7502,4162,2.9755,0.049382
8.7552,4170,6.8601,0.051665
8.7602,4152,-5.3998,0.046513
8.7652,4151,-4.6572,0.046225
8.7702,4133,-14.162,0.041015
8.7752,4151,-0.028887,0.046225
8.7802,4138,-7.7582,0.042467
8.7852,4142,-3.5211,0.043627
8.7902,4132,-8.6504,0.040723
8.7952,4158,8.761,0.048236
8.8002,4145,-1.165,0.044494
8.8052,4149,1.3996,0.045649
8.8102,4158,6.2499,0.048236
8.8152,4145,-3.0294,0.044494
8.8202,4155,3.5411,0.047375
8.8252,4115,-21.156,0.035748
8.8302,4131,-6.3843,0.040432
8.8352,4092,-28.374,0.028937
8.8402,4105,-13.537,0.032798
8.8452,4108,-8.5289,0.033685
8.8502,4100,-11.442,0.031317
8.8552,4095,-11.842,0.029831
8.8602,4080,-18.288,0.025346
8.8652,4103,0.017893,0.032206
8.8702,4076,-16.747,0.024143
8.8752,4078,-11.637,0.024745
8.8802,4032,-37.701,0.010719
8.8852,4011,-41.992,0.004185
8.8902,4052,-6.0529,0.016865
8.8952,4072,7.3554,0.022937
8.9002,4093,17.875,0.029235
8.9052,4075,1.921,0.023842
8.9102,4108,21.097,0.033685
8.9152,4077,-3.4686,0.024444
8.9202,4081,-0.53964,0.025646
8.9252,4038,-27.498,0.012571
8.9302,4039,-20.407,0.012879
8.9352,4027,-23.335,0.009171
8.9402,4086,18.702,0.027145
8.9452,4088,14.739,0.027743
8.9502,4066,-2.9303,0.021124
8.9552,4076,3.5211,0.024143
8.9602,4027,-28.376,0.009171
8.9652,4023,-24.275,0.007929
8.9702,4052,-0.46717,0.016865
8.9752,4089,21.938,0.028042
8.9802,4090,16.551,0.02834
8.9852,4085,8.8948,0.026845
8.9902,4099,14.762,0.03102
8.9952,4074,-4.6078,0.023541
9.0002,4075,-3.2283,0.023842
9.0052,4037,-26.458,0.012263
9.0102,4037,-20.257,0.012263
9.0152,4034,-17.541,0.011337
9.0202,4032,-14.911,0.010719
9.0252,4033,-11.075,0.011029
9.0302,4002,-28.595,0.001359
9.0352,4032,-2.9097,0.010719
9.0402,4014,-14.217,0.005124
9.0452,4028,-2.3829,0.009481
9.0502,4005,-17.076,0.002303
9.0552,4034,4.9989,0.011337
9.0602,4001,-17.922,0.001045
9.0652,4063,25.048,0.020214
9.0702,4092,35.948,0.028937
9.0752,4091,25.767,0.028639
9.0802,4093,20.03,0.029235
9.0852,4095,15.779,0.029831
9.0902,4096,12.024,0.030128
9.0952,4073,-5.4337,0.023239
9.1002,4102,13.261,0.03191
9.1052,4093,4.1213,0.029235
9.1102,4093,2.7521,0.029235
9.1152,4102,7.1979,0.03191
9.1202,4102,5.0826,0.03191
9.1252,4092,-2.5585,0.028937
9.1302,4047,-29.985,0.015336
9.1352,4051,-20.306,0.01656
9.1402,4011,-40.865,0.004185
9.1452,4033,-17.097,0.011029
9.1502,4009,-28.558,0.003559
9.1552,4002,-26.431,0.001359
9.1602,4008,-16.546,0.003245
9.1652,4006,-14.306,0.002617
9.1702,4027,2.0138,0.009171
9.1752,4029,2.1258,0.009791
9.1802,4085,35.78,0.026845
9.1852,4078,21.943,0.024745
9.1902,4076,14.695,0.024143
9.1952,4057,-1.2162,0.01839
9.2002,4041,-11.377,0.013494
9.2052,4034,-13.411,0.011337
9.2102,4031,-12.445,0.01041
9.2152,4029,-11.113,0.009791
9.2202,3999,-28.018,0.000414
9.2252,4019,-8.7751,0.006684
9.2302,4004,-16.772,0.001989
9.2352,4015,-6.1599,0.005436
9.2402,4039,9.937,0.012879
9.2452,4081,32.889,0.025646
9.2502,4086,27.137,0.027145
9.2552,4070,10.008,0.022334
9.2602,4061,1.4641,0.019607
9.2652,4022,-23.838,0.007618
9.2702,4047,-2.5874,0.015336
9.2752,4086,21.678,0.027145
9.2802,4093,20.05,0.029235
9.2852,4087,10.951,0.027444
9.2902,4095,12.697,0.029831
9.2952,4104,14.615,0.032502
9.3002,4072,-8.9026,0.022937
9.3052,4070,-8.2277,0.022334
9.3102,4030,-31.482,0.010101
9.3152,4031,-23.344,0.01041
9.3202,4013,-29.36,0.004811
9.3252,4031,-11.054,0.01041
9.3302,4027,-11.329,0.009171
9.3352,4035,-3.969,0.011646
9.3402,4085,27.522,0.026845
9.3452,4067,9.0595,0.021426
9.3502,4056,-0.49633,0.018086
9.3552,4004,-33.696,0.001989
9.3602,3997,-30.253,-0.000217
9.3652,3966,-43.412,-0.010102
9.3702,4011,-3.9905,0.004185
9.3752,4013,-2.372,0.004811
9.3802,4023,3.9303,0.007929
9.3852,4077,36.02,0.024444
9.3902,4066,19.623,0.021124
9.3952,4087,27.079,0.027444
9.4002,4048,-4.2829,0.015642
9.4052,4049,-3.0447,0.015948
9.4102,4013,-25.486,0.004811
9.4152,4013,-19.595,0.004811
9.4202,3976,-39.119,-0.006893
9.4252,3956,-43.059,-0.013331
9.4302,3975,-20.453,-0.007213
9.4352,3958,-27.226,-0.012683
9.4402,3973,-11.312,-0.007853
9.4452,3937,-33.101,-0.019521
9.4502,3971,-3.134,-0.008495
9.4552,3947,-19.055,-0.016254
9.4602,3965,-3.2565,-0.010424
9.4652,3963,-4.6472,-0.011068
9.4702,3967,-1.7421,-0.00978
9.4752,3960,-6.8011,-0.012037
9.4802,3967,-1.3775,-0.00978
9.4852,3967,-1.9192,-0.00978
9.4902,3940,-20.206,-0.018539
9.4952,3966,1.1839,-0.010102
9.5002,3952,-9.2607,-0.014628
9.5052,3971,4.6754,-0.008495
9.5102,3939,-18.574,-0.018866
9.5152,3974,8.3097,-0.007533
9.5202,3925,-27.219,-0.023469
9.5252,3951,-3.9368,-0.014953
9.5302,3946,-7.2157,-0.01658
9.5352,3906,-33.308,-0.02978
9.5402,3912,-21.863,-0.027779
9.5452,3894,-29.72,-0.033804
9.5502,3912,-11.045,-0.027779
9.5552,3888,-25.816,-0.035828
9.5602,3946,18.825,-0.01658
9.5652,3937,6.9877,-0.019521
9.5702,3962,20.758,-0.011391
9.5752,3941,0.59129,-0.018212
9.5802,3909,-22.145,-0.028778
9.5852,3917,-12.193,-0.026117
9.5902,3906,-17.671,-0.02978
9.5952,3960,21.912,-0.012037
9.6002,3936,-0.57836,-0.019849
9.6052,3948,6.5497,-0.015928
9.6102,3885,-38.804,-0.036843
9.6152,3921,-5.5134,-0.024791
9.6202,3910,-12.66,-0.028445
9.6252,3896,-20.136,-0.033131
9.6302,3910,-6.6231,-0.028445
9.6352,3893,-17.711,-0.034141
9.6402,3987,48.397,-0.003385
9.6452,3986,34.553,-0.003703
9.6502,4010,40.387,0.003872
9.6552,3975,6.7431,-0.007213
9.6602,3988,12.675,-0.003068
9.6652,3973,-1.0863,-0.007853
9.6702,3950,-16.772,-0.015278
9.6752,4009,25.081,0.003559
9.6802,3952,-19.123,-0.014628
9.6852,3952,-15.116,-0.014628
9.6902,3926,-29.517,-0.023138
9.6952,3921,-26.348,-0.024791
9.7002,3908,-29.47,-0.029112
9.7052,3953,7.2032,-0.014303
9.7102,3937,-6.208,-0.019521
9.7152,3965,12.979,-0.010424
9.7202,3984,21.228,-0.004339
9.7252,4021,38.815,0.007307
9.7302,4013,23.193,0.004811
9.7352,4003,10.242,0.001674
9.7402,4033,26.08,0.011029
9.7452,3995,-5.356,-0.000849
9.7502,4020,11.376,0.006996
9.7552,4011,2.1746,0.004185
9.7602,4020,6.7736,0.006996
9.7652,4018,3.2251,0.006373
9.7702,4032,10.729,0.010719
9.7752,4025,3.0707,0.008551
9.7802,3999,-14.838,0.000414
9.7852,4023,3.6885,0.007929
9.7902,4004,-9.9039,0.001989
9.7952,4027,6.7012,0.009171
9.8002,3975,-28.969,-0.007213
9.8052,4029,12.446,0.009791
9.8102,4024,5.5975,0.00824
9.8152,4074,34.898,0.023541
9.8202,4088,34.25,0.027743
9.8252,4063,9.8856,0.020214
9.8302,4053,0.82645,0.017171
9.8352,4046,-4.1092,0.015029
9.8402,4031,-12.869,0.01041
9.8452,4041,-3.7214,0.013494
9.8502,4087,25.311,0.027444
9.8552,4089,19.841,0.028042
9.8602,4112,28.502,0.034865
9.8652,4133,33.672,0.041015
9.8702,4124,19.695,0.038389
9.8752,4135,21.184,0.041596
9.8802,4106,-1.5668,0.033094
9.8852,4115,4.177,0.035748
9.8902,4102,-4.7711,0.03191
9.8952,4101,-4.2474,0.031614
9.9002,4104,-1.4427,0.032502
9.9052,4074,-19.46,0.023541
9.9102,4074,-14.69,0.023541
9.9152,4034,-36.066,0.011337
9.9202,4043,-21.566,0.014109
9.9252,4044,-15.784,0.014416
9.9302,4093,18.15,0.029235
9.9352,4070,-0.75715,0.022334
9.9402,4100,17.525,0.031317
9.9452,4083,2.5532,0.026246
9.9502,4102,13.271,0.03191
9.9552,4099,7.9419,0.03102
9.9602,4132,25.602,0.040723
9.9652,4152,30.886,0.046513
9.9702,4124,6.4961,0.038389
9.9752,4157,24.361,0.047949
9.9802,4139,7.6623,0.042757
9.9852,4148,11.092,0.04536
9.9902,4111,-13.665,0.034571
9.9952,4123,-2.9994,0.038096
10,4105,-13.036,0.032798
10.005,4083,-23.14,0.026246
10.01,4108,-2.1829,0.033685
10.015,4078,-19.942,0.024745
10.02,4075,-16.868,0.023842
10.025,4040,-34.514,0.013187
10.03,4030,-32.339,0.010101
10.035,4035,-21.319,0.011646
10.04,4092,19.044,0.028937
10.045,4094,15.216,0.029533
10.05,4083,4.4545,0.026246
10.055,4068,-6.1037,0.021729
10.06,4024,-32.339,0.00824
10.065,4033,-18.809,0.011029
10.07,4059,1.8669,0.018999
10.075,4096,23.806,0.030128
10.08,4069,1.0235,0.022031
10.085,4099,18.86,0.03102
10.09,4086,5.9873,0.027145
10.095,4097,10.977,0.030426
10.1,4078,-3.5625,0.024745
10.105,4037,-28.342,0.012263
10.11,4039,-20.206,0.012879
10.115,4035,-17.929,0.011646
10.12,4097,24.607,0.030426
10.125,4071,2.254,0.022636
10.13,4089,12.471,0.028042
10.135,4083,5.4437,0.026246
10.14,4100,14.216,0.031317
10.145,4073,-6.033,0.023239
10.15,4101,12.39,0.031614
10.155,4084,-1.2371,0.026546
10.16,4080,-3.5432,0.025346
10.165,4070,-8.9766,0.022334
10.17,4031,-31.258,0.01041
10.175,4038,-19.243,0.012571
10.18,4013,-30.542,0.004811
10.185,4030,-12.416,0.010101
10.19,4009,-23.026,0.003559
10.195,4061,15.115,0.019607
10.2,4070,16.505,0.022334
10.205,4094,26.717,0.029533
10.21,4073,6.868,0.023239
10.215,4104,23.791,0.032502
10.22,4109,20.616,0.033981
10.225,4073,-6.6683,0.023239
10.23,4134,31.716,0.041305
10.235,4081,-8.3448,0.025646
10.24,4094,1.5574,0.029533
10.245,4096,2.2547,0.030128
10.25,4102,5.2051,0.03191
10.255,4092,-2.2828,0.028937
10.26,4097,1.2179,0.030426
10.265,4117,12.872,0.036336
10.27,4071,-18.421,0.022636
10.275,4101,4.4218,0.031614
10.28,4082,-8.3703,0.025946
10.285,4094,0.93241,0.029533
10.29,4073,-12.276,0.023239
10.295,4098,5.9451,0.030723
10.3,4097,3.7124,0.030426
10.305,4078,-8.9438,0.024745
10.31,4100,6.5831,0.031317
10.315,4079,-8.0024,0.025046
10.32,4091,1.2052,0.028639
10.325,4094,2.5917,0.029533
10.33,4099,4.8467,0.03102
10.335,4074,-11.763,0.023541
10.34,4133,26.733,0.041015
10.345,4149,29.393,0.045649
10.35,4147,20.805,0.045072
10.355,4157,21.473,0.047949
10.36,4137,4.354,0.042177
10.365,4152,12.184,0.046513
10.37,4131,-3.1973,0.040432
10.375,4164,17.137,0.049953
10.38,4134,-4.7053,0.041305
10.385,4151,6.6342,0.046225
10.39,4137,-3.1734,0.042177
10.395,4158,10.113,0.048236
10.4,4167,12.964,0.05081
10.405,4156,3.4411,0.047662
10.41,4154,1.5708,0.047088
10.415,4142,-5.7226,0.043627
10.42,4157,4.6977,0.047949
10.425,4138,-7.5129,0.042467
10.43,4152,2.7817,0.046513
10.435,4131,-10.182,0.040432
10.44,4161,10.195,0.049095
10.445,4135,-7.5321,0.041596
10.45,4140,-2.5451,0.043047
10.455,4139,-2.3729,0.042757
10.46,4095,-28.054,0.029831
10.465,4119,-6.4621,0.036924
10.47,4135,4.7487,0.041596
10.475,4154,14.824,0.047088
10.48,4127,-4.7886,0.039265
10.485,4156,13.635,0.047662
10.49,4136,-1.4827,0.041887
10.495,4151,7.8457,0.046225
10.5,4134,-4.058,0.041305
10.505,4165,15.308,0.050239
10.51,4129,-9.621,0.039849
10.515,4159,10.621,0.048523
10.52,4160,8.6706,0.048809
10.525,4128,-12.25,0.039557
10.53,4181,22.05,0.054787
10.535,4185,18.985,0.055917
10.54,4204,25.309,0.06125
10.545,4183,7.1624,0.055352
10.55,4217,25.055,0.064864
10.555,4227,24.716,0.067627
10.56,4200,3.5658,0.060132
10.565,4187,-4.417,0.056481
10.57,4172,-11.624,0.052234
10.575,4162,-14.2,0.049382
10.58,4139,-23.863,0.042757
10.585,4160,-5.2657,0.048809
10.59,4132,-20.223,0.040723
10.595,4157,-0.2006,0.047949
10.6,4156,-0.55214,0.047662
10.605,4149,-4.3442,0.045649
10.61,4155,0.44333,0.047375
10.615,4140,-8.3357,0.043047
10.62,4156,3.3333,0.047662
10.625,4154,1.4789,0.047088
10.63,4206,31.323,0.061808
10.635,4184,11.068,0.055635
10.64,4198,16.569,0.059572
10.645,4164,-6.9625,0.049953
10.65,4172,-0.30021,0.052234
10.655,4163,-5.2121,0.049668
10.66,4162,-4.2466,0.049382
10.665,4157,-5.8759,0.047949
10.67,4132,-18.94,0.040723
10.675,4160,2.5032,0.048809
10.68,4144,-7.3506,0.044205
10.685,4150,-1.8079,0.045937
10.69,4131,-12.439,0.040432
10.695,4163,9.6723,0.049668
10.7,4134,-9.6875,0.041305
10.705,4156,5.8518,0.047662
10.71,4162,8.028,0.049382
10.715,4154,1.4774,0.047088
10.72,4150,-1.0919,0.045937
10.725,4139,-7.1612,0.042757
10.73,4157,5.3722,0.047949
10.735,4141,-5.2537,0.043337
10.74,4202,31.633,0.060691
10.745,4183,12.976,0.055352
10.75,4204,21.977,0.06125
10.755,4167,-4.6011,0.05081
10.76,4173,0.2932,0.052518
10.765,4152,-11.796,0.046513
10.77,4160,-3.9212,0.048809
10.775,4160,-2.725,0.048809
10.78,4133,-17.754,0.041015
10.785,4154,-0.72666,0.047088
10.79,4139,-9.225,0.042757
10.795,4144,-3.8099,0.044205
10.8,4130,-11.02,0.040141
10.805,4159,8.9723,0.048523
10.81,4120,-16.243,0.037217
10.815,4157,9.8439,0.047949
10.82,4138,-3.7136,0.042467
10.825,4114,-17,0.035454
10.83,4150,8.7417,0.045937
10.835,4112,-15.98,0.034865
10.84,4115,-10.113,0.035748
10.845,4081,-28.173,0.025646
10.85,4142,15.591,0.043627
10.855,4128,3.3656,0.039557
10.86,4143,11.429,0.043916
10.865,4130,0.87992,0.040141
10.87,4162,19.562,0.049382
10.875,4144,4.1498,0.044205
10.88,4171,19.002,0.051949
10.885,4201,31.627,0.060412
10.89,4206,26.714,0.061808
10.895,4191,11.662,0.057607
10.9,4167,-4.8902,0.05081
10.905,4177,2.3918,0.053654
10.91,4142,-18.436,0.043627
10.915,4163,-1.2599,0.049668
10.92,4145,-11.304,0.044494
10.925,4154,-2.9895,0.047088
10.93,4174,9.6011,0.052802
10.935,4211,28.608,0.063199
10.94,4208,19.961,0.062365
10.945,4211,16.934,0.063199
10.95,4223,19.783,0.066524
10.955,4191,-3.0408,0.057607
10.96,4198,2.0794,0.059572
10.965,4163,-18.323,0.049668
10.97,4177,-5.2751,0.053654
10.975,4138,-26.502,0.042467
10.98,4169,-1.4107,0.05138
10.985,4137,-19.621,0.042177
10.99,4152,-5.653,0.046513
10.995,4142,-9.9544,0.043627
11,4158,2.1086,0.048236
11.005,4131,-14.205,0.040432
11.01,4142,-3.9912,0.043627
11.015,4164,10.043,0.049953
11.02,4129,-12.982,0.039849
11.025,4158,7.5095,0.048236
11.03,4137,-6.6317,0.042177
11.035,4151,3.403,0.046225
11.04,4134,-7.3882,0.041305
11.045,4155,6.9552,0.047375
11.05,4168,12.91,0.051095
11.055,4170,10.961,0.051665
11.06,4205,28.502,0.061529
11.065,4203,20.411,0.06097
11.07,4193,9.8133,0.058169
11.075,4164,-9.1615,0.049953
11.08,4169,-3.6999,0.05138
11.085,4138,-20.733,0.042467
11.09,4161,-1.7974,0.049095
11.095,4140,-13.51,0.043047
11.1,4154,-1.7087,0.047088
11.105,4134,-12.936,0.041305
11.11,4156,3.4184,0.047662
11.115,4153,0.92822,0.0468
11.12,4167,9.0122,0.05081
11.125,4199,25.359,0.059852
11.13,4188,12.877,0.056763
11.135,4209,21.871,0.062643
11.14,4199,10.941,0.059852
11.145,4213,16.447,0.063755
11.15,4176,-8.5752,0.05337
11.155,4189,1.378,0.057044
11.16,4150,-21.355,0.045937
11.165,4164,-7.5384,0.049953
11.17,4173,-0.17644,0.052518
11.175,4217,25.307,0.064864
11.18,4201,10.133,0.060412
11.185,4164,-13.472,0.049953
11.19,4180,-0.53029,0.054504
11.195,4142,-22.346,0.043627
11.2,4158,-7.1059,0.048236
11.205,4143,-13.946,0.043916
11.21,4159,-0.86895,0.048523
11.215,4137,-13.446,0.042177
11.22,4161,4.1928,0.049095
11.225,4132,-13.816,0.040723
11.23,4169,11.526,0.05138
11.235,4200,26.635,0.060132
11.24,4196,17.841,0.059011
11.245,4208,20.427,0.062365
11.25,4165,-9.2045,0.050239
11.255,4168,-4.9038,0.051095
11.26,4147,-15.744,0.045072
11.265,4194,15.724,0.05845
11.27,4186,7.3996,0.056199
11.275,4200,13.808,0.060132
11.28,4207,14.592,0.062086
11.285,4222,19.713,0.066248
11.29,4202,3.7412,0.060691
11.295,4191,-3.1635,0.057607
11.3,4219,13.904,0.065418
11.305,4188,-6.9158,0.056763
11.31,4200,2.0319,0.060132
11.315,4165,-18.348,0.050239
11.32,4170,-10.536,0.051665
11.325,4140,-25.22,0.043047
11.33,4163,-5.1531,0.049668
11.335,4137,-18.955,0.042177
11.34,4151,-5.7697,0.046225
11.345,4146,-7.1199,0.044783
11.35,4156,0.67645,0.047662
11.355,4150,-2.8888,0.045937
11.36,4170,9.6546,0.051665
11.365,4211,30.922,0.063199
11.37,4182,6.753,0.055069
11.375,4194,12.174,0.05845
11.38,4167,-6.2499,0.05081
11.385,4166,-5.0403,0.050525
11.39,4163,-5.3145,0.049668
11.395,4220,28.945,0.065695
11.4,4201,11.137,0.060412
11.405,4203,9.7544,0.06097
11.41,4219,16.678,0.065418
11.415,4213,9.4144,0.063755
11.42,4205,2.842,0.061529
11.425,4169,-18.254,0.05138
11.43,4179,-7.5656,0.05422
11.435,4137,-29.975,0.042177
11.44,4164,-6.3458,0.049953
11.445,4140,-18.651,0.043047
11.45,4154,-5.5515,0.047088
11.455,4137,-14.035,0.042177
11.46,4161,3.738,0.049095
11.465,4152,-2.35,0.046513
11.47,4159,2.4645,0.048523
11.475,4210,31.371,0.062921
11.48,4184,8.7954,0.055635
11.485,4184,6.7885,0.055635
11.49,4163,-6.8866,0.049668
11.495,4169,-1.4609,0.05138
11.5,4150,-12.015,0.045937
11.505,4199,19.586,0.059852
11.51,4203,17.154,0.06097
11.515,4201,11.942,0.060412
11.52,4185,0.024866,0.055917
11.525,4170,-8.4052,0.051665
11.53,4159,-12.47,0.048523
11.535,4137,-22.083,0.042177
11.54,4157,-4.5845,0.047949
11.545,4128,-20.416,0.039557
11.55,4161,4.2994,0.049095
11.555,4137,-10.791,0.042177
11.56,4157,3.7999,0.047949
11.565,4159,4.1164,0.048523
11.57,4150,-2.0907,0.045937
11.575,4154,0.88733,0.047088
11.58,4121,-18.79,0.03751
11.585,4129,-9.2289,0.039849
11.59,4112,-17.043,0.034865
11.595,4107,-15.765,0.03339
11.6,4122,-2.8166,0.037803
11.605,4157,18.58,0.047949
11.61,4123,-6.2006,0.038096
11.615,4156,14.888,0.047662
11.62,4162,14.684,0.049382
11.625,4152,5.1927,0.046513
11.63,4147,1.0124,0.045072
11.635,4140,-3.3077,0.043047
11.64,4154,5.8347,0.047088
11.645,4116,-18.114,0.036043
11.65,4125,-8.1404,0.038681
11.655,4090,-27.194,0.02834
11.66,4119,-2.8731,0.036924
11.665,4126,1.9895,0.038973
11.67,4151,16.257,0.046225
11.675,4139,5.0854,0.042757
11.68,4124,-5.1095,0.038389
11.685,4113,-10.425,0.03516
11.69,4098,-16.893,0.030723
11.695,4104,-9.0773,0.032502
11.7,4081,-20.877,0.025646
11.705,4093,-8.4257,0.029235
11.71,4111,4.4474,0.034571
11.715,4145,23.466,0.044494
11.72,4123,4.4254,0.038096
11.725,4132,8.6101,0.040723
11.73,4115,-3.7626,0.035748
11.735,4111,-5.2801,0.034571
11.74,4100,-10.665,0.031317
11.745,4088,-15.373,0.027743
11.75,4103,-2.516,0.032206
11.755,4075,-19.088,0.023842
11.76,4095,-2.2248,0.029831
11.765,4079,-11.603,0.025046
11.77,4096,1.5044,0.030128
11.775,4082,-7.5961,0.025946
11.78,4103,6.8992,0.032206
11.785,4094,-0.4735,0.029533
11.79,4101,3.7142,0.031614
11.795,4102,3.2163,0.03191
11.8,4094,-2.6074,0.029533
11.805,4098,0.31189,0.030723
11.81,4080,-10.91,0.025346
11.815,4101,4.4457,0.031614
11.82,4075,-12.714,0.023842
11.825,4107,9.7795,0.03339
11.83,4083,-7.4409,0.026246
11.835,4060,-19.938,0.019303
11.84,4050,-21.383,0.016254
11.845,4051,-15.656,0.01656
11.85,4010,-37.93,0.003872
11.855,4038,-11.012,0.012571
11.86,4033,-11.789,0.011029
11.865,3999,-30.916,0.000414
11.87,4027,-5.7401,0.009171
11.875,4009,-16.24,0.003559
11.88,4017,-7.5606,0.006061
11.885,3982,-28.72,-0.004977
11.89,3996,-13.005,-0.000533
11.895,3953,-38.452,-0.014303
11.9,3976,-14.327,-0.006893
11.905,3952,-27.215,-0.014628
11.91,3969,-9.9062,-0.009137
11.915,3963,-12.116,-0.011068
11.92,4017,25.133,0.006061
11.925,3969,-12.929,-0.009137
11.93,3987,1.3319,-0.003385
11.935,3994,4.8068,-0.001166
11.94,3962,-17.987,-0.011391
11.945,3971,-8.2893,-0.008495
11.95,3987,3.4809,-0.003385
11.955,4015,19.889,0.005436
11.96,3995,1.3725,-0.000849
11.965,3998,2.2892,9.8e-05
11.97,3967,-19.12,-0.00978
11.975,3971,-12.387,-0.008495
11.98,3953,-21.85,-0.014303
11.985,3970,-5.9061,-0.008816
11.99,3966,-7.8051,-0.010102
11.995,3943,-21.836,-0.017558
12,3970,0.70003,-0.008816
12.005,3943,-18.122,-0.017558
12.01,3961,-2.4573,-0.011714
12.015,3948,-11.266,-0.015928
12.02,3960,-1.3245,-0.012037
12.025,3947,-10.433,-0.016254
12.03,4006,29.88,0.002617
12.035,3991,11.933,-0.002116
12.04,4014,22.977,0.005124
12.045,4020,20.339,0.006996
12.05,4024,17.131,0.00824
12.055,4017,7.7798,0.006061
12.06,3996,-8.2148,-0.000533
12.065,4031,15.61,0.01041
12.07,4004,-6.0572,0.001989
12.075,4019,4.498,0.006684
12.08,4009,-3.5554,0.003559
12.085,4021,4.4498,0.007307
12.09,3989,-17.734,-0.00275
12.095,3999,-7.3762,0.000414
12.1,3978,-19.706,-0.006253
12.105,3955,-30.473,-0.013655
12.11,4008,11.032,0.003245
12.115,4003,4.4203,0.001674
12.12,4012,8.4601,0.004499
12.125,4046,27.245,0.015029
12.13,4094,49.485,0.029533
12.135,4067,20.073,0.021426
12.14,4068,15.269,0.021729
12.145,4034,-10.131,0.011337
12.15,4034,-7.946,0.011337
12.155,4010,-21.567,0.003872
12.16,4012,-15.284,0.004499
12.165,4028,-1.7103,0.009481
12.17,4009,-13.815,0.003559
12.175,4002,-15.3,0.001359
12.18,3957,-41.284,-0.013007
12.185,3983,-14.435,-0.004658
12.19,3991,-6.2133,-0.002116
12.195,4016,10.804,0.005749
12.2,3995,-5.9597,-0.000849
12.205,4070,42.295,0.022334
12.21,4065,28.089,0.020821
12.215,4066,21.223,0.021124
12.22,4042,0.56087,0.013802
12.225,4048,3.8043,0.015642
12.23,4031,-8.1974,0.01041
12.235,4032,-5.8817,0.010719
12.24,4027,-7.9492,0.009171
12.245,4015,-13.975,0.005436
12.25,4017,-9.6101,0.006061
12.255,4006,-14.664,0.002617
12.26,4017,-4.4112,0.006061
12.265,3986,-23.709,-0.003703
12.27,4000,-9.2123,0.000729
12.275,3962,-32.173,-0.011391
12.28,3976,-15.491,-0.006893
12.285,3992,-1.8103,-0.001799
12.29,4000,3.1961,0.000729
12.295,3995,-1.4291,-0.000849
12.3,4071,46.291,0.022636
12.305,4087,43.984,0.027444
12.31,4063,17.77,0.020214
12.315,4075,20.355,0.023842
12.32,4082,19.224,0.025946
12.325,4097,23.271,0.030426
12.33,4072,1.9131,0.022937
12.335,4099,17.723,0.03102
12.34,4078,0.28158,0.024745
12.345,4081,1.8787,0.025646
12.35,4054,-15.444,0.017476
12.355,4044,-18.009,0.014416
12.36,4043,-14.343,0.014109
12.365,4082,13.173,0.025946
12.37,4091,15.131,0.028639
12.375,4065,-4.8321,0.020821
12.38,4069,-1.3501,0.022031
12.385,4023,-30.012,0.007929
12.39,4032,-17.039,0.010719
12.395,4047,-3.6288,0.015336
12.4,4086,21.094,0.027145
12.405,4064,2.0053,0.020517
12.41,4091,17.836,0.028639
12.415,4102,19.824,0.03191
12.42,4074,-2.4141,0.023541
12.425,4077,-0.13307,0.024444
12.43,4046,-19.494,0.015029
12.435,4038,-19.823,0.012571
12.44,4010,-32.851,0.003872
12.445,4032,-10.927,0.010719
12.45,4006,-25.057,0.002617
12.455,4031,-3.2273,0.01041
12.46,4057,13.496,0.01839
12.465,4089,29.463,0.028042
12.47,4065,7.0273,0.020821
12.475,4097,24.606,0.030426
12.48,4100,20.027,0.031317
12.485,4092,9.9625,0.028937
12.49,4092,7.3088,0.028937
12.495,4091,4.7293,0.028639
12.5,4095,5.8523,0.029831
12.505,4075,-7.957,0.023842
12.51,4107,13.414,0.03339
12.515,4080,-6.4781,0.025346
12.52,4058,-18.541,0.018695
12.525,4047,-20.886,0.015336
12.53,4054,-11.456,0.017476
12.535,4017,-32.096,0.006061
12.54,4010,-28.773,0.003872
12.545,4028,-10.42,0.009481
12.55,4000,-26.021,0.000729
12.555,4028,-2.0095,0.009481
12.56,4006,-15.919,0.002617
12.565,4018,-4.6781,0.006373
12.57,4043,11.862,0.014109
12.575,4093,39.365,0.029235
12.58,4067,13.209,0.021426
12.585,4070,11.454,0.022334
12.59,4033,-14.771,0.011029
12.595,4036,-9.4587,0.011955
12.6,4050,1.3908,0.016254
12.605,4033,-9.9303,0.011029
12.61,4019,-16.624,0.006684
12.615,4024,-9.6199,0.00824
12.62,4028,-5.0343,0.009481
12.625,4003,-20.084,0.001674
12.63,4021,-3.9455,0.007307
12.635,4003,-14.871,0.001674
12.64,4028,4.3661,0.009481
12.645,3997,-16.963,-0.000217
12.65,4025,4.7445,0.008551
12.655,4004,-10.291,0.001989
12.66,4019,1.4217,0.006684
12.665,4000,-11.55,0.000729
12.67,4019,3.0396,0.006684
12.675,4023,4.3557,0.007929
12.68,4019,0.27035,0.006684
12.685,3998,-13.69,9.8e-05
12.69,3958,-36.818,-0.012683
12.695,3980,-13.671,-0.005614
12.7,3992,-3.0066,-0.001799
12.705,4018,13.873,0.006373
12.71,3992,-6.8279,-0.001799
12.715,4027,16.751,0.009171
12.72,4001,-4.5502,0.001045
12.725,4018,6.9713,0.006373
12.73,4048,23.665,0.015642
12.735,4087,41.389,0.027444
12.74,4067,18.361,0.021426
12.745,4074,17.767,0.023541
12.75,4060,4.3901,0.019303
12.755,4039,-10.078,0.012879
12.76,4011,-25.564,0.004185
12.765,3981,-38.816,-0.005295
12.77,3984,-27.504,-0.004339
12.775,3964,-34.121,-0.010746
12.78,4016,7.6231,0.005749
12.785,3997,-6.9658,-0.000217
12.79,4014,5.1909,0.005124
12.795,4001,-4.9286,0.001045
12.8,4025,11.147,0.008551
12.805,3997,-10.02,-0.000217
12.81,4026,10.557,0.008861
12.815,4034,12.509,0.011337
12.82,4021,0.71424,0.007307
12.825,4023,1.3887,0.007929
12.83,4005,-10.858,0.002303
12.835,4019,0.38879,0.006684
12.84,3983,-23.293,-0.004658
12.845,3992,-12.068,-0.001799
12.85,3954,-34.395,-0.013979
12.855,3990,-2.7285,-0.002433
12.86,3993,-0.65487,-0.001482
12.865,4017,14.363,0.006061
12.87,3995,-3.8705,-0.000849
12.875,4025,15.78,0.008551
12.88,4024,10.701,0.00824
12.885,4016,2.472,0.005749
12.89,4025,7.1292,0.008551
12.895,4004,-8.4858,0.001989
12.9,4019,2.7973,0.006684
12.905,4001,-9.8499,0.001045
12.91,4030,10.674,0.010101
12.915,4001,-10.918,0.001045
12.92,4063,30.534,0.020214
12.925,4064,23.113,0.020517
12.93,4087,31.132,0.027444
12.935,4052,1.458,0.016865
12.94,4060,5.8247,0.019303
12.945,4018,-22.273,0.006373
12.95,4024,-13.137,0.00824
12.955,3984,-35.822,-0.004339
12.96,3985,-26.54,-0.004021
12.965,3977,-25.502,-0.006573
12.97,3953,-35.348,-0.014303
12.975,3975,-12.524,-0.007213
12.98,3942,-31.728,-0.017885
12.985,3997,11.704,-0.000217
12.99,4002,11.396,0.001359
12.995,4013,15.023,0.004811
13,3999,1.7475,0.000414
13.005,4028,19.311,0.009481
13.01,4002,-2.594,0.001359
13.015,4010,2.72,0.003872
13.02,3973,-22.365,-0.007853
13.025,3983,-10.721,-0.004658
13.03,3950,-30.23,-0.015278
13.035,3973,-8.0482,-0.007853
13.04,3969,-9.2327,-0.009137
13.045,3976,-2.9288,-0.006893
13.05,4008,17.909,0.003245
13.055,3995,4.492,-0.000849
13.06,4019,18.206,0.006684
13.065,4001,1.6157,0.001045
13.07,4024,15.413,0.00824
13.075,3997,-6.1839,-0.000217
13.08,4013,5.176,0.004811
13.085,4003,-2.9776,0.001674
13.09,4018,6.9161,0.006373
13.095,3968,-27.579,-0.009458
13.1,4025,15.642,0.008551
13.105,3997,-6.638,-0.000217
13.11,4045,25.082,0.014723
13.115,4083,41.912,0.026246
13.12,4093,37.176,0.029235
13.125,4088,24.558,0.027743
13.13,4078,12.09,0.024745
13.135,4101,22.928,0.031614
13.14,4070,-1.8836,0.022334
13.145,4099,16.224,0.03102
13.15,4078,-0.73576,0.024745
13.155,4100,12.799,0.031317
13.16,4096,7.113,0.030128
13.165,4099,7.1185,0.03102
13.17,4097,4.1034,0.030426
13.175,4094,1.2451,0.029533
13.18,4104,6.9939,0.032502
13.185,4072,-14.283,0.022937
13.19,4096,3.973,0.030128
13.195,4081,-6.1865,0.025646
13.2,4078,-6.4937,0.024745
13.205,4073,-7.9712,0.023239
13.21,4107,14.709,0.03339
13.215,4086,-1.7593,0.027145
13.22,4096,4.7522,0.030128
13.225,4080,-6.2207,0.025346
13.23,4106,11.139,0.033094
13.235,4074,-11.171,0.023541
13.24,4136,29.073,0.041887
13.245,4128,17.046,0.039557
13.25,4146,23.503,0.044783
13.255,4135,11.207,0.041596
13.26,4101,-11.854,0.031614
13.265,4109,-3.9291,0.033981
13.27,4104,-5.856,0.032502
13.275,4149,22.551,0.045649
13.28,4139,11.117,0.042757
13.285,4134,5.517,0.041305
13.29,4104,-13.677,0.032502
13.295,4110,-6.4814,0.034276
13.3,4089,-17.459,0.028042
13.305,4143,19.429,0.043916
13.31,4177,34.557,0.053654
13.315,4145,7.3657,0.044494
13.32,4132,-1.9762,0.040723
13.325,4115,-11.436,0.035748
13.33,4103,-15.618,0.032206
13.335,4080,-25.56,0.025346
13.34,4107,-2.6229,0.03339
13.345,4076,-20.763,0.024143
13.35,4128,15.969,0.039557
13.355,4127,11.432,0.039265
13.36,4146,19.921,0.044783
13.365,4114,-3.9991,0.035454
13.37,4129,6.1051,0.039849
13.375,4091,-18.184,0.028639
13.38,4116,1.6011,0.036043
13.385,4128,8.4761,0.039557
13.39,4156,23.013,0.047662
13.395,4148,12.693,0.04536
13.4,4151,11.456,0.046225
13.405,4151,8.7866,0.046225
13.41,4150,6.2159,0.045937
13.415,4158,9.5849,0.048236
13.42,4136,-5.5355,0.041887
13.425,4148,3.1875,0.04536
13.43,4130,-8.028,0.040141
13.435,4160,11.915,0.048809
13.44,4134,-6.1547,0.041305
13.445,4141,-0.2279,0.043337
13.45,4111,-17.843,0.034571
13.455,4115,-10.764,0.035748
13.46,4087,-24.851,0.027444
13.465,4148,18.091,0.04536
13.47,4144,11.336,0.044205
13.475,4150,12.195,0.045937
13.48,4195,35.451,0.058731
13.485,4183,19.91,0.055352
13.49,4207,28.963,0.062086
13.495,4166,-1.5626,0.050525
13.5,4178,6.153,0.053937
13.505,4138,-18.451,0.042467
13.51,4144,-9.9445,0.044205
13.515,4105,-30.44,0.032798
13.52,4105,-22.559,0.032798
13.525,4106,-16.103,0.033094
13.53,4151,14.905,0.046225
13.535,4127,-2.8732,0.039265
13.54,4172,24.501,0.052234
13.545,4207,38.682,0.062086
13.55,4199,24.697,0.059852
13.555,4190,13.678,0.057326
13.56,4191,11.186,0.057607
13.565,4164,-6.8651,0.049953
13.57,4133,-23.022,0.041015
13.575,4138,-13.951,0.042467
13.58,4099,-33.533,0.03102
13.585,4101,-23.679,0.031614
13.59,4128,-1.3426,0.039557
13.595,4139,5.6902,0.042757
13.6,4143,6.7972,0.043916
13.605,4152,10.575,0.046513
13.61,4159,12.226,0.048523
13.615,4144,0.56409,0.044205
13.62,4155,7.1209,0.047375
13.625,4134,-6.8245,0.041305
13.63,4154,6.9193,0.047088
13.635,4131,-8.1762,0.040432
13.64,4160,11.199,0.048809
13.645,4132,-7.8908,0.040723
13.65,4151,5.5426,0.046225
13.655,4137,-3.889,0.042177
13.66,4161,11.431,0.049095
13.665,4126,-11.873,0.038973
13.67,4152,6.7162,0.046513
13.675,4144,0.53933,0.044205
13.68,4143,0.034676,0.043916
13.685,4157,8.4812,0.047949
13.69,4160,8.3409,0.048809
13.695,4161,7.0793,0.049095
13.7,4118,-19.892,0.03663
13.705,4134,-5.1288,0.041305
13.71,4092,-28.891,0.028937
13.715,4125,-1.5906,0.038681
13.72,4123,-2.2466,0.038096
13.725,4152,15.638,0.046513
13.73,4120,-7.109,0.037217
13.735,4122,-3.978,0.037803
13.74,4093,-20.336,0.029235
13.745,4106,-7.251,0.033094
13.75,4083,-19.334,0.026246
13.755,4104,-1.662,0.032502
13.76,4085,-12.762,0.026845
13.765,4097,-2.2359,0.030426
13.77,4098,-1.0639,0.030723
13.775,4093,-3.8336,0.029235
13.78,4123,15.216,0.038096
13.785,4123,11.418,0.038096
13.79,4150,24.608,0.045937
13.795,4091,-16.8,0.028639
13.8,4077,-21.081,0.024444
13.805,4026,-47.586,0.008861
13.81,4050,-20.613,0.016254
13.815,4066,-5.6116,0.021124
13.82,4095,13.447,0.029831
13.825,4066,-7.815,0.021124
13.83,4096,12.419,0.030128
13.835,4080,-0.55869,0.025346
13.84,4094,8.0403,0.029533
13.845,4074,-6.2904,0.023541
13.85,4105,14.108,0.032798
13.855,4081,-4.0978,0.025646
13.86,4060,-16.085,0.019303
13.865,4057,-14.004,0.01839
13.87,4039,-21.864,0.012879
13.875,4030,-22.212,0.010101
13.88,4013,-27.644,0.004811
13.885,4032,-8.9014,0.010719
13.89,4000,-27.348,0.000729
13.895,4018,-9.2892,0.006373
13.9,4005,-15.618,0.002303
13.905,4032,5.111,0.010719
13.91,4055,17.879,0.017781
13.915,4100,40.7,0.031317
13.92,4061,6.3224,0.019607
13.925,4092,23.562,0.028937
13.93,4085,13.197,0.026845
13.935,4089,12.179,0.028042
13.94,4126,31.323,0.038973
13.945,4168,48.153,0.051095
13.95,4134,16.111,0.041305
13.955,4130,9.7646,0.040141
13.96,4128,6.2193,0.039557
13.965,4098,-13.272,0.030723
13.97,4105,-5.616,0.032798
13.975,4114,1.2888,0.035454
13.98,4097,-9.2308,0.030426
13.985,4072,-22.15,0.022937
13.99,4105,3.5585,0.032798
13.995,4093,-4.5981,0.029235
14,4097,-1.0073,0.030426
14.005,4114,9.5161,0.035454
14.01,4145,25.606,0.044494
14.015,4123,6.1812,0.038096
14.02,4154,23.076,0.047088
14.025,4135,6.1968,0.041596
14.03,4157,17.757,0.047949
14.035,4102,-19.277,0.03191
14.04,4069,-34.467,0.022031
14.045,4040,-43.802,0.013187
14.05,4039,-33.449,0.012879
14.055,4084,2.7692,0.026546
14.06,4065,-9.7049,0.020821
14.065,4098,12.848,0.030723
14.07,4103,12.57,0.032206
14.075,4146,35.041,0.044783
14.08,4118,9.6085,0.03663
14.085,4122,9.6297,0.037803
14.09,4129,11.448,0.039849
14.095,4094,-12.411,0.029533
14.1,4138,17.175,0.042467
14.105,4151,20.623,0.046225
14.11,4141,9.6773,0.043337
14.115,4146,10.35,0.044783
14.12,4158,14.972,0.048236
14.125,4155,9.6519,0.047375
14.13,4150,4.508,0.045937
14.135,4144,0.064767,0.044205
14.14,4153,5.5711,0.0468
14.145,4129,-9.7902,0.039849
14.15,4160,11.176,0.048809
14.155,4137,-4.9433,0.042177
14.16,4148,3.0174,0.04536
14.165,4110,-20.153,0.034276
14.17,4120,-8.9038,0.037217
14.175,4081,-30.135,0.025646
14.18,4104,-8.4672,0.032502
14.185,4107,-4.4507,0.03339
14.19,4096,-9.9253,0.030128
14.195,4098,-6.1713,0.030723
14.2,4093,-7.6261,0.029235
14.205,4095,-4.4769,0.029831
14.21,4101,0.29564,0.031614
14.215,4150,29.477,0.045937
14.22,4125,7.3229,0.038681
14.225,4138,13.298,0.042467
14.23,4106,-9.074,0.033094
14.235,4113,-2.4862,0.03516
14.24,4080,-21.818,0.025346
14.245,4103,-2.2888,0.032206
14.25,4079,-16.303,0.025046
14.255,4093,-3.6526,0.029235
14.26,4048,-30.5,0.015642
14.265,4051,-21.034,0.01656
14.27,4012,-40.492,0.004499
14.275,4060,-0.2833,0.019303
14.28,4067,3.9287,0.021426
14.285,4090,16.875,0.02834
14.29,4091,13.096,0.028639
14.295,4101,15.76,0.031614
14.3,4091,5.6392,0.028639
14.305,4075,-5.6466,0.023842
14.31,4102,12.162,0.03191
14.315,4073,-8.6583,0.023239
14.32,4096,7.5089,0.030128
14.325,4077,-6.045,0.024444
14.33,4101,10.042,0.031614
14.335,4067,-13.334,0.021426
14.34,4068,-9.4429,0.021729
14.345,4033,-29.016,0.011029
14.35,4032,-22.512,0.010719
14.355,4012,-29.758,0.004499
14.36,4039,-5.4271,0.012879
14.365,4000,-29.141,0.000729
14.37,4024,-6.8069,0.00824
14.375,4026,-4.1647,0.008861
14.38,4020,-7.2682,0.006996
14.385,4061,19.956,0.019607
14.39,4065,17.112,0.020821
14.395,4088,26.678,0.027743
14.4,4070,8.716,0.022334
14.405,4054,-3.5859,0.017476
14.41,4031,-17.311,0.01041
14.415,4030,-13.825,0.010101
14.42,4022,-15.678,0.007618
14.425,4021,-12.662,0.007307
14.43,3998,-24.512,9.8e-05
14.435,4024,-2.0858,0.00824
14.44,4001,-16.615,0.001045
14.445,4016,-3.2237,0.005749
14.45,4017,-2.1692,0.006061
14.455,4034,8.7571,0.011337
14.46,4025,0.49482,0.008551
14.465,4062,23.2,0.019911
14.47,4089,33.659,0.028042
14.475,4065,10.213,0.020821
14.48,4074,12.982,0.023541
14.485,4034,-15.39,0.011337
14.49,4037,-9.8534,0.012263
14.495,3999,-31.812,0.000414
14.5,4007,-18.98,0.002931
14.505,3962,-43.795,-0.011391
14.51,3978,-22.724,-0.006253
14.515,3989,-10.329,-0.00275
14.52,4019,11.047,0.006684
14.525,3990,-10.803,-0.002433
14.53,4020,10.69,0.006996
14.535,4004,-2.6683,0.001989
14.54,3997,-6.9517,-0.000217
14.545,3981,-16.033,-0.005295
14.55,3998,-1.4782,9.8e-05
14.555,3954,-30.338,-0.013979
14.56,3969,-13.372,-0.009137
14.565,3953,-21.127,-0.014303
14.57,3968,-6.5292,-0.009458
14.575,3978,1.045,-0.006253
14.58,4017,25.324,0.006061
14.585,4017,18.416,0.006061
14.59,3991,-3.4098,-0.002116
14.595,4023,17.455,0.007929
14.6,4005,1.1175,0.002303
14.605,4016,7.4163,0.005749
14.61,3978,-19.391,-0.006253
14.615,3987,-9.1349,-0.003385
14.62,3973,-16.45,-0.007853
14.625,3998,3.4055,9.8e-05
14.63,3996,0.75654,-0.000533
14.635,4017,13.535,0.006061
14.64,3995,-4.4409,-0.000849
14.645,4025,15.401,0.008551
14.65,3972,-23.053,-0.008174
14.655,4016,10.694,0.005749
14.66,4025,13.279,0.008551
14.665,4043,20.875,0.014109
14.67,4005,-8.8474,0.002303
14.675,4000,-10.223,0.000729
14.68,3982,-19.708,-0.004977
14.685,3969,-23.69,-0.009137
14.69,4005,5.1399,0.002303
14.695,3993,-4.3491,-0.001482
14.7,4012,8.4838,0.004499
14.705,3995,-5.0183,-0.000849
14.71,4022,13.078,0.007618
14.715,3998,-5.9888,9.8e-05
14.72,4002,-2.342,0.001359
14.725,3969,-23.62,-0.009137
14.73,3973,-15.542,-0.007853
14.735,3950,-27.303,-0.015278
14.74,3971,-7.1483,-0.008495
14.745,3943,-24.426,-0.017558
14.75,3979,4.8383,-0.005934
14.755,4001,17.277,0.001045
14.76,4015,21.351,0.005436
14.765,4009,11.648,0.003559
14.77,3995,-0.75484,-0.000849
14.775,3981,-10.116,-0.005295
14.78,3968,-16.563,-0.009458
14.785,4001,8.5281,0.001045
14.79,3995,2.0234,-0.000849
14.795,4014,13.227,0.005124
14.8,3996,-2.1024,-0.000533
14.805,4029,19.054,0.009791
14.81,4000,-4.6473,0.000729
14.815,4021,9.5371,0.007307
14.82,4008,-1.5459,0.003245
14.825,4015,2.9261,0.005436
14.83,3988,-15.556,-0.003068
14.835,3999,-4.9472,0.000414
14.84,3975,-19.693,-0.007213
14.845,3979,-12.586,-0.005934
14.85,4013,12.044,0.004811
14.855,4019,12.398,0.006684
14.86,4012,4.405,0.004499
14.865,3996,-7.3778,-0.000533
14.87,4025,12.613,0.008551
14.875,4011,0.14723,0.004185
14.88,4026,9.2795,0.008861
14.885,4003,-8.0834,0.001674
14.89,4017,2.5364,0.006061
14.895,3983,-20.348,-0.004658
14.9,3991,-10.443,-0.002116
14.905,3953,-33.122,-0.014303
14.91,3973,-12.109,-0.007853
14.915,3951,-24.064,-0.014953
14.92,3974,-3.411,-0.007533
14.925,3953,-16.926,-0.014303
14.93,4010,23.865,0.003872
14.935,3995,7.7055,-0.000849
14.94,4011,15.55,0.004185
14.945,3975,-12.096,-0.007213
14.95,3981,-5.6255,-0.005295
14.955,3968,-13.203,-0.009458
14.96,3999,9.7601,0.000414
14.965,4012,15.16,0.004499
14.97,3990,-3.2549,-0.002433
14.975,3999,2.9218,0.000414
14.98,3967,-19.072,-0.00978
14.985,3973,-10.824,-0.007853
14.99,3951,-23.098,-0.014953
14.995,3974,-2.6822,-0.007533
15,3944,-22.353,-0.017232
15.005,3956,-9.3505,-0.013331
15.01,3921,-30.997,-0.024791
15.015,3934,-15.109,-0.020505
15.02,3892,-40.522,-0.034478
15.025,3919,-12.665,-0.025453
15.03,3898,-24.561,-0.032459
15.035,3906,-13.733,-0.02978
15.04,3888,-23.469,-0.035828
15.045,3906,-6.0967,-0.02978
15.05,3905,-6.1271,-0.030114
15.055,3917,2.6907,-0.026117
15.06,3890,-17.306,-0.035153
15.065,3904,-4.2483,-0.030448
15.07,3910,0.013755,-0.028445
15.075,3912,0.48274,-0.027779
15.08,3906,-4.6029,-0.02978
15.085,3899,-9.1121,-0.032124
15.09,3912,1.161,-0.027779
15.095,3885,-18.518,-0.036843
15.1,3909,1.6952,-0.028778
15.105,3926,11.89,-0.023138
15.11,3959,30.05,-0.01236
15.115,3931,3.062,-0.021491
15.12,3937,5.5379,-0.019521
15.125,3904,-18.926,-0.030448
15.13,3912,-9.5088,-0.027779
15.135,3892,-21.602,-0.034478
15.14,3914,-1.9738,-0.027113
15.145,3883,-23.564,-0.03752
15.15,3927,11.524,-0.022809
15.155,3888,-18.801,-0.035828
15.16,3904,-3.964,-0.030448
15.165,3881,-19.668,-0.038199
15.17,3911,4.968,-0.028112
15.175,3883,-16.379,-0.03752
15.18,3899,-2.154,-0.032124
15.185,3861,-28.875,-0.045031
15.19,3905,7.8835,-0.030114
15.195,3883,-10.153,-0.03752
15.2,3886,-6.4702,-0.036504
15.205,3910,10.666,-0.028445
15.21,3880,-13.541,-0.038538
15.215,3957,41.062,-0.013007
15.22,3929,11.234,-0.022149
15.225,3972,36.14,-0.008174
15.23,3920,-8.2764,-0.025122
15.235,3930,-0.19142,-0.02182
15.24,3896,-23.971,-0.033131
15.245,3913,-7.1105,-0.027446
15.25,3897,-17.027,-0.032795
15.255,3910,-4.6722,-0.028445
15.26,3884,-22.148,-0.037182
15.265,3929,13.266,-0.022149
15.27,3883,-22.266,-0.03752
15.275,3888,-14.064,-0.035828
15.28,3862,-29.49,-0.044687
15.285,3900,3.3375,-0.031788
15.29,3930,21.948,-0.02182
15.295,3938,20.945,-0.019193
15.3,3968,34.761,-0.009458
15.305,3952,14.75,-0.014628
15.31,3929,-4.9989,-0.022149
15.315,3965,19.514,-0.010424
15.32,3956,8.0349,-0.013331
15.325,3910,-25.464,-0.028445
15.33,3975,23.627,-0.007213
15.335,3914,-23.556,-0.027113
15.34,3967,17.107,-0.00978
15.345,3945,-2.3519,-0.016906
15.35,3959,6.9134,-0.01236
15.355,3949,-2.034,-0.015603
15.36,4001,31.884,0.001045
15.365,3965,-0.060089,-0.010424
15.37,4010,28.637,0.003872
15.375,3997,12.645,-0.000217
15.38,4020,23.781,0.006996
15.385,3994,0.77725,-0.001166
15.39,4012,11.791,0.004499
15.395,3989,-6.3032,-0.00275
15.4,3977,-12.865,-0.006573
15.405,3995,1.6924,-0.000849
15.41,4012,11.832,0.004499
15.415,4009,6.6123,0.003559
15.42,3995,-4.3613,-0.000849
15.425,4016,9.891,0.005749
15.43,4017,7.7497,0.006061
15.435,4008,-0.2216,0.003245
15.44,3946,-40.92,-0.01658
15.445,3980,-8.6014,-0.005614
15.45,3953,-24.551,-0.014303
15.455,4010,18.317,0.003872
15.46,3998,5.6352,9.8e-05
15.465,4018,16.673,0.006373
15.47,3999,-0.004079,0.000414
15.475,4031,20.092,0.01041
15.48,3999,-5.6412,0.000414
15.485,4020,8.9351,0.006996
15.49,4015,3.2452,0.005436
15.495,4025,8.538,0.008551
15.5,4000,-9.8096,0.000729
15.505,4029,10.91,0.009791
15.51,4041,15.507,0.013494
15.515,4019,-2.4852,0.006684
15.52,4007,-9.7177,0.002931
15.525,4020,0.81259,0.006996
15.53,3999,-13.04,0.000414
15.535,4026,7.2534,0.008861
15.54,4004,-8.8175,0.001989
15.545,3996,-11.983,-0.000533
15.55,4037,16.904,0.012263
15.555,4025,4.8597,0.008551
15.56,4018,-1.013,0.006373
15.565,4002,-11.2,0.001359
15.57,3993,-14.414,-0.001482
15.575,3958,-33.918,-0.012683
15.58,3995,-1.5506,-0.000849
15.585,4019,13.903,0.006684
15.59,4010,4.3781,0.003872
15.595,3992,-8.579,-0.001799
15.6,4020,11.244,0.006996
15.605,3997,-6.5764,-0.000217
15.61,4018,8.2562,0.006373
15.615,3995,-8.8226,-0.000849
15.62,4025,12.316,0.008551
15.625,4002,-5.7073,0.001359
15.63,4077,42.612,0.024444
15.635,4065,24.342,0.020821
15.64,4095,36.513,0.029831
15.645,4092,25.478,0.028937
15.65,4099,23.347,0.03102
15.655,4074,2.2731,0.023541
15.66,4096,15.223,0.030128
15.665,4078,0.50534,0.024745
15.67,4094,10.256,0.029533
15.675,4081,-0.13775,0.025646
15.68,4062,-11.696,0.019911
15.685,4046,-18.631,0.015029
15.69,4031,-23.328,0.01041
15.695,4034,-15.567,0.011337
15.7,4023,-18.642,0.007929
15.705,4019,-16.564,0.006684
15.71,4006,-20.805,0.002617
15.715,4034,2.0885,0.011337
15.72,3996,-22.81,-0.000533
15.725,4009,-8.9032,0.003559
15.73,4005,-9.4268,0.002303
15.735,4024,4.851,0.00824
15.74,3999,-12.551,0.000414
15.745,4035,13.313,0.011646
15.75,4000,-12.521,0.000729
15.755,4056,25.847,0.018086
15.76,4064,24.153,0.020517
15.765,4085,30.893,0.026845
15.77,4065,10.779,0.020821
15.775,4095,26.444,0.029831
15.78,4075,7.5989,0.023842
15.785,4074,5.1185,0.023541
15.79,4041,-16.628,0.013494
15.795,4045,-9.9219,0.014723
15.8,4028,-18.133,0.009481
15.805,4031,-11.718,0.01041
15.81,4008,-23.467,0.003245
15.815,4027,-5.5796,0.009171
15.82,4001,-20.893,0.001045
15.825,4025,-0.47787,0.008551
15.83,4018,-4.9669,0.006373
15.835,4058,21.272,0.018695
15.84,4085,32.446,0.026845
15.845,4063,10.696,0.020214
15.85,4076,15.997,0.024143
15.855,4019,-23.674,0.006684
15.86,4037,-6.3839,0.012263
15.865,4010,-21.976,0.003872
15.87,4035,-0.68685,0.011646
15.875,4005,-19.7,0.002303
15.88,4025,-2.1394,0.008551
15.885,4054,16.473,0.017476
15.89,4091,35.014,0.028639
15.895,4067,11.447,0.021426
15.9,4093,24.5,0.029235
15.905,4081,11.048,0.025646
15.91,4095,16.873,0.029831
15.915,4077,1.7241,0.024444
15.92,4130,33.436,0.040141
15.925,4078,-6.2426,0.024745
15.93,4081,-2.6873,0.025646
15.935,4041,-26.687,0.013494
15.94,4047,-16.138,0.015336
15.945,4048,-11.409,0.015642
15.95,4092,18.631,0.028937
15.955,4048,-13.135,0.015642
15.96,4077,8.1744,0.024444
15.965,4042,-15.559,0.013802
15.97,4043,-11.003,0.014109
15.975,3993,-40.079,-0.001482
15.98,4076,22.232,0.024143
15.985,4068,11.677,0.021729
15.99,4081,16.727,0.025646
15.995,4051,-6.0106,0.01656
16,4050,-5.1175,0.016254
16.005,3994,-39.406,-0.001166
16.01,4067,16.543,0.021426
16.015,4068,12.955,0.021729
16.02,4093,25.005,0.029235
16.025,4063,0.32997,0.020214
16.03,4103,24.765,0.032206
16.035,4094,13.164,0.029533
16.04,4092,8.7457,0.028937
16.045,4096,9.1045,0.030128
16.05,4100,9.3849,0.031317
16.055,4091,1.7173,0.028639
16.06,4047,-25.718,0.015336
16.065,4044,-21.028,0.014416
16.07,4010,-37.212,0.003872
16.075,4069,9.2038,0.022031
16.08,4066,5.0414,0.021124
16.085,4088,17.306,0.027743
16.09,4070,1.9614,0.022334
16.095,4130,37.884,0.040141
16.1,4061,-13.434,0.019607
16.105,4115,23.005,0.035748
16.11,4082,-2.6433,0.025946
16.115,4096,6.7022,0.030128
16.12,4071,-10.128,0.022636
16.125,4100,10.275,0.031317
16.13,4058,-17.929,0.018695
16.135,4099,11.857,0.03102
16.14,4117,19.87,0.036336
16.145,4174,48.677,0.052802
16.15,4119,4.2961,0.036924
16.155,4125,7.086,0.038681
16.16,4109,-4.0002,0.033981
16.165,4099,-8.7591,0.03102
16.17,4126,9.943,0.038973
16.175,4147,20.176,0.045072
16.18,4147,15.424,0.045072
16.185,4148,12.484,0.04536
16.19,4160,16.758,0.048809
16.195,4132,-3.5642,0.040723
16.2,4138,1.2806,0.042467
16.205,4124,-6.9832,0.038389
16.21,4112,-12.054,0.034865
16.215,4090,-22.009,0.02834
16.22,4142,15.027,0.043627
16.225,4124,0.87509,0.038389
16.23,4145,13.441,0.044494
16.235,4169,24.468,0.05138
16.24,4200,36.581,0.060132
16.245,4192,23.27,0.057888
16.25,4190,16.78,0.057326
16.255,4156,-6.6351,0.047662
16.26,4156,-4.4521,0.047662
16.265,4130,-18.191,0.040141
16.27,4186,19.63,0.056199
16.275,4132,-16.408,0.040723
16.28,4150,-1.1834,0.045937
16.285,4136,-8.7065,0.041887
16.29,4150,2.1784,0.045937
16.295,4143,-2.0679,0.043916
16.3,4154,5.3476,0.047088
16.305,4142,-2.6378,0.043627
16.31,4146,0.80284,0.044783
16.315,4148,2.1937,0.04536
16.32,4134,-6.2229,0.041305
16.325,4152,6.3712,0.046513
16.33,4130,-7.8341,0.040141
16.335,4145,3.4106,0.044494
16.34,4115,-14.915,0.035748
16.345,4130,-1.8431,0.040141
16.35,4151,11.392,0.046225
16.355,4150,8.3093,0.045937
16.36,4127,-7.0198,0.039265
16.365,4166,18.099,0.050525
16.37,4135,-4.2835,0.041596
16.375,4150,6.0407,0.045937
16.38,4138,-2.1684,0.042467
16.385,4159,11.126,0.048523
16.39,4122,-13.155,0.037803
16.395,4128,-5.8943,0.039557
16.4,4095,-23.918,0.029831
16.405,4111,-7.9251,0.034571
16.41,4085,-21.424,0.026845
16.415,4108,-1.8354,0.033685
16.42,4073,-22.473,0.023239
16.425,4075,-15.412,0.023842
16.43,4037,-35.034,0.012263
16.435,4042,-23.013,0.013802
16.44,4041,-17.83,0.013494
16.445,4087,15.126,0.027444
16.45,4066,-1.5588,0.021124
16.455,4096,17.24,0.030128
16.46,4078,1.9689,0.024745
16.465,4093,10.701,0.029235
16.47,4072,-4.7686,0.022937
16.475,4102,14.82,0.03191
16.48,4077,-4.0507,0.024444
16.485,4033,-30.338,0.011029
16.49,4045,-15.146,0.014723
16.495,4042,-13.227,0.013802
16.5,4010,-30.212,0.003872
16.505,4069,14.365,0.022031
16.51,4082,18.685,0.025946
16.515,4092,20.072,0.028937
16.52,4087,11.996,0.027444
16.525,4098,15.719,0.030723
16.53,4099,12.449,0.03102
16.535,4084,0.28233,0.026546
16.54,4101,10.657,0.031614
16.545,4096,5.0651,0.030128
16.55,4079,-6.459,0.025046
16.555,4061,-15.829,0.019607
16.56,4046,-21.119,0.015029
16.565,4018,-33.454,0.006373
16.57,4083,15.499,0.026246
16.575,4089,15.269,0.028042
16.58,4089,11.462,0.028042
16.585,4046,-17.936,0.015029
16.59,4052,-9.6647,0.016865
16.595,4011,-33.133,0.004185
16.6,4032,-11.538,0.010719
16.605,4034,-7.4732,0.011337
16.61,4020,-14.571,0.006996
16.615,3999,-24.489,0.000414
16.62,4030,1.2559,0.010101
16.625,4014,-9.4062,0.005124
16.63,4015,-6.6062,0.005436
16.635,4015,-5.1595,0.005436
16.64,4027,3.5417,0.009171
16.645,3997,-16.732,-0.000217
16.65,4029,7.6647,0.009791
16.655,4005,-9.778,0.002303
16.66,4020,2.0171,0.006996
16.665,4027,5.7144,0.009171
16.67,4022,0.88389,0.007618
16.675,3969,-33.772,-0.009137
16.68,3995,-8.6504,-0.000849
16.685,3982,-15.207,-0.004977
16.69,3970,-19.556,-0.008816
16.695,3947,-30.199,-0.016254
16.7,3971,-7.1927,-0.008495
16.705,3940,-26.332,-0.018539
16.71,3959,-7.5856,-0.01236
16.715,3928,-26.841,-0.022479
16.72,3966,4.6297,-0.010102
16.725,3938,-15.632,-0.019193
16.73,3965,5.6431,-0.010424
16.735,3942,-11.554,-0.017885
16.74,3962,4.0484,-0.011391
16.745,3982,15.581,-0.004977
16.75,4017,33.694,0.006061
16.755,3989,6.8001,-0.00275
16.76,3995,8.5552,-0.000849
16.765,3963,-14.857,-0.011068
16.77,3968,-8.2593,-0.009458
16.775,3974,-2.6877,-0.007533
16.78,4013,22.757,0.004811
16.785,3991,2.5086,-0.002116
16.79,4008,12.448,0.003245
16.795,3971,-14.999,-0.008495
16.8,3979,-6.3759,-0.005934
16.805,3973,-9.0779,-0.007853
16.81,4016,20.579,0.005749
16.815,3997,2.8726,-0.000217
16.82,4012,11.437,0.004499
16.825,3975,-15.667,-0.007213
16.83,3986,-4.9103,-0.003703
16.835,3947,-29.658,-0.016254
16.84,3972,-6.1165,-0.008174
16.845,3952,-18.178,-0.014628
16.85,3963,-6.7937,-0.011068
16.855,3942,-19.468,-0.017885
16.86,3972,4.7564,-0.008174
16.865,3940,-18.087,-0.018539
16.87,3987,16.886,-0.003385
16.875,3995,17.346,-0.000849
16.88,4006,19.632,0.002617
16.885,3988,2.7,-0.003068
16.89,4012,17.091,0.004499
16.895,3973,-12.768,-0.007853
16.9,3981,-4.7014,-0.005295
16.905,3987,0.00937,-0.003385
16.91,4017,18.929,0.006061
16.915,4016,13.21,0.005749
16.92,4018,10.871,0.006373
16.925,4000,-3.6534,0.000729
16.93,4019,9.1509,0.006684
16.935,3992,-10.724,-0.001799
16.94,3986,-12.19,-0.003703
16.945,3951,-32.393,-0.014953
16.95,4000,7.4107,0.000729
16.955,3994,1.3395,-0.001166
16.96,4011,11.596,0.004185
16.965,4009,7.0966,0.003559
16.97,4024,14.584,0.00824
16.975,4038,19.507,0.012571
16.98,4015,-0.176,0.005436
16.985,3997,-11.888,-0.000217
16.99,3981,-19.504,-0.005295
16.995,3977,-17.484,-0.006573
17,4009,7.2929,0.003559
17.005,4012,7.0922,0.004499
17.01,4017,8.2309,0.006061
17.015,4001,-4.3307,0.001045
17.02,4044,23.805,0.014416
17.025,4019,1.8313,0.006684
17.03,4022,3.0792,0.007618
17.035,4034,9.7088,0.011337
17.04,4024,0.77572,0.00824
17.045,4005,-11.708,0.002303
17.05,3999,-12.812,0.000414
17.055,3980,-22.116,-0.005614
17.06,3986,-12.912,-0.003703
17.065,4014,8.0767,0.005124
17.07,4020,9.6089,0.006996
17.075,4005,-2.6268,0.002303
17.08,4020,7.3742,0.006996
17.085,4021,5.9329,0.007307
17.09,4023,5.5027,0.007929
17.095,3999,-11.423,0.000414
17.1,3990,-14.584,-0.002433
17.105,3963,-28.799,-0.011068
17.11,4029,20.729,0.009791
17.115,4012,4.4562,0.004499
17.12,4006,-0.7502,0.002617
17.125,4051,27.664,0.01656
17.13,4078,37.242,0.024745
17.135,4064,19.145,0.020517
17.14,4072,19.21,0.022937
17.145,4054,3.2049,0.017476
17.15,4067,10.447,0.021426
17.155,4035,-12.146,0.011646
17.16,4032,-11.009,0.010719
17.165,4023,-13.985,0.007929
17.17,4024,-9.9094,0.00824
17.175,4076,24.962,0.024143
17.18,4087,25.389,0.027444
17.185,4082,15.964,0.025946
17.19,4091,17.496,0.028639
17.195,4104,21.07,0.032502
17.2,4071,-4.2493,0.022636
17.205,4075,-0.60483,0.023842
17.21,4100,14.922,0.031317
17.215,4095,8.2784,0.029831
17.22,4097,7.5695,0.030426
17.225,4098,6.4447,0.030723
17.23,4104,8.6411,0.032502
17.235,4097,2.4272,0.030426
17.24,4104,6.259,0.032502
17.245,4099,1.871,0.03102
17.25,4093,-2.03,0.029235
17.255,4079,-9.8677,0.025046
17.26,4108,10.439,0.033685
17.265,4091,-2.284,0.028639
17.27,4095,0.92212,0.029831
17.275,4087,-3.9856,0.027444
17.28,4091,-0.35632,0.028639
17.285,4096,2.9603,0.030128
17.29,4105,7.8584,0.032798
17.295,4096,0.63545,0.030128
17.3,4096,0.67904,0.030128
17.305,4101,3.7438,0.031614
17.31,4100,2.4057,0.031317
17.315,4072,-15.098,0.022937
17.32,4106,9.6137,0.033094
17.325,4088,-3.5332,0.027743
17.33,4096,2.4128,0.030128
17.335,4078,-8.9964,0.024745
17.34,4100,6.8537,0.031317
17.345,4072,-11.797,0.022937
17.35,4101,9.0399,0.031614
17.355,4081,-5.2437,0.025646
17.36,4094,4.1716,0.029533
17.365,4075,-8.33,0.023842
17.37,4102,10.387,0.03191
17.375,4072,-10.376,0.022937
17.38,4120,21.535,0.037217
17.385,4122,17.51,0.037803
17.39,4143,25.816,0.043916
17.395,4146,21.374,0.044783
17.4,4197,45.946,0.059292
17.405,4177,23.295,0.053654
17.41,4193,27.114,0.058169
17.415,4161,2.2745,0.049095
17.42,4163,3.3736,0.049668
17.425,4133,-14.639,0.041015
17.43,4157,3.6688,0.047949
17.435,4136,-9.1605,0.041887
