0,4730,410.39,0.18843
0.004993,4716,349.43,0.18549
0.009994,4718,304.21,0.18591
0.014994,4717,263.89,0.1857
0.019993,4713,227.79,0.18485
0.024993,4716,199.9,0.18549
0.029992,4717,174.96,0.1857
0.034993,4710,149.82,0.18422
0.039993,4715,133.66,0.18528
0.044995,4719,119.3,0.18612
0.049993,4717,104.19,0.1857
0.054993,4744,104.38,0.19134
0.059993,4770,104.01,0.19671
0.064993,4770,92.073,0.19671
0.069993,4773,83.133,0.19732
0.074995,4781,77.663,0.19896
0.079993,4780,68.972,0.19875
0.084994,4770,57.479,0.19671
0.089994,4757,46.186,0.19404
0.094994,4746,37.293,0.19176
0.099994,4740,31.848,0.19051
0.105,4766,41.565,0.19589
0.10999,4799,52.932,0.20261
0.115,4775,37.556,0.19773
0.11999,4777,35.761,0.19814
0.12499,4780,34.666,0.19875
0.12999,4775,30.176,0.19773
0.13501,4775,28.521,0.19773
0.13999,4781,29.765,0.19896
0.14499,4778,26.853,0.19834
0.15,4776,24.783,0.19794
0.15499,4781,26.108,0.19896
0.16,4821,42.613,0.20702
0.165,4776,19.568,0.19794
0.17,4779,20.734,0.19855
0.17499,4778,19.969,0.19834
0.18,4777,19.31,0.19814
0.185,4779,20.075,0.19855
0.19,4780,20.296,0.19875
0.195,4776,18.269,0.19794
0.2,4762,12.041,0.19507
0.205,4749,7.0486,0.19238
0.21,4740,4.4927,0.19051
0.215,4758,14.46,0.19424
0.22,4775,22.573,0.19773
0.225,4777,22.896,0.19814
0.23,4799,32.019,0.20261
0.235,4784,23.585,0.19957
0.24,4785,23.349,0.19977
0.245,4776,18.712,0.19794
0.25,4786,23.13,0.19997
0.255,4810,33.084,0.20482
0.26,4775,15.719,0.19773
0.265,4780,18.341,0.19875
0.27,4783,19.721,0.19936
0.275,4775,16.035,0.19773
0.28,4780,18.618,0.19875
0.285,4783,19.966,0.19936
0.29,4776,16.696,0.19794
0.295,4777,17.418,0.19814
0.3,4784,20.706,0.19957
0.305,4780,18.677,0.19875
0.31,4777,17.362,0.19814
0.315,4783,20.22,0.19936
0.32,4783,20.036,0.19936
0.325,4801,27.822,0.20301
0.33,4782,18.245,0.19916
0.335,4780,17.45,0.19875
0.34,4777,16.317,0.19814
0.345,4779,17.556,0.19855
0.35,4774,15.518,0.19753
0.355,4776,16.866,0.19794
0.36,4780,18.922,0.19875
0.365,4781,19.371,0.19896
0.37,4775,16.651,0.19773
0.375,4777,17.851,0.19814
0.38,4783,20.667,0.19936
0.38501,4776,17.336,0.19794
0.39,4776,17.56,0.19794
0.395,4805,30.562,0.20382
0.4,4778,17.111,0.19834
0.405,4776,16.487,0.19794
0.41,4780,18.615,0.19875
0.415,4780,18.681,0.19875
0.42,4775,16.517,0.19773
0.425,4780,19.088,0.19875
0.43,4777,17.762,0.19814
0.435,4776,17.502,0.19794
0.44,4780,19.5,0.19875
0.445,4777,18.122,0.19814
0.45,4773,16.481,0.19732
0.455,4777,18.622,0.19814
0.46,4779,19.585,0.19855
0.465,4799,28.373,0.20261
0.47,4774,16.092,0.19753
0.475,4778,18.295,0.19834
0.48,4775,17.091,0.19773
0.485,4774,16.938,0.19753
0.49,4779,19.474,0.19855
0.495,4776,18.116,0.19794
0.5,4768,14.707,0.1963
0.505,4754,9.0421,0.19342
0.51,4765,15.342,0.19568
0.515,4735,2.3344,0.18947
0.52,4764,17.662,0.19548
0.525,4771,20.99,0.19691
0.53,4770,20.301,0.19671
0.535,4777,23.273,0.19814
0.54,4783,25.397,0.19936
0.545,4773,20.135,0.19732
0.55,4775,20.915,0.19773
0.55501,4785,25.143,0.19977
0.56,4780,22.155,0.19875
0.565,4775,19.565,0.19773
0.57,4785,23.986,0.19977
0.575,4782,22.052,0.19916
0.58,4800,29.658,0.20281
0.58501,4784,21.248,0.19957
0.59,4780,19.252,0.19875
0.59501,4775,17.077,0.19773
0.6,4778,18.749,0.19834
0.60501,4780,19.754,0.19875
0.61,4772,16.178,0.19712
0.61501,4777,18.865,0.19814
0.62,4781,20.745,0.19896
0.62501,4801,29.43,0.20301
0.63001,4776,17.081,0.19794
0.63501,4781,19.656,0.19896
0.64001,4777,17.891,0.19814
0.64501,4777,18.139,0.19814
0.65001,4781,20.131,0.19896
0.65501,4775,17.416,0.19773
0.66001,4775,17.731,0.19773
0.66501,4780,20.227,0.19875
0.67001,4775,17.945,0.19773
0.67501,4772,16.856,0.19712
0.68001,4780,20.808,0.19875
0.68501,4777,19.342,0.19814
0.69001,4771,16.734,0.19691
0.69501,4779,20.708,0.19855
0.70001,4746,5.8077,0.19176
0.70501,4732,1.327,0.18884
0.71001,4754,13.737,0.19342
0.71501,4773,23.038,0.19732
0.72001,4769,20.807,0.1965
0.72501,4773,22.445,0.19732
0.73001,4778,24.31,0.19834
0.73501,4773,21.48,0.19732
0.74001,4798,32.327,0.20241
0.74501,4781,23.154,0.19896
0.75001,4776,20.502,0.19794
0.75501,4774,19.538,0.19753
0.76001,4780,22.264,0.19875
0.76501,4802,31.674,0.20321
0.77001,4772,16.85,0.19712
0.77501,4758,11.017,0.19424
0.78001,4748,7.7212,0.19217
0.78501,4740,5.7421,0.19051
0.79001,4758,15.757,0.19424
0.79501,4770,21.684,0.19671
0.80001,4769,21.003,0.1965
0.80501,4799,34.155,0.20261
0.81001,4776,22.095,0.19794
0.81501,4775,21.38,0.19773
0.82001,4776,21.653,0.19794
0.82501,4804,33.817,0.20361
0.83001,4775,19.184,0.19773
0.83501,4773,18.433,0.19732
0.84001,4781,22.23,0.19896
0.84501,4805,32.552,0.20382
0.85001,4772,16.33,0.19712
0.85501,4778,19.536,0.19834
0.86001,4784,22.307,0.19957
0.86501,4798,28.229,0.20241
0.87001,4776,17.453,0.19794
0.87501,4786,22.289,0.19997
0.88001,4777,18.051,0.19814
0.88502,4777,18.373,0.19814
0.89001,4781,20.429,0.19896
0.89501,4778,19.103,0.19834
0.90001,4775,17.953,0.19773
0.90501,4806,31.982,0.20402
0.91001,4776,17.21,0.19794
0.91501,4775,17.213,0.19773
0.92001,4783,21.214,0.19936
0.92501,4779,19.354,0.19855
0.93001,4773,16.849,0.19732
0.93501,4778,19.573,0.19834
0.94001,4780,20.597,0.19875
0.94501,4774,17.93,0.19753
0.95001,4776,19.177,0.19794
0.95501,4780,21.147,0.19875
0.96001,4774,18.41,0.19753
0.96501,4777,20.042,0.19814
0.97001,4780,21.455,0.19875
0.97501,4776,19.572,0.19794
0.98001,4776,19.719,0.19794
0.98501,4780,21.626,0.19875
0.99001,4776,19.725,0.19794
0.99501,4766,15.396,0.19589
1,4754,10.722,0.19342
1.005,4743,7.0868,0.19114
1.01,4742,8.4402,0.19093
1.015,4766,20.857,0.19589
1.02,4773,23.942,0.19732
1.025,4770,22.156,0.19671
1.03,4776,24.623,0.19794
1.035,4779,25.426,0.19855
1.04,4775,23.015,0.19773
1.045,4776,23.154,0.19794
1.05,4779,24.166,0.19855
1.055,4775,21.936,0.19773
1.06,4777,22.676,0.19814
1.065,4778,22.875,0.19834
1.07,4775,21.272,0.19773
1.075,4776,21.665,0.19794
1.08,4780,23.341,0.19875
1.085,4778,22.13,0.19834
1.09,4773,19.748,0.19732
1.095,4779,22.581,0.19855
1.1,4777,21.479,0.19814
1.105,4781,23.193,0.19896
1.11,4784,24.235,0.19957
1.115,4784,23.812,0.19957
1.12,4764,14.542,0.19548
1.125,4780,22.55,0.19875
1.13,4783,23.688,0.19936
1.135,4780,22.015,0.19875
1.14,4782,22.788,0.19916
1.145,4767,15.894,0.19609
1.15,4782,23.278,0.19916
1.155,4781,22.556,0.19896
1.3585,4772,18.374,0.19712
1.3586,4773,19.2,0.19732
1.4025,4781,23.028,0.19896
1.4026,4782,23.234,0.19916
1.4026,4788,25.629,0.20038
1.4027,4781,21.952,0.19896
1.4028,4781,21.869,0.19896
1.4028,4779,20.913,0.19855
1.4029,4781,21.862,0.19896
1.403,4780,21.355,0.19875
1.4031,4778,20.473,0.19834
1.4031,4778,20.599,0.19834
1.4032,4804,32.189,0.20361
1.4033,4783,21.5,0.19936
1.4033,4783,21.503,0.19936
1.4034,4782,21.064,0.19916
1.4035,4781,20.685,0.19896
1.4036,4782,21.246,0.19916
1.4036,4780,20.402,0.19875
1.4037,4802,30.274,0.20321
1.4038,4779,18.963,0.19855
1.4039,4778,18.878,0.19834
1.4039,4779,19.694,0.19855
1.404,4778,19.512,0.19834
1.4041,4778,19.799,0.19834
1.4041,4779,20.493,0.19855
1.4042,4778,20.207,0.19834
1.4043,4809,34.074,0.20462
1.4044,4781,20.091,0.19896
1.4044,4780,19.873,0.19875
1.4045,4780,20.128,0.19875
1.4046,4779,19.906,0.19855
1.4046,4780,20.603,0.19875
1.4047,4778,19.875,0.19834
1.4048,4777,19.689,0.19814
1.4049,4804,31.897,0.20361
1.4049,4777,18.635,0.19814
1.405,4776,18.625,0.19794
1.4051,4776,19.06,0.19794
1.4051,4777,19.883,0.19814
1.4052,4779,21.04,0.19855
1.4053,4783,22.93,0.19936
1.4053,4782,22.351,0.19916
1.4054,4781,21.853,0.19896
1.4055,4779,20.979,0.19855
1.4056,4778,20.666,0.19834
1.4056,4775,19.507,0.19773
1.4057,4778,21.172,0.19834
1.4058,4777,20.837,0.19814
1.4059,4777,20.992,0.19814
1.41,4776,20.684,0.19794
1.415,4780,22.64,0.19875
1.42,4799,30.955,0.20261
1.425,4776,19.599,0.19794
1.43,4779,21.268,0.19855
1.435,4778,20.938,0.19834
1.4401,4776,20.208,0.19794
1.445,4804,32.835,0.20361
1.45,4779,20.379,0.19855
1.455,4775,18.847,0.19773
1.46,4778,20.632,0.19834
1.465,4780,21.733,0.19875
1.47,4773,18.687,0.19732
1.475,4777,20.942,0.19814
1.48,4784,24.224,0.19957
1.485,4782,23.076,0.19916
1.49,4775,19.861,0.19773
1.495,4787,25.512,0.20018
1.5,4785,24.201,0.19977
1.505,4767,15.946,0.19609
1.51,4760,13.667,0.19465
1.515,4749,9.8732,0.19238
1.52,4742,8.3646,0.19093
1.525,4767,21.459,0.19609
1.53,4776,25.572,0.19794
1.535,4773,23.789,0.19732
1.54,4802,36.412,0.20321
1.545,4783,26.15,0.19936
1.55,4775,22.094,0.19773
1.555,4777,23.027,0.19814
1.56,4783,25.611,0.19936
1.565,4779,23.416,0.19855
1.57,4776,21.958,0.19794
1.575,4780,23.809,0.19875
1.58,4778,22.749,0.19834
1.585,4796,30.686,0.202
1.59,4781,22.975,0.19896
1.595,4777,21.151,0.19814
1.6,4774,20.015,0.19753
1.605,4777,21.701,0.19814
1.61,4800,31.996,0.20281
1.615,4774,19.253,0.19753
1.62,4779,21.94,0.19855
1.625,4779,22.046,0.19855
1.63,4771,18.578,0.19691
1.635,4775,20.917,0.19773
1.64,4780,23.384,0.19875
1.645,4774,20.633,0.19753
1.65,4760,14.661,0.19465
1.655,4751,11.694,0.1928
1.66,4740,8.1937,0.19051
1.665,4748,13.742,0.19217
1.67,4767,23.459,0.19609
1.675,4771,25.132,0.19691
1.68,4772,25.245,0.19712
1.685,4777,27.128,0.19814
1.69,4775,25.648,0.19773
1.695,4773,24.37,0.19732
1.7,4802,36.985,0.20321
1.705,4777,24.052,0.19814
1.71,4776,23.453,0.19794
1.715,4776,23.382,0.19794
1.72,4780,25.101,0.19875
1.725,4798,32.772,0.20241
1.73,4775,21.293,0.19773
1.735,4779,23.307,0.19855
1.74,4775,21.497,0.19773
1.745,4775,21.709,0.19773
1.75,4779,23.672,0.19855
1.755,4775,21.818,0.19773
1.76,4775,21.992,0.19773
1.765,4780,24.367,0.19875
1.77,4775,21.982,0.19773
1.775,4774,21.695,0.19753
1.78,4778,23.673,0.19834
1.785,4780,24.497,0.19875
1.79,4790,28.755,0.20078
1.795,4779,23.148,0.19855
1.8,4785,25.828,0.19977
1.805,4776,21.497,0.19794
1.81,4775,21.297,0.19773
1.815,4812,37.884,0.20522
1.82,4781,22.303,0.19896
1.825,4762,13.982,0.19507
1.83,4745,7.5908,0.19155
1.835,4734,4.7088,0.18926
1.84,4738,9.0037,0.1901
1.845,4770,25.298,0.19671
1.85,4773,26.356,0.19732
1.855,4770,24.602,0.19671
1.86,4801,38.149,0.20301
1.865,4777,25.565,0.19814
1.87,4773,23.495,0.19732
1.875,4778,25.71,0.19834
1.88,4779,25.852,0.19855
1.885,4772,22.42,0.19712
1.89,4775,23.9,0.19773
1.895,4780,26.071,0.19875
1.9,4774,23.065,0.19753
1.905,4795,32.434,0.2018
1.91,4778,23.733,0.19834
1.915,4777,23.277,0.19814
1.92,4775,22.438,0.19773
1.925,4779,24.382,0.19855
1.93,4802,34.448,0.20321
1.935,4773,20.193,0.19732
1.94,4778,22.897,0.19834
1.945,4780,23.904,0.19875
1.95,4773,20.777,0.19732
1.955,4748,9.9697,0.19217
1.96,4738,7.2859,0.1901
1.965,4721,1.729,0.18654
1.97,4752,18.723,0.193
1.975,4769,26.992,0.1965
1.98,4769,26.536,0.1965
1.985,4772,27.484,0.19712
1.99,4777,29.198,0.19814
1.995,4775,27.574,0.19773
2,4774,26.616,0.19753
2.005,4777,27.572,0.19814
2.01,4775,26.181,0.19773
2.015,4773,24.978,0.19732
2.0201,4780,27.944,0.19875
2.025,4775,25.183,0.19773
2.03,4771,23.235,0.19691
2.035,4776,25.559,0.19794
2.04,4777,25.793,0.19814
2.045,4771,22.882,0.19691
2.05,4800,35.875,0.20281
2.055,4777,24.134,0.19814
2.06,4772,21.907,0.19712
2.065,4775,23.541,0.19773
2.07,4801,35.119,0.20301
2.075,4775,22.166,0.19773
2.08,4774,21.997,0.19753
2.085,4780,24.965,0.19875
2.09,4802,34.585,0.20321
2.095,4773,20.388,0.19732
2.1,4782,24.917,0.19916
2.105,4783,25.286,0.19936
2.11,4773,20.72,0.19732
2.115,4780,24.323,0.19875
2.1201,4787,27.435,0.20018
2.125,4773,20.818,0.19732
2.13,4803,34.567,0.20341
2.135,4807,34.975,0.20422
2.14,4773,18.566,0.19732
2.145,4777,21.149,0.19814
2.15,4809,35.721,0.20462
2.155,4778,20.571,0.19834
2.16,4764,14.871,0.19548
2.165,4751,10.334,0.1928
2.17,4738,6.3553,0.1901
2.175,4742,10.589,0.19093
2.18,4769,24.575,0.1965
2.185,4774,26.783,0.19753
2.19,4770,24.687,0.19671
2.195,4776,27.331,0.19794
2.2,4781,29.174,0.19896
2.205,4772,24.552,0.19712
2.21,4802,37.826,0.20321
2.215,4779,25.908,0.19855
2.2201,4794,32.382,0.2016
2.225,4777,23.834,0.19814
2.23,4799,33.686,0.20261
2.235,4775,21.884,0.19773
2.24,4761,16.024,0.19486
2.245,4746,10.446,0.19176
2.25,4747,12.808,0.19197
2.255,4745,13.493,0.19155
2.26,4767,24.873,0.19609
2.265,4771,26.63,0.19691
2.27,4779,29.931,0.19855
2.275,4784,31.455,0.19957
2.28,4782,29.678,0.19916
2.285,4759,18.769,0.19445
2.29,4781,29.397,0.19896
2.295,4782,29.235,0.19916
2.3,4783,29.101,0.19936
2.305,4784,28.99,0.19957
2.31,4765,19.996,0.19568
2.315,4781,27.793,0.19896
2.3201,4764,19.845,0.19548
2.325,4788,31.214,0.20038
2.33,4761,18.37,0.19486
2.335,4785,29.957,0.19977
2.34,4781,27.534,0.19896
2.345,4786,29.428,0.19997
2.35,4761,17.721,0.19486
2.355,4766,20.953,0.19589
2.36,4788,31.296,0.20038
2.365,4779,26.491,0.19855
2.37,4754,15.144,0.19342
2.375,4728,4.708,0.18801
2.38,4737,11.527,0.18989
2.3851,4770,28.185,0.19671
2.39,4782,33.106,0.19916
2.395,4757,20.878,0.19404
2.4,4786,34.378,0.19997
2.405,4790,34.918,0.20078
2.41,4790,33.627,0.20078
2.415,4762,20.06,0.19507
2.4201,4774,26.125,0.19753
2.425,4791,33.559,0.20099
2.43,4784,29.374,0.19957
2.435,4773,23.962,0.19732
2.44,4792,32.588,0.20119
2.445,4780,26.332,0.19875
2.45,4784,28.001,0.19957
2.455,4784,27.678,0.19957
2.46,4776,23.849,0.19794
2.465,4783,27.195,0.19936
2.47,4791,30.528,0.20099
2.475,4786,27.672,0.19997
2.48,4767,18.96,0.19609
2.485,4791,30.525,0.20099
2.49,4783,26.347,0.19936
2.495,4786,27.6,0.19997
2.5,4768,19.356,0.1963
2.505,4785,27.778,0.19977
2.51,4787,28.402,0.20018
2.515,4789,28.946,0.20058
2.5201,4789,28.537,0.20058
2.525,4777,22.868,0.19814
2.53,4761,16.133,0.19486
2.535,4747,11.138,0.19197
2.54,4719,0.36567,0.18612
2.545,4712,0.53993,0.18464
2.55,4736,14.855,0.18968
2.555,4732,14.464,0.18884
2.56,4691,-2.9222,0.18019
2.565,4679,-4.7397,0.17762
2.57,4689,3.9275,0.17976
2.575,4677,1.1534,0.17719
2.58,4656,-5.5525,0.17265
2.585,4654,-2.4414,0.17221
2.59,4692,19.016,0.1804
2.595,4715,30.393,0.18528
2.6,4721,32.381,0.18654
2.605,4683,13.796,0.17847
2.61,4671,9.6364,0.17589
2.615,4647,0.29719,0.17068
2.62,4629,-5.0675,0.16673
2.625,4602,-14.192,0.16074
2.63,4610,-5.1735,0.16252
2.6351,4614,0.66786,0.16341
2.64,4611,2.3203,0.16275
2.645,4595,-2.6003,0.15917
2.65,4614,10.155,0.16341
2.655,4608,9.0426,0.16208
2.66,4587,0.72309,0.15737
2.665,4553,-13.094,0.14963
2.67,4549,-10.241,0.14871
2.675,4539,-10.816,0.1464
2.68,4522,-14.919,0.14245
2.6851,4489,-26.828,0.13468
2.6901,4484,-22.839,0.13349
2.6951,4504,-6.4966,0.13823
2.7001,4500,-4.7433,0.13729
2.705,4479,-12.057,0.13229
2.7101,4480,-7.0257,0.13253
2.715,4499,6.6273,0.13705
2.7201,4478,-2.2664,0.13206
2.725,4450,-13.808,0.12531
2.7301,4436,-16.568,0.12189
2.7351,4451,-3.5891,0.12555
2.7401,4458,3.3678,0.12725
2.7451,4436,-5.9667,0.12189
2.7501,4421,-10.444,0.11821
2.7551,4451,9.6755,0.12555
2.7601,4451,11.107,0.12555
2.7651,4414,-7.4197,0.11648
2.7701,4400,-11.31,0.11299
2.7751,4408,-2.7792,0.11499
2.7801,4397,-5.7184,0.11225
2.7851,4373,-15.47,0.1062
2.7901,4369,-12.992,0.10519
2.7951,4395,5.622,0.11174
2.8001,4387,3.0852,0.10974
2.8051,4367,-5.7669,0.10468
2.8101,4377,3.0866,0.10722
2.8151,4367,-0.30109,0.10468
2.8201,4357,-3.2799,0.10213
2.8251,4323,-19.442,0.093351
2.8301,4336,-6.9957,0.096727
2.8351,4379,20.359,0.10772
2.8401,4380,20.664,0.10797
2.8451,4378,19.282,0.10747
2.8501,4334,-5.3364,0.096209
2.8551,4356,10.181,0.10187
2.8601,4339,1.762,0.097503
2.8651,4309,-13.047,0.089687
2.8701,4309,-8.8735,0.089687
2.8751,4326,4.4051,0.094132
2.8801,4311,-2.3218,0.090212
2.8851,4296,-8.2362,0.086258
2.8901,4260,-25.737,0.076629
2.8951,4308,7.9068,0.089424
2.9001,4329,21.134,0.094912
2.9051,4323,17.242,0.093351
2.9101,4298,2.9779,0.086787
2.9151,4326,20.905,0.094132
2.9201,4326,20.441,0.094132
2.9251,4305,8.0693,0.088634
2.9301,4278,-6.2866,0.081468
2.9351,4290,3.8341,0.084667
2.9401,4292,6.7828,0.085198
2.9451,4314,20.808,0.090999
2.9501,4298,11.156,0.086787
2.9551,4298,11.965,0.086787
2.9601,4303,15.538,0.088107
2.9651,4290,8.2654,0.084667
2.9701,4258,-9.2302,0.076089
2.9751,4274,3.663,0.080397
2.9801,4278,7.7716,0.081468
2.9851,4273,6.076,0.080129
2.9901,4232,-16.719,0.069002
2.9951,4217,-21.265,0.064864
3.0001,4229,-9.0045,0.068177
3.0051,4239,0.35746,0.07092
3.0101,4237,1.2902,0.070373
3.0151,4244,7.4468,0.072286
3.0201,4261,18.657,0.0769
3.0251,4242,7.086,0.07174
3.0301,4213,-9.097,0.063755
3.0351,4202,-12.416,0.060691
3.0401,4219,1.6571,0.065418
3.0451,4222,5.3498,0.066248
3.0501,4211,0.097105,0.063199
3.0551,4191,-10.005,0.057607
3.0601,4217,9.2119,0.064864
3.0651,4210,5.8173,0.062921
3.0701,4171,-16.794,0.051949
3.0751,4162,-18.101,0.049382
3.0801,4175,-5.5964,0.053086
3.0851,4164,-9.6704,0.049953
3.0901,4141,-20.804,0.043337
3.0951,4142,-15.434,0.043627
3.1001,4158,-1.3956,0.048236
3.1051,4160,1.9639,0.048809
3.1101,4137,-10.827,0.042177
3.1151,4133,-10.013,0.041015
3.1201,4159,9.5597,0.048523
3.1251,4160,10.784,0.048809
3.1301,4135,-4.4902,0.041596
3.1351,4132,-3.9258,0.040723
3.1401,4158,14.814,0.048236
3.1451,4151,10.307,0.046225
3.1501,4143,5.7529,0.043916
3.1551,4133,0.51251,0.041015
3.1601,4152,14.258,0.046513
3.1651,4139,6.0136,0.042757
3.1701,4103,-15.934,0.032206
3.1751,4094,-17.811,0.029533
3.1801,4105,-6.5257,0.032798
3.1851,4101,-6.4562,0.031614
3.1901,4100,-4.4754,0.031317
3.1951,4087,-10.561,0.027444
3.2001,4140,26.57,0.043047
3.2051,4150,31.056,0.045937
3.2101,4124,12.224,0.038389
3.2151,4109,2.7511,0.033981
3.2201,4121,11.826,0.03751
3.2251,4121,12,0.03751
3.2301,4081,-13.689,0.025646
3.2351,4082,-9.4681,0.025946
3.2401,4105,8.4424,0.032798
3.2451,4073,-11.789,0.023239
3.2501,4034,-34.434,0.011337
3.2551,4024,-34.91,0.00824
3.2601,4060,-4.5171,0.019303
3.2651,4082,12.174,0.025946
3.2701,4066,1.661,0.021124
3.2751,4068,4.3697,0.021729
3.2801,4097,24.335,0.030426
3.2851,4100,24.639,0.031317
3.2901,4062,-1.8692,0.019911
3.2951,4009,-35.614,0.003559
3.3001,4008,-29.951,0.003245
3.3051,3987,-38.834,-0.003385
3.3101,4030,-2.7541,0.010101
3.3151,4058,17.836,0.018695
3.3201,4087,36.018,0.027444
3.3251,4097,39.227,0.030426
3.3301,4073,19.883,0.023239
3.3351,4079,22.72,0.025046
3.3401,4099,34.265,0.03102
3.3451,4107,36.435,0.03339
3.3501,4080,15.653,0.025346
3.3551,4064,4.6573,0.020517
3.3601,4066,6.9641,0.021124
3.3651,4055,0.35936,0.017781
3.3701,4042,-6.7563,0.013802
3.3751,4055,4.3994,0.017781
3.3801,4095,31.637,0.029831
3.3851,4088,24.456,0.027743
3.3901,4040,-8.9087,0.013187
3.3951,4030,-12.845,0.010101
3.4001,4039,-3.501,0.012879
3.4051,4071,19.782,0.022636
3.4101,4089,30.483,0.028042
3.4151,4069,14.904,0.022031
3.4201,4067,13.185,0.021426
3.4251,4052,3.0817,0.016865
3.4301,4040,-3.7544,0.013187
3.4351,4032,-7.0491,0.010719
3.4401,4089,33.185,0.028042
3.4451,4084,27.071,0.026546
3.4501,4086,26.35,0.027145
3.4551,4072,15.27,0.022937
3.4601,4100,33.088,0.031317
3.4651,4096,27.703,0.030128
3.4701,4094,24.343,0.029533
3.4751,4077,11.656,0.024444
3.4801,4095,23.482,0.029831
3.4851,4094,21.356,0.029533
3.4901,4090,17.573,0.02834
3.4951,4077,8.4132,0.024444
3.5001,4093,19.397,0.029235
3.5051,4097,21.077,0.030426
3.5101,4100,21.887,0.031317
3.5151,4058,-6.8338,0.018695
3.5201,4055,-6.2274,0.017781
3.5251,4045,-10.386,0.014723
3.5301,4042,-9.3497,0.013802
3.5351,4057,3.532,0.01839
3.5401,4087,24.41,0.027444
3.5451,4091,25.391,0.028639
3.5501,4090,23,0.02834
3.5551,4075,11.79,0.023842
3.5601,4098,26.865,0.030723
3.5651,4074,9.306,0.023541
3.5701,4054,-3.4722,0.017476
3.5751,4017,-26.206,0.006061
3.5801,4032,-10.919,0.010719
3.5851,4033,-7.167,0.011029
3.5901,4027,-8.6485,0.009171
3.5951,4025,-7.2533,0.008551
3.6001,4005,-18.314,0.002303
3.6051,4026,-0.027208,0.008861
3.6101,4039,10.274,0.012879
3.6151,4078,36.291,0.024745
3.6201,4063,23.137,0.020214
3.6251,4081,33.451,0.025646
3.6301,4059,16.095,0.018999
3.6351,4043,4.8919,0.014109
3.6401,4014,-13.736,0.005124
3.6451,4030,0.51659,0.010101
3.6501,4032,3.364,0.010719
3.6551,4033,5.1509,0.011029
3.6601,3985,-26.756,-0.004021
3.6651,3993,-16.117,-0.001482
3.6701,3992,-13.141,-0.001799
3.6751,3979,-18.896,-0.005934
3.6801,3993,-5.203,-0.001482
3.6851,4020,15.417,0.006996
3.6901,3991,-5.0255,-0.002116
3.6951,3939,-39.383,-0.018866
3.7001,3919,-47.049,-0.025453
3.7051,3932,-30.04,-0.021162
3.7101,3953,-9.7429,-0.014303
3.7151,3981,12.506,-0.005295
3.7201,3935,-20.249,-0.020177
3.7251,3941,-11.954,-0.018212
3.7301,3934,-14.059,-0.020505
3.7351,3904,-32.561,-0.030448
3.7401,3896,-32.809,-0.033131
3.7451,3915,-13.379,-0.026781
3.7501,3912,-12.569,-0.027779
3.7551,3891,-25.036,-0.034815
3.7601,3888,-22.741,-0.035828
3.7651,3907,-4.6693,-0.029446
3.7701,3889,-16.09,-0.03549
3.7751,3858,-35.863,-0.046063
3.7801,3851,-35.261,-0.048479
3.7851,3860,-22.748,-0.045374
3.7901,3862,-17.196,-0.044687
3.7951,3838,-31.996,-0.052995
3.8001,3830,-32.846,-0.055792
3.8051,3856,-7.8295,-0.046752
3.8101,3854,-7.3619,-0.047442
3.8151,3828,-25.179,-0.056494
3.8201,3827,-21.688,-0.056845
3.8251,3852,1.055,-0.048133
3.8301,3854,3.2831,-0.047442
3.8351,3827,-16.773,-0.056845
3.8401,3840,-3.7806,-0.052298
3.8451,3843,-0.16315,-0.051253
3.8501,3849,5.2272,-0.049171
3.8551,3828,-10.587,-0.056494
3.8601,3844,3.8203,-0.050906
3.8651,3851,9.415,-0.048479
3.8701,3847,5.9613,-0.049864
3.8751,3830,-6.9235,-0.055792
3.8801,3826,-8.2421,-0.057197
3.8851,3827,-5.5713,-0.056845
3.8901,3848,11.928,-0.049518
3.8951,3829,-3.297,-0.056143
3.9001,3827,-3.5917,-0.056845
3.9051,3852,16.65,-0.048133
3.9101,3852,15.219,-0.048133
3.9151,3825,-6.5182,-0.057548
3.9201,3828,-2.5562,-0.056494
3.9251,3847,13.013,-0.049864
3.9301,3811,-15.44,-0.062494
3.9351,3759,-53.472,-0.081261
3.9401,3745,-56.831,-0.086423
3.9451,3763,-34.11,-0.079795
3.9501,3776,-18.572,-0.075056
3.9551,3776,-15.451,-0.075056
3.9601,3769,-18.309,-0.077603
3.9651,3824,27.658,-0.0579
3.9701,3859,51.115,-0.045718
3.9751,3819,14.569,-0.059663
3.9801,3799,-2.1898,-0.066769
3.9851,3819,14.245,-0.059663
3.9901,3790,-9.499,-0.069998
3.9951,3776,-18.587,-0.075056
4.0001,3800,3.3684,-0.066412
4.0051,3798,2.0016,-0.067127
4.0101,3798,2.3738,-0.067127
4.0151,3778,-12.995,-0.074331
4.0201,3775,-13.003,-0.07542
4.0251,3789,0.37321,-0.070357
4.0301,3792,3.2821,-0.069279
4.0351,3774,-10.715,-0.075783
4.0401,3800,11.725,-0.066412
4.0451,3823,28.533,-0.058252
4.0501,3840,38.309,-0.052298
4.0551,3818,17.025,-0.060016
4.0601,3824,20.015,-0.0579
4.0651,3810,7.2297,-0.062849
4.0701,3804,2.2866,-0.064984
4.0751,3801,0.32088,-0.066055
4.0801,3838,29.391,-0.052995
4.0851,3845,31.455,-0.050559
4.0901,3827,14.265,-0.056845
4.0951,3794,-12.442,-0.068561
4.1001,3809,1.5897,-0.063205
4.1051,3805,-1.0219,-0.064628
4.1101,3799,-4.8535,-0.066769
4.1151,3779,-19.195,-0.073969
4.1201,3824,19.04,-0.0579
4.1251,3869,51.18,-0.042288
4.1301,3889,59.858,-0.03549
4.1351,3872,40.043,-0.041262
4.1401,3877,39.188,-0.039558
4.1451,3870,29.563,-0.041946
4.1501,3861,19.724,-0.045031
4.1551,3857,14.933,-0.046407
4.1601,3889,37.565,-0.03549
4.1651,3896,38.556,-0.033131
4.1701,3885,26.219,-0.036843
4.1751,3850,-2.4662,-0.048825
4.1801,3868,12.269,-0.04263
4.1851,3872,14.522,-0.041262
4.1901,3892,28.279,-0.034478
4.1951,3875,12.89,-0.040239
4.2001,3869,7.6509,-0.042288
4.2051,3877,13.519,-0.039558
4.2101,3870,7.4637,-0.041946
4.2151,3841,-14.369,-0.051949
4.2201,3886,22.129,-0.036504
4.2251,3891,23.798,-0.034815
4.2301,3897,25.979,-0.032795
4.2351,3879,10.235,-0.038878
4.2401,3905,28.937,-0.030114
4.2451,3902,23.88,-0.031118
4.2501,3885,9.23,-0.036843
4.2551,3855,-13.323,-0.047097
4.2601,3869,-0.066999,-0.042288
4.2651,3878,7.6212,-0.039218
4.2701,3893,18.655,-0.034141
4.2751,3880,7.5874,-0.038538
4.2801,3900,22.28,-0.031788
4.2851,3906,24.693,-0.02978
4.2901,3914,28.23,-0.027113
4.2951,3891,8.7279,-0.034815
4.3001,3919,29.001,-0.025453
4.3051,3954,51.181,-0.013979
4.3101,3956,46.85,-0.013331
4.3151,3917,13.869,-0.026117
4.3201,3932,23.942,-0.021162
4.3251,3915,9.6527,-0.026781
4.3301,3910,5.8894,-0.028445
4.3351,3919,12.767,-0.025453
4.3401,3907,3.5193,-0.029446
4.3451,3891,-7.4955,-0.034815
4.3501,3878,-14.943,-0.039218
4.3551,3857,-27.48,-0.046407
4.3601,3851,-27.222,-0.048479
4.3651,3897,11.645,-0.032795
4.3701,3895,9.6957,-0.033468
4.3751,3888,4.3327,-0.035828
4.3801,3918,26.7,-0.025785
4.3851,3951,47.81,-0.014953
4.3901,3957,46.773,-0.013007
4.3951,3916,12.392,-0.026449
4.4001,3908,6.0883,-0.029112
4.4051,3920,15.116,-0.025122
4.4101,3897,-2.4592,-0.032795
4.4151,3858,-29.876,-0.046063
4.4201,3846,-33.795,-0.050211
4.4251,3859,-18.401,-0.045718
4.4301,3856,-17.121,-0.046752
4.4351,3834,-30.42,-0.054392
4.4401,3848,-14.714,-0.049518
4.4451,3891,20.282,-0.034815
4.4501,3898,23.717,-0.032459
4.4551,3876,5.3724,-0.039899
4.4601,3901,24.078,-0.031453
4.4651,3909,27.726,-0.028778
4.4701,3899,17.79,-0.032124
4.4751,3878,1.0261,-0.039218
4.4801,3902,19.594,-0.031118
4.4851,3895,12.927,-0.033468
4.4901,3883,3.4486,-0.03752
4.4951,3852,-19.053,-0.048133
4.5001,3860,-9.4428,-0.045374
4.5051,3838,-23.736,-0.052995
4.5101,3821,-32.53,-0.058957
4.5151,3787,-53.592,-0.071078
4.5201,3797,-37.66,-0.067485
4.5251,3837,-0.9175,-0.053344
4.5301,3832,-3.7005,-0.055092
4.5351,3823,-9.1952,-0.058252
4.5401,3821,-8.6183,-0.058957
4.5451,3850,15.472,-0.048825
4.5501,3827,-3.1859,-0.056845
4.5551,3825,-3.4192,-0.057548
4.5601,3825,-2.0972,-0.057548
4.5651,3852,19.548,-0.048133
4.5701,3812,-12.703,-0.06214
4.5751,3794,-24.134,-0.068561
4.5801,3811,-6.8618,-0.062494
4.5851,3798,-15.212,-0.067127
4.5901,3783,-24.119,-0.072521
4.5951,3782,-20.897,-0.072883
4.6001,3810,4.514,-0.062849
4.6051,3841,28.414,-0.051949
4.6101,3860,39.716,-0.045374
4.6151,3810,-2.8466,-0.062849
4.6201,3824,9.116,-0.0579
4.6251,3810,-2.0775,-0.062849
4.6301,3820,6.7096,-0.05931
4.6351,3847,27.184,-0.049864
4.6401,3893,58.612,-0.034141
4.6451,3890,49.43,-0.035153
4.6501,3876,33.377,-0.039899
4.6551,3848,8.8775,-0.049518
4.6601,3856,14.631,-0.046752
4.6651,3834,-3.0416,-0.054392
4.6701,3824,-9.3593,-0.0579
4.6751,3789,-34.335,-0.070357
4.6801,3816,-7.8864,-0.060723
4.6851,3838,10.863,-0.052995
4.6901,3842,13.312,-0.051601
4.6951,3810,-12.094,-0.062849
4.7001,3828,4.2245,-0.056494
4.7051,3811,-8.5512,-0.062494
4.7101,3822,1.9118,-0.058604
4.7151,3810,-6.7453,-0.062849
4.7201,3838,16.455,-0.052995
4.7251,3844,19.647,-0.050906
4.7301,3853,24.666,-0.047788
4.7351,3838,10.895,-0.052995
4.7401,3846,16.373,-0.050211
4.7451,3850,18.085,-0.048825
4.7501,3849,15.803,-0.049171
4.7551,3826,-2.8904,-0.057197
4.7601,3800,-21.683,-0.066412
4.7651,3773,-39.115,-0.076146
4.7701,3758,-44.988,-0.081629
4.7751,3742,-51.041,-0.087536
4.7801,3769,-21.829,-0.077603
4.7851,3784,-6.3227,-0.07216
4.7901,3785,-3.9671,-0.071799
4.7951,3764,-19.338,-0.079429
4.8001,3791,5.2719,-0.069638
4.8051,3792,6.0487,-0.069279
4.8101,3819,26.884,-0.059663
4.8151,3830,32.436,-0.055792
4.8201,3838,34.93,-0.052995
4.8251,3824,20.338,-0.0579
4.8301,3821,16.091,-0.058957
4.8351,3784,-14.035,-0.07216
4.8401,3824,19.669,-0.0579
4.8451,3831,23.172,-0.055442
4.8501,3836,24.676,-0.053693
4.8551,3807,-0.080693,-0.063916
4.8601,3813,5.3752,-0.061785
4.8651,3801,-3.8383,-0.066055
4.8701,3808,2.9058,-0.06356
4.8751,3807,2.5382,-0.063916
4.8801,3836,25.258,-0.053693
4.8851,3840,25.728,-0.052298
4.8901,3842,24.63,-0.051601
4.8951,3830,13.048,-0.055792
4.9001,3846,24.304,-0.050211
4.9051,3842,18.888,-0.051601
4.9101,3852,24.786,-0.048133
4.9151,3831,6.4388,-0.055442
4.9201,3850,20.876,-0.048825
4.9251,3853,21.241,-0.047788
4.9301,3851,17.805,-0.048479
4.9351,3810,-14.956,-0.062849
4.9401,3824,-1.2734,-0.0579
4.9451,3809,-11.759,-0.063205
4.9501,3809,-9.3033,-0.063205
4.9551,3814,-3.3238,-0.061431
4.9601,3847,23.177,-0.049864
4.9651,3841,16.415,-0.051949
4.9701,3843,16.622,-0.051253
4.9751,3827,3.1161,-0.056845
4.9801,3845,17.285,-0.050559
4.9851,3844,15.119,-0.050906
4.9901,3847,16.274,-0.049864
4.9951,3825,-1.7197,-0.057548
5.0001,3827,0.95257,-0.056845
5.0051,3817,-5.9426,-0.060369
5.0101,3812,-8.1058,-0.06214
5.0151,3798,-16.998,-0.067127
5.0201,3838,16.926,-0.052995
5.0251,3843,19.333,-0.051253
5.0301,3812,-6.0731,-0.06214
5.0351,3797,-16.024,-0.067485
5.0401,3810,-2.9214,-0.062849
5.0451,3794,-14.113,-0.068561
5.0501,3748,-47.872,-0.085313
5.0551,3737,-49.559,-0.089394
5.0601,3733,-45.423,-0.090885
5.0651,3743,-30.526,-0.087165
5.0701,3722,-42.834,-0.095007
5.0751,3716,-41.375,-0.097267
5.0801,3735,-19.699,-0.090139
5.0851,3737,-14.841,-0.089394
5.0901,3711,-33.536,-0.099158
5.0951,3714,-26.022,-0.098023
5.1001,3734,-5.6509,-0.090512
5.1051,3722,-14.157,-0.095007
5.1101,3711,-20.792,-0.099158
5.1151,3712,-16.693,-0.098779
5.1201,3733,3.2112,-0.090885
5.1251,3729,0.004312,-0.092381
5.1301,3709,-15.931,-0.099916
5.1351,3715,-8.3928,-0.097645
5.1401,3737,11.153,-0.089394
5.1451,3710,-11.97,-0.099537
5.1501,3711,-9.0962,-0.099158
5.1551,3732,9.7626,-0.091259
5.1601,3734,10.527,-0.090512
5.1651,3743,16.86,-0.087165
5.1701,3710,-11.88,-0.099537
5.1751,3741,15.487,-0.087907
5.1801,3737,10.636,-0.089394
5.1851,3733,6.4301,-0.090885
5.1901,3731,4.4104,-0.091633
5.1951,3771,36.432,-0.076874
5.2001,3786,43.894,-0.071438
5.2051,3765,21.942,-0.079064
5.2101,3739,-1.3306,-0.08865
5.2151,3756,13.075,-0.082364
5.2201,3747,4.6411,-0.085683
5.2251,3752,8.5869,-0.083836
5.2301,3725,-13.887,-0.09388
5.2351,3733,-4.9733,-0.090885
5.2401,3763,20.375,-0.079795
5.2451,3778,30.093,-0.074331
5.2501,3762,13.932,-0.080161
5.2551,3767,16.622,-0.078333
5.2601,3757,7.0012,-0.081996
5.2651,3741,-6.226,-0.087907
5.2701,3737,-8.058,-0.089394
5.2751,3778,26.393,-0.074331
5.2801,3783,27.388,-0.072521
5.2851,3751,-1.1202,-0.084205
5.2901,3739,-10.053,-0.08865
5.2951,3756,5.5699,-0.082364
5.3001,3768,14.987,-0.077968
5.3051,3791,31.723,-0.069638
5.3101,3808,41.337,-0.06356
5.3151,3832,54.901,-0.055092
5.3201,3816,35.981,-0.060723
5.3251,3791,12.464,-0.069638
5.3301,3779,2.0821,-0.073969
5.3351,3776,0.1495,-0.075056
5.3401,3758,-13.473,-0.081629
5.3451,3724,-38.474,-0.094255
5.3501,3759,-4.3645,-0.081261
5.3551,3775,9.6004,-0.07542
5.3601,3783,15.291,-0.072521
5.3651,3763,-1.9265,-0.079795
5.3701,3763,-1.0035,-0.079795
5.3751,3789,20.348,-0.070357
5.3801,3789,18.3,-0.070357
5.3851,3790,17.321,-0.069998
5.3901,3772,1.5148,-0.07651
5.3951,3789,15.405,-0.070357
5.4001,3791,15.613,-0.069638
5.4051,3792,15.017,-0.069279
5.4101,3769,-4.4051,-0.077603
5.4151,3795,17.37,-0.068202
5.4201,3796,16.548,-0.067843
5.4251,3771,-4.6049,-0.076874
5.4301,3750,-20.038,-0.084574
5.4351,3765,-4.6531,-0.079064
5.4401,3757,-9.7219,-0.081996
5.4451,3736,-24.662,-0.089767
5.4501,3778,12.917,-0.074331
5.4551,3788,19.729,-0.070717
5.4601,3803,29.482,-0.065341
5.4651,3804,27.016,-0.064984
5.4701,3835,47.952,-0.054042
5.4751,3825,34.655,-0.057548
5.4801,3731,-43.441,-0.091633
5.4851,3695,-66.554,-0.10525
5.4901,3697,-55.307,-0.10449
5.4951,3720,-28.272,-0.095759
5.5001,3706,-35.415,-0.10106
5.5051,3705,-30.928,-0.10144
5.5101,3725,-9.7847,-0.09388
5.5151,3731,-3.04,-0.091633
5.5201,3720,-11.085,-0.095759
5.5251,3707,-19.783,-0.10067
5.5301,3738,8.7499,-0.089022
5.5351,3728,-0.039098,-0.092755
5.5401,3708,-15.947,-0.10029
5.5451,3734,7.9867,-0.090512
5.5501,3738,10.662,-0.089022
5.5551,3727,0.79354,-0.09313
5.5601,3711,-11.94,-0.099158
5.5651,3740,13.842,-0.088278
5.5701,3732,5.9975,-0.091259
5.5751,3730,4.0675,-0.092006
5.5801,3717,-6.6115,-0.09689
5.5851,3732,7.0301,-0.091259
5.5901,3762,30.756,-0.080161
5.5951,3778,39.86,-0.074331
5.6001,3760,20.78,-0.080895
5.6051,3740,2.4787,-0.088278
5.6101,3720,-13.588,-0.095759
5.6151,3699,-28.566,-0.10372
5.6201,3697,-25.89,-0.10449
5.6251,3757,27.05,-0.081996
5.6301,3772,35.896,-0.07651
5.6351,3769,29.257,-0.077603
5.6401,3733,-3.0233,-0.090885
5.6451,3752,13.289,-0.083836
5.6501,3749,9.6641,-0.084944
5.6551,3809,56.288,-0.063205
5.6601,3808,48.595,-0.06356
5.6651,3825,55.834,-0.057548
5.6701,3784,17.226,-0.07216
5.6751,3779,11.677,-0.073969
5.6801,3732,-26.844,-0.091259
5.6851,3767,5.5729,-0.078333
5.6901,3779,15.009,-0.073969
5.6951,3764,1.7916,-0.079429
5.7001,3762,0.63903,-0.080161
5.7051,3783,17.873,-0.072521
5.7101,3787,19.316,-0.071078
5.7151,3786,16.648,-0.071438
5.7201,3768,0.91004,-0.077968
5.7251,3792,20.421,-0.069279
5.7301,3793,19.192,-0.068919
5.7351,3772,0.82279,-0.07651
5.7401,3772,1.4403,-0.07651
5.7451,3792,17.723,-0.069279
5.7501,3791,15.306,-0.069638
5.7551,3772,-0.96598,-0.07651
5.7601,3769,-2.4784,-0.077603
5.7651,3790,15.151,-0.069998
5.7701,3792,15.432,-0.069279
5.7751,3772,-1.6331,-0.07651
5.7801,3789,12.731,-0.070357
5.7851,3831,44.265,-0.055442
5.7901,3829,37.599,-0.056143
5.7951,3813,21.089,-0.061785
5.8001,3817,22.171,-0.060369
5.8051,3804,9.9862,-0.064984
5.8101,3793,0.91469,-0.068919
5.8151,3773,-14.117,-0.076146
5.8201,3761,-20.955,-0.080528
5.8251,3743,-31.812,-0.087165
5.8301,3765,-9.1467,-0.079064
5.8351,3761,-10.356,-0.080528
5.8401,3783,9.2114,-0.072521
5.8451,3780,6.3641,-0.073606
5.8501,3795,18.033,-0.068202
5.8551,3773,-0.92262,-0.076146
5.8601,3788,11.78,-0.070717
5.8651,3798,18.784,-0.067127
5.8701,3799,17.822,-0.066769
5.8751,3761,-13.746,-0.080528
5.8801,3765,-7.953,-0.079064
5.8851,3756,-13.321,-0.082364
5.8901,3752,-14.006,-0.083836
5.8951,3750,-13.013,-0.084574
5.9001,3784,16.479,-0.07216
5.9051,3785,15.785,-0.071799
5.9101,3763,-3.0108,-0.079795
5.9151,3769,2.8914,-0.077603
5.9201,3787,17.441,-0.071078
5.9251,3787,15.842,-0.071078
5.9301,3788,15.251,-0.070717
5.9351,3771,0.55188,-0.076874
5.9401,3773,2.8103,-0.076146
5.9451,3761,-6.3629,-0.080528
5.9501,3731,-28.961,-0.091633
5.9551,3723,-30.908,-0.094631
5.9601,3745,-8.2161,-0.086423
5.9651,3741,-9.6753,-0.087907
5.9701,3725,-20.728,-0.09388
5.9751,3748,1.3442,-0.085313
5.9801,3778,25.724,-0.074331
5.9851,3783,26.883,-0.072521
5.9901,3745,-6.3156,-0.086423
5.9951,3755,3.2363,-0.082731
6.0001,3746,-3.7652,-0.086053
6.0051,3744,-4.2157,-0.086794
6.0101,3720,-22.526,-0.095759
6.0151,3737,-5.0185,-0.089394
6.0201,3735,-5.3454,-0.090139
6.0251,3740,0.040379,-0.088278
6.0301,3713,-21.397,-0.098401
6.0351,3719,-13.008,-0.096136
6.0401,3709,-18.92,-0.099916
6.0451,3684,-36.647,-0.10948
6.0501,3663,-48.973,-0.11763
6.0551,3687,-21.656,-0.10832
6.0601,3683,-21.644,-0.10986
6.0651,3665,-33.513,-0.11685
6.0701,3727,23.053,-0.09313
6.0751,3766,51.843,-0.078698
6.0801,3771,49.362,-0.076874
6.0851,3756,31.321,-0.082364
6.0901,3730,6.6669,-0.092006
6.0951,3745,18.475,-0.086423
6.1001,3732,6.0231,-0.091259
6.1051,3717,-6.4939,-0.09689
6.1101,3717,-5.0807,-0.09689
6.1151,3737,12.462,-0.089394
6.1201,3738,12.152,-0.089022
6.1251,3714,-8.5252,-0.098023
6.1301,3711,-9.3151,-0.099158
6.1351,3734,11.293,-0.090512
6.1401,3736,11.945,-0.089767
6.1451,3712,-8.7364,-0.098779
6.1501,3713,-6.2086,-0.098401
6.1551,3749,24.459,-0.084944
6.1601,3733,8.7917,-0.090885
6.1651,3710,-10.678,-0.099537
6.1701,3730,7.688,-0.092006
6.1751,3738,13.701,-0.089022
6.1801,3735,9.9834,-0.090139
6.1851,3716,-6.3228,-0.097267
6.1901,3733,8.9679,-0.090885
6.1951,3750,22.064,-0.084574
6.2001,3775,39.617,-0.07542
6.2051,3760,22.987,-0.080895
6.2101,3781,37.182,-0.073244
6.2151,3789,39.13,-0.070357
6.2201,3794,38.471,-0.068561
6.2251,3762,8.746,-0.080161
6.2301,3769,13.838,-0.077603
6.2351,3758,3.9171,-0.081629
6.2401,3736,-13.635,-0.089767
6.2451,3748,-1.4297,-0.085313
6.2501,3781,25.725,-0.073244
6.2551,3783,24.554,-0.072521
6.2601,3763,6.1378,-0.079795
6.2651,3766,8.4176,-0.078698
6.2701,3786,23.818,-0.071438
6.2751,3771,9.5219,-0.076874
6.2801,3737,-18.287,-0.089394
6.2851,3728,-22.447,-0.092755
6.2901,3761,7.8791,-0.080528
6.2951,3782,24.173,-0.072883
6.3001,3765,8.1898,-0.079064
6.3051,3778,18.117,-0.074331
6.3101,3766,6.9068,-0.078698
6.3151,3748,-7.698,-0.085313
6.3201,3723,-26.246,-0.094631
6.3251,3747,-2.5549,-0.085683
6.3301,3742,-5.5608,-0.087536
6.3351,3716,-25.333,-0.097267
6.3401,3742,-0.093629,-0.087536
6.3451,3777,28.542,-0.074694
6.3501,3777,25.397,-0.074694
6.3551,3761,9.9816,-0.080528
6.3601,3767,14.12,-0.078333
6.3651,3789,30.302,-0.070357
6.3701,3776,16.735,-0.075056
6.3751,3741,-12.761,-0.087907
6.3801,3750,-3.0813,-0.084574
6.3851,3745,-5.9866,-0.086423
6.3901,3717,-27.281,-0.09689
6.3951,3717,-22.956,-0.09689
6.4001,3730,-8.5948,-0.092006
6.4051,3713,-20.727,-0.098401
6.4101,3693,-33.915,-0.10602
6.4151,3667,-50.676,-0.11607
6.4201,3747,22.833,-0.085683
6.4251,3764,33.97,-0.079429
6.4301,3755,22.828,-0.082731
6.4351,3758,22.785,-0.081629
6.4401,3788,44.124,-0.070717
6.4451,3784,35.735,-0.07216
6.4501,3753,7.0052,-0.083468
6.4551,3758,10.754,-0.081629
6.4601,3748,1.9753,-0.085313
6.4651,3737,-6.4946,-0.089394
6.4701,3721,-17.995,-0.095383
6.4751,3741,1.3505,-0.087907
6.4801,3738,-0.60452,-0.089022
6.4851,3762,19.425,-0.080161
6.4901,3759,15.094,-0.081261
6.4951,3761,15.344,-0.080528
6.5001,3785,32.983,-0.071799
6.5051,3789,32.414,-0.070357
6.5101,3768,12.226,-0.077968
6.5151,3816,48.88,-0.060723
6.5201,3834,56.896,-0.054392
6.5251,3837,52.373,-0.053344
6.5301,3779,1.2887,-0.073969
6.5351,3777,0.37382,-0.074694
6.5401,3755,-16.35,-0.082731
6.5451,3744,-22.196,-0.086794
6.5501,3726,-33.049,-0.093505
6.5551,3745,-12.442,-0.086423
6.5601,3746,-9.2201,-0.086053
6.5651,3761,4.7869,-0.080528
6.5701,3759,3.2894,-0.081261
6.5751,3781,21.05,-0.073244
6.5801,3763,4.7189,-0.079795
6.5851,3734,-18.502,-0.090512
6.5901,3726,-21.812,-0.093505
6.5951,3773,19.624,-0.076146
6.6001,3781,24.045,-0.073244
6.6051,3762,6.5036,-0.080161
6.6101,3767,10.357,-0.078333
6.6151,3759,3.3389,-0.081261
6.6201,3749,-4.3835,-0.084944
6.6251,3719,-27.437,-0.096136
6.6301,3741,-5.1335,-0.087907
6.6351,3741,-3.7428,-0.087907
6.6401,3738,-4.9735,-0.089022
6.6451,3714,-23.222,-0.098023
6.6501,3737,-0.65458,-0.089394
6.6551,3740,2.5283,-0.088278
6.6601,3766,23.719,-0.078698
6.6651,3755,12.441,-0.082731
6.6701,3780,31.337,-0.073606
6.6751,3734,-8.9689,-0.090512
6.6801,3710,-26.73,-0.099537
6.6851,3673,-53.403,-0.11373
6.6901,3737,7.3735,-0.089394
6.6951,3770,33.491,-0.077239
6.7001,3771,30.457,-0.076874
6.7051,3747,7.8708,-0.085683
6.7101,3760,17.922,-0.080895
6.7151,3750,8.1957,-0.084574
6.7201,3731,-7.5851,-0.091633
6.7251,3768,23.869,-0.077968
6.7301,3778,29.292,-0.074331
6.7351,3778,26.088,-0.074331
6.7401,3740,-7.0484,-0.088278
6.7451,3731,-12.691,-0.091633
6.7501,3744,0.25148,-0.086794
6.7551,3743,0.11378,-0.087165
6.7601,3718,-19.562,-0.096513
6.7651,3737,-0.7604,-0.089394
6.7701,3733,-3.2295,-0.090885
6.7751,3719,-13.562,-0.096136
6.7801,3720,-10.27,-0.095759
6.7851,3752,17.717,-0.083836
6.7901,3779,37.497,-0.073969
6.7951,3767,23.659,-0.078333
6.8001,3754,10.811,-0.0831
6.8051,3768,21.244,-0.077968
6.8101,3750,4.7293,-0.084574
6.8151,3727,-13.822,-0.09313
6.8201,3773,25.717,-0.076146
6.8251,3782,30.104,-0.072883
6.8301,3779,24.45,-0.073969
6.8351,3761,7.6462,-0.080528
6.8401,3794,33.443,-0.068561
6.8451,3788,25.049,-0.070717
6.8501,3781,16.988,-0.073244
6.8551,3770,6.8177,-0.077239
6.8601,3791,23.263,-0.069638
6.8651,3776,9.1666,-0.075056
6.8701,3771,4.8006,-0.076874
6.8751,3728,-29.611,-0.092755
6.8801,3740,-15.109,-0.088278
6.8852,3739,-13.122,-0.08865
6.8901,3715,-30.196,-0.097645
6.8951,3713,-27.07,-0.098401
6.9001,3734,-5.5587,-0.090512
6.9051,3737,-1.6781,-0.089394
6.9101,3711,-22.022,-0.099158
6.9151,3733,-0.38299,-0.090885
6.9201,3738,4.3998,-0.089022
6.9251,3733,0.42572,-0.090885
6.9301,3712,-16.154,-0.098779
6.9351,3735,5.4779,-0.090139
6.9401,3733,3.7752,-0.090885
6.9451,3733,3.9249,-0.090885
6.9501,3714,-11.491,-0.098023
6.9551,3734,7.0457,-0.090512
6.9601,3750,19.68,-0.084574
6.9651,3772,35.269,-0.07651
6.9701,3758,20.085,-0.081629
6.9751,3755,15.689,-0.082731
6.9801,3719,-14.902,-0.096136
6.9851,3699,-28.744,-0.10372
6.9901,3670,-48.586,-0.1149
6.9951,3711,-7.185,-0.099158
7.0001,3720,1.7886,-0.095759
7.0051,3703,-11.861,-0.1022
7.0101,3685,-24.694,-0.10909
7.0151,3696,-11.62,-0.10487
7.0201,3684,-19.541,-0.10948
7.0251,3662,-34.994,-0.11802
7.0301,3660,-31.506,-0.1188
7.0351,3684,-6.4882,-0.10948
7.0401,3695,4.0635,-0.10525
7.0451,3696,4.8344,-0.10487
7.0501,3726,29.418,-0.093505
7.0551,3725,25.169,-0.09388
7.0601,3710,10.002,-0.099537
7.0651,3708,7.5374,-0.10029
7.0701,3728,23.48,-0.092755
7.0751,3707,3.6341,-0.10067
7.0801,3680,-18.841,-0.11102
7.0851,3663,-30.191,-0.11763
7.0901,3715,17.874,-0.097645
7.0951,3727,25.829,-0.09313
7.1001,3705,4.8152,-0.10144
7.1051,3704,3.8727,-0.10182
7.1101,3743,35.794,-0.087165
7.1151,3737,26.707,-0.089394
7.1201,3711,2.4433,-0.099158
7.1251,3735,22.331,-0.090139
7.1301,3736,20.743,-0.089767
7.1352,3720,5.5172,-0.095759
7.1401,3713,-0.3731,-0.098401
7.1451,3735,18.268,-0.090139
7.1501,3753,30.964,-0.083468
7.1551,3786,53.654,-0.071438
7.1601,3808,64.306,-0.06356
7.1651,3833,75.628,-0.054742
7.1701,3787,30.704,-0.071078
7.1751,3746,-5.2284,-0.086053
7.1801,3754,2.6849,-0.0831
7.1851,3765,11.896,-0.079064
7.1901,3783,25.339,-0.072521
7.1951,3761,5.313,-0.080528
7.2001,3773,14.946,-0.076146
7.2051,3753,-2.1904,-0.083468
7.2101,3748,-5.1141,-0.085313
7.2151,3720,-26.387,-0.095759
7.2201,3738,-7.4147,-0.089022
7.2251,3737,-6.4735,-0.089394
7.2301,3747,3.2266,-0.085683
7.2351,3748,4.3507,-0.085313
7.2401,3781,30.804,-0.073244
7.2451,3781,27.455,-0.073244
7.2501,3761,8.7075,-0.080528
7.2551,3766,12.318,-0.078698
7.2601,3785,26.493,-0.071799
7.2651,3787,25.333,-0.071078
7.2701,3768,7.7665,-0.077968
7.2751,3772,10.732,-0.07651
7.2801,3771,9.3378,-0.076874
7.2851,3756,-3.0298,-0.082364
7.2901,3729,-23.612,-0.092381
7.2951,3743,-8.2859,-0.087165
7.3001,3744,-5.5732,-0.086794
7.3051,3742,-5.6547,-0.087536
7.3102,3742,-4.1181,-0.087536
7.3152,3815,54.833,-0.061077
7.3202,3832,61.348,-0.055092
7.3252,3811,37.876,-0.062494
7.3301,3818,39.09,-0.060016
7.3352,3845,55.367,-0.050559
7.3402,3847,50.419,-0.049864
7.3452,3804,11.725,-0.064984
7.3502,3792,1.7871,-0.069279
7.3552,3806,13.433,-0.064272
7.3602,3798,6.402,-0.067127
7.3652,3776,-10.739,-0.075056
7.3702,3790,2.687,-0.069998
7.3752,3811,19.639,-0.062494
7.3802,3832,34.115,-0.055092
7.3852,3816,18.289,-0.060723
7.3902,3841,35.961,-0.051949
7.3952,3845,35.214,-0.050559
7.4002,3849,34.581,-0.049171
7.4052,3818,7.414,-0.060016
7.4102,3824,12.107,-0.0579
7.4152,3817,6.1907,-0.060369
7.4202,3781,-21.6,-0.073244
7.4252,3751,-41.527,-0.084205
7.4302,3761,-26.944,-0.080528
7.4352,3750,-31.16,-0.084574
7.4402,3774,-6.8807,-0.075783
7.4452,3806,20.066,-0.064272
7.4502,3839,43.668,-0.052646
7.4552,3825,28.146,-0.057548
7.4602,3794,1.4085,-0.068561
7.4652,3805,10.793,-0.064628
7.4702,3783,-6.8321,-0.072521
7.4752,3765,-19.168,-0.079064
7.4802,3733,-41.372,-0.090885
7.4852,3760,-13.137,-0.080895
7.4902,3812,30.397,-0.06214
7.4952,3808,24.185,-0.06356
7.5002,3814,26.549,-0.061431
7.5052,3818,27.058,-0.060016
7.5102,3810,18.26,-0.062849
7.5152,3777,-8.9763,-0.074694
7.5202,3775,-8.3673,-0.07542
7.5252,3795,9.4502,-0.068202
7.5302,3797,10.728,-0.067485
7.5352,3753,-24.533,-0.083468
7.5402,3741,-29.96,-0.087907
7.5452,3752,-16.156,-0.083836
7.5502,3723,-36.591,-0.094631
7.5552,3696,-53.111,-0.10487
7.5602,3695,-46.006,-0.10525
7.5652,3709,-27.44,-0.099916
7.5702,3759,17.63,-0.081261
7.5752,3751,9.6412,-0.084205
7.5802,3775,28.272,-0.07542
7.5852,3758,11.77,-0.081629
7.5902,3741,-2.6705,-0.087907
7.5952,3726,-13.704,-0.093505
7.6002,3746,5.1444,-0.086053
7.6052,3734,-4.4692,-0.090512
7.6102,3711,-21.923,-0.099158
7.6152,3755,17.544,-0.082731
7.6202,3773,30.308,-0.076146
7.6252,3782,34.151,-0.072883
7.6302,3748,3.3206,-0.085313
7.6352,3755,9.3081,-0.082731
7.6402,3745,0.83426,-0.086423
7.6452,3723,-16.345,-0.094631
7.6502,3686,-44.022,-0.10871
7.6552,3694,-30.69,-0.10563
7.6602,3682,-35.911,-0.11025
7.6652,3682,-30.415,-0.11025
7.6702,3657,-46.879,-0.11998
7.6752,3675,-24.684,-0.11296
7.6802,3711,9.2752,-0.099158
7.6852,3695,-4.6244,-0.10525
7.6902,3702,2.4188,-0.10258
7.6952,3727,23.272,-0.09313
7.7002,3730,23.223,-0.092006
7.7052,3710,4.348,-0.099537
7.7102,3718,10.984,-0.096513
7.7152,3707,1.0872,-0.10067
7.7202,3673,-26.864,-0.11373
7.7252,3674,-21.815,-0.11334
7.7302,3722,21.632,-0.095007
7.7352,3730,25.878,-0.092006
7.7402,3719,14.045,-0.096136
7.7452,3695,-7.0548,-0.10525
7.7502,3694,-6.325,-0.10563
7.7552,3683,-14.077,-0.10986
7.7602,3659,-31.926,-0.1192
7.7652,3682,-7.597,-0.11025
7.7702,3675,-11.919,-0.11296
7.7752,3699,10.339,-0.10372
7.7802,3712,20.274,-0.098779
7.7852,3723,27.166,-0.094631
7.7902,3724,24.938,-0.094255
7.7952,3732,28.731,-0.091259
7.8002,3711,8.3067,-0.099158
7.8052,3728,21.766,-0.092755
7.8102,3735,25.191,-0.090139
7.8152,3734,21.665,-0.090512
7.8202,3719,7.1883,-0.096136
7.8252,3764,43.284,-0.079429
7.8302,3779,50.091,-0.073969
7.8352,3760,29.043,-0.080895
7.8402,3762,27.511,-0.080161
7.8452,3751,15.797,-0.084205
7.8502,3742,7.2123,-0.087536
7.8552,3695,-31.552,-0.10525
7.8602,3700,-22.417,-0.10334
7.8652,3689,-27.86,-0.10755
7.8702,3699,-15.084,-0.10372
7.8752,3698,-13.207,-0.1041
7.8802,3724,10.686,-0.094255
7.8852,3726,11.575,-0.093505
7.8902,3734,17.233,-0.090512
7.8952,3712,-2.3778,-0.098779
7.9002,3726,10.122,-0.093505
7.9052,3702,-10.293,-0.10258
7.9102,3684,-23.257,-0.10948
7.9152,3682,-21.163,-0.11025
7.9202,3701,-1.8108,-0.10296
7.9252,3728,21.293,-0.092755
7.9302,3704,-0.63353,-0.10182
7.9352,3724,16.567,-0.094255
7.9402,3735,23.975,-0.090139
7.9452,3728,15.747,-0.092755
7.9502,3711,0.37901,-0.099158
7.9552,3734,19.839,-0.090512
7.9602,3735,18.69,-0.090139
7.9652,3716,1.3695,-0.097267
7.9702,3679,-28.909,-0.11141
7.9752,3692,-13.462,-0.1064
7.9802,3683,-18.541,-0.10986
7.9852,3681,-17.101,-0.11063
7.9902,3658,-33.69,-0.11959
7.9952,3682,-8.2433,-0.11025
8.0002,3709,15.949,-0.099916
8.0052,3698,5.2948,-0.1041
8.0102,3715,19.251,-0.097645
8.0152,3727,27.121,-0.09313
8.0202,3729,25.754,-0.092381
8.0252,3708,5.7171,-0.10029
8.0302,3733,26.093,-0.090885
8.0352,3743,31.371,-0.087165
8.0402,3742,27.052,-0.087536
8.0452,3709,-2.8276,-0.099916
8.0502,3738,21.973,-0.089022
8.0552,3745,25.404,-0.086423
8.0602,3730,10.573,-0.092006
8.0652,3719,0.89541,-0.096136
8.0702,3740,18.617,-0.088278
8.0752,3726,5.4822,-0.093505
8.0802,3687,-26.781,-0.10832
8.0852,3694,-16.632,-0.10563
8.0902,3685,-21.241,-0.10909
8.0952,3681,-21.085,-0.11063
8.1002,3663,-32.845,-0.11763
8.1052,3670,-21.876,-0.1149
8.1102,3700,6.8353,-0.10334
8.1152,3709,13.988,-0.099916
8.1202,3705,9.4283,-0.10144
8.1252,3723,23.61,-0.094631
8.1302,3728,25.176,-0.092755
8.1352,3736,28.973,-0.089767
8.1402,3709,3.6668,-0.099916
8.1452,3734,24.331,-0.090512
8.1502,3736,23.389,-0.089767
8.1552,3712,1.3354,-0.098779
8.1602,3732,18.237,-0.091259
8.1652,3729,14.066,-0.092381
8.1702,3726,10.456,-0.093505
8.1752,3714,-0.059885,-0.098023
8.1802,3739,21.081,-0.08865
8.1852,3733,14.125,-0.090885
8.1902,3711,-5.0414,-0.099158
8.1952,3730,11.94,-0.092006
8.2002,3733,13.522,-0.090885
8.2052,3735,14.083,-0.090139
8.2102,3716,-2.5736,-0.097267
8.2152,3735,14.04,-0.090139
8.2202,3732,10.477,-0.091259
8.2252,3729,7.3896,-0.092381
8.2302,3712,-6.776,-0.098779
8.2352,3732,11.259,-0.091259
8.2402,3733,11.321,-0.090885
8.2452,3714,-4.978,-0.098023
8.2502,3725,5.4629,-0.09388
8.2552,3734,12.819,-0.090512
8.2602,3737,14.299,-0.089394
8.2652,3712,-7.2885,-0.098779
8.2702,3737,14.883,-0.089394
8.2752,3742,17.705,-0.087536
8.2802,3737,12.063,-0.089394
8.2852,3712,-9.2117,-0.098779
8.2902,3736,12.418,-0.089767
8.2952,3734,9.907,-0.090512
8.3002,3730,6.1055,-0.092006
8.3052,3754,25.467,-0.0831
8.3102,3781,44.32,-0.073244
8.3152,3774,33.689,-0.075783
8.3202,3744,6.0489,-0.086794
8.3252,3746,7.7004,-0.086053
8.3302,3733,-3.0056,-0.090885
8.3352,3706,-23.91,-0.10106
8.3402,3674,-46.661,-0.11334
8.3452,3680,-34.58,-0.11102
8.3502,3684,-25.844,-0.10948
8.3552,3682,-23.344,-0.11025
8.3602,3654,-43.286,-0.12116
8.3652,3680,-14.749,-0.11102
8.3702,3683,-9.6022,-0.10986
8.3752,3664,-23.746,-0.11724
8.3802,3674,-11.47,-0.11334
8.3852,3720,28.971,-0.095759
8.3902,3731,34.71,-0.091633
8.3952,3696,1.8928,-0.10487
8.4002,3704,8.9348,-0.10182
8.4052,3694,0.076545,-0.10563
8.4102,3669,-20.315,-0.11529
8.4152,3692,2.3906,-0.1064
8.4202,3720,25.873,-0.095759
8.4252,3724,26.334,-0.094255
8.4302,3683,-10.517,-0.10986
8.4352,3691,-1.7551,-0.10678
8.4402,3686,-5.0611,-0.10871
8.4452,3705,12.089,-0.10144
8.4502,3698,5.3063,-0.1041
8.4552,3729,30.773,-0.092381
8.4602,3729,27.324,-0.092381
8.4652,3707,6.2892,-0.10067
8.4702,3711,9.4375,-0.099158
8.4752,3733,26.882,-0.090885
8.4802,3734,24.807,-0.090512
8.4852,3713,5.0301,-0.098401
8.4902,3724,14.109,-0.094255
8.4952,3707,-1.0298,-0.10067
8.5002,3694,-10.965,-0.10563
8.5052,3664,-34.064,-0.11724
8.5102,3710,9.7298,-0.099537
8.5152,3724,20.619,-0.094255
8.5202,3704,2.0957,-0.10182
8.5252,3717,13.241,-0.09689
8.5302,3731,23.625,-0.091633
8.5352,3724,15.473,-0.094255
8.5402,3692,-12.319,-0.1064
8.5452,3699,-4.123,-0.10372
8.5502,3689,-11.206,-0.10755
8.5552,3682,-14.885,-0.11025
8.5602,3675,-18.114,-0.11296
8.5652,3676,-14.184,-0.11257
8.5702,3686,-3.2246,-0.10871
8.5752,3690,1.1996,-0.10717
8.5802,3700,10.016,-0.10334
8.5852,3720,25.831,-0.095759
8.5902,3704,9.8486,-0.10182
8.5952,3672,-17.605,-0.11412
8.6002,3681,-7.0058,-0.11063
8.6052,3706,15.434,-0.10106
8.6102,3719,24.733,-0.096136
8.6152,3705,10.549,-0.10144
8.6202,3753,48.94,-0.083468
8.6252,3768,55.079,-0.077968
8.6302,3756,38.883,-0.082364
8.6352,3758,36.054,-0.081629
8.6402,3783,51.862,-0.072521
8.6452,3784,46.544,-0.07216
8.6502,3754,17.356,-0.0831
8.6552,3761,21.507,-0.080528
8.6602,3752,12.308,-0.083836
8.6652,3742,3.4942,-0.087536
8.6702,3749,9.5588,-0.084944
8.6752,3778,32.285,-0.074331
8.6802,3783,32.819,-0.072521
8.6852,3741,-4.1483,-0.087907
8.6902,3740,-3.4796,-0.088278
8.6952,3747,3.554,-0.085683
8.7002,3724,-14.678,-0.094255
8.7052,3685,-44.128,-0.10909
8.7102,3699,-25.673,-0.10372
8.7152,3688,-30.585,-0.10794
8.7202,3685,-28.203,-0.10909
8.7252,3657,-47.369,-0.11998
8.7302,3692,-10.715,-0.1064
8.7352,3720,14.621,-0.095759
8.7402,3702,-1.4471,-0.10258
8.7452,3704,1.1361,-0.10182
8.7502,3727,20.629,-0.09313
8.7552,3735,25.124,-0.090139
8.7602,3709,1.2278,-0.099916
8.7652,3730,19.044,-0.092006
8.7702,3736,22.14,-0.089767
8.7752,3720,6.9051,-0.095759
8.7802,3734,18.189,-0.090512
8.7852,3738,19.792,-0.089022
8.7902,3736,16.324,-0.089767
8.7952,3734,13.326,-0.090512
8.8002,3767,38.886,-0.078333
8.8052,3787,50.33,-0.071078
8.8102,3764,26.286,-0.079429
8.8152,3738,2.7705,-0.089022
8.8202,3750,12.977,-0.084574
8.8252,3741,4.879,-0.087907
8.8302,3718,-13.622,-0.096513
8.8352,3720,-9.2799,-0.095759
8.8402,3743,11.548,-0.087165
8.8452,3734,3.5853,-0.090512
8.8502,3715,-11.558,-0.097645
8.8552,3740,11.246,-0.088278
8.8602,3765,30.673,-0.079064
8.8652,3778,37.761,-0.074331
8.8702,3760,19.322,-0.080895
8.8752,3741,2.3823,-0.087907
8.8802,3708,-24.004,-0.10029
8.8852,3694,-31.529,-0.10563
8.8902,3679,-39.027,-0.11141
8.8952,3715,-3.0072,-0.097645
8.9002,3722,3.9615,-0.095007
8.9052,3705,-9.7492,-0.10144
8.9102,3726,9.6344,-0.093505
8.9152,3732,14.048,-0.091259
8.9202,3735,15.426,-0.090139
8.9252,3742,19.86,-0.087536
8.9302,3775,44.43,-0.07542
8.9352,3780,43.305,-0.073606
8.9402,3743,8.881,-0.087165
8.9452,3731,-1.139,-0.091633
8.9502,3743,9.638,-0.087165
8.9552,3761,23.7,-0.080528
8.9602,3753,15.038,-0.083468
8.9652,3760,19.549,-0.080895
8.9702,3745,5.8211,-0.086423
8.9752,3717,-16.826,-0.09689
8.9802,3703,-25.222,-0.1022
8.9852,3688,-33.465,-0.10794
8.9902,3689,-27.297,-0.10755
8.9952,3690,-21.98,-0.10717
9.0002,3656,-46.995,-0.12037
9.0052,3682,-17.889,-0.11025
9.0102,3688,-9.711,-0.10794
9.0152,3657,-33.907,-0.11998
9.0202,3696,4.2526,-0.10487
9.0252,3723,26.688,-0.094631
9.0302,3701,5.7085,-0.10296
9.0352,3702,6.5018,-0.10258
9.0402,3736,34.261,-0.089767
9.0452,3734,28.806,-0.090512
9.0502,3708,4.4162,-0.10029
9.0552,3713,8.7205,-0.098401
9.0602,3732,23.881,-0.091259
9.0652,3728,18.216,-0.092755
9.0702,3715,5.9264,-0.097645
9.0752,3739,25.522,-0.08865
9.0802,3720,7.4381,-0.095759
9.0852,3731,16.246,-0.091633
9.0902,3715,1.8017,-0.097645
9.0952,3738,21.162,-0.089022
9.1002,3736,17.543,-0.089767
9.1052,3715,-1.1201,-0.097645
9.1102,3711,-3.4287,-0.099158
9.1152,3742,23.173,-0.087536
9.1202,3734,14.435,-0.090512
9.1252,3711,-5.4749,-0.099158
9.1302,3758,34.278,-0.081629
9.1352,3780,48.031,-0.073606
9.1402,3784,45.656,-0.07216
9.1452,3759,20.656,-0.081261
9.1502,3784,38.656,-0.07216
9.1552,3788,37.593,-0.070717
9.1602,3757,8.9906,-0.081996
9.1652,3761,11.977,-0.080528
9.1702,3751,3.3612,-0.084205
9.1752,3743,-2.5406,-0.087165
9.1802,3738,-5.2604,-0.089022
9.1852,3736,-5.2019,-0.089767
9.1902,3729,-9.2318,-0.092381
9.1952,3710,-22.627,-0.099537
9.2002,3675,-47.896,-0.11296
9.2052,3683,-33.859,-0.10986
9.2102,3680,-30.994,-0.11102
9.2152,3663,-40.412,-0.11763
9.2202,3657,-39.331,-0.11998
9.2252,3692,-3.7296,-0.1064
9.2302,3705,8.3376,-0.10144
9.2352,3701,4.6639,-0.10296
9.2402,3739,35.961,-0.08865
9.2452,3765,52.813,-0.079064
9.2502,3760,42.582,-0.080895
9.2552,3746,26.501,-0.086053
9.2602,3733,13.296,-0.090885
9.2652,3701,-13.905,-0.10296
9.2702,3684,-25.387,-0.10948
9.2752,3710,0.48647,-0.099537
9.2802,3723,11.934,-0.094631
9.2852,3725,12.806,-0.09388
9.2902,3704,-5.3518,-0.10182
9.2952,3730,17.557,-0.092006
9.3002,3732,17.676,-0.091259
9.3052,3690,-18.487,-0.10717
9.3102,3715,5.5547,-0.097645
9.3152,3693,-12.59,-0.10602
9.3202,3695,-8.4222,-0.10525
9.3252,3698,-3.9919,-0.1041
9.3302,3728,22.055,-0.092755
9.3352,3723,15.832,-0.094631
9.3402,3684,-17.798,-0.10948
9.3452,3675,-22.197,-0.11296
9.3502,3687,-8.3509,-0.10832
9.3552,3747,42.84,-0.085683
9.3602,3751,41.129,-0.084205
9.3652,3780,59.54,-0.073606
9.3702,3753,30.969,-0.083468
9.3752,3748,23.697,-0.085313
9.3802,3733,9.2946,-0.090885
9.3852,3733,8.957,-0.090885
9.3902,3736,11.104,-0.089767
9.3952,3738,12.152,-0.089022
9.4002,3679,-37.311,-0.11141
9.4052,3640,-64.73,-0.12669
9.4102,3643,-52.654,-0.1255
9.4152,3644,-43.967,-0.12511
9.4202,3645,-36.48,-0.12471
9.4252,3664,-14.616,-0.11724
9.4302,3675,-2.6357,-0.11296
9.4352,3718,34.224,-0.096513
9.4402,3768,70.753,-0.077968
9.4452,3785,75.495,-0.071799
9.4502,3709,4.9824,-0.099916
9.4552,3688,-12.33,-0.10794
9.4602,3696,-3.1904,-0.10487
9.4652,3709,8.8215,-0.099916
9.4702,3700,0.98954,-0.10334
9.4752,3702,3.3185,-0.10258
9.4802,3731,27.51,-0.091633
9.4852,3723,18.118,-0.094631
9.4902,3708,4.184,-0.10029
9.4952,3743,33.048,-0.087165
9.5002,3761,43.93,-0.080528
9.5052,3768,44.508,-0.077968
9.5102,3762,34.685,-0.080161
9.5152,3727,2.7314,-0.09313
9.5202,3703,-16.453,-0.1022
9.5252,3666,-44.407,-0.11646
9.5302,3683,-23.232,-0.10986
9.5352,3689,-14.246,-0.10755
9.5402,3662,-34.311,-0.11802
9.5452,3678,-15.359,-0.11179
9.5502,3717,19.941,-0.09689
9.5552,3727,26.261,-0.09313
9.5602,3692,-5.3388,-0.1064
9.5652,3679,-14.726,-0.11141
9.5702,3693,-0.22589,-0.10602
9.5752,3675,-14.526,-0.11296
9.5802,3693,3.3025,-0.10602
9.5852,3722,27.608,-0.095007
9.5902,3728,29.607,-0.092755
9.5952,3680,-13.329,-0.11102
9.6002,3671,-18.356,-0.11451
9.6052,3684,-4.1643,-0.10948
9.6102,3707,16.327,-0.10067
9.6152,3698,7.4518,-0.1041
9.6202,3724,28.68,-0.094255
9.6252,3707,11.657,-0.10067
9.6302,3703,7.585,-0.1022
9.6352,3673,-17.755,-0.11373
9.6402,3659,-26.496,-0.1192
9.6452,3685,-0.18389,-0.10909
9.6502,3663,-18.003,-0.11763
9.6552,3670,-8.9107,-0.1149
9.6602,3678,-0.22926,-0.11179
9.6652,3680,2.2095,-0.11102
9.6702,3671,-4.9659,-0.11451
9.6752,3754,64.823,-0.0831
9.6802,3775,73.642,-0.07542
9.6852,3753,47.078,-0.083468
9.6902,3755,43.233,-0.082731
9.6952,3750,34.313,-0.084574
9.7002,3732,16.063,-0.091259
9.7052,3716,1.7335,-0.097267
9.7102,3742,23.599,-0.087536
9.7152,3739,18.932,-0.08865
9.7202,3715,-2.2649,-0.097645
9.7252,3677,-32.703,-0.11218
9.7302,3689,-17.356,-0.10755
9.7352,3680,-21.719,-0.11102
9.7402,3679,-18.807,-0.11141
9.7452,3661,-30.719,-0.11841
9.7502,3689,-2.1521,-0.10755
9.7552,3710,16.389,-0.099537
9.7602,3697,4.2261,-0.10449
9.7652,3723,25.928,-0.094631
9.7702,3761,53.999,-0.080528
9.7752,3759,46.039,-0.081261
9.7802,3757,39.173,-0.081996
9.7852,3764,40.441,-0.079429
9.7902,3759,31.986,-0.081261
9.7952,3726,2.0063,-0.093505
9.8002,3738,12.461,-0.089022
9.8052,3740,13.379,-0.088278
9.8102,3717,-6.1959,-0.09689
9.8152,3712,-8.522,-0.098779
9.8202,3734,11.572,-0.090512
9.8252,3738,14.224,-0.089022
9.8302,3702,-16.241,-0.10258
9.8352,3686,-26.475,-0.10871
9.8402,3692,-16.996,-0.1064
9.8452,3697,-9.6549,-0.10449
9.8502,3768,50.277,-0.077968
9.8552,3817,82.805,-0.060369
9.8602,3821,75.789,-0.058957
9.8652,3747,8.4791,-0.085683
9.8702,3712,-20.142,-0.098779
9.8752,3687,-37.214,-0.10832
9.8802,3682,-35.454,-0.11025
9.8852,3679,-32.289,-0.11141
9.8902,3676,-29.583,-0.11257
9.8952,3674,-26.425,-0.11334
9.9002,3675,-21.18,-0.11296
9.9052,3671,-20.886,-0.11451
9.9102,3644,-40.347,-0.12511
9.9152,3655,-24.709,-0.12077
9.9202,3627,-44.838,-0.13188
9.9252,3609,-53.914,-0.13913
9.9302,3657,-4.3111,-0.11998
9.9352,3667,5.4628,-0.11607
9.9402,3647,-11.692,-0.12392
9.9452,3679,17.788,-0.11141
9.9502,3726,55.074,-0.093505
9.9552,3726,48.423,-0.093505
9.9602,3702,22.936,-0.10258
9.9652,3733,46.094,-0.090885
9.9702,3735,42.349,-0.090139
9.9752,3733,35.883,-0.090885
9.9802,3725,25.409,-0.09388
9.9852,3736,31.831,-0.089767
9.9902,3719,14.584,-0.096136
9.9952,3683,-16.372,-0.10986
10,3692,-5.7707,-0.1064
10.005,3690,-5.8083,-0.10717
10.01,3713,14.915,-0.098401
10.015,3702,4.6862,-0.10258
10.02,3721,20.588,-0.095383
10.025,3703,3.868,-0.1022
10.03,3676,-18.371,-0.11257
10.035,3685,-7.4866,-0.10909
10.04,3677,-12.375,-0.11218
10.045,3680,-7.3641,-0.11102
10.05,3657,-25.077,-0.11998
10.055,3697,12.82,-0.10449
10.06,3723,33.368,-0.094631
10.065,3700,10.761,-0.10334
10.07,3704,13.468,-0.10182
10.075,3727,31.417,-0.09313
10.08,3723,24.799,-0.094631
10.085,3709,10.839,-0.099916
10.09,3735,31.555,-0.090139
10.095,3733,26.602,-0.090885
10.1,3709,4.2843,-0.099916
10.105,3736,26.723,-0.089767
10.11,3737,24.883,-0.089394
10.115,3732,18.432,-0.091259
10.12,3711,-0.2898,-0.099158
10.125,3740,24.387,-0.088278
10.13,3739,21.272,-0.08865
10.135,3758,34.688,-0.081629
10.14,3751,25.427,-0.084205
10.145,3778,44.538,-0.074331
10.15,3772,34.869,-0.07651
10.155,3738,4.0116,-0.089022
10.16,3750,14.216,-0.084574
10.165,3746,10.153,-0.086053
10.17,3743,7.4364,-0.087165
10.175,3718,-12.856,-0.096513
10.18,3737,5.4141,-0.089394
10.185,3737,5.7359,-0.089394
10.19,3718,-9.4904,-0.096513
10.195,3738,9.1259,-0.089022
10.2,3682,-37.29,-0.11025
10.205,3631,-74.927,-0.13028
10.21,3630,-64.841,-0.13068
10.215,3650,-37.991,-0.12274
10.22,3665,-19.242,-0.11685
10.225,3645,-32.964,-0.12471
10.23,3689,9.6162,-0.10755
10.235,3713,29.062,-0.098401
10.24,3699,14.41,-0.10372
10.245,3716,27.367,-0.097267
10.25,3766,64.995,-0.078698
10.255,3780,68.285,-0.073606
10.26,3747,33.79,-0.085683
10.265,3726,13.197,-0.093505
10.27,3712,0.91063,-0.098779
10.275,3670,-33.358,-0.1149
10.28,3686,-14.475,-0.10871
10.285,3722,18.211,-0.095007
10.29,3721,15.882,-0.095383
10.295,3687,-13.487,-0.10832
10.3,3695,-4.0788,-0.10525
10.305,3686,-10.149,-0.10871
10.31,3677,-15.465,-0.11218
10.315,3663,-24.384,-0.11763
10.32,3679,-6.7122,-0.11141
10.325,3691,5.104,-0.10678
10.33,3692,6.1046,-0.1064
10.335,3705,16.949,-0.10144
10.34,3715,23.794,-0.097645
10.345,3697,6.5855,-0.10449
10.35,3671,-15.258,-0.11451
10.355,3688,1.9568,-0.10794
10.36,3708,19.188,-0.10029
10.365,3698,9.1928,-0.1041
10.37,3722,28.641,-0.095007
10.375,3728,30.599,-0.092755
10.38,3732,30.669,-0.091259
10.385,3708,7.8085,-0.10029
10.39,3731,26.555,-0.091633
10.395,3738,29.63,-0.089022
10.4,3712,5.3739,-0.098779
10.405,3712,5.6125,-0.098779
10.41,3733,23.011,-0.090885
10.415,3737,24.152,-0.089394
10.42,3721,8.8623,-0.095383
10.425,3767,45.797,-0.078333
10.43,3777,48.615,-0.074694
10.435,3783,47.894,-0.072521
10.44,3740,8.2512,-0.088278
10.445,3752,17.903,-0.083836
10.45,3748,13.383,-0.085313
10.455,3719,-10.884,-0.096136
10.46,3737,6.3354,-0.089394
10.465,3736,5.7571,-0.089767
10.47,3714,-11.915,-0.098023
10.475,3715,-8.4347,-0.097645
10.48,3738,12.526,-0.089022
10.485,3735,9.4746,-0.090139
10.49,3713,-8.7271,-0.098401
10.495,3734,10.668,-0.090512
10.5,3741,15.966,-0.087907
10.505,3711,-9.6171,-0.099158
10.51,3713,-5.6382,-0.098401
10.515,3736,14.955,-0.089767
10.52,3737,14.808,-0.089394
10.525,3713,-5.7421,-0.098401
10.53,3730,9.9899,-0.092006
10.535,3742,19.431,-0.087536
10.54,3728,6.5145,-0.092755
10.545,3710,-8.0778,-0.099537
10.55,3738,16.941,-0.089022
10.555,3741,18.15,-0.087907
10.56,3715,-4.4318,-0.097645
10.565,3753,28.084,-0.083468
10.57,3777,44.501,-0.074694
10.575,3765,30.123,-0.079064
10.58,3753,17.612,-0.083468
10.585,3755,17.978,-0.082731
10.59,3760,20.7,-0.080895
10.595,3720,-13.307,-0.095759
10.6,3734,1.02,-0.090512
10.605,3741,7.6732,-0.087907
10.61,3713,-15.094,-0.098401
10.615,3713,-11.977,-0.098401
10.62,3741,13.564,-0.087907
10.625,3734,7.1632,-0.090512
10.63,3690,-28.98,-0.10717
10.635,3680,-32.437,-0.11102
10.64,3692,-17.006,-0.1064
10.645,3659,-41.591,-0.1192
10.65,3661,-33.348,-0.11841
10.655,3685,-7.6426,-0.10909
10.66,3695,2.6764,-0.10525
10.665,3692,0.74493,-0.1064
10.67,3717,22.283,-0.09689
10.675,3721,23.524,-0.095383
10.68,3681,-11.886,-0.11063
10.685,3672,-16.955,-0.11412
10.69,3683,-4.49,-0.10986
10.695,3660,-22.454,-0.1188
10.7,3657,-21.124,-0.11998
10.705,3676,-1.2874,-0.11257
10.71,3678,1.4357,-0.11179
10.715,3658,-14.872,-0.11959
10.72,3676,3.2498,-0.11257
10.725,3675,2.8134,-0.11296
10.73,3654,-14.588,-0.12116
10.735,3655,-10.956,-0.12077
10.74,3669,3.2521,-0.11529
10.745,3678,11.239,-0.11179
10.75,3654,-9.8465,-0.12116
10.755,3683,16.881,-0.10986
10.76,3708,36.272,-0.10029
10.765,3716,38.853,-0.097267
10.77,3702,22.956,-0.10258
10.775,3723,38.068,-0.094631
10.78,3727,37.148,-0.09313
10.785,3706,15.845,-0.10106
10.79,3732,35.995,-0.091259
