0,4714,477.66,0.18507
0.004993,4712,401.85,0.18464
0.0099928,4717,342.21,0.1857
0.014992,4710,285.78,0.18422
0.019994,4711,242.87,0.18443
0.024994,4751,228,0.1928
0.029992,4761,199.44,0.19486
0.034993,4759,169.18,0.19445
0.039993,4769,150.22,0.1965
0.044993,4769,129.07,0.1965
0.049994,4764,108.73,0.19548
0.054994,4742,82.589,0.19093
0.059993,4726,63.752,0.18759
0.064994,4712,48.948,0.18464
0.069993,4712,44.109,0.18464
0.074994,4714,41.147,0.18507
0.079995,4707,33.769,0.18359
0.084995,4709,32.478,0.18401
0.089994,4716,34.126,0.18549
0.094994,4708,27.357,0.1838
0.099994,4708,26.022,0.1838
0.10499,4717,29.808,0.1857
0.10999,4709,23.749,0.18401
0.115,4706,21.368,0.18338
0.12,4748,43.713,0.19217
0.12499,4761,46.785,0.19486
0.13001,4828,77.467,0.20842
0.13499,4767,36.571,0.19609
0.14,4772,36.588,0.19712
0.14499,4783,39.771,0.19936
0.15,4768,28.766,0.1963
0.15499,4783,35.325,0.19936
0.16,4783,32.956,0.19936
0.16499,4822,51.26,0.20722
0.17,4792,30.858,0.20119
0.175,4786,26.106,0.19997
0.18,4763,13.114,0.19527
0.185,4781,23.806,0.19896
0.19,4733,-2.2485,0.18905
0.195,4710,-11.14,0.18422
0.2,4751,15.937,0.1928
0.205,4841,63.592,0.211
0.21,4761,15.165,0.19486
0.215,4768,19.719,0.1963
0.22,4777,24.595,0.19814
0.225,4840,56.626,0.2108
0.23,4747,2.3765,0.19197
0.235,4732,-2.8059,0.18884
0.24,4717,-7.2595,0.1857
0.245,4779,30.245,0.19855
0.25,4722,-1.7599,0.18675
0.255,4711,-4.2787,0.18443
0.26,4718,3.3638,0.18591
0.265,4836,68.172,0.21001
0.27,4764,23.128,0.19548
0.275,4763,22.151,0.19527
0.28,4734,6.3521,0.18926
0.285,4830,59.001,0.20882
0.29,4708,-11.636,0.1838
0.295,4714,-3.3432,0.18507
0.3,4713,-0.19664,0.18485
0.305,4710,1.3427,0.18422
0.31,4738,19.419,0.1901
0.315,4759,30.715,0.19445
0.32,4760,29.546,0.19465
0.325,4767,31.754,0.19609
0.33,4772,32.556,0.19712
0.335,4765,26.896,0.19568
0.34,4757,21.588,0.19404
0.345,4734,9.0493,0.18926
0.35,4716,1.0487,0.18549
0.355,4710,0.76313,0.18422
0.36,4750,25.366,0.19259
0.365,4762,30.898,0.19507
0.37,4759,27.583,0.19445
0.375,4768,31.168,0.1963
0.38001,4767,28.896,0.19609
0.385,4765,26.459,0.19568
0.39,4768,27.062,0.1963
0.395,4768,25.988,0.1963
0.4,4831,57.911,0.20901
0.405,4769,19.732,0.1965
0.41,4771,20.914,0.19691
0.415,4762,16.084,0.19507
0.42,4836,55.342,0.21001
0.425,4772,16.625,0.19712
0.43,4765,13.561,0.19568
0.435,4759,11.491,0.19445
0.44,4802,35.543,0.20321
0.445,4719,-10.911,0.18612
0.45,4708,-11.958,0.1838
0.455,4745,13.128,0.19155
0.46,4831,59.315,0.20901
0.465,4760,16.134,0.19465
0.47,4737,4.514,0.18989
0.475,4730,3.234,0.18843
0.48,4790,37.807,0.20078
0.485,4736,6.3951,0.18968
0.49,4775,29.358,0.19773
0.495,4779,30.042,0.19855
0.5,4835,57.584,0.20981
0.505,4793,30.045,0.20139
0.51,4778,20.701,0.19834
0.515,4764,13.298,0.19548
0.52,4771,18.16,0.19691
0.525,4778,22.241,0.19834
0.53,4762,13.526,0.19507
0.535,4768,17.819,0.1963
0.54,4776,22.478,0.19794
0.545,4763,15.302,0.19527
0.55,4741,4.3839,0.19072
0.555,4727,-0.63109,0.1878
0.56,4713,-4.9332,0.18485
0.565,4714,-0.44204,0.18507
0.57,4717,4.408,0.1857
0.575,4709,2.4891,0.18401
0.58001,4661,-21.317,0.17373
0.58501,4763,40.704,0.19527
0.59,4764,37.92,0.19548
0.595,4761,33.469,0.19486
0.6,4771,36.626,0.19691
0.605,4771,34.003,0.19691
0.61001,4764,28.101,0.19548
0.61501,4771,30.551,0.19691
0.62001,4769,27.861,0.1965
0.62501,4763,23.48,0.19527
0.63001,4768,25.623,0.1963
0.635,4765,23.194,0.19568
0.64001,4763,21.679,0.19527
0.64501,4743,10.795,0.19114
0.65001,4726,3.1279,0.18759
0.65501,4712,-1.7944,0.18464
0.66001,4713,2.1818,0.18485
0.66501,4715,6.0575,0.18528
0.67001,4706,3.3115,0.18338
0.67501,4779,45.05,0.19855
0.68001,4756,28.902,0.19383
0.68501,4761,30.146,0.19486
0.69001,4761,28.545,0.19486
0.69501,4766,29.858,0.19589
0.70001,4768,29.381,0.1963
0.70501,4763,25.278,0.19527
0.71001,4738,11.122,0.1901
0.71501,4728,7.1507,0.18801
0.72001,4716,2.6758,0.18549
0.72501,4717,5.9366,0.1857
0.73001,4718,8.6692,0.18591
0.73501,4712,7.152,0.18464
0.74001,4707,6.397,0.18359
0.74501,4713,11.748,0.18485
0.75001,4770,43.568,0.19671
0.75501,4705,4.852,0.18316
0.76001,4714,12.086,0.18507
0.76501,4708,9.9905,0.1838
0.77001,4705,9.8471,0.18316
0.77501,4710,14.087,0.18422
0.78001,4709,14.377,0.18401
0.78501,4772,48.992,0.19712
0.79001,4745,29.993,0.19155
0.79501,4766,39.55,0.19589
0.80001,4757,31.653,0.19404
0.80501,4767,35.102,0.19609
0.81001,4786,42.729,0.19997
0.81501,4782,37.064,0.19916
0.82001,4815,51.608,0.20582
0.82501,4794,35.783,0.2016
0.83001,4777,24.458,0.19814
0.83501,4765,17.496,0.19568
0.84002,4784,27.996,0.19957
0.84501,4773,21.033,0.19732
0.85001,4763,15.665,0.19527
0.85501,4769,19.611,0.1965
0.86001,4773,21.87,0.19732
0.86501,4764,16.896,0.19548
0.87001,4734,1.4264,0.18926
0.87501,4759,17.794,0.19445
0.88002,4708,-9.286,0.1838
0.88501,4712,-2.4658,0.18464
0.89001,4712,1.0751,0.18464
0.89501,4704,-0.32978,0.18295
0.90001,4735,19.662,0.18947
0.90501,4759,32.522,0.19445
0.91001,4824,64.529,0.20762
0.91501,4762,25.132,0.19507
0.92001,4774,30.705,0.19753
0.92501,4765,24.297,0.19568
0.93001,4767,24.723,0.19609
0.93501,4769,25.085,0.1965
0.94004,4765,22.218,0.19568
0.94501,4834,57.871,0.20961
0.95001,4734,-0.51514,0.18926
0.95501,4716,-6.9568,0.18549
0.96001,4705,-8.6685,0.18316
0.96501,4744,16.974,0.19134
0.97001,4758,24.937,0.19424
0.97501,4754,22.044,0.19342
0.98001,4838,65.581,0.2104
0.98501,4769,22.593,0.1965
0.99001,4761,18.009,0.19486
0.99501,4762,18.918,0.19507
1,4779,28.139,0.19855
1.005,4761,17.408,0.19486
1.01,4763,18.945,0.19527
1.015,4837,57.72,0.2102
1.02,4767,15.463,0.19609
1.025,4759,12.03,0.19445
1.03,4733,-0.54711,0.18905
1.035,4722,-3.1904,0.18675
1.04,4781,32.007,0.19896
1.045,4752,14.808,0.193
1.05,4736,7.0991,0.18968
1.055,4730,5.9322,0.18843
1.06,4711,-2.1398,0.18443
1.065,4783,39.879,0.19936
1.07,4789,39.915,0.20058
1.075,4779,31.568,0.19855
1.08,4707,-8.8164,0.18359
1.085,4749,18.441,0.19238
1.09,4758,23.506,0.19424
1.095,4785,37.245,0.19977
1.1,4726,3.1319,0.18759
1.105,4789,39.346,0.20058
1.11,4795,39.48,0.2018
1.115,4801,39.603,0.20301
1.12,4729,-1.5802,0.18822
1.125,4768,22.733,0.1963
1.13,4774,25.536,0.19753
1.135,4767,21.03,0.19609
1.14,4737,4.9223,0.18989
1.145,4756,17.519,0.19383
1.15,4739,8.8629,0.19031
1.155,4720,0.39303,0.18633
1.16,4696,-9.6093,0.18125
1.165,4755,26.967,0.19362
1.17,4731,12.993,0.18864
1.175,4695,-5.5264,0.18104
1.18,4739,22.368,0.19031
1.185,4748,26.782,0.19217
1.19,4733,17.629,0.18905
1.195,4686,-7.6766,0.17912
1.2,4738,24.958,0.1901
1.205,4732,20.89,0.18884
1.21,4746,28.219,0.19176
1.215,4673,-12.957,0.17633
1.22,4752,35.196,0.193
1.225,4731,21.47,0.18864
1.23,4680,-6.71,0.17783
1.235,4775,48.769,0.19773
1.24,4801,57.806,0.20301
1.245,4731,14.735,0.18864
1.25,4723,11.214,0.18696
1.255,4784,45.102,0.19957
1.26,4754,25.269,0.19342
1.265,4685,-13.02,0.1789
1.27,4758,31.732,0.19424
1.275,4738,19.164,0.1901
1.28,4682,-11.278,0.17826
1.285,4688,-3.0931,0.17954
1.29,4742,29.846,0.19093
1.295,4761,38.371,0.19486
1.3,4684,-6.307,0.17869
1.305,4752,34.702,0.193
1.31,4742,26.975,0.19093
1.315,4681,-7.4279,0.17805
1.32,4686,-0.42496,0.17912
1.325,4736,29.951,0.18968
1.33,4748,34.732,0.19217
1.335,4680,-4.6821,0.17783
1.34,4687,2.9759,0.17933
1.345,4744,36.546,0.19134
1.35,4739,31.159,0.19031
1.355,4682,-1.7724,0.17826
1.36,4744,35.318,0.19134
1.365,4778,50.879,0.19834
1.37,4796,55.395,0.202
1.375,4729,14.226,0.18822
1.38,4770,37.021,0.19671
1.385,4754,25.834,0.19342
1.39,4686,-11.994,0.17912
1.395,4750,27.776,0.19259
1.4,4752,27.59,0.193
1.405,4743,21.559,0.19114
1.41,4678,-14.157,0.1774
1.415,4742,26.081,0.19093
1.42,4738,22.927,0.1901
1.425,4656,-22.618,0.17265
1.43,4733,26.352,0.18905
1.435,4799,60.25,0.20261
1.44,4780,43.925,0.19875
1.445,4709,2.0954,0.18401
1.45,4758,31.289,0.19424
1.455,4740,19.868,0.19051
1.46,4735,17.179,0.18947
1.465,4694,-4.7139,0.18083
1.47,4720,13.334,0.18633
1.475,4736,22.975,0.18968
1.48,4738,23.531,0.1901
1.485,4677,-10.394,0.17719
1.49,4748,32.996,0.19217
1.495,4765,39.938,0.19568
1.5,4686,-5.9995,0.17912
1.505,4672,-9.7381,0.17611
1.51,4717,19.59,0.1857
1.515,4712,16.833,0.18464
1.52,4627,-30.136,0.16629
1.525,4692,14.012,0.1804
1.53,4701,19.739,0.18231
1.535,4623,-24.013,0.16541
1.54,4625,-16.146,0.16585
1.545,4687,24.097,0.17933
1.55,4604,-23.618,0.16118
1.555,4624,-5.5543,0.16563
1.56,4687,33.529,0.17933
1.565,4686,30.56,0.17912
1.57,4610,-14.205,0.16252
1.575,4600,-14.891,0.16029
1.58,4646,16.526,0.17047
1.585,4571,-26.427,0.15375
1.59,4571,-19.505,0.15375
1.595,4641,26.621,0.16937
1.6,4624,15.503,0.16563
1.605,4543,-31.443,0.14733
1.61,4530,-31.587,0.14432
1.615,4572,0.93537,0.15397
1.62,4521,-26.934,0.14222
1.625,4513,-24.96,0.14035
1.63,4569,14.901,0.15329
1.635,4571,16.253,0.15375
1.64,4515,-17.154,0.14082
1.645,4509,-15.6,0.13941
1.65,4564,22.203,0.15215
1.655,4474,-33.166,0.1311
1.66,4469,-28.629,0.1299
1.665,4507,1.5753,0.13894
1.67,4495,-3.6346,0.1361
1.675,4413,-52.021,0.11623
1.68,4405,-46.695,0.11424
1.685,4474,6.3634,0.1311
1.69,4396,-41.748,0.112
1.695,4399,-31.104,0.11275
1.7,4501,39.831,0.13752
1.705,4505,38.112,0.13847
1.71,4451,0.91899,0.12555
1.715,4428,-11.597,0.11993
1.72,4471,19.294,0.13038
1.725,4509,41.669,0.13941
1.73,4407,-26.42,0.11474
1.735,4467,17.719,0.12942
1.74,4463,14.544,0.12845
1.745,4398,-26.83,0.1125
1.75,4403,-17.323,0.11374
1.755,4462,24.777,0.12821
1.76,4463,23.541,0.12845
1.765,4455,16.898,0.12652
1.77,4509,49.556,0.13941
1.775,4497,36.541,0.13658
1.78,4477,20.622,0.13182
1.785,4431,-9.2704,0.12067
1.79,4482,26.147,0.13301
1.795,4490,29.063,0.13492
1.8,4471,14.907,0.13038
1.805,4439,-5.3098,0.12263
1.81,4503,37.3,0.13799
1.815,4510,37.821,0.13964
1.82,4447,-4.8506,0.12458
1.825,4495,27.802,0.1361
1.83,4479,15.756,0.13229
1.835,4468,8.6299,0.12966
1.84,4416,-23.313,0.11697
1.845,4522,48.243,0.14245
1.85,4506,33.116,0.1387
1.855,4437,-12.671,0.12214
1.86,4446,-2.8615,0.12433
1.865,4515,42.256,0.14082
1.87,4499,28.04,0.13705
1.875,4445,-7.6444,0.12409
1.88,4454,1.3542,0.12628
1.885,4503,33.52,0.13799
1.89,4546,56.283,0.14802
1.895,4456,-5.2452,0.12676
1.9,4505,27.971,0.13847
1.905,4506,26.374,0.1387
1.91,4453,-8.2575,0.12603
1.915,4452,-5.3949,0.12579
1.92,4510,33.368,0.13964
1.925,4508,29.089,0.13917
1.93,4448,-10.325,0.12482
1.935,4510,31.733,0.13964
1.94,4512,30.147,0.14011
1.945,4406,-38.514,0.11449
1.95,4493,24.266,0.13563
1.955,4498,25.673,0.13681
1.96,4510,31.118,0.13964
1.965,4445,-11.717,0.12409
1.97,4497,24.525,0.13658
1.975,4511,31.369,0.13988
1.98,4497,20.114,0.13658
1.985,4431,-21.9,0.12067
1.99,4480,14.344,0.13253
1.995,4466,5.5937,0.12918
2,4400,-34.885,0.11299
2.005,4435,-4.9414,0.12165
2.01,4456,11.128,0.12676
2.015,4441,2.059,0.12312
2.02,4398,-23.595,0.1125
2.025,4443,10.834,0.1236
2.03,4450,15.566,0.12531
2.035,4393,-21.139,0.11124
2.04,4388,-19.041,0.10999
2.045,4466,35.454,0.12918
2.05,4459,27.513,0.12749
2.055,4392,-17.376,0.11099
2.06,4453,26.166,0.12603
2.065,4464,30.907,0.12869
2.07,4404,-9.8879,0.11399
2.075,4405,-5.6955,0.11424
2.08,4465,35.099,0.12893
2.085,4476,38.388,0.13158
2.09,4411,-6.5253,0.11573
2.095,4474,36.162,0.1311
2.1,4465,26.915,0.12893
2.105,4461,22.23,0.12797
2.11,4386,-26.927,0.10949
2.115,4444,16.391,0.12385
2.12,4452,20.845,0.12579
2.125,4413,-5.0981,0.11623
2.13,4371,-29.477,0.1057
2.135,4427,13.232,0.11969
2.14,4399,-4.8033,0.11275
2.145,4339,-41.445,0.097503
2.15,4418,18.495,0.11747
2.155,4389,-1.174,0.11024
2.16,4392,2.8349,0.11099
2.165,4336,-32.561,0.096727
2.17,4384,6.0218,0.10898
2.175,4376,1.68,0.10696
2.18,4281,-60.508,0.08227
2.185,4313,-27.395,0.090736
2.19,4322,-15.313,0.09309
2.195,4309,-20.018,0.089687
2.2,4254,-53.123,0.075005
2.205,4324,4.8335,0.093611
2.21,4305,-7.2089,0.088634
2.215,4260,-35.512,0.076629
2.22,4324,15.41,0.093611
2.225,4318,10.448,0.092045
2.23,4294,-5.9953,0.085728
2.235,4248,-35.443,0.073375
2.24,4308,13.002,0.089424
2.245,4295,3.5486,0.085993
2.25,4227,-42.972,0.067627
2.255,4282,3.6659,0.082537
2.26,4296,14.075,0.086258
2.265,4296,13.247,0.086258
2.27,4225,-36.956,0.067076
2.275,4266,-0.95535,0.078248
2.28,4259,-4.3446,0.076359
2.285,4196,-47.113,0.059011
2.29,4193,-40.603,0.058169
2.295,4250,7.6545,0.073919
2.3,4233,-4.3203,0.069276
2.305,4185,-36.919,0.055917
2.31,4237,7.3603,0.070373
2.315,4228,0.97952,0.067902
2.32,4170,-39.934,0.051665
2.325,4168,-34.017,0.051095
2.33,4220,10.078,0.065695
2.335,4225,13.116,0.067076
2.34,4170,-27.657,0.051665
2.345,4231,21.767,0.068727
2.35,4239,25.048,0.07092
2.355,4173,-25.325,0.052518
2.36,4167,-24.713,0.05081
2.365,4246,37.015,0.072831
2.37,4223,15.941,0.066524
2.375,4160,-31.248,0.048809
2.3801,4161,-24.586,0.049095
2.385,4225,26.663,0.067076
2.39,4225,23.457,0.067076
2.395,4153,-31.557,0.0468
2.4,4218,21.721,0.065141
2.405,4225,24.28,0.067076
2.41,4228,23.596,0.067902
2.415,4158,-29.854,0.048236
2.42,4243,37.201,0.072013
2.425,4253,39.384,0.074734
2.43,4166,-28.25,0.050525
2.435,4242,31.971,0.07174
2.44,4246,30.795,0.072831
2.445,4174,-24.68,0.052802
2.45,4170,-22.696,0.051665
2.455,4242,33.696,0.07174
2.46,4240,28.013,0.071194
2.465,4170,-25.747,0.051665
2.47,4171,-19.937,0.051949
2.475,4220,19.673,0.065695
2.48,4162,-24.522,0.049382
2.485,4157,-23.382,0.047949
2.49,4194,8.3475,0.05845
2.495,4160,-16.903,0.048809
2.5,3977,-156.26,-0.006573
2.505,3945,-157.57,-0.016906
2.51,3919,-154.24,-0.025453
2.515,3840,-198.81,-0.052298
2.52,3830,-176.31,-0.055792
2.525,3856,-125.19,-0.046752
2.53,3881,-83.504,-0.038199
2.535,3887,-65.296,-0.036166
2.54,3850,-87.94,-0.048825
2.545,3827,-95.136,-0.056845
2.55,3807,-98.844,-0.063916
2.555,3785,-104.17,-0.071799
2.56,3845,-33.586,-0.050559
2.565,3825,-47.011,-0.057548
2.5701,3826,-39.419,-0.057197
2.575,3803,-54.986,-0.065341
2.58,3857,1.733,-0.046407
2.585,3805,-46.365,-0.064628
2.59,3791,-52.838,-0.069638
2.595,3842,1.1435,-0.051601
2.6,3767,-68.915,-0.078333
2.605,3756,-69.416,-0.082364
2.61,3813,-6.3882,-0.061785
2.615,3818,-1.8307,-0.060016
2.62,3741,-74.539,-0.087907
2.625,3705,-98.8,-0.10144
2.6301,3758,-33.3,-0.081629
2.635,3671,-114.13,-0.11451
2.64,3711,-57.847,-0.099158
2.645,3754,-8.6571,-0.0831
2.65,3702,-58.929,-0.10258
2.655,3697,-55.992,-0.10449
2.6601,3704,-41.751,-0.10182
2.665,3774,30.512,-0.075783
2.67,3715,-32.175,-0.097645
2.6751,3735,-9.2187,-0.090139
2.6801,3793,45.52,-0.068919
2.6851,3729,-23.625,-0.092381
2.6901,3689,-60.499,-0.10755
2.6951,3668,-73.442,-0.11568
2.7001,3749,15.888,-0.084944
2.7051,3765,27.031,-0.079064
2.7101,3795,49.315,-0.068202
2.7151,3860,99.035,-0.045374
2.7201,3785,13.919,-0.071799
2.7251,3782,7.6323,-0.072883
2.7301,3824,43.82,-0.0579
2.7351,3803,16.488,-0.065341
2.7401,3819,27.345,-0.059663
2.7451,3812,15.481,-0.06214
2.7501,3829,27.378,-0.056143
2.7551,3832,24.675,-0.055092
2.7601,3766,-41.212,-0.078698
2.7651,3844,35.899,-0.050906
2.7701,3890,69.841,-0.035153
2.7751,3844,17.2,-0.050906
2.7801,3839,9.04,-0.052646
2.7851,3901,61.371,-0.031453
2.7901,3910,58.597,-0.028445
2.7951,3847,-6.7222,-0.049864
2.8001,3932,67.606,-0.021162
2.8051,3946,68.054,-0.01658
2.8101,3931,44.003,-0.021491
2.8151,3898,8.1561,-0.032459
2.8201,3958,57.317,-0.012683
2.8251,3941,33.49,-0.018212
2.8301,3988,66.808,-0.003068
2.8351,4010,73.778,0.003872
2.8401,4011,62.627,0.004185
2.8451,4005,47.631,0.002303
2.8501,4020,52.019,0.006996
2.8551,4014,38.827,0.005124
2.8601,4036,50.215,0.011955
2.8651,4071,69.801,0.022636
2.8701,4089,72.761,0.028042
2.8751,4078,52.869,0.024745
2.8801,4096,58.567,0.030128
2.8851,4104,55.66,0.032502
2.8901,4048,3.6234,0.015642
2.8951,4108,49.868,0.033685
2.9001,4108,42.312,0.033685
2.9051,4107,35.226,0.03339
2.9101,4049,-14.966,0.015948
2.9151,4095,23.576,0.029831
2.9201,4136,51.357,0.041887
2.9251,4111,24.814,0.034571
2.9301,4068,-11.787,0.021729
2.9351,4116,27.447,0.036043
2.9401,4120,26.617,0.037217
2.9451,4057,-25.68,0.01839
2.9501,4117,25.137,0.036336
2.9551,4115,20.14,0.035748
2.9601,4113,15.946,0.03516
2.9651,4052,-33.274,0.016865
2.9701,4103,12.032,0.032206
2.9751,4141,39.346,0.043337
2.9801,4084,-9.6685,0.026546
2.9851,4147,40.174,0.045072
2.9901,4138,27.67,0.042467
2.9951,4140,25.379,0.043047
3.0001,4085,-19.843,0.026845
3.0051,4139,24.916,0.042757
3.0101,4153,32.016,0.0468
3.0151,4096,-15.437,0.030128
3.0201,4156,32.846,0.047662
3.0251,4165,34.954,0.050239
3.0301,4157,24.2,0.047949
3.0351,4100,-21.857,0.031317
3.0401,4152,21.458,0.046513
3.0451,4173,34.251,0.052518
3.0501,4103,-22.864,0.032206
3.0551,4157,22.043,0.047949
3.0601,4185,39.83,0.055917
3.0651,4186,35.016,0.056199
3.0701,4134,-8.1764,0.041305
3.0751,4210,49.649,0.062921
3.0801,4223,51.924,0.066524
3.0851,4150,-8.544,0.045937
3.0901,4158,-0.43587,0.048236
3.0951,4209,37.64,0.062643
3.1001,4223,42.585,0.066524
3.1051,4165,-5.2559,0.050239
3.1101,4158,-8.7149,0.048236
3.1151,4217,36.444,0.064864
3.1201,4159,-10.572,0.048523
3.1251,4157,-9.5042,0.047949
3.1301,4221,39.375,0.065971
3.1351,4219,32.651,0.065418
3.1401,4158,-15.906,0.048236
3.1451,4218,31.139,0.065141
3.1501,4222,30.026,0.066248
3.1551,4160,-18.751,0.048809
3.1601,4160,-14.864,0.048809
3.1651,4227,36.956,0.067627
3.1701,4220,27.096,0.065695
3.1751,4155,-23.487,0.047375
3.1801,4214,24.14,0.064033
3.1851,4226,29.859,0.067351
3.1901,4162,-20.243,0.049382
3.1951,4156,-20.542,0.047662
3.2001,4219,29.445,0.065418
3.2051,4230,33.589,0.068452
3.2101,4158,-22.901,0.048236
3.2151,4200,12.355,0.060132
3.2201,4212,19.998,0.063477
3.2251,4163,-17.825,0.049668
3.2301,4157,-18.511,0.047949
3.2351,4222,32.55,0.066248
3.2401,4202,14.029,0.060691
3.2451,4152,-23.821,0.046513
3.2501,4226,34.637,0.067351
3.2551,4203,13.668,0.06097
3.2601,4186,0.16132,0.056199
3.2651,4150,-25.397,0.045937
3.2701,4207,21.206,0.062086
3.2751,4207,18.805,0.062086
3.2801,4215,22.535,0.06431
3.2851,4214,19.239,0.064033
3.2901,4217,19.338,0.064864
3.2951,4210,12.274,0.062921
3.3001,4144,-36.964,0.044205
3.3051,4205,14.525,0.061529
3.3101,4216,21.098,0.064587
3.3151,4240,35.808,0.071194
3.3201,4199,1.9084,0.059852
3.3251,4207,8.3814,0.062086
3.3301,4216,14.526,0.064587
3.3351,4148,-36.369,0.04536
3.3401,4231,30.64,0.068727
3.3451,4212,13.265,0.063477
3.3501,4219,17.191,0.065418
3.3551,4189,-6.1117,0.057044
3.3601,4225,21.744,0.067076
3.3651,4217,13.634,0.064864
3.3701,4149,-37.082,0.045649
3.3751,4202,8.5629,0.060691
3.3801,4227,26.1,0.067627
3.3851,4204,6.5359,0.06125
3.3901,4148,-34.499,0.04536
3.3951,4221,25.093,0.065971
3.4001,4213,16.404,0.063755
3.4051,4151,-30.432,0.046225
3.4101,4153,-23.2,0.0468
3.4151,4205,19.391,0.061529
3.4201,4213,23.023,0.063755
3.4251,4154,-22.665,0.047088
3.4301,4207,20.541,0.062086
3.4351,4212,21.839,0.063477
3.4401,4211,18.641,0.063199
3.4451,4154,-24.907,0.047088
3.4501,4207,18.664,0.062086
3.4551,4230,33.108,0.068452
3.4601,4169,-15.188,0.05138
3.4651,4226,29.382,0.067351
3.4701,4223,23.602,0.066524
3.4751,4155,-28.537,0.047375
3.4801,4153,-24.563,0.0468
3.4851,4205,18.25,0.061529
3.4901,4101,-60.89,0.031614
3.4951,3982,-144.87,-0.004977
3.5001,3951,-147.09,-0.014953
3.5051,3894,-172.02,-0.033804
3.5101,3875,-161.17,-0.040239
3.5151,3867,-142.63,-0.042972
3.5201,3888,-101.68,-0.035828
3.5251,3876,-96.218,-0.039899
3.5301,3885,-73.325,-0.036843
3.5351,3871,-74.288,-0.041604
3.5401,3853,-78.846,-0.047788
3.5451,3834,-83.852,-0.054392
3.5501,3817,-86.536,-0.060369
3.5551,3805,-84.449,-0.064628
3.5601,3798,-78.233,-0.067127
3.5651,3762,-100.26,-0.080161
3.5701,3753,-93.818,-0.083468
3.5751,3768,-65.749,-0.077968
3.5801,3771,-53.535,-0.076874
3.5851,3743,-72.674,-0.087165
3.5901,3811,1.3635,-0.062494
3.5951,3767,-40.801,-0.078333
3.6001,3746,-55.407,-0.086053
3.6051,3812,13.882,-0.06214
3.6101,3747,-50.203,-0.085683
3.6151,3709,-80.211,-0.099916
3.6201,3664,-113.55,-0.11724
3.6251,3690,-71.036,-0.10717
3.6301,3745,-7.7393,-0.086423
3.6351,3737,-15.615,-0.089394
3.6401,3801,45.65,-0.066055
3.6451,3742,-18.356,-0.087536
3.6501,3726,-32.258,-0.093505
3.6551,3691,-62.861,-0.10678
3.6601,3719,-26.95,-0.096136
3.6651,3716,-27.111,-0.097267
3.6701,3696,-43.962,-0.10487
3.6751,3775,37.426,-0.07542
3.6801,3789,43.109,-0.070357
3.6851,3741,-10.409,-0.087907
3.6901,3779,25.768,-0.073969
3.6951,3779,20.31,-0.073969
3.7001,3800,35.246,-0.066412
3.7051,3749,-19.459,-0.084944
3.7101,3771,3.0959,-0.076874
3.7151,3789,18.105,-0.070357
3.7201,3726,-45.785,-0.093505
3.7251,3783,14.246,-0.072521
3.7301,3807,32.902,-0.063916
3.7351,3780,1.4408,-0.073606
3.7401,3733,-44.643,-0.090885
3.7451,3816,38.939,-0.060723
3.7501,3796,13.181,-0.067843
3.7551,3819,30.994,-0.059663
3.7601,3781,-10.127,-0.073244
3.7651,3841,45.241,-0.051949
3.7701,3858,52.177,-0.046063
3.7751,3836,23.196,-0.053693
3.7801,3895,70.703,-0.033468
3.7851,3894,57.741,-0.033804
3.7901,3898,51.226,-0.032459
3.7951,3841,-7.9794,-0.051949
3.8001,3903,47.068,-0.030783
3.8051,3957,84.753,-0.013007
3.8101,3952,66.534,-0.014628
3.8151,3919,27.499,-0.025453
3.8201,3932,33.659,-0.021162
3.8251,3923,20.155,-0.024129
3.8301,3918,12.186,-0.025785
3.8351,3888,-16.16,-0.035828
3.8401,3973,58.069,-0.007853
3.8451,3979,53.424,-0.005934
3.8501,3906,-16.931,-0.02978
3.8551,3966,36.111,-0.010102
3.8601,4003,60.447,0.001674
3.8651,3925,-14.271,-0.023469
3.8701,3915,-20.893,-0.026781
3.8751,3970,28.426,-0.008816
3.8801,3967,21.154,-0.00978
3.8851,3918,-23.77,-0.025785
3.8901,3984,35.017,-0.004339
3.8951,3977,23.472,-0.006573
3.9001,3950,-2.9334,-0.015278
3.9051,3963,8.1494,-0.011068
3.9101,4034,64.462,0.011337
3.9151,4039,58.126,0.012879
3.9201,3973,-4.6392,-0.007853
3.9251,4025,38.322,0.008551
3.9301,4002,13.66,0.001359
3.9351,3912,-63.749,-0.027779
3.9401,3941,-29.138,-0.018212
3.9451,3958,-10.429,-0.012683
3.9501,3905,-53.933,-0.030114
3.9551,3904,-46.517,-0.030448
3.9601,3981,25.467,-0.005295
3.9651,4008,43.269,0.003245
3.9701,3966,1.8234,-0.010102
3.9751,4013,39.845,0.004811
3.9801,4035,51.072,0.011646
3.9851,3974,-6.555,-0.007533
3.9901,3971,-8.0972,-0.008495
3.9951,4032,42.67,0.010719
4.0001,4029,33.501,0.009791
4.0051,3980,-11.555,-0.005614
4.0101,4020,22.78,0.006996
4.0151,4037,32.78,0.012263
4.0201,4028,20.466,0.009481
4.0251,3962,-36.58,-0.011391
4.0301,4039,31.83,0.012879
4.0351,4034,22.881,0.011337
4.0401,3978,-26.057,-0.006253
4.0451,4069,51.086,0.022031
4.0501,4090,59.417,0.02834
4.0551,4092,51.754,0.028937
4.0601,4033,-2.4117,0.011029
4.0651,4107,55.884,0.03339
4.0701,4086,31.223,0.027145
4.0751,4069,13.398,0.022031
4.0801,4003,-40.953,0.001674
4.0851,4043,-2.1554,0.014109
4.0901,4084,30.535,0.026546
4.0951,4135,64.854,0.041596
4.1001,4119,42.93,0.036924
4.1051,4119,36.56,0.036924
4.1101,4084,4.4438,0.026546
4.1151,3997,-64.905,-0.000217
4.1201,4037,-22.118,0.012263
4.1251,4038,-17.509,0.012571
4.1301,4038,-14.441,0.012571
4.1351,3973,-64.588,-0.007853
4.1401,4035,-3.8664,0.011646
4.1451,4033,-4.6322,0.011029
4.1501,3962,-61.554,-0.011391
4.1551,4017,-6.6716,0.006061
4.1601,4049,20.038,0.015948
4.1651,4025,-2.0498,0.008551
4.1701,3958,-56.375,-0.012683
4.1751,4014,-1.4411,0.005124
4.1801,3993,-18.17,-0.001482
4.1851,3952,-49.162,-0.014628
4.1901,3965,-30.546,-0.010424
4.1951,3979,-14.156,-0.005934
4.2001,3944,-41.11,-0.017232
4.2051,3915,-59.348,-0.026781
4.2101,3974,-0.45025,-0.007533
4.2151,3940,-28.911,-0.018539
4.2201,3915,-45.787,-0.026781
4.2251,3920,-34.498,-0.025122
4.2301,3974,16.096,-0.007533
4.2351,3894,-54.462,-0.033804
4.2401,3883,-55.751,-0.03752
4.2451,3931,-5.9296,-0.021491
4.2501,3948,9.0294,-0.015928
4.2551,3906,-28.464,-0.02978
4.2601,3974,33.089,-0.007533
4.2651,3946,4.2173,-0.01658
4.2701,3961,15.807,-0.011714
4.2751,3904,-35.323,-0.030448
4.2801,3864,-65.06,-0.044
4.2851,3891,-31.497,-0.034815
4.2901,3861,-53.321,-0.045031
4.2951,3925,10.257,-0.023469
4.3001,3913,-2.0793,-0.027446
4.3051,3831,-74.465,-0.055442
4.3101,3818,-75.075,-0.060016
4.3151,3878,-10.179,-0.039218
4.3201,3815,-65.603,-0.061077
4.3251,3798,-71.565,-0.067127
4.3301,3850,-13.803,-0.048825
4.3351,3853,-9.7055,-0.047788
4.3401,3778,-77.444,-0.074331
4.3451,3831,-17.332,-0.055442
4.3501,3858,8.7581,-0.046063
4.3551,3800,-45.974,-0.066412
4.3601,3866,20.005,-0.043315
4.3651,3910,54.387,-0.028445
4.3701,3911,45.898,-0.028112
4.3751,3843,-21.79,-0.051253
4.3801,3889,21.575,-0.03549
4.3851,3876,6.0767,-0.039899
4.3901,3811,-53.911,-0.062494
4.3951,3809,-48.019,-0.063205
4.4001,3875,18.007,-0.040239
4.4051,3804,-49.479,-0.064984
4.4101,3789,-56.387,-0.070357
4.4151,3841,-0.88067,-0.051949
4.4201,3778,-59.387,-0.074331
4.4251,3778,-50.971,-0.074331
4.4301,3853,24.582,-0.047788
4.4351,3865,30.423,-0.043657
4.4401,3793,-40.479,-0.068919
4.4451,3777,-49.956,-0.074694
4.4501,3826,2.0769,-0.057197
4.4551,3792,-30.418,-0.069279
4.4601,3788,-30.351,-0.070717
4.4651,3860,38.804,-0.045374
4.4701,3868,38.792,-0.04263
4.4751,3835,2.2885,-0.054042
4.4801,3890,49.75,-0.035153
4.4851,3908,56.635,-0.029112
4.4901,3860,4.9349,-0.045374
4.4951,3856,-0.19647,-0.046752
4.5001,3911,47.152,-0.028112
4.5051,3880,12.076,-0.038538
4.5101,3860,-8.1909,-0.045374
4.5151,3907,33.485,-0.029446
4.5201,3903,24.075,-0.030783
4.5251,3856,-21.589,-0.046752
4.5301,3852,-22.429,-0.048133
4.5351,3927,45.771,-0.022809
4.5401,3958,64.056,-0.012683
4.5451,3902,5.8197,-0.031118
4.5501,3955,49.415,-0.013655
4.5551,3954,40.291,-0.013979
4.5601,3946,26.773,-0.01658
4.5651,3955,29.677,-0.013655
4.5701,3906,-17.011,-0.02978
4.5751,3961,31.884,-0.011714
4.5801,3900,-25.325,-0.031788
4.5851,4023,80.774,0.007929
4.5901,4064,100.23,0.020517
4.5951,4078,95.154,0.024745
4.6001,4029,41.469,0.009791
4.6051,4040,43.64,0.013187
4.6101,4085,72.004,0.026845
4.6151,4033,19.9,0.011029
4.6201,4096,66.141,0.030128
4.6251,4094,54.336,0.029533
4.6301,4101,51.351,0.031614
4.6351,4037,-6.4261,0.012263
4.6401,4102,45.539,0.03191
4.6451,4103,39.423,0.032206
4.6501,4086,20.481,0.027145
4.6551,4049,-11.294,0.015948
4.6601,4117,43.44,0.036336
4.6651,4097,21.721,0.030426
4.6701,4101,21.764,0.031614
4.6751,4109,24.863,0.033981
4.6801,4104,17.573,0.032502
4.6851,4107,17.552,0.03339
4.6901,4085,-1.6331,0.026845
4.6951,4092,4.4881,0.028937
4.7001,4109,17.266,0.033981
4.7051,4111,16.552,0.034571
4.7101,4106,10.631,0.033094
4.7151,4109,11.749,0.033981
4.7201,4104,6.5963,0.032502
4.7251,4049,-36.653,0.015948
4.7301,4103,11.555,0.032206
4.7351,4113,17.842,0.03516
4.7401,4041,-40.387,0.013494
4.7451,4098,10.892,0.030723
4.7501,4117,24.127,0.036336
4.7551,4120,23.085,0.037217
4.7601,4045,-38.103,0.014723
4.7651,4109,18.063,0.033981
4.7701,4098,7.2884,0.030723
4.7751,4042,-37.051,0.013802
4.7801,4098,12.897,0.030723
4.7851,4112,22.008,0.034865
4.7901,4115,21.293,0.035748
4.7951,4046,-35.046,0.015029
4.8001,4105,16.784,0.032798
4.8051,4119,25.253,0.036924
4.8101,4052,-30.006,0.016865
4.8151,4114,23.15,0.035454
4.8201,4107,14.651,0.03339
4.8251,4055,-27.457,0.017781
4.8301,4052,-25.042,0.016865
4.8351,4108,22.739,0.033685
4.8401,4121,29.477,0.03751
4.8451,4051,-28.763,0.01656
4.8501,4120,29.523,0.037217
4.8551,4107,15.466,0.03339
4.8601,4119,22.633,0.036924
4.8651,4100,5.1006,0.031317
4.8701,4106,9.3891,0.033094
4.8751,4127,24.349,0.039265
4.8801,4050,-38.345,0.016254
4.8851,4114,17.738,0.035454
4.8901,4123,22.267,0.038096
4.8951,4048,-38.668,0.015642
4.9001,4110,15.994,0.034276
4.9051,4125,25.34,0.038681
4.9101,4115,14.298,0.035748
4.9151,4049,-38.529,0.015948
4.9201,4119,22.16,0.036924
4.9251,4117,17.66,0.036336
4.9301,4050,-36.433,0.016254
4.9351,4107,14.009,0.03339
4.9401,4118,20.656,0.03663
4.9451,4112,13.357,0.034865
4.9501,4052,-34.685,0.016865
4.9551,4123,26.051,0.038096
4.9601,4121,20.94,0.03751
4.9651,4054,-33.544,0.017476
4.9701,4120,23.173,0.037217
4.9751,4129,26.822,0.039849
4.9801,4088,-8.1187,0.027743
4.9851,4055,-32.036,0.017781
4.9901,4125,27.432,0.038681
4.9951,4107,9.9614,0.03339
5.0001,4053,-32.956,0.017171
5.0051,4114,19.897,0.035454
5.0101,4127,27.093,0.039265
5.0151,4101,3.5951,0.031614
5.0201,4062,-26.659,0.019911
5.0251,4107,12.815,0.03339
5.0301,4122,22.684,0.037803
5.0351,4058,-29.689,0.018695
5.0401,4120,23.274,0.037217
5.0451,4104,7.9449,0.032502
5.0501,4124,22.394,0.038389
5.0551,4095,-2.6908,0.029831
5.0601,4091,-4.8217,0.028639
5.0651,4104,6.4233,0.032502
5.0701,4059,-28.924,0.018999
5.0751,4100,7.9063,0.031317
5.0801,4121,23.135,0.03751
5.0851,4106,8.6041,0.033094
5.0901,4057,-30.187,0.01839
5.0951,4107,13.76,0.03339
5.1001,4095,2.8991,0.029831
5.1051,4055,-28.167,0.017781
5.1101,4114,22.341,0.035454
5.1151,4069,-15.342,0.022031
5.1201,3986,-78.887,-0.003703
5.1251,3942,-102.69,-0.017885
5.1301,3926,-99.819,-0.023138
5.1351,3904,-102.81,-0.030448
5.1401,3869,-117.13,-0.042288
5.1451,3817,-145.42,-0.060369
5.1501,3831,-110.03,-0.055442
5.1551,3824,-99.379,-0.0579
5.1601,3831,-77.821,-0.055442
5.1651,3833,-64.271,-0.054742
5.1701,3820,-66.515,-0.05931
5.1751,3816,-60.329,-0.060723
5.1801,3807,-59.769,-0.063916
5.1851,3802,-55.712,-0.065698
5.1901,3795,-54.211,-0.068202
5.1951,3793,-48.386,-0.068919
5.2001,3824,-13.23,-0.0579
5.2051,3733,-97.193,-0.090885
5.2101,3690,-124.92,-0.10717
5.2151,3734,-63.393,-0.090512
5.2201,3665,-122.57,-0.11685
5.2251,3676,-93.533,-0.11257
5.2301,3739,-18.467,-0.08865
5.2351,3716,-39.205,-0.097267
5.2401,3715,-35.443,-0.097645
5.2451,3799,48.364,-0.066769
5.2501,3780,21.699,-0.073606
5.2551,3734,-26.723,-0.090512
5.2601,3712,-45.243,-0.098779
5.2651,3705,-46.402,-0.10144
5.2701,3696,-49.422,-0.10487
5.2751,3635,-104.61,-0.12868
5.2801,3698,-26.311,-0.1041
5.2851,3688,-33.685,-0.10794
5.2901,3688,-30.029,-0.10794
5.2951,3637,-78.459,-0.12788
5.3001,3624,-81.253,-0.13308
5.3051,3645,-48.669,-0.12471
5.3101,3646,-41.835,-0.12432
5.3151,3588,-97.506,-0.14771
5.3201,3665,-4.4754,-0.11685
5.3251,3664,-6.7405,-0.11724
5.3301,3617,-55.79,-0.1359
5.3351,3681,16.197,-0.11063
5.3401,3626,-44.188,-0.13228
5.3451,3595,-71.645,-0.14484
5.3501,3673,17.847,-0.11373
5.3551,3671,10.998,-0.11451
5.3601,3612,-53.153,-0.13792
5.3651,3676,18.589,-0.11257
5.3701,3677,14.645,-0.11218
5.3751,3670,3.3361,-0.1149
5.3801,3598,-73.26,-0.14361
5.3851,3628,-32.448,-0.13148
5.3901,3603,-55.443,-0.14157
5.3951,3572,-81.734,-0.15433
5.4001,3643,3.3553,-0.1255
5.4051,3672,30.05,-0.11412
5.4101,3676,27.219,-0.11257
5.4151,3612,-44.554,-0.13792
5.4201,3672,21.779,-0.11412
5.4251,3672,16.289,-0.11412
5.4301,3606,-56.001,-0.14035
5.4351,3653,-0.74527,-0.12155
5.4401,3649,-6.7595,-0.12313
5.4451,3624,-33.433,-0.13308
5.4501,3659,5.5892,-0.1192
5.4551,3731,73.793,-0.091633
5.4601,3710,39.806,-0.099537
5.4651,3648,-30.287,-0.12352
5.4701,3695,19.717,-0.10525
5.4751,3677,-3.1759,-0.11218
5.4801,3686,4.4061,-0.10871
5.4851,3681,-3.1376,-0.11063
5.4901,3684,-1.5184,-0.10948
5.4951,3723,35.183,-0.094631
5.5001,3712,17.132,-0.098779
5.5051,3727,27.242,-0.09313
5.5101,3724,18.313,-0.094255
5.5151,3705,-4.8047,-0.10144
5.5201,3634,-77.098,-0.12908
5.5251,3702,1.6794,-0.10258
5.5301,3729,25.978,-0.092381
5.5351,3730,21.139,-0.092006
5.5401,3722,8.3855,-0.095007
5.5451,3706,-10.206,-0.10106
5.5501,3694,-22.077,-0.10563
5.5551,3639,-75.654,-0.12709
5.5601,3636,-68.563,-0.12828
5.5651,3683,-12.022,-0.10986
5.5701,3627,-68.753,-0.13188
5.5751,3666,-19.991,-0.11646
5.5801,3691,6.2587,-0.10678
5.5851,3619,-69.638,-0.13509
5.5901,3683,4.5322,-0.10986
5.5951,3789,103.89,-0.070357
5.6001,3795,91.32,-0.068202
5.6051,3719,3.1777,-0.096136
5.6101,3774,53.556,-0.075783
5.6151,3772,41.661,-0.07651
5.6201,3683,-52.51,-0.10986
5.6251,3687,-41.84,-0.10832
5.6301,3724,-0.55993,-0.094255
5.6351,3669,-56.358,-0.11529
5.6401,3634,-84.727,-0.12908
5.6451,3707,0.20235,-0.10067
5.6501,3675,-33.241,-0.11296
5.6551,3629,-76.511,-0.13108
5.6601,3685,-9.5216,-0.10909
5.6651,3691,-3.8689,-0.10678
5.6701,3621,-76.037,-0.13429
5.6751,3628,-58.677,-0.13148
5.6801,3697,18.318,-0.10449
5.6851,3651,-32.53,-0.12234
5.6901,3628,-52.887,-0.13148
5.6951,3682,8.291,-0.11025
5.7001,3649,-28.183,-0.12313
5.7051,3632,-43.1,-0.12988
5.7101,3656,-13.751,-0.12037
5.7151,3681,11.582,-0.11063
5.7201,3608,-66.787,-0.13954
5.7251,3597,-69.835,-0.14402
5.7301,3654,-1.9049,-0.12116
5.7351,3641,-16.91,-0.1263
5.7401,3664,7.0742,-0.11724
5.7451,3724,63.249,-0.094255
5.7501,3719,46.483,-0.096136
5.7551,3648,-33.418,-0.12352
5.7601,3696,18.083,-0.10487
5.7651,3642,-40.93,-0.1259
5.7701,3559,-123.78,-0.15976
5.7751,3540,-127.03,-0.16778
5.7801,3646,3.0041,-0.12432
5.7851,3696,50.595,-0.10487
5.7901,3655,-0.46968,-0.12077
5.7951,3707,49.41,-0.10067
5.8001,3731,62.982,-0.091633
5.8051,3731,51.159,-0.091633
5.8101,3668,-20.799,-0.11568
5.8151,3704,16.404,-0.10182
5.8201,3692,0.16777,-0.1064
5.8251,3633,-61.236,-0.12948
5.8301,3695,9.0787,-0.10525
5.8351,3680,-9.0834,-0.11102
5.8401,3634,-56.102,-0.12908
5.8451,3656,-26.68,-0.12037
5.8501,3742,60.376,-0.087536
5.8551,3738,45.211,-0.089022
5.8601,3661,-39.529,-0.11841
5.8651,3709,12.641,-0.099916
5.8701,3697,-2.9109,-0.10449
5.8751,3634,-67.692,-0.12908
5.8801,3661,-31.32,-0.11841
5.8851,3685,-4.1678,-0.10909
5.8901,3631,-60.026,-0.13028
5.8951,3659,-23.856,-0.1192
5.9001,3731,49.147,-0.091633
5.9051,3739,47.276,-0.08865
5.9101,3664,-35.724,-0.11724
5.9151,3714,17.702,-0.098023
5.9201,3699,-1.5564,-0.10372
5.9251,3635,-67.489,-0.12868
5.9301,3697,3.7752,-0.10449
5.9351,3709,13.176,-0.099916
5.9401,3691,-8.3943,-0.10678
5.9451,3646,-54.091,-0.12432
5.9501,3702,8.7187,-0.10258
5.9551,3696,-0.35824,-0.10487
5.9601,3682,-15.969,-0.11025
5.9651,3721,23.125,-0.095383
5.9701,3746,41.815,-0.086053
5.9751,3714,2.6422,-0.098023
5.9801,3734,19.93,-0.090512
5.9851,3799,76.423,-0.066769
5.9901,3730,-2.3061,-0.092006
5.9951,3663,-69.628,-0.11763
6.0001,3658,-65.333,-0.11959
6.0051,3731,15.437,-0.091633
6.0101,3698,-20.823,-0.1041
6.0151,3678,-39.049,-0.11179
6.0201,3782,65.845,-0.072883
6.0251,3756,29.403,-0.082364
6.0301,3735,3.1411,-0.090139
6.0351,3803,65.102,-0.065341
6.0401,3777,29.24,-0.074694
6.0451,3747,-5.1598,-0.085683
6.0501,3804,47.648,-0.064984
6.0551,3784,20.256,-0.07216
6.0601,3730,-35.496,-0.092006
6.0651,3780,16.216,-0.073606
6.0701,3772,4.8266,-0.07651
6.0751,3758,-10.471,-0.081629
6.0801,3693,-73.096,-0.10602
6.0851,3769,10.35,-0.077603
6.0901,3787,24.186,-0.071078
6.0951,3720,-44.668,-0.095759
6.1001,3773,11.606,-0.076146
6.1051,3771,6.5408,-0.076874
6.1101,3749,-16.659,-0.084944
6.1151,3729,-34.582,-0.092381
6.1201,3826,60.294,-0.057197
6.1251,3835,57.635,-0.054042
6.1301,3841,52.724,-0.051949
6.1351,3835,37.845,-0.054042
6.1401,3828,24.429,-0.056494
6.1451,3758,-45.386,-0.081629
6.1501,3758,-39.375,-0.081629
6.1551,3800,4.9294,-0.066412
6.1601,3796,-0.69773,-0.067843
6.1651,3765,-30.697,-0.079064
6.1701,3761,-30.817,-0.080528
6.1751,3757,-30.952,-0.081996
6.1801,3716,-66.715,-0.097267
6.1851,3777,0.76818,-0.074694
6.1901,3798,18.902,-0.067127
6.1951,3734,-45.677,-0.090512
6.2001,3733,-40.734,-0.090885
6.2051,3804,31.212,-0.064984
6.2101,3809,29.613,-0.063205
6.2151,3774,-8.7531,-0.075783
6.2201,3843,54.696,-0.051253
6.2251,3844,45.806,-0.050906
6.2301,3792,-9.9455,-0.069279
6.2351,3787,-14.146,-0.071078
6.2401,3848,42.598,-0.049518
6.2451,3878,61.396,-0.039218
6.2501,3804,-15.78,-0.064984
6.2551,3856,32.744,-0.046752
6.2601,3853,23.94,-0.047788
6.2651,3790,-38.099,-0.069998
6.2701,3840,12.605,-0.052298
6.2751,3803,-24.003,-0.065341
6.2801,3763,-58.509,-0.079795
6.2851,3753,-59.807,-0.083468
6.2901,3798,-9.3024,-0.067127
6.2951,3811,3.0302,-0.062494
6.3001,3745,-60.287,-0.086423
6.3051,3794,-5.8254,-0.068561
6.3101,3797,-3.266,-0.067485
6.3151,3740,-57.548,-0.088278
6.3201,3756,-34.403,-0.082364
6.3251,3803,13.741,-0.065341
6.3301,3804,11.311,-0.064984
6.3351,3733,-58.489,-0.090885
6.3401,3819,30.086,-0.059663
6.3451,3838,41.377,-0.052995
6.3501,3785,-14.802,-0.071799
6.3551,3842,38.521,-0.051601
6.3601,3853,41.208,-0.047788
6.3651,3796,-18.086,-0.067843
6.3701,3844,27.425,-0.050906
6.3751,3840,18.497,-0.052298
6.3801,3822,-1.6847,-0.058604
6.3851,3753,-66.579,-0.083468
6.3901,3804,-9.4392,-0.064984
6.3951,3796,-16.385,-0.067843
6.4001,3737,-70.49,-0.089394
6.4051,3728,-69.194,-0.092755
6.4101,3769,-20.386,-0.077603
6.4151,3698,-86.777,-0.1041
6.4201,3719,-53.84,-0.096136
6.4251,3790,20.765,-0.069998
6.4301,3781,7.8098,-0.073244
6.4351,3759,-15.4,-0.081261
6.4401,3838,58.685,-0.052995
6.4451,3842,51.815,-0.051601
6.4501,3790,-4.9889,-0.069998
6.4551,3857,55.521,-0.046407
6.4601,3867,54.548,-0.042972
6.4651,3794,-21.117,-0.068561
6.4701,3839,22.234,-0.052646
6.4751,3859,35.595,-0.045718
6.4801,3797,-27.164,-0.067485
6.4851,3795,-25.733,-0.068202
6.4901,3858,34.443,-0.046063
6.4951,3860,29.822,-0.045374
6.5001,3778,-50.547,-0.074331
6.5051,3838,11.497,-0.052995
6.5101,3816,-11.224,-0.060723
6.5151,3753,-69.132,-0.083468
6.5201,3744,-67.866,-0.086794
6.5251,3805,-1.0691,-0.064628
6.5301,3748,-55.383,-0.085313
6.5351,3738,-57.378,-0.089022
6.5401,3806,14.342,-0.064272
6.5451,3801,6.3096,-0.066055
6.5501,3773,-21.889,-0.076146
6.5551,3798,3.6633,-0.067127
6.5601,3783,-11.997,-0.072521
6.5651,3740,-51.943,-0.088278
6.5701,3798,9.6137,-0.067127
6.5751,3786,-4.2214,-0.071438
6.5801,3836,41.053,-0.053693
6.5851,3798,-1.2253,-0.067127
6.5901,3838,34.309,-0.052995
6.5951,3820,11.517,-0.05931
6.6001,3778,-30.139,-0.074331
6.6051,3818,10.458,-0.060016
6.6101,3801,-7.8534,-0.066055
6.6151,3804,-4.9332,-0.064984
6.6201,3800,-8.919,-0.066412
6.6251,3802,-6.7504,-0.065698
6.6301,3814,4.2458,-0.061431
6.6351,3739,-67.744,-0.08865
6.6401,3790,-10.066,-0.069998
6.6451,3805,4.2438,-0.064628
6.6501,3741,-57.63,-0.087907
6.6551,3797,2.9776,-0.067485
6.6601,3802,5.9588,-0.065698
6.6651,3739,-55.369,-0.08865
6.6701,3734,-52.658,-0.090512
6.6751,3801,17.512,-0.066055
6.6801,3802,14.456,-0.065698
6.6851,3736,-51.139,-0.089767
6.6901,3792,8.55,-0.069279
6.6951,3802,15.221,-0.065698
6.7001,3735,-51.461,-0.090139
6.7051,3795,12.015,-0.068202
6.7101,3790,4.2628,-0.069998
6.7151,3733,-51.534,-0.090885
6.7201,3746,-32.206,-0.086053
6.7251,3839,57.804,-0.052646
6.7301,3838,46.587,-0.052995
6.7351,3777,-17.912,-0.074694
6.7401,3803,7.8772,-0.065341
6.7451,3778,-17.721,-0.074331
6.7501,3704,-87.033,-0.10182
6.7551,3756,-24.373,-0.082364
6.7601,3760,-18.009,-0.080895
6.7651,3694,-80.298,-0.10563
6.7701,3715,-48.388,-0.097645
6.7751,3800,38.451,-0.066412
6.7801,3736,-29.224,-0.089767
6.7851,3735,-26.948,-0.090139
6.7901,3801,38.074,-0.066055
6.7951,3779,10.32,-0.073969
6.8001,3727,-42.075,-0.09313
6.8051,3779,12.655,-0.073969
6.8101,3774,4.6519,-0.075783
6.8151,3697,-71.474,-0.10449
6.8201,3754,-6.4049,-0.0831
6.8251,3742,-18.223,-0.087536
6.8301,3684,-73.368,-0.10948
6.8351,3714,-33.71,-0.098023
6.8401,3789,41.523,-0.070357
6.8451,3761,7.3081,-0.080528
6.8501,3737,-18.136,-0.089394
6.8551,3792,35.219,-0.069279
6.8601,3784,20.863,-0.07216
6.8651,3704,-60.304,-0.10182
6.8701,3713,-43.393,-0.098401
6.8751,3707,-43.862,-0.10067
6.8801,3725,-20.886,-0.09388
6.8851,3761,15.384,-0.080528
6.8901,3782,31.239,-0.072883
6.8951,3781,23.975,-0.073244
6.9001,3731,-28.638,-0.091633
6.9051,3808,46.927,-0.06356
6.9101,3786,17.864,-0.071438
6.9151,3711,-57.806,-0.099158
6.9201,3769,5.5629,-0.077603
6.9251,3756,-8.9498,-0.082364
6.9301,3748,-16.504,-0.085313
6.9351,3699,-62.774,-0.10372
6.9401,3755,-0.13183,-0.082731
6.9451,3740,-15.833,-0.088278
6.9501,3694,-59.545,-0.10563
6.9551,3745,-2.0552,-0.086423
6.9601,3716,-31.178,-0.097267
6.9651,3706,-37.525,-0.10106
6.9701,3648,-91.12,-0.12352
6.9751,3721,-5.7343,-0.095383
6.9801,3695,-31.888,-0.10525
6.9851,3677,-46.369,-0.11218
6.9901,3742,22.892,-0.087536
6.9951,3699,-24.102,-0.10372
7.0001,3612,-110.19,-0.13792
7.0051,3661,-44.238,-0.11841
7.0101,3681,-18.963,-0.11063
7.0151,3620,-79.837,-0.13469
7.0201,3680,-8.0269,-0.11102
7.0251,3663,-25.665,-0.11763
7.0301,3598,-90.533,-0.14361
7.0351,3593,-83.498,-0.14565
7.0401,3660,-3.0626,-0.1188
7.0451,3613,-52.868,-0.13751
7.0501,3614,-45.545,-0.13711
7.0551,3674,20.881,-0.11334
7.0601,3692,33.475,-0.1064
7.0651,3614,-53.048,-0.13711
7.0701,3662,2.531,-0.11802
7.0751,3660,-1.909,-0.1188
7.0801,3718,53.916,-0.096513
7.0851,3640,-34.407,-0.12669
7.0901,3610,-62.011,-0.13873
7.0951,3591,-74.261,-0.14647
7.1001,3523,-138.39,-0.17505
7.1051,3602,-33.454,-0.14198
7.1101,3587,-46.268,-0.14812
7.1151,3554,-76.7,-0.16186
7.1201,3581,-37.881,-0.15059
7.1251,3669,56.856,-0.11529
7.1302,3637,13.117,-0.12788
7.1351,3611,-18.131,-0.13832
7.1401,3693,65.853,-0.10602
7.1451,3651,11.182,-0.12234
7.1501,3615,-29.791,-0.1367
7.1551,3695,53.923,-0.10525
7.1601,3637,-15.077,-0.12788
7.1651,3626,-26.131,-0.13228
7.1701,3716,66.242,-0.097267
7.1751,3699,37.134,-0.10372
7.1801,3671,1.4711,-0.11451
7.1851,3700,28.116,-0.10334
7.1902,3656,-22.188,-0.12037
7.1951,3596,-82.698,-0.14443
7.2002,3612,-54.872,-0.13792
7.2052,3682,23.141,-0.11025
7.2102,3629,-36.265,-0.13108
7.2152,3635,-26.4,-0.12868
7.2202,3743,82.87,-0.087165
7.2252,3695,21.202,-0.10525
7.2302,3669,-9.9522,-0.11529
7.2351,3693,13.642,-0.10602
7.2402,3623,-61.273,-0.13348
7.2452,3592,-86.031,-0.14607
7.2502,3668,3.9368,-0.11568
7.2552,3671,4.3431,-0.11451
7.2602,3618,-52.469,-0.13549
7.2652,3714,50.491,-0.098023
7.2702,3742,67.662,-0.087536
7.2752,3720,33.92,-0.095759
7.2802,3686,-6.6505,-0.10871
7.2852,3655,-38.544,-0.12077
7.2902,3646,-43.473,-0.12432
7.2952,3626,-59.053,-0.13228
7.3002,3747,68.585,-0.085683
7.3052,3763,71.145,-0.079795
7.3102,3769,63.85,-0.077603
7.3152,3782,64.307,-0.072883
7.3202,3781,51.652,-0.073244
7.3252,3779,40.119,-0.073969
7.3302,3768,21.999,-0.077968
7.3352,3839,82.444,-0.052646
7.3402,3814,45.437,-0.061431
7.3452,3769,-4.7544,-0.077603
7.3502,3819,41.006,-0.059663
7.3552,3811,25.999,-0.062494
7.3602,3749,-37.243,-0.084944
7.3652,3666,-113.95,-0.11646
7.3702,3706,-57.604,-0.10106
7.3752,3722,-34.323,-0.095007
7.3802,3746,-7.2339,-0.086053
7.3852,3794,37.631,-0.068561
7.3902,3795,31.257,-0.068202
7.3952,3779,10.119,-0.073969
7.4002,3802,28.559,-0.065698
7.4052,3854,69.905,-0.047442
7.4102,3773,-16.382,-0.076146
7.4152,3758,-29.156,-0.081629
7.4202,3818,29.992,-0.060016
7.4252,3789,-2.609,-0.070357
7.4302,3743,-46.759,-0.087165
7.4352,3800,12.943,-0.066412
7.4402,3827,34.396,-0.056845
7.4452,3785,-10.773,-0.071799
7.4502,3813,15.609,-0.061785
7.4552,3852,47.25,-0.048133
7.4602,3770,-36.391,-0.077239
7.4652,3755,-45.95,-0.082731
7.4702,3812,13.281,-0.06214
7.4752,3746,-51.66,-0.086053
7.4802,3735,-55.249,-0.090139
7.4852,3806,18.988,-0.064272
7.4902,3789,-0.90671,-0.070357
7.4952,3733,-54.938,-0.090885
7.5002,3735,-45.602,-0.090139
7.5052,3805,26.144,-0.064628
7.5102,3744,-36.427,-0.086794
7.5152,3789,10.458,-0.070357
7.5202,3831,46.054,-0.055442
7.5252,3792,1.8921,-0.069279
7.5302,3802,9.6484,-0.065698
7.5352,3845,46.033,-0.050559
7.5402,3778,-23.687,-0.074331
7.5452,3818,15.858,-0.060016
7.5502,3805,0.34935,-0.064628
7.5552,3796,-9.1058,-0.067843
7.5602,3755,-47.201,-0.082731
7.5652,3804,4.8922,-0.064984
7.5702,3843,38.429,-0.051253
7.5752,3800,-7.8303,-0.066412
7.5802,3839,27.847,-0.052646
7.5852,3887,64.947,-0.036166
7.5902,3855,25.534,-0.047097
7.5952,3894,54.879,-0.033804
7.6002,3831,-10.487,-0.055442
7.6052,3920,68.535,-0.025122
7.6102,3817,-34.036,-0.060369
7.6152,3891,36.44,-0.034815
7.6202,3896,34.255,-0.033131
7.6252,3853,-9.7194,-0.047788
7.6302,3905,36.668,-0.030114
7.6352,3923,45.625,-0.024129
7.6402,3854,-22.392,-0.047442
7.6452,3918,36.348,-0.025785
7.6502,3908,21.399,-0.029112
7.6552,3856,-28.114,-0.046752
7.6602,3894,9.092,-0.033804
7.6652,3918,27.733,-0.025785
7.6702,3891,-0.53279,-0.034815
7.6752,3857,-30.957,-0.046407
7.6802,3942,46.917,-0.017885
7.6852,3953,48.209,-0.014303
7.6902,3905,-0.69907,-0.030114
7.6952,3995,74.435,-0.000849
7.7002,4008,72.855,0.003245
7.7052,3955,17.417,-0.013655
7.7102,4023,70.054,0.007929
7.7152,4009,47.489,0.003559
7.7202,3985,20.245,-0.004021
7.7252,4013,39.674,0.004811
7.7302,4004,26.004,0.001989
7.7352,3994,13.657,-0.001166
7.7402,3953,-22.497,-0.014303
7.7452,4000,19.726,0.000729
7.7502,3987,5.9034,-0.003385
7.7552,4000,15.503,0.000729
7.7602,3999,12.175,0.000414
7.7652,4006,15.884,0.002617
7.7702,4029,31.855,0.009791
7.7752,3960,-29.508,-0.012037
7.7802,4041,40.992,0.013494
7.7852,4017,15.354,0.006061
7.7902,3961,-32.922,-0.011714
7.7952,4014,15.704,0.005124
7.8002,3994,-3.0025,-0.001166
7.8052,3964,-27.26,-0.010746
7.8102,4009,13.921,0.003559
7.8152,4023,22.993,0.007929
7.8202,4016,13.752,0.005749
7.8252,3956,-37.636,-0.013331
7.8302,4019,19.931,0.006684
7.8352,4009,8.7287,0.003559
7.8402,3961,-32.052,-0.011714
7.8452,4012,14.817,0.004499
7.8502,4023,21.333,0.007929
7.8552,3956,-36.881,-0.013331
7.8602,4025,25.38,0.008551
7.8652,4036,30.173,0.011955
7.8702,3979,-20.711,-0.005934
7.8752,3979,-17.436,-0.005934
7.8802,4037,32.27,0.012263
7.8852,3966,-30.504,-0.010102
7.8902,3986,-9.189,-0.003703
7.8952,4040,35.839,0.013187
7.9002,4021,15.046,0.007307
7.9052,3965,-33.046,-0.010424
7.9102,4026,21.937,0.008861
7.9152,4019,12.894,0.006684
7.9202,3961,-36.579,-0.011714
7.9252,4031,26.286,0.01041
7.9302,4016,10.147,0.005749
7.9352,3962,-35.647,-0.011391
7.9402,4027,23.041,0.009171
7.9452,4030,21.84,0.010101
7.9502,3971,-29.543,-0.008495
7.9552,4028,21.524,0.009481
7.9602,4022,13.369,0.007618
7.9652,4017,7.2991,0.006061
7.9702,3958,-42.166,-0.012683
7.9752,4006,3.9822,0.002617
7.9802,4004,1.7553,0.001989
7.9852,3969,-27.212,-0.009137
7.9902,4045,38.65,0.014723
7.9952,4074,55.359,0.023541
8.0002,4032,13.644,0.010719
8.0052,4007,-8.4987,0.002931
8.0102,4020,3.4272,0.006996
8.0152,3939,-63.762,-0.018866
8.0202,3954,-41.076,-0.013979
8.0252,4031,28.33,0.01041
8.0302,4002,0.52911,0.001359
8.0352,3973,-23.312,-0.007853
8.0402,4040,34.659,0.013187
8.0452,4022,14.862,0.007618
8.0502,3951,-45.687,-0.014953
8.0552,3985,-10.28,-0.004021
8.0602,3991,-3.7551,-0.002116
8.0652,4018,18.73,0.006373
8.0702,3985,-11.042,-0.004021
8.0752,3999,2.137,0.000414
8.0802,3985,-9.6514,-0.004021
8.0852,3921,-61.754,-0.024791
8.0902,3979,-3.4383,-0.005934
8.0952,3994,9.3275,-0.001166
8.1002,3980,-3.695,-0.005614
8.1052,3998,11.557,9.8e-05
8.1102,3993,5.5952,-0.001482
8.1152,3924,-52.942,-0.023799
8.1202,3988,8.7908,-0.003068
8.1252,3992,10.58,-0.001799
8.1302,3980,-1.0228,-0.005614
8.1352,3962,-15.861,-0.011391
8.1402,3955,-19.312,-0.013655
8.1452,3899,-64.065,-0.032124
8.1502,3896,-56.769,-0.033131
8.1552,3949,-2.8378,-0.015603
8.1602,3910,-35.785,-0.028445
8.1652,3868,-67.047,-0.04263
8.1702,3911,-19.372,-0.028112
8.1752,3866,-55.931,-0.043315
8.1802,3867,-46.667,-0.042972
8.1852,3907,-4.8788,-0.029446
8.1902,3885,-23.677,-0.036843
8.1952,3864,-38.917,-0.044
8.2002,3923,17.965,-0.024129
8.2052,3918,10.354,-0.025785
8.2102,3864,-38.786,-0.044
8.2152,3916,12.089,-0.026449
8.2202,3897,-6.712,-0.032795
8.2252,3850,-47.548,-0.048825
8.2302,3842,-47.793,-0.051601
8.2352,3866,-19.492,-0.043315
8.2402,3799,-77.588,-0.066769
8.2452,3800,-65.154,-0.066412
8.2502,3843,-16.539,-0.051253
8.2552,3805,-49.233,-0.064628
8.2602,3793,-53.384,-0.068919
8.2652,3862,16.69,-0.044687
8.2702,3784,-57.698,-0.07216
8.2752,3742,-89.204,-0.087536
8.2802,3797,-24.402,-0.067485
8.2852,3829,7.7023,-0.056143
8.2902,3790,-30.266,-0.069998
8.2952,3796,-20.963,-0.067843
8.3002,3838,19.625,-0.052995
8.3052,3777,-40.479,-0.074694
8.3102,3761,-50.209,-0.080528
8.3152,3815,6.8096,-0.061077
8.3202,3765,-41.763,-0.079064
8.3252,3830,23.763,-0.055792
8.3302,3835,23.459,-0.054042
8.3352,3835,18.716,-0.054042
8.3402,3773,-42.305,-0.076146
8.3452,3840,24.851,-0.052298
8.3502,3835,15.408,-0.054042
8.3552,3774,-44.135,-0.075783
8.3602,3841,23.285,-0.051949
8.3652,3835,13.205,-0.054042
8.3702,3775,-45.041,-0.07542
8.3752,3797,-18.503,-0.067485
8.3802,3803,-11.099,-0.065341
8.3852,3732,-77.296,-0.091259
8.3902,3719,-78.835,-0.096136
8.3952,3784,-5.738,-0.07216
8.4002,3821,28.048,-0.058957
8.4052,3766,-28.478,-0.078698
8.4102,3838,41.166,-0.052995
8.4152,3847,41.634,-0.049864
8.4202,3788,-19.821,-0.070717
8.4252,3842,31.546,-0.051601
8.4302,3839,22.83,-0.052646
8.4352,3783,-33.084,-0.072521
8.4402,3840,23.273,-0.052298
8.4452,3851,28.447,-0.048479
8.4502,3840,13.13,-0.052298
8.4552,3786,-39.302,-0.071438
8.4602,3867,39.362,-0.042972
8.4652,3829,-1.7794,-0.056143
8.4702,3789,-39.131,-0.070357
8.4752,3860,30.532,-0.045374
8.4802,3894,54.646,-0.033804
8.4852,3847,3.7134,-0.049864
8.4902,3889,39.36,-0.03549
8.4952,3906,47.08,-0.02978
8.5002,3828,-30.05,-0.056494
8.5052,3864,6.1341,-0.044
8.5102,3899,35.04,-0.032124
8.5152,3914,41.714,-0.027113
8.5202,3887,11.088,-0.036166
8.5252,3898,18.233,-0.032459
8.5302,3917,31.08,-0.026117
8.5352,3856,-27.69,-0.046752
8.5402,3898,12.918,-0.032459
8.5452,3910,20.622,-0.028445
8.5502,3852,-34.038,-0.048133
8.5552,3901,13.743,-0.031453
8.5602,3922,29.017,-0.02446
8.5652,3855,-34.554,-0.047097
8.5702,3861,-24.389,-0.045031
8.5752,3959,63.144,-0.01236
8.5802,3940,36.693,-0.018539
8.5852,3908,3.1083,-0.029112
8.5902,3964,49.509,-0.010746
8.5952,3904,-9.5956,-0.030448
8.6002,3866,-41.757,-0.043315
8.6052,3921,12.122,-0.024791
8.6102,3888,-18.762,-0.035828
8.6152,3855,-45.398,-0.047097
8.6202,3933,28.987,-0.020834
8.6252,3976,59.89,-0.006893
8.6302,3909,-6.4759,-0.028778
8.6352,3979,53.052,-0.005934
8.6402,3964,31.883,-0.010746
8.6452,3917,-13.169,-0.026117
8.6502,3967,30.699,-0.00978
8.6552,3974,31.329,-0.007533
8.6602,3915,-23.585,-0.026781
8.6652,3914,-21.054,-0.027113
8.6702,3958,19.161,-0.012683
8.6752,3880,-50.91,-0.038538
8.6802,3919,-9.4947,-0.025453
8.6852,3945,13.682,-0.016906
8.6902,3903,-24.653,-0.030783
8.6952,3946,15.501,-0.01658
8.7002,3970,32.731,-0.008816
8.7052,3960,18.933,-0.012037
8.7102,3905,-31.015,-0.030114
8.7152,3992,46.61,-0.001799
8.7202,4012,55.235,0.004499
8.7252,3955,-0.54507,-0.013655
8.7302,4012,46.165,0.004499
8.7352,4007,34.672,0.002931
8.7402,3936,-29.726,-0.019849
8.7452,3987,17.275,-0.003385
8.7502,3965,-3.7647,-0.010424
8.7552,3881,-75.016,-0.038199
8.7602,3872,-71.345,-0.041262
8.7652,3971,24.157,-0.008495
8.7702,3933,-11.772,-0.020834
8.7752,3944,-0.91149,-0.017232
8.7802,4011,54.222,0.004185
8.7852,4002,38.161,0.001359
8.7902,3935,-23.621,-0.020177
8.7952,3992,27.32,-0.001799
8.8002,4021,46.339,0.007307
8.8052,3967,-5.1919,-0.00978
8.8102,4032,48.397,0.010719
8.8152,4030,39.093,0.010101
8.8202,3961,-23.41,-0.011714
8.8252,4006,17.195,0.002617
8.8302,4006,14.437,0.002617
8.8352,3966,-20.7,-0.010102
8.8402,4013,20.993,0.004811
8.8452,4020,23.291,0.006996
8.8502,3969,-22.025,-0.009137
8.8552,3951,-33.601,-0.014953
8.8602,4019,27.467,0.006684
8.8652,4030,31.921,0.010101
8.8702,3961,-29.413,-0.011714
8.8752,4011,16.218,0.004185
8.8802,4015,16.874,0.005436
8.8852,3958,-32.551,-0.012683
8.8902,4015,19.306,0.005436
8.8952,4021,21.08,0.007307
8.9002,3960,-32.158,-0.012037
8.9052,4015,17.977,0.005436
8.9102,4029,26.379,0.009791
8.9152,3967,-28.267,-0.00978
8.9202,4020,19.472,0.006996
8.9252,4025,20.43,0.008551
8.9302,3969,-28.406,-0.009137
8.9352,3999,0.71937,0.000414
8.9402,4028,24.012,0.009481
8.9452,3957,-37.783,-0.013007
8.9502,3957,-31.845,-0.013007
8.9552,4017,22.338,0.006061
8.9602,3955,-32.086,-0.013655
8.9652,3956,-26.252,-0.013331
8.9702,4013,24.625,0.004811
8.9752,4018,24.723,0.006373
8.9802,3959,-27.547,-0.01236
8.9852,4018,25.082,0.006373
8.9902,4009,13.839,0.003559
8.9952,3954,-33.621,-0.013979
9.0002,4018,24.149,0.006373
9.0052,4015,17.905,0.005436
9.0102,3951,-37.546,-0.014953
9.0152,4003,11.234,0.001674
9.0202,4010,15.104,0.003872
9.0252,3955,-32.529,-0.013655
9.0302,4003,12.105,0.001674
9.0352,4017,21.482,0.006061
9.0402,3954,-33.639,-0.013979
9.0452,3956,-26.72,-0.013331
9.0502,4028,36.286,0.009481
9.0552,3963,-22.506,-0.011068
9.0602,3962,-19.858,-0.011391
9.0652,4030,38.655,0.010101
9.0702,3962,-22.944,-0.011391
9.0752,3957,-23.569,-0.013007
9.0802,4032,41.29,0.010719
9.0852,4004,12.208,0.001989
9.0902,3960,-25.948,-0.012037
9.0952,4022,28.807,0.007618
9.1002,4011,15.38,0.004185
9.1052,3953,-34.775,-0.014303
9.1102,4030,33.637,0.010101
9.1152,4013,14.674,0.004811
9.1202,3957,-33.625,-0.013007
9.1252,4022,24.869,0.007618
9.1302,4018,17.729,0.006373
9.1352,3955,-36.743,-0.013655
9.1402,4024,25.525,0.00824
9.1452,4020,18.293,0.006996
9.1502,4007,4.9394,0.002931
9.1552,3974,-22.824,-0.007533
9.1602,4016,15.048,0.005749
9.1652,4016,12.693,0.005749
9.1702,3984,-15.316,-0.004339
9.1752,4039,31.548,0.012879
9.1802,4076,55.697,0.024143
9.1852,4074,45.474,0.023541
9.1902,4128,79.801,0.039557
9.1952,4148,82.443,0.04536
9.2002,4098,31.997,0.030723
9.2052,4189,95.24,0.057044
9.2102,4206,92.979,0.061808
9.2152,4217,86.764,0.064864
9.2202,4232,84.402,0.069002
9.2252,4221,63.996,0.065971
9.2302,4237,66.047,0.070373
9.2352,4222,45.83,0.066248
9.2402,4232,46.595,0.069002
9.2452,4232,40.173,0.069002
9.2502,4234,36.214,0.069551
9.2552,4233,30.786,0.069276
9.2602,4251,39.63,0.074191
9.2652,4250,33.73,0.073919
9.2702,4238,21.042,0.070647
9.2752,4235,16.692,0.069825
9.2802,4235,15.159,0.069825
9.2852,4187,-20.566,0.056481
9.2902,4268,41.316,0.078786
9.2952,4236,13.499,0.070099
9.3002,4183,-25.571,0.055352
9.3052,4270,41.409,0.079324
9.3102,4237,12.905,0.070373
9.3152,4186,-24.585,0.056199
9.3202,4247,24.008,0.073103
9.3252,4259,29.741,0.076359
9.3302,4192,-21.482,0.057888
9.3352,4248,22.976,0.073375
9.3402,4244,17.666,0.072286
9.3452,4192,-21.144,0.057888
9.3502,4253,26.765,0.074734
9.3552,4240,14.535,0.071194
9.3602,4183,-27.511,0.055352
9.3652,4173,-29.4,0.052518
9.3702,4242,25.897,0.07174
9.3752,4190,-14.308,0.057326
9.3802,4172,-24.144,0.052234
9.3852,4171,-20.055,0.051949
9.3902,4192,-0.57391,0.057888
9.3952,4158,-24.409,0.048236
9.4002,4211,19.01,0.063199
9.4052,4172,-11.316,0.052234
9.4102,4150,-24.837,0.045937
9.4152,4214,26.698,0.064033
9.4202,4151,-22.527,0.046225
9.4252,4108,-50.434,0.033685
9.4302,4161,-1.8668,0.049095
9.4352,4153,-6.6519,0.0468
9.4402,4087,-54.731,0.027444
9.4452,4151,3.1302,0.046225
9.4502,4157,7.8567,0.047949
9.4552,4096,-38.604,0.030128
9.4602,4152,10.488,0.046513
9.4652,4172,24.336,0.052234
9.4702,4166,16.845,0.050525
9.4752,4116,-22.42,0.036043
9.4802,4149,6.6406,0.045649
9.4852,4162,15.969,0.049382
9.4902,4105,-28.595,0.032798
9.4952,4153,12.762,0.0468
9.5002,4144,4.7792,0.044205
9.5052,4101,-27.747,0.031614
9.5102,4132,0.82568,0.040723
9.5152,4147,12.606,0.045072
9.5202,4094,-28.787,0.029533
9.5252,4164,29.112,0.049953
9.5302,4146,11.871,0.044783
9.5352,4088,-33.283,0.027743
9.5402,4156,24.025,0.047662
9.5452,4145,12.743,0.044494
9.5502,4093,-27.961,0.029235
9.5552,4151,20.943,0.046225
9.5602,4139,9.3663,0.042757
9.5652,4135,5.5693,0.041596
9.5702,4128,0.10644,0.039557
9.5752,4125,-1.5003,0.038681
9.5802,4131,3.9216,0.040432
9.5852,4091,-26.469,0.028639
9.5902,4140,15.521,0.043047
9.5952,4145,17.457,0.044494
9.6002,4004,-94.338,0.001989
9.6052,3967,-109.3,-0.00978
9.6102,3910,-139.83,-0.028445
9.6152,3800,-215.51,-0.066412
9.6202,3841,-144.18,-0.051949
9.6252,3825,-136.02,-0.057548
9.6302,3787,-149.74,-0.071078
9.6352,3768,-144.33,-0.077968
9.6402,3761,-128.73,-0.080528
9.6452,3757,-112.91,-0.081996
9.6502,3749,-103.51,-0.084944
9.6552,3720,-115.99,-0.095759
9.6602,3725,-93.864,-0.09388
9.6652,3709,-95.739,-0.099916
9.6702,3709,-81.832,-0.099916
9.6752,3700,-79.028,-0.10334
9.6802,3687,-80.759,-0.10832
9.6852,3711,-45.789,-0.099158
9.6902,3660,-90.717,-0.1188
9.6952,3626,-112.73,-0.13228
9.7002,3689,-32.781,-0.10755
9.7052,3653,-65.405,-0.12155
9.7102,3626,-84.491,-0.13228
9.7152,3674,-24.101,-0.11334
9.7202,3638,-58.602,-0.12749
9.7252,3606,-84.414,-0.14035
9.7302,3653,-24.527,-0.12155
9.7352,3596,-81.631,-0.14443
9.7402,3616,-49.807,-0.1363
9.7452,3691,32.178,-0.10678
9.7502,3642,-24.221,-0.1259
9.7552,3606,-59.709,-0.14035
9.7602,3663,6.2763,-0.11763
9.7652,3610,-51.196,-0.13873
9.7702,3563,-95.159,-0.15808
9.7752,3610,-32.386,-0.13873
9.7802,3564,-78.335,-0.15766
9.7852,3589,-41.497,-0.1473
9.7902,3693,69.308,-0.10602
9.7952,3665,28.25,-0.11685
9.8002,3607,-37.949,-0.13994
9.8052,3689,49.461,-0.10755
9.8102,3691,41.553,-0.10678
9.8152,3648,-10.245,-0.12352
9.8202,3770,108.79,-0.077239
9.8252,3784,102.85,-0.07216
9.8302,3717,21.032,-0.09689
9.8352,3768,64.794,-0.077968
9.8402,3755,40.612,-0.082731
9.8452,3760,37.327,-0.080895
9.8502,3711,-17.27,-0.099158
9.8552,3685,-41.776,-0.10909
9.8602,3592,-132.25,-0.14607
9.8652,3609,-95.284,-0.13913
9.8702,3683,-6.5717,-0.10986
9.8752,3620,-71.445,-0.13469
9.8802,3644,-37.359,-0.12511
9.8852,3734,55.891,-0.090512
9.8902,3673,-14.69,-0.11373
9.8952,3665,-22.27,-0.11685
9.9002,3715,28.937,-0.097645
9.9052,3707,14.74,-0.10067
9.9102,3635,-61.658,-0.12868
9.9152,3689,0.74107,-0.10755
9.9202,3693,2.7541,-0.10602
9.9252,3630,-63.146,-0.13068
9.9302,3707,22.36,-0.10067
9.9352,3718,27.746,-0.096513
9.9402,3664,-31.911,-0.11724
9.9452,3725,31.587,-0.09388
9.9502,3728,27.745,-0.092755
9.9552,3720,13.892,-0.095759
9.9602,3753,41.724,-0.083468
9.9652,3779,58.022,-0.073969
9.9702,3791,58.484,-0.069638
9.9752,3751,10.169,-0.084205
9.9802,3796,49.31,-0.067843
9.9852,3804,47.499,-0.064984
9.9902,3726,-34.96,-0.093505
9.9952,3771,12.072,-0.076874
10,3767,5.0327,-0.078333
10.005,3710,-51.846,-0.099537
10.01,3831,68.721,-0.055442
10.015,3809,36.542,-0.063205
10.02,3782,4.5316,-0.072883
10.025,3857,70.887,-0.046407
10.03,3827,31.603,-0.056845
10.035,3791,-7.5325,-0.069638
10.04,3883,75.407,-0.03752
10.045,3872,52.819,-0.041262
10.05,3850,23.99,-0.048825
10.055,3895,58.886,-0.033468
10.06,3898,51.321,-0.032459
10.065,3838,-10.598,-0.052995
10.07,3876,24.03,-0.039899
10.075,3891,32.555,-0.034815
10.08,3835,-22.968,-0.054042
10.085,3885,24.248,-0.036843
10.09,3878,13.539,-0.039218
10.095,3828,-33.923,-0.056494
10.1,3866,4.6619,-0.043315
10.105,3887,21.616,-0.036166
10.11,3898,27.045,-0.032459
10.115,3871,-1.5175,-0.041604
10.12,3896,19.89,-0.033131
10.125,3926,41.877,-0.023138
10.13,3801,-76.109,-0.066055
10.135,3902,25.346,-0.031118
10.14,3918,34.449,-0.025785
10.145,3858,-23.941,-0.046063
10.15,3921,34.081,-0.024791
10.155,3964,64.354,-0.010746
10.16,3902,1.1019,-0.031118
10.165,3960,49.642,-0.012037
10.17,3929,15.244,-0.022149
10.175,3925,8.9784,-0.023469
10.18,3918,1.1373,-0.025785
10.185,3939,18.372,-0.018866
10.19,3960,32.683,-0.012037
10.195,3958,25.482,-0.012683
10.2,3956,19.442,-0.013331
10.205,3957,16.882,-0.013007
10.21,3902,-32.835,-0.031118
10.215,3952,14.548,-0.014628
10.22,3965,22.779,-0.010424
10.225,3908,-29.345,-0.029112
10.23,4003,54.402,0.001674
10.235,4010,51.236,0.003872
10.24,3950,-6.4754,-0.015278
10.245,4000,35.634,0.000729
10.25,4017,43.599,0.006061
10.255,3959,-10.948,-0.01236
10.26,3969,-1.0554,-0.009137
10.265,3980,8.0527,-0.005614
10.27,3995,18.943,-0.000849
10.275,3999,19.102,0.000414
10.28,3992,10.284,-0.001799
10.285,4003,17.541,0.001674
10.29,3928,-47.629,-0.022479
10.295,3966,-8.3019,-0.010102
10.3,3953,-17.965,-0.014303
10.305,3886,-72.581,-0.036504
10.31,3946,-9.9449,-0.01658
10.315,3955,-1.0563,-0.013655
10.32,3896,-51.386,-0.033131
10.325,3942,-4.2219,-0.017885
10.33,3912,-29.373,-0.027779
10.335,3827,-100.08,-0.056845
10.34,3814,-96.567,-0.061431
10.345,3831,-66.414,-0.055442
10.35,3806,-79.321,-0.064272
10.355,3760,-110.39,-0.080895
10.36,3771,-83.394,-0.076874
10.365,3762,-79.591,-0.080161
10.37,3734,-94.696,-0.090512
10.375,3796,-22.291,-0.067843
10.38,3818,0.39235,-0.060016
10.385,3789,-27.384,-0.070357
10.39,3857,37.699,-0.046407
10.395,3795,-25.487,-0.068202
10.4,3856,32.87,-0.046752
10.405,3847,18.684,-0.049864
10.41,3781,-45.553,-0.073244
10.415,3820,-3.4068,-0.05931
10.42,3821,-2.9493,-0.058957
10.425,3755,-64.833,-0.082731
10.43,3815,0.21936,-0.061077
10.435,3798,-16.471,-0.067127
10.44,3693,-115.3,-0.10602
10.445,3693,-98.308,-0.10602
10.45,3683,-94.011,-0.10986
10.455,3697,-66.678,-0.10449
10.46,3697,-57.586,-0.10449
10.465,3721,-26.483,-0.095383
10.47,3712,-32.554,-0.098779
10.475,3696,-44.64,-0.10487
10.48,3713,-22.457,-0.098401
10.485,3705,-28.3,-0.10144
10.49,3671,-59.158,-0.11451
10.495,3679,-43.453,-0.11141
10.5,3644,-73.622,-0.12511
10.505,3741,32.263,-0.087907
10.51,3746,30.294,-0.086053
10.515,3676,-44.543,-0.11257
10.52,3668,-47.222,-0.11568
10.525,3711,1.1475,-0.099158
10.53,3646,-65.655,-0.12432
10.535,3681,-21.756,-0.11063
10.54,3668,-33.11,-0.11568
10.545,3602,-97.556,-0.14198
10.55,3587,-99.922,-0.14812
10.555,3606,-66.099,-0.14035
10.56,3578,-87.355,-0.15184
10.565,3591,-61.863,-0.14647
10.57,3637,-6.2889,-0.12788
10.575,3631,-13.612,-0.13028
10.58,3622,-22.916,-0.13388
10.585,3652,9.3521,-0.12195
10.59,3638,-8.5455,-0.12749
10.595,3623,-24.792,-0.13348
10.6,3671,25.946,-0.11451
10.605,3615,-37.511,-0.1367
10.61,3671,23.561,-0.11451
10.615,3674,20.782,-0.11334
10.62,3615,-44.822,-0.1367
10.625,3677,23.452,-0.11218
10.63,3688,28.68,-0.10794
10.635,3678,12.212,-0.11179
10.64,3619,-51.807,-0.13509
10.645,3703,39.242,-0.1022
10.65,3723,50.633,-0.094631
10.655,3697,15.338,-0.10449
10.66,3731,44.233,-0.091633
10.665,3729,33.535,-0.092381
10.67,3678,-23.607,-0.11179
10.675,3731,30.376,-0.091633
10.68,3778,68.523,-0.074331
10.685,3723,3.696,-0.094631
10.69,3775,51.069,-0.07542
10.695,3784,49.875,-0.07216
10.7,3733,-7.8112,-0.090885
10.705,3772,29.019,-0.07651
10.71,3783,33.284,-0.072521
10.715,3705,-48,-0.10144
10.72,3757,8.2712,-0.081996
10.725,3798,43.905,-0.067127
10.73,3813,49.396,-0.061785
10.735,3807,34.795,-0.063916
10.74,3821,40.835,-0.058957
10.745,3828,39.534,-0.056494
10.75,3790,-2.7235,-0.069998
10.755,3812,16.812,-0.06214
10.76,3873,67.78,-0.040921
10.765,3851,36.53,-0.048479
10.77,3887,61.53,-0.036166
10.775,3888,51.758,-0.035828
10.78,3878,33.963,-0.039218
10.785,3867,18.072,-0.042972
10.79,3916,57.042,-0.026449
10.795,3895,29.178,-0.033468
10.8,3961,80.001,-0.011714
10.805,3936,45.765,-0.019849
10.81,3884,-6.7683,-0.037182
10.815,3933,35.897,-0.020834
10.82,3928,25.445,-0.022479
10.825,3963,50.366,-0.011068
10.83,3898,-13.242,-0.032459
10.835,3954,36.063,-0.013979
10.84,3934,13.103,-0.020505
10.845,3965,36.639,-0.010424
10.85,3978,41.254,-0.006253
10.855,3963,21.995,-0.011068
10.86,3902,-33.526,-0.031118
10.865,3954,15.645,-0.013979
10.87,4006,55.692,0.002617
10.875,3950,0.47186,-0.015278
10.88,4012,51.177,0.004499
10.885,4047,70.883,0.015336
10.89,4020,38.065,0.006996
10.895,4074,74.681,0.023541
10.9,4040,36.185,0.013187
10.905,3959,-35.425,-0.01236
10.91,3989,-5.0581,-0.00275
10.915,3979,-12.497,-0.005934
10.92,3975,-13.862,-0.007213
10.925,3934,-46.033,-0.020505
10.93,3920,-50.795,-0.025122
10.935,3947,-20.053,-0.016254
10.94,3909,-49.386,-0.028778
10.945,3964,4.7159,-0.010746
10.95,3929,-25.668,-0.022149
10.955,3876,-67.672,-0.039899
10.96,3941,-1.3453,-0.018212
10.965,3920,-19.271,-0.025122
10.97,3903,-31.168,-0.030783
10.975,3960,21.773,-0.012037
10.98,3899,-33.825,-0.032124
10.985,3933,0.28214,-0.020834
10.99,3978,37.514,-0.006253
10.995,3906,-29.429,-0.02978
11,3899,-31.188,-0.032124
11.005,3931,0.79201,-0.021491
11.01,3870,-52.496,-0.041946
11.015,3962,34.21,-0.011391
11.02,3967,32.598,-0.00978
11.025,3905,-25.364,-0.030114
11.03,3897,-28.662,-0.032795
11.035,3935,8.0203,-0.020177
11.04,3867,-52.464,-0.042972
11.045,3914,-3.7114,-0.027113
11.05,3922,3.2803,-0.02446
11.055,3854,-56.987,-0.047442
11.06,3847,-54.757,-0.049864
11.065,3904,3.4342,-0.030448
11.07,3829,-63.961,-0.056143
11.075,3891,0.55678,-0.034815
11.08,3880,-9.7353,-0.038538
11.085,3826,-56.96,-0.057197
11.09,3801,-71.511,-0.066055
11.095,3840,-25.47,-0.052298
11.1,3813,-46.695,-0.061785
11.105,3764,-85.674,-0.079429
11.11,3844,0.55962,-0.050906
11.115,3832,-11.2,-0.055092
11.12,3786,-52.502,-0.071438
11.125,3838,2.4441,-0.052995
11.13,3839,2.0448,-0.052646
11.135,3763,-69.256,-0.079795
11.14,3816,-10.097,-0.060723
11.145,3748,-72.952,-0.085313
11.15,3744,-66.332,-0.086794
11.155,3791,-12.716,-0.069638
11.16,3750,-50.378,-0.084574
11.165,3712,-80.267,-0.098779
11.17,3781,-2.9576,-0.073244
11.175,3745,-37.735,-0.086423
11.18,3734,-43.607,-0.090512
11.185,3802,26.009,-0.065698
11.19,3746,-31.885,-0.086053
11.195,3739,-34.853,-0.08865
11.2,3808,34.078,-0.06356
11.205,3751,-25.843,-0.084205
11.21,3756,-18.309,-0.082364
11.215,3746,-26.247,-0.086053
11.22,3764,-6.3358,-0.079429
11.225,3766,-4.7662,-0.078698
11.23,3781,8.7489,-0.073244
11.235,3789,13.529,-0.070357
11.24,3801,21.233,-0.066055
11.245,3796,12.032,-0.067843
11.25,3787,0.57001,-0.071078
11.255,3733,-51.855,-0.090885
11.26,3808,25.579,-0.06356
11.265,3764,-20.629,-0.079429
11.27,3737,-44.336,-0.089394
11.275,3803,23.453,-0.065341
11.28,3761,-20.679,-0.080528
11.285,3741,-37.722,-0.087907
11.29,3814,35.267,-0.061431
11.295,3757,-24.605,-0.081996
11.3,3736,-42.044,-0.089767
11.305,3805,28.166,-0.064628
11.31,3761,-18.562,-0.080528
11.315,3757,-20.694,-0.081996
11.32,3850,66.899,-0.048825
11.325,3787,-2.2697,-0.071078
11.33,3778,-11.505,-0.074331
11.335,3827,34.238,-0.056845
11.34,3759,-35.328,-0.081261
11.345,3822,27.527,-0.058604
11.35,3851,48.178,-0.048479
11.355,3788,-17.897,-0.070717
11.36,3787,-17.112,-0.071078
11.365,3837,30.241,-0.053344
11.37,3768,-39.151,-0.077968
11.375,3826,19.516,-0.057197
11.38,3837,25.307,-0.053344
11.385,3793,-19.926,-0.068919
11.39,3862,44.695,-0.044687
11.395,3885,56.895,-0.036843
11.4,3858,23.198,-0.046063
11.405,3922,74.391,-0.02446
11.41,3900,42.935,-0.031788
11.415,3864,3.8769,-0.044
11.42,3916,47.798,-0.026449
11.425,3904,29.234,-0.030448
11.43,3885,7.4467,-0.036843
11.435,3958,67.963,-0.012683
11.44,3943,44.087,-0.017558
11.445,3964,54.185,-0.010746
11.45,3984,61.705,-0.004339
11.455,3984,51.573,-0.004339
11.46,4014,67.518,0.005124
11.465,3988,35.457,-0.003068
11.47,4003,41.864,0.001674
11.475,3999,31.816,0.000414
11.48,3972,4.4721,-0.008174
11.485,3997,24.14,-0.000217
11.49,3991,15.302,-0.002116
11.495,3934,-34.692,-0.020505
11.5,3994,20.53,-0.001166
11.505,3976,2.3825,-0.006893
11.51,3930,-36.651,-0.02182
11.515,3979,9.9551,-0.005934
11.52,3989,16.448,-0.00275
11.525,3929,-36.349,-0.022149
11.53,3989,19.269,-0.00275
11.535,3988,15.262,-0.003068
11.54,3929,-36.528,-0.022149
11.545,3988,18.3,-0.003068
11.55,3997,22.621,-0.000217
11.555,3927,-39.378,-0.022809
11.56,3995,23.33,-0.000849
11.565,3988,13.787,-0.003068
11.57,3931,-36.063,-0.021491
11.575,4005,30.863,0.002303
11.58,3966,-6.1456,-0.010102
11.585,3935,-31.32,-0.020177
11.59,3993,21.694,-0.001482
11.595,3948,-19.153,-0.015928
11.6,3930,-31.509,-0.02182
11.605,3999,30.642,0.000414
11.61,3941,-22.418,-0.018212
11.615,3935,-24.146,-0.020177
11.62,3990,25.244,-0.002433
11.625,3986,17.81,-0.003703
11.63,3928,-33.617,-0.022479
11.635,3983,17.477,-0.004658
11.64,3976,8.7812,-0.006893
11.645,3924,-36.403,-0.023799
11.65,3984,19.351,-0.004339
11.655,3984,16.123,-0.004339
11.66,3923,-37.656,-0.024129
11.665,3982,17.505,-0.004977
11.67,3980,12.921,-0.005614
11.675,3921,-38.776,-0.024791
11.68,3998,31.363,9.8e-05
11.685,3981,12.331,-0.005295
11.69,3935,-28.178,-0.020177
11.695,3996,26.772,-0.000533
11.7,3952,-13.979,-0.014628
11.705,3937,-24.578,-0.019521
11.71,4009,38.665,0.003559
11.715,3949,-17.033,-0.015603
11.72,3943,-19.569,-0.017558
11.725,4023,49.106,0.007929
11.73,3975,2.1552,-0.007213
11.735,3945,-23.337,-0.016906
11.74,4003,28.135,0.001674
11.745,3942,-26.905,-0.017885
11.75,3952,-14.417,-0.014628
11.755,4012,37.049,0.004499
11.76,3924,-41.949,-0.023799
11.765,3940,-21.939,-0.018539
11.77,4004,34.303,0.001989
11.775,3934,-29.311,-0.020505
11.78,3940,-19.807,-0.018539
11.785,4001,33.651,0.001045
11.79,3955,-9.7549,-0.013655
11.795,3925,-33.727,-0.023469
11.8,3982,19.1,-0.004977
11.805,3984,17.546,-0.004339
11.81,3953,-11.104,-0.014303
11.815,3987,18.642,-0.003385
11.82,3981,10.616,-0.005295
11.825,3935,-29.614,-0.020177
11.83,3981,13.279,-0.005295
11.835,3976,6.9026,-0.006893
11.84,3929,-33.718,-0.022149
11.845,3993,24.744,-0.001482
11.85,3998,24.765,9.8e-05
11.855,3946,-22.316,-0.01658
11.86,4015,37.863,0.005436
11.865,4014,30.977,0.005124
11.87,3948,-28.321,-0.015928
11.875,4002,20.644,0.001359
11.88,4003,18.115,0.001674
11.885,3951,-27.723,-0.014953
11.89,4043,51.549,0.014109
11.895,4040,41.006,0.013187
11.9,3987,-8.2257,-0.003385
11.905,4053,46.112,0.017171
11.91,4051,37.311,0.01656
11.915,4038,21.216,0.012571
11.92,4136,93.635,0.041887
11.925,4166,101.38,0.050525
11.93,4137,64.168,0.042177
11.935,4217,112.98,0.064864
11.94,4252,120.44,0.074463
11.945,4242,95.048,0.07174
11.95,4238,77.953,0.070647
11.955,4253,76.997,0.074734
11.96,4204,30.914,0.06125
11.965,4257,64.517,0.075818
11.97,4258,55.988,0.076089
11.975,4254,45.359,0.075005
11.98,4253,38.541,0.074734
11.985,4267,43.294,0.078517
11.99,4271,40.347,0.079593
11.995,4250,20.481,0.073919
12,4268,30.961,0.078786
12.005,4315,59.45,0.091261
12.01,4297,39.082,0.086523
12.015,4314,45.735,0.090999
12.02,4302,31.684,0.087844
12.025,4277,10.868,0.081201
12.03,4292,20.793,0.085198
12.035,4262,-1.8687,0.07717
12.04,4268,3.9205,0.078786
12.045,4253,-5.838,0.074734
12.05,4273,10.309,0.080129
12.055,4215,-30.838,0.06431
12.06,4285,24.39,0.083337
12.065,4260,4.5189,0.076629
12.07,4217,-25.28,0.064864
12.075,4259,9.6108,0.076359
12.08,4237,-6.1081,0.070373
12.085,4197,-32.517,0.059292
12.09,4250,11.545,0.073919
12.095,4248,9.5164,0.073375
12.1,4185,-35.848,0.055917
12.105,4255,20.913,0.075276
12.11,4251,15.982,0.074191
12.115,4185,-32.527,0.055917
12.12,4254,22.992,0.075005
12.125,4221,-2.7969,0.065971
12.13,4194,-20.631,0.05845
12.135,4261,31.343,0.0769
12.14,4219,-2.0921,0.065418
12.145,4193,-19.348,0.058169
12.15,4265,35.922,0.077979
12.155,4216,-3.1703,0.064587
12.16,4190,-20.297,0.057326
12.165,4258,32.412,0.076089
12.17,4192,-18.552,0.057888
12.175,4191,-15.27,0.057607
12.18,4253,32.403,0.074734
12.185,4189,-17.265,0.057044
12.19,4188,-14.208,0.056763
12.195,4256,37.555,0.075547
12.2,4193,-12.134,0.058169
12.205,4242,25.858,0.07174
12.21,4149,-44.479,0.045649
12.215,3973,-174.54,-0.007853
12.22,3925,-186.53,-0.023469
12.225,3890,-186.68,-0.035153
12.23,3846,-195.71,-0.050211
12.235,3823,-185.42,-0.058252
12.24,3813,-165.31,-0.061785
12.245,3816,-136.67,-0.060723
12.25,3804,-126.42,-0.064984
12.255,3787,-122.65,-0.071078
12.26,3767,-122.59,-0.078333
12.265,3752,-118.14,-0.083836
12.27,3743,-108.9,-0.087165
12.275,3708,-126.52,-0.10029
12.28,3686,-129.31,-0.10871
12.285,3685,-111.08,-0.10909
12.29,3655,-124.96,-0.12077
12.295,3709,-52.83,-0.099916
12.3,3645,-109.91,-0.12471
12.305,3652,-86.983,-0.12195
12.31,3702,-24.884,-0.10258
12.315,3646,-78.678,-0.12432
12.32,3643,-71.032,-0.1255
12.325,3641,-63.634,-0.1263
12.33,3639,-57.459,-0.12709
12.335,3703,13.998,-0.1022
12.34,3647,-46.09,-0.12392
12.345,3591,-98.9,-0.14647
12.35,3647,-27.053,-0.12392
12.355,3627,-45.289,-0.13188
12.36,3594,-74.651,-0.14524
12.365,3627,-30.45,-0.13188
12.37,3652,-2.098,-0.12195
12.375,3626,-30.494,-0.13228
12.38,3609,-45.461,-0.13913
12.385,3668,20.117,-0.11568
12.39,3630,-23.84,-0.13068
12.395,3685,33.539,-0.10909
12.4,3649,-10.018,-0.12313
12.405,3573,-89.92,-0.15391
12.41,3619,-29.309,-0.13509
12.415,3628,-17.501,-0.13148
12.42,3608,-37.687,-0.13954
12.425,3671,30.679,-0.11451
12.43,3600,-49.264,-0.14279
12.435,3565,-80.959,-0.15724
12.44,3616,-16.383,-0.1363
12.445,3541,-96.179,-0.16735
12.45,3590,-30.519,-0.14689
12.455,3668,52.505,-0.11568
12.46,3607,-20.648,-0.13994
12.465,3614,-12.343,-0.13711
12.47,3688,62.631,-0.10794
12.475,3624,-14.311,-0.13308
12.48,3619,-19.429,-0.13509
12.485,3677,40.57,-0.11218
12.49,3622,-23.963,-0.13388
12.495,3623,-21.296,-0.13348
12.5,3694,51.784,-0.10563
12.505,3616,-37.605,-0.1363
12.51,3669,20.438,-0.11529
12.515,3662,8.0946,-0.11802
12.52,3613,-45.537,-0.13751
12.525,3670,17.911,-0.1149
12.53,3700,42.874,-0.10334
12.535,3709,42.965,-0.099916
12.54,3705,30.342,-0.10144
12.545,3754,70.995,-0.0831
12.55,3769,72.197,-0.077603
12.555,3772,61.93,-0.07651
12.56,3765,43.945,-0.079064
12.565,3759,29.765,-0.081261
12.57,3771,34.855,-0.076874
12.575,3744,2.2647,-0.086794
12.58,3723,-19.807,-0.094631
12.585,3695,-45.595,-0.10525
12.59,3689,-45.892,-0.10755
12.595,3730,-0.11919,-0.092006
12.6,3705,-25.998,-0.10144
12.605,3740,10.472,-0.088278
12.61,3729,-3.3239,-0.092381
12.615,3674,-58.46,-0.11334
12.62,3731,5.1804,-0.091633
12.625,3714,-13.715,-0.098023
12.63,3728,0.45016,-0.092755
12.635,3778,46.353,-0.074331
12.64,3691,-46.225,-0.10678
12.645,3722,-10.111,-0.095007
12.65,3714,-17.863,-0.098023
12.655,3702,-28.371,-0.10258
12.66,3812,78.878,-0.06214
12.665,3820,72.269,-0.05931
12.67,3820,59.481,-0.05931
12.675,3817,46.042,-0.060369
12.68,3818,38.423,-0.060016
12.685,3793,8.1594,-0.068919
12.69,3793,5.6578,-0.068919
12.695,3811,20.147,-0.062494
12.7,3796,1.9948,-0.067843
12.705,3796,0.51629,-0.067843
12.71,3807,9.4162,-0.063916
12.715,3736,-59.926,-0.089767
12.72,3725,-62.3,-0.09388
12.725,3789,6.9698,-0.070357
12.73,3749,-33.01,-0.084944
12.735,3695,-81.483,-0.10525
12.74,3751,-15.675,-0.084205
12.745,3721,-43.4,-0.095383
12.75,3732,-27.304,-0.091259
12.755,3741,-15.753,-0.087907
12.76,3681,-73.338,-0.11063
12.765,3746,0.1782,-0.086053
12.77,3745,-2.2694,-0.086423
12.775,3681,-65.856,-0.11063
12.78,3742,2.6143,-0.087536
12.785,3735,-6.0203,-0.090139
12.79,3651,-89.683,-0.12234
12.795,3707,-21.225,-0.10067
12.8,3703,-23.402,-0.1022
12.805,3634,-90.713,-0.12908
12.81,3695,-16.616,-0.10525
12.815,3692,-18.664,-0.1064
12.82,3624,-86.293,-0.13308
12.825,3687,-10.585,-0.10832
12.83,3638,-60.171,-0.12749
12.835,3623,-68.002,-0.13348
12.84,3691,9.7224,-0.10678
12.845,3631,-54.316,-0.13028
12.85,3609,-70.53,-0.13913
12.855,3649,-20.098,-0.12313
12.86,3606,-63.359,-0.14035
12.865,3569,-94.711,-0.15557
12.87,3575,-75.478,-0.15308
12.875,3532,-112.52,-0.17119
12.88,3551,-76.265,-0.16312
12.885,3588,-26.827,-0.14771
12.89,3585,-28.153,-0.14894
12.895,3637,28.254,-0.12788
12.9,3596,-21.218,-0.14443
12.905,3575,-42.546,-0.15308
12.91,3659,49.237,-0.1192
12.915,3638,17.785,-0.12749
12.92,3616,-10.027,-0.1363
12.925,3643,17.159,-0.1255
12.93,3618,-13.558,-0.13549
12.935,3666,35.479,-0.11646
12.94,3671,32.744,-0.11451
12.945,3623,-23.506,-0.13348
12.95,3655,10.875,-0.12077
12.955,3681,33.201,-0.11063
12.96,3573,-85.785,-0.15391
12.965,3603,-42.57,-0.14157
12.97,3580,-62.396,-0.15101
12.975,3570,-65.504,-0.15516
12.98,3665,41.41,-0.11685
12.985,3636,3.1611,-0.12828
12.99,3610,-26.489,-0.13873
12.995,3672,38.976,-0.11412
13,3627,-15.145,-0.13188
13.005,3593,-50.478,-0.14565
13.01,3690,54.61,-0.10717
13.015,3655,8.7873,-0.12077
13.02,3613,-37.918,-0.13751
13.025,3688,42.261,-0.10794
13.03,3669,14.56,-0.11529
13.035,3674,15.244,-0.11334
13.04,3714,50.378,-0.098023
13.045,3678,4.9563,-0.11179
13.05,3717,40.715,-0.09689
13.055,3727,42.136,-0.09313
13.06,3681,-11.493,-0.11063
13.065,3733,39.47,-0.090885
13.07,3738,36.301,-0.089022
13.075,3679,-28.905,-0.11141
13.08,3743,36.482,-0.087165
13.085,3742,28.096,-0.087536
13.09,3723,3.7156,-0.094631
13.095,3784,59.498,-0.07216
13.1,3740,6.9721,-0.088278
13.105,3674,-60.361,-0.11334
13.11,3716,-10.954,-0.097267
13.115,3704,-22.56,-0.10182
13.12,3697,-27.504,-0.10449
13.125,3768,43.643,-0.077968
13.13,3771,38.026,-0.076874
13.135,3726,-12.401,-0.093505
13.14,3784,43.121,-0.07216
13.145,3780,31.132,-0.073606
13.15,3753,-0.64622,-0.083468
13.155,3823,63.122,-0.058252
13.16,3844,70.804,-0.050906
13.165,3782,1.6749,-0.072883
13.17,3826,40.649,-0.057197
13.175,3837,42.995,-0.053344
13.18,3796,-2.3438,-0.067843
13.185,3892,83.001,-0.034478
13.19,3876,54.895,-0.039899
13.195,3839,12.368,-0.052646
13.2,3929,88.169,-0.022149
13.205,3946,87.796,-0.01658
13.21,3893,27.877,-0.034141
13.215,3931,55.403,-0.021491
13.22,3918,34.924,-0.025785
13.225,3897,10.7,-0.032795
13.23,3932,38.423,-0.021162
13.235,3944,41.945,-0.017232
13.24,3891,-10.568,-0.034815
13.245,3982,67.577,-0.004977
13.25,4013,81.739,0.004811
13.255,3946,13.288,-0.01658
13.26,4000,55.514,0.000729
13.265,4007,52.161,0.002931
13.27,3929,-21.025,-0.022149
13.275,3968,14.782,-0.009458
13.28,3969,13.041,-0.009137
13.285,3911,-38.214,-0.028112
13.29,3977,23.129,-0.006573
13.295,3951,-2.3813,-0.014953
13.3,3872,-70.153,-0.041262
13.305,3920,-17.761,-0.025122
13.31,3915,-19.574,-0.026781
13.315,3861,-63.942,-0.045031
13.32,3951,23.346,-0.014953
13.325,3926,-1.8409,-0.023138
13.33,3960,26.72,-0.012037
13.335,3970,30.473,-0.008816
13.34,3949,7.8384,-0.015603
13.345,3972,25.47,-0.008174
13.35,3952,4.5214,-0.014628
13.355,3857,-78.487,-0.046407
13.36,3838,-83.485,-0.052995
13.365,3914,-3.9774,-0.027113
13.37,3837,-71.491,-0.053344
13.375,3828,-68.876,-0.056494
13.38,3875,-16.656,-0.040239
13.385,3814,-69.32,-0.061431
13.39,3838,-37.292,-0.052995
13.395,3798,-68.59,-0.067127
13.4,3760,-94.085,-0.080895
13.405,3809,-34.466,-0.063205
13.41,3784,-53.037,-0.07216
13.415,3709,-117.26,-0.099916
13.42,3790,-22.623,-0.069998
13.425,3736,-71.149,-0.089767
13.43,3740,-57.237,-0.088278
13.435,3773,-18.096,-0.076146
13.44,3685,-101.47,-0.10909
13.445,3736,-36.909,-0.089767
13.45,3678,-89.271,-0.11179
13.455,3669,-85.64,-0.11529
13.46,3737,-6.8076,-0.089394
13.465,3676,-67.031,-0.11257
13.47,3666,-68.057,-0.11646
13.475,3717,-8.4382,-0.09689
13.48,3656,-69.32,-0.12037
13.485,3623,-93.9,-0.13348
13.49,3667,-35.919,-0.11607
13.495,3598,-103.12,-0.14361
13.5,3605,-81.389,-0.14076
13.505,3666,-7.8032,-0.11646
13.51,3619,-56.602,-0.13509
13.515,3681,13.451,-0.11063
13.52,3622,-50.63,-0.13388
13.525,3594,-73.977,-0.14524
13.53,3640,-16.505,-0.12669
13.535,3600,-57.521,-0.14279
13.54,3567,-85.714,-0.15641
13.545,3625,-13.158,-0.13268
13.55,3607,-32.018,-0.13994
13.555,3615,-20.817,-0.1367
13.56,3670,36.53,-0.1149
13.565,3612,-30.785,-0.13792
13.57,3667,28.279,-0.11607
13.575,3610,-36.785,-0.13873
13.58,3596,-47.859,-0.14443
13.585,3675,38.71,-0.11296
13.59,3615,-30.811,-0.1367
13.595,3618,-24.989,-0.13549
13.6,3690,49.891,-0.10717
13.605,3625,-25.909,-0.13268
13.61,3616,-33.288,-0.1363
13.615,3669,24.052,-0.11529
13.62,3601,-51.763,-0.14238
13.625,3646,0.89112,-0.12432
13.63,3640,-7.5043,-0.12669
13.635,3582,-69.057,-0.15018
13.64,3622,-18.291,-0.13388
13.645,3661,22.345,-0.11841
13.65,3625,-20.132,-0.13268
13.655,3683,39.785,-0.10986
13.66,3698,46.296,-0.1041
13.665,3689,28.08,-0.10755
13.67,3750,80.977,-0.084574
13.675,3672,-9.9201,-0.11412
13.68,3692,9.6869,-0.1064
13.685,3752,64.534,-0.083836
13.69,3727,28.604,-0.09313
13.695,3720,15.572,-0.095759
13.7,3725,16.256,-0.09388
13.705,3727,13.946,-0.09313
13.71,3764,45.451,-0.079429
13.715,3773,45.165,-0.076146
13.72,3766,29.923,-0.078698
13.725,3777,34.043,-0.074694
13.73,3788,37.487,-0.070717
13.735,3787,29.244,-0.071078
13.74,3777,13.937,-0.074694
13.745,3796,28.076,-0.067843
13.75,3851,72.326,-0.048479
13.755,3780,-5.1416,-0.073606
13.76,3801,13.936,-0.066055
13.765,3731,-55.475,-0.091633
13.77,3781,-0.53055,-0.073244
13.775,3819,33.366,-0.059663
13.78,3777,-11.882,-0.074694
13.785,3836,42.988,-0.053693
13.79,3885,78.557,-0.036843
13.795,3832,18.026,-0.055092
13.8,3887,62.998,-0.036166
13.805,3907,69.46,-0.029446
13.81,3841,-0.44435,-0.051949
13.815,3895,46.446,-0.033468
13.82,3898,40.909,-0.032459
13.825,3844,-13.922,-0.050906
13.83,3894,31.621,-0.033804
13.835,3936,61.912,-0.019849
13.84,3945,59.079,-0.016906
13.845,4009,101.98,0.003559
13.85,3994,73.224,-0.001166
13.855,3958,31.542,-0.012683
13.86,3935,6.8439,-0.020177
13.865,3932,2.8421,-0.021162
13.87,3952,18.884,-0.014628
13.875,3956,18.906,-0.013331
13.88,3948,8.893,-0.015928
13.885,3951,9.6907,-0.014953
13.89,3945,2.8162,-0.016906
13.895,3905,-32.021,-0.030114
13.9,3895,-35.97,-0.033468
13.905,3941,8.7003,-0.018212
13.91,3871,-53.403,-0.041604
13.915,3920,-2.8658,-0.025122
13.92,3972,40.918,-0.008174
13.925,3903,-24.245,-0.030783
13.93,3980,44.144,-0.005614
13.935,3960,20.277,-0.012037
13.94,3905,-29.89,-0.030114
13.945,3972,31.097,-0.008174
13.95,3919,-18.709,-0.025453
13.955,3942,3.4421,-0.017885
13.96,3938,-0.80026,-0.019193
13.965,3852,-75.69,-0.048133
13.97,3914,-9.918,-0.027113
13.975,3885,-33.875,-0.036843
13.98,3834,-74.273,-0.054392
13.985,3920,12.454,-0.025122
13.99,3864,-38.728,-0.044
13.995,3839,-55.478,-0.052646
14,3897,3.9047,-0.032795
14.005,3826,-60.269,-0.057197
14.01,3890,5.4778,-0.035153
14.015,3908,19.579,-0.029112
14.02,3846,-38.565,-0.050211
14.025,3899,13.551,-0.032124
14.03,3858,-25.18,-0.046063
14.035,3776,-96.692,-0.075056
14.04,3814,-47.039,-0.061431
14.045,3847,-10.563,-0.049864
14.05,3794,-57.944,-0.068561
14.055,3851,2.1661,-0.048479
14.06,3837,-11.567,-0.053344
14.065,3796,-48.012,-0.067843
14.07,3860,16.653,-0.045374
14.075,3782,-57.832,-0.072883
14.08,3772,-59.007,-0.07651
14.085,3820,-6.2944,-0.05931
14.09,3756,-65.779,-0.082364
14.095,3814,-2.4295,-0.061431
14.1,3827,8.7574,-0.056845
14.105,3744,-70.934,-0.086794
14.11,3804,-4.5564,-0.064984
14.115,3791,-16.93,-0.069638
14.12,3741,-62.506,-0.087907
14.125,3802,3.51,-0.065698
14.13,3798,-1.8689,-0.067127
14.135,3783,-16.628,-0.072521
14.14,3825,23.496,-0.057548
14.145,3788,-15.303,-0.070717
14.15,3838,31.732,-0.052995
14.155,3859,44.439,-0.045718
14.16,3792,-24.391,-0.069279
14.165,3837,19.535,-0.053344
14.17,3833,11.836,-0.054742
14.175,3773,-46.27,-0.076146
14.18,3808,-7.5366,-0.06356
14.185,3816,-0.065655,-0.060723
14.19,3812,-4.7441,-0.06214
14.195,3801,-15.132,-0.066055
14.2,3777,-36.086,-0.074694
14.205,3790,-19.353,-0.069998
14.21,3793,-14.606,-0.068919
14.215,3734,-69.128,-0.090512
14.22,3738,-55.552,-0.089022
14.225,3798,8.4998,-0.067127
14.23,3738,-50.537,-0.089022
14.235,3826,38.328,-0.057197
14.24,3810,16.519,-0.062849
14.245,3794,-1.9829,-0.068561
14.25,3837,36.449,-0.053344
14.255,3797,-6.8979,-0.067485
14.26,3778,-24.59,-0.074331
14.265,3826,22.379,-0.057197
14.27,3819,11.394,-0.059663
14.275,3842,29.328,-0.051601
14.28,3823,6.5052,-0.058252
14.285,3736,-76.885,-0.089767
14.29,3781,-23.235,-0.073244
14.295,3764,-36.656,-0.079429
14.3,3691,-102.63,-0.10678
14.305,3776,-5.8313,-0.075056
14.31,3722,-57.648,-0.095007
14.315,3707,-64.496,-0.10067
14.32,3805,37.343,-0.064628
14.325,3795,20.932,-0.068202
14.33,3767,-9.7873,-0.078333
14.335,3722,-52.559,-0.095007
14.34,3707,-60.236,-0.10067
14.345,3720,-39.442,-0.095759
14.35,3769,12.22,-0.077603
14.355,3719,-38.924,-0.096136
14.36,3720,-33.242,-0.095759
14.365,3791,37.968,-0.069638
14.37,3734,-23.281,-0.090512
14.375,3776,18.866,-0.075056
14.38,3798,34.98,-0.067127
14.385,3734,-32.219,-0.090512
14.39,3787,21.654,-0.071078
14.395,3724,-42.905,-0.094255
14.4,3658,-102.9,-0.11959
14.405,3707,-39.343,-0.10067
14.41,3751,7.8659,-0.084205
14.415,3793,44.605,-0.068919
14.42,3785,28.731,-0.071799
14.425,3718,-40.959,-0.096513
14.43,3774,17.58,-0.075783
14.435,3760,0.23306,-0.080895
14.44,3687,-71.966,-0.10832
14.445,3747,-3.6501,-0.085683
14.45,3753,1.2054,-0.083468
