0,4774,744.68,0.19753
0.004993,4779,595.99,0.19855
0.0099919,4768,466.02,0.1963
0.014992,4768,371.59,0.1963
0.019992,4778,304.51,0.19834
0.024992,4772,239.03,0.19712
0.029992,4770,190.15,0.19671
0.034993,4776,157.51,0.19794
0.039992,4773,124.6,0.19732
0.044992,4769,97.619,0.1965
0.049992,4769,79.175,0.1965
0.054992,4767,62.86,0.19609
0.059993,4762,47.437,0.19507
0.064994,4771,45.874,0.19691
0.069993,4768,35.194,0.1963
0.074993,4762,24.218,0.19507
0.079993,4768,24.619,0.1963
0.084993,4775,25.52,0.19773
0.089993,4837,67.684,0.2102
0.094994,4766,0.037945,0.19589
0.099993,4785,14.721,0.19977
0.10499,4782,9.2618,0.19916
0.10999,4765,-6.0695,0.19568
0.11499,4770,-1.4708,0.19671
0.11999,4788,11.961,0.20038
0.125,4765,-9.1013,0.19568
0.12999,4771,-3.6821,0.19691
0.13499,4780,2.7226,0.19875
0.13999,4761,-13.983,0.19486
0.14499,4769,-6.5823,0.1965
0.14999,4780,1.3867,0.19875
0.15499,4768,-10.196,0.1963
0.16,4768,-10.338,0.1963
0.16499,4847,49.234,0.21218
0.16999,4770,-21.792,0.19671
0.17499,4765,-23.948,0.19568
0.17999,4780,-10.422,0.19875
0.185,4716,-61.446,0.18549
0.19,4759,-18.42,0.19445
0.19499,4734,-37.762,0.18926
0.2,4719,-45.633,0.18612
0.205,4713,-45.009,0.18485
0.21,4750,-10.799,0.19259
0.215,4762,-3.6176,0.19507
0.22,4758,-10.523,0.19424
0.225,4771,-3.0037,0.19691
0.23,4769,-8.8122,0.1965
0.235,4764,-15.921,0.19548
0.24,4839,39.144,0.2106
0.245,4774,-23.551,0.19753
0.25,4765,-31.2,0.19568
0.255,4767,-28.963,0.19609
0.26,4775,-22.744,0.19773
0.265,4766,-31.111,0.19589
0.27,4765,-31.766,0.19568
0.275,4772,-26.286,0.19712
0.28,4765,-32.934,0.19568
0.285,4767,-31.439,0.19609
0.29,4771,-28.889,0.19691
0.295,4766,-33.998,0.19589
0.3,4764,-35.92,0.19548
0.305,4772,-29.893,0.19712
0.31,4769,-33.784,0.1965
0.315,4829,10.936,0.20862
0.32,4769,-45.021,0.1965
0.325,4772,-41.669,0.19712
0.33,4761,-50.019,0.19486
0.335,4888,47.115,0.22018
0.34,4729,-91.759,0.18822
0.345,4714,-93.692,0.18507
0.35,4722,-77.223,0.18675
0.355,4756,-44.008,0.19383
0.36,4760,-41.378,0.19465
0.365,4759,-43.345,0.19445
0.37,4762,-41.974,0.19507
0.375,4716,-79.49,0.18549
0.38,4709,-78.952,0.18401
0.385,4748,-42.372,0.19217
0.39,4761,-34.136,0.19486
0.395,4756,-41.756,0.19383
0.4,4766,-36.324,0.19589
0.405,4769,-37.606,0.1965
0.41,4770,-40.328,0.19671
0.415,4765,-47.289,0.19568
0.42,4779,-38.311,0.19855
0.425,4851,12.221,0.21297
0.43,4766,-66.506,0.19589
0.435,4787,-48.662,0.20018
0.44,4784,-53.122,0.19957
0.445,4765,-69.178,0.19568
0.45,4770,-63.603,0.19671
0.455,4780,-55.512,0.19875
0.46,4761,-71.631,0.19486
0.465,4772,-61.428,0.19712
0.47,4776,-58.923,0.19794
0.475,4756,-75.664,0.19383
0.48,4836,-12.671,0.21001
0.485,4778,-67.716,0.19834
0.49,4767,-76.13,0.19609
0.495,4766,-75.28,0.19589
0.5,4774,-67.827,0.19753
0.505,4767,-73.662,0.19609
0.51,4764,-75.385,0.19548
0.515,4843,-14.607,0.21139
0.52,4767,-84.121,0.19609
0.525,4766,-82.616,0.19589
0.53,4771,-76.958,0.19691
0.535,4768,-78.819,0.1963
0.54,4763,-82.021,0.19527
0.545,4771,-74.676,0.19691
0.55,4769,-76.741,0.1965
0.555,4759,-84.75,0.19445
0.56,4767,-77.331,0.19609
0.565,4770,-75.484,0.19671
0.57,4830,-30.85,0.20882
0.575,4766,-89.905,0.19589
0.58,4769,-85.925,0.1965
0.585,4764,-89.122,0.19548
0.59,4766,-86.413,0.19589
0.59501,4769,-83.655,0.1965
0.6,4763,-88.592,0.19527
0.60501,4755,-94.248,0.19362
0.61,4733,-109.92,0.18905
0.615,4714,-120.36,0.18507
0.62,4708,-118.58,0.1838
0.62501,4715,-107,0.18528
0.63,4708,-109.11,0.1838
0.63501,4704,-108.59,0.18295
0.64,4745,-72.713,0.19155
0.645,4761,-64.31,0.19486
0.65001,4756,-74.114,0.19383
0.65501,4766,-70.391,0.19589
0.66001,4840,-19.114,0.2108
0.66501,4762,-93.998,0.19507
0.67001,4765,-91.997,0.19568
0.67501,4768,-90.565,0.1963
0.68001,4811,-59.011,0.20502
0.68501,4765,-102.17,0.19568
0.69001,4771,-96.764,0.19691
0.69501,4764,-102.68,0.19548
0.70001,4764,-102.12,0.19548
0.70501,4771,-96.424,0.19691
0.71001,4766,-101.33,0.19589
0.71501,4831,-52.026,0.20901
0.72001,4769,-109.63,0.1965
0.72501,4767,-109.93,0.19609
0.73001,4760,-114.21,0.19465
0.73501,4766,-107.7,0.19589
0.74001,4774,-101.15,0.19753
0.74501,4776,-100.74,0.19794
0.75001,4823,-66.336,0.20742
0.75501,4783,-105.28,0.19936
0.76001,4783,-105.98,0.19936
0.76501,4767,-119.02,0.19609
0.77001,4794,-96.461,0.2016
0.77501,4780,-110.16,0.19875
0.78001,4765,-122.04,0.19568
0.78501,4774,-113.11,0.19753
0.79001,4782,-106.97,0.19916
0.79501,4767,-119.96,0.19609
0.80001,4776,-111.93,0.19794
0.80501,4774,-114.18,0.19753
0.81001,4759,-126.19,0.19445
0.81501,4766,-118.85,0.19589
0.82004,4773,-113.19,0.19732
0.82501,4765,-120.43,0.19568
0.83001,4765,-120.15,0.19568
0.83501,4842,-61.604,0.21119
0.84001,4764,-132.93,0.19548
0.84501,4764,-130.48,0.19548
0.85001,4774,-120.98,0.19753
0.85501,4764,-129.03,0.19548
0.86001,4762,-129.4,0.19507
0.86501,4771,-121.33,0.19691
0.87001,4766,-125.9,0.19589
0.87501,4759,-131.23,0.19445
0.88001,4733,-150.53,0.18905
0.88501,4789,-102.23,0.20058
0.89001,4705,-173.11,0.18316
0.89501,4711,-159.14,0.18443
0.90001,4710,-153.8,0.18422
0.90501,4705,-152.91,0.18316
0.91001,4733,-126.16,0.18905
0.91501,4753,-111.59,0.19321
0.92001,4756,-113.46,0.19383
0.92501,4763,-111.97,0.19527
0.93001,4768,-112.47,0.1963
0.93501,4834,-66.665,0.20961
0.94001,4762,-135.39,0.19507
0.94501,4769,-129.86,0.1965
0.95001,4829,-85.36,0.20862
0.95501,4761,-147.65,0.19486
0.96001,4769,-139.21,0.1965
0.96501,4766,-141.17,0.19589
0.97001,4761,-144.43,0.19486
0.97501,4767,-138.64,0.19609
0.98001,4766,-139.6,0.19589
0.98501,4761,-143.61,0.19486
0.99001,4765,-139.96,0.19568
0.99501,4767,-138.75,0.19609
1,4828,-93.01,0.20842
1.005,4747,-165.26,0.19197
1.01,4725,-178.08,0.18738
1.015,4708,-184.64,0.1838
1.02,4722,-165.4,0.18675
1.025,4756,-134.7,0.19383
1.03,4754,-138.69,0.19342
1.035,4757,-138.09,0.19404
1.04,4768,-131.54,0.1963
1.045,4765,-137.31,0.19568
1.05,4868,-61.983,0.2163
1.055,4767,-156.09,0.19609
1.06,4770,-152.5,0.19671
1.065,4829,-107.2,0.20862
1.07,4768,-162.67,0.1963
1.075,4780,-151.18,0.19875
1.08,4781,-150.67,0.19896
1.085,4765,-163.51,0.19568
1.09,4789,-143.05,0.20058
1.095,4777,-154.6,0.19814
1.1,4762,-166.29,0.19507
1.105,4787,-144.87,0.20018
1.11,4783,-150.31,0.19936
1.115,4769,-162.48,0.1965
1.12,4779,-153.79,0.19855
1.125,4782,-152.43,0.19916
1.13,4768,-164.57,0.1963
1.135,4775,-158.16,0.19773
1.14,4779,-155.52,0.19855
1.145,4767,-165.89,0.19609
1.15,4774,-159.61,0.19753
1.155,4777,-157.84,0.19814
1.16,4773,-161.95,0.19732
1.165,4775,-160.73,0.19773
1.17,4781,-156.82,0.19896
1.175,4770,-166.92,0.19671
1.18,4771,-165.83,0.19691
1.185,4783,-156.64,0.19936
1.19,4773,-166.38,0.19732
1.195,4768,-170.42,0.1963
1.2,4780,-160.65,0.19875
1.205,4777,-164.58,0.19814
1.21,4768,-172.45,0.1963
1.215,4773,-168.04,0.19732
1.22,4773,-168.52,0.19732
1.225,4768,-172.89,0.1963
1.23,4776,-166.46,0.19794
1.235,4774,-169.19,0.19753
1.24,4768,-174.57,0.1963
1.245,4776,-168.17,0.19794
1.25,4777,-168.61,0.19814
1.255,4767,-177.57,0.19609
1.26,4773,-172.47,0.19732
1.265,4780,-167.78,0.19875
1.27,4769,-178.05,0.1965
1.275,4769,-177.85,0.1965
1.28,4778,-170.88,0.19834
1.285,4773,-176.26,0.19732
1.29,4770,-179.11,0.19671
1.295,4776,-174.56,0.19794
1.3,4772,-178.78,0.19712
1.305,4767,-183.04,0.19609
1.31,4774,-177.27,0.19753
1.315,4773,-178.99,0.19732
1.32,4768,-183.57,0.1963
1.325,4774,-178.84,0.19753
1.33,4774,-179.83,0.19753
1.335,4767,-186.14,0.19609
1.34,4773,-181.24,0.19732
1.345,4777,-179.02,0.19814
1.35,4769,-186.63,0.1965
1.355,4764,-190.49,0.19548
1.36,4758,-194.47,0.19424
1.365,4743,-204.81,0.19114
1.37,4738,-205.37,0.1901
1.375,4765,-180.97,0.19568
1.38,4773,-176.58,0.19732
1.385,4768,-183.24,0.1963
1.39,4775,-179.38,0.19773
1.395,4786,-173.37,0.19997
1.4,4766,-192.56,0.19589
1.405,4776,-184.79,0.19794
1.41,4794,-172.66,0.2016
1.415,4785,-183.81,0.19977
1.42,4773,-195.12,0.19732
1.425,4794,-178.88,0.2016
1.43,4780,-192.93,0.19875
1.435,4772,-199.64,0.19712
1.44,4793,-182.82,0.20139
1.445,4780,-195.64,0.19875
1.45,4767,-206.01,0.19609
1.455,4756,-212.88,0.19383
1.46,4748,-216.17,0.19217
1.465,4737,-221.3,0.18989
1.47,4730,-222.41,0.18843
1.475,4724,-222.64,0.18717
1.48,4713,-226.95,0.18485
1.485,4749,-193.4,0.19238
1.49,4767,-181.25,0.19609
1.495,4767,-185.67,0.19609
1.5,4772,-185.42,0.19712
1.505,4781,-182.24,0.19896
1.51,4771,-194.45,0.19691
1.515,4769,-198.09,0.1965
1.52,4781,-190.3,0.19896
1.525,4773,-199.62,0.19732
1.53,4770,-203.28,0.19671
1.535,4777,-198.59,0.19814
1.54,4773,-203.45,0.19732
1.545,4770,-206.66,0.19671
1.55,4777,-201.6,0.19814
1.555,4771,-207.71,0.19691
1.56,4767,-211.15,0.19609
1.565,4777,-203.18,0.19814
1.5701,4775,-206.22,0.19773
1.575,4767,-213.38,0.19609
1.58,4773,-208.36,0.19732
1.585,4776,-206.82,0.19794
1.59,4769,-213.4,0.1965
1.595,4770,-212.58,0.19671
1.6,4778,-206.64,0.19834
1.605,4771,-213.59,0.19691
1.61,4771,-213.82,0.19691
1.615,4776,-210.26,0.19794
1.6201,4770,-216.02,0.19671
1.625,4769,-216.86,0.1965
1.63,4757,-226.16,0.19404
1.635,4742,-236.07,0.19093
1.64,4735,-237.86,0.18947
1.645,4762,-212.82,0.19507
1.65,4768,-209.47,0.1963
1.655,4764,-214.65,0.19548
1.66,4775,-207.27,0.19773
1.665,4776,-209.24,0.19794
1.6701,4767,-218.61,0.19609
1.675,4773,-214.58,0.19732
1.68,4777,-213.03,0.19814
1.685,4771,-219.61,0.19691
1.69,4770,-221.08,0.19671
1.695,4777,-216.19,0.19814
1.7,4776,-218.57,0.19794
1.705,4772,-222.88,0.19712
1.71,4776,-220.24,0.19794
1.715,4785,-214.41,0.19977
1.72,4768,-229.89,0.1963
1.725,4758,-236.95,0.19424
1.73,4765,-229.5,0.19568
1.735,4734,-253.31,0.18926
1.74,4760,-227.83,0.19465
1.745,4787,-207.2,0.20018
1.75,4778,-218.62,0.19834
1.755,4770,-227.05,0.19671
1.76,4790,-212.31,0.20078
1.765,4779,-224.5,0.19855
1.7701,4762,-238.97,0.19507
1.775,4764,-235.9,0.19548
1.78,4748,-247.56,0.19217
1.785,4736,-253.9,0.18968
1.79,4763,-228.57,0.19527
1.795,4770,-224.21,0.19671
1.8,4768,-227.81,0.1963
1.805,4778,-221.5,0.19834
1.81,4775,-226.6,0.19773
1.815,4765,-236.16,0.19568
1.82,4775,-228.41,0.19773
1.825,4779,-226.99,0.19855
1.83,4770,-235.97,0.19671
1.835,4774,-233.18,0.19753
1.84,4780,-229.54,0.19875
1.845,4772,-237.51,0.19712
1.85,4772,-237.79,0.19712
1.855,4779,-232.71,0.19855
1.86,4774,-238.02,0.19753
1.865,4771,-240.8,0.19691
1.8701,4776,-236.94,0.19794
1.875,4770,-242.45,0.19671
1.88,4771,-241.54,0.19691
1.885,4778,-236.28,0.19834
1.89,4771,-243,0.19691
1.895,4766,-246.9,0.19589
1.9,4777,-237.75,0.19814
1.905,4775,-240.6,0.19773
1.91,4766,-248.37,0.19589
1.915,4773,-242.29,0.19732
1.92,4776,-240.65,0.19794
1.925,4767,-248.7,0.19609
1.93,4770,-245.93,0.19671
1.935,4776,-241.52,0.19794
1.94,4771,-246.6,0.19691
1.945,4767,-249.96,0.19609
1.95,4755,-258.95,0.19362
1.955,4741,-267.82,0.19072
1.96,4730,-272.69,0.18843
1.965,4762,-243,0.19507
1.9701,4765,-242.21,0.19568
1.975,4764,-244.76,0.19548
1.98,4775,-237.6,0.19773
1.985,4773,-242.04,0.19732
1.99,4764,-251.07,0.19548
1.995,4774,-243.64,0.19753
2,4775,-244.79,0.19773
2.005,4770,-250.42,0.19671
2.01,4771,-250.35,0.19691
2.015,4775,-248.08,0.19773
2.02,4772,-251.76,0.19712
2.025,4772,-252.46,0.19712
2.03,4781,-246.18,0.19896
2.035,4783,-246.67,0.19936
2.04,4771,-257.92,0.19691
2.045,4778,-252.32,0.19834
2.05,4790,-244.15,0.20078
2.055,4766,-265.42,0.19589
2.06,4777,-255.45,0.19814
2.065,4795,-242.33,0.2018
2.07,4765,-268.84,0.19568
2.075,4773,-260.75,0.19732
2.08,4788,-249.08,0.20038
2.085,4780,-257.56,0.19875
2.09,4772,-264.41,0.19712
2.095,4784,-254.55,0.19957
2.1,4777,-261.42,0.19814
2.105,4772,-265.45,0.19712
2.11,4785,-254.89,0.19977
2.115,4776,-263.5,0.19794
2.12,4771,-267.37,0.19691
2.125,4777,-262.06,0.19814
2.13,4774,-264.88,0.19753
2.135,4768,-269.52,0.1963
2.14,4778,-260.96,0.19834
2.145,4776,-263.5,0.19794
2.15,4767,-271.02,0.19609
2.155,4773,-265.5,0.19732
2.16,4779,-261.22,0.19855
2.165,4769,-270.23,0.1965
2.17,4772,-267.46,0.19712
2.175,4775,-265.35,0.19773
2.18,4771,-269.16,0.19691
2.185,4775,-266.11,0.19773
2.19,4778,-264.54,0.19834
2.195,4770,-271.86,0.19671
2.2,4773,-269.28,0.19732
2.205,4780,-264.25,0.19875
2.21,4769,-274.2,0.1965
2.215,4769,-273.72,0.1965
2.22,4779,-265.72,0.19855
2.225,4775,-270.23,0.19773
2.23,4767,-277,0.19609
2.235,4775,-270.11,0.19773
2.24,4776,-270.13,0.19794
2.245,4768,-277.18,0.1963
2.25,4772,-273.6,0.19712
2.255,4773,-273.16,0.19732
2.26,4770,-275.99,0.19671
2.265,4774,-272.92,0.19753
2.27,4774,-273.65,0.19753
2.275,4769,-278.17,0.1965
2.28,4773,-274.9,0.19732
2.285,4779,-270.86,0.19855
2.29,4771,-278.51,0.19691
2.295,4768,-280.83,0.1963
2.3,4779,-271.96,0.19855
2.305,4773,-278.09,0.19732
2.31,4767,-283.06,0.19609
2.315,4774,-277.06,0.19753
2.32,4776,-276.24,0.19794
2.325,4769,-282.61,0.1965
2.33,4758,-290.88,0.19424
2.335,4749,-296.03,0.19238
2.34,4735,-304.17,0.18947
2.345,4748,-289.58,0.19217
2.35,4768,-272.72,0.1963
2.355,4777,-268,0.19814
2.36,4771,-275.89,0.19691
2.365,4792,-261.48,0.20119
2.37,4786,-270.81,0.19997
2.375,4765,-289.88,0.19568
2.38,4759,-293.59,0.19445
2.385,4764,-288.1,0.19548
2.39,4732,-312.7,0.18884
2.395,4761,-284.66,0.19486
2.4,4783,-268.17,0.19936
2.405,4764,-286.77,0.19548
2.41,4771,-281.55,0.19691
2.415,4782,-274.42,0.19916
2.42,4776,-281.92,0.19794
2.425,4773,-285.64,0.19732
2.43,4784,-277.91,0.19957
2.435,4773,-288.76,0.19732
2.44,4772,-289.76,0.19712
2.445,4785,-279.88,0.19977
2.45,4772,-292.09,0.19712
2.455,4770,-293.42,0.19671
2.46,4780,-285.31,0.19875
2.465,4775,-290.5,0.19773
2.47,4767,-297.03,0.19609
2.475,4775,-289.94,0.19773
2.48,4777,-289.03,0.19814
2.485,4768,-296.87,0.1963
2.49,4774,-291.6,0.19753
2.495,4776,-290.58,0.19794
2.5,4770,-296.02,0.19671
2.505,4774,-292.7,0.19753
2.51,4776,-291.69,0.19794
2.515,4769,-297.91,0.1965
2.52,4776,-292.12,0.19794
2.525,4780,-289.93,0.19875
2.53,4769,-299.81,0.1965
2.535,4771,-297.72,0.19691
2.54,4780,-290.75,0.19875
2.545,4772,-298.38,0.19712
2.55,4767,-302.22,0.19609
2.555,4778,-293.01,0.19834
2.56,4776,-295.78,0.19794
2.565,4769,-301.92,0.1965
2.57,4775,-296.85,0.19773
2.575,4774,-298.3,0.19753
2.58,4769,-302.61,0.1965
2.585,4774,-298.4,0.19753
2.59,4775,-298.21,0.19773
2.595,4767,-305.09,0.19609
2.6,4775,-298.27,0.19773
2.605,4779,-296.03,0.19855
2.61,4768,-305.88,0.1963
2.615,4771,-302.98,0.19691
2.62,4780,-296.14,0.19875
2.625,4771,-304.65,0.19691
2.63,4768,-306.86,0.1963
2.635,4777,-299.44,0.19814
2.64,4773,-303.64,0.19732
2.6451,4769,-307.05,0.1965
2.65,4774,-302.89,0.19753
2.655,4773,-304.29,0.19732
2.66,4769,-307.79,0.1965
2.665,4774,-303.7,0.19753
2.67,4774,-304.38,0.19753
2.6751,4778,-301.92,0.19834
2.68,4764,-313.92,0.19548
2.6851,4763,-313.49,0.19527
2.69,4754,-319.45,0.19342
2.6951,4740,-328.22,0.19051
2.7001,4789,-286.37,0.20058
2.7051,4784,-294.97,0.19957
2.71,4774,-305.72,0.19753
2.7151,4813,-276.86,0.20542
2.7201,4839,-264.24,0.2106
2.7251,4823,-285.75,0.20742
2.7301,4813,-298.44,0.20542
2.7351,4810,-303.33,0.20482
2.7401,4790,-320.22,0.20078
2.7451,4783,-323.87,0.19936
2.7501,4783,-321.5,0.19936
2.7551,4775,-325.85,0.19773
2.7601,4774,-324.02,0.19753
2.7651,4782,-315.72,0.19916
2.7701,4772,-323.05,0.19712
2.7751,4764,-327.45,0.19548
2.7801,4761,-327.17,0.19486
2.7851,4745,-337.17,0.19155
2.7901,4735,-340.58,0.18947
2.7951,4764,-312.9,0.19548
2.8001,4770,-308.97,0.19671
2.8051,4769,-311.33,0.1965
2.8101,4776,-307.09,0.19794
2.8151,4774,-310.73,0.19753
2.8201,4768,-316.77,0.1963
2.8251,4776,-310.83,0.19794
2.8301,4775,-313.12,0.19773
2.8351,4767,-320.41,0.19609
2.8401,4774,-314.69,0.19753
2.8451,4777,-313.31,0.19814
2.8501,4768,-321.53,0.1963
2.8551,4771,-318.86,0.19691
2.8601,4780,-312.2,0.19875
2.8651,4769,-322.38,0.1965
2.8701,4770,-321.29,0.19671
2.8751,4777,-315.86,0.19814
2.8801,4773,-320.1,0.19732
2.8851,4773,-320.45,0.19732
2.8901,4775,-319.25,0.19773
2.8951,4771,-322.99,0.19691
2.9001,4770,-323.72,0.19671
2.9051,4776,-318.96,0.19794
2.9101,4771,-323.74,0.19691
2.9151,4766,-327.6,0.19589
2.9201,4777,-318.39,0.19814
2.9251,4775,-321.17,0.19773
2.9301,4768,-327.3,0.1963
2.9351,4773,-322.97,0.19732
2.9401,4779,-318.84,0.19855
2.9451,4770,-327.18,0.19671
2.9501,4764,-331.58,0.19548
2.9551,4757,-335.93,0.19404
2.9601,4744,-344.18,0.19134
2.9651,4732,-350.08,0.18884
2.9701,4763,-321.21,0.19527
2.9751,4767,-319.46,0.19609
2.9801,4767,-321.23,0.19609
2.9851,4777,-314.97,0.19814
2.9901,4773,-320.85,0.19732
2.9951,4765,-328.68,0.19568
3.0001,4776,-320.28,0.19794
3.0051,4785,-315.25,0.19977
3.0101,4784,-318.99,0.19957
3.0151,4771,-331.25,0.19691
3.0201,4796,-311.87,0.202
3.0251,4792,-318.76,0.20119
3.0301,4763,-343.55,0.19527
3.0351,4774,-332.5,0.19753
3.0401,4758,-344.68,0.19424
3.0451,4734,-360.81,0.18926
3.0501,4762,-333.07,0.19507
3.0551,4778,-320.61,0.19834
3.0601,4769,-330.07,0.1965
3.0651,4777,-324.53,0.19814
3.0701,4780,-324.05,0.19875
3.0751,4766,-336.83,0.19589
3.0801,4775,-329.3,0.19773
3.0851,4781,-325.71,0.19896
3.0901,4770,-336,0.19671
3.0951,4760,-343.52,0.19465
3.1001,4756,-344.92,0.19383
3.1051,4742,-353.92,0.19093
3.1101,4741,-351.01,0.19072
3.1151,4772,-323.87,0.19712
3.1201,4770,-328.01,0.19671
3.1251,4772,-328.27,0.19712
3.1301,4776,-326.99,0.19794
3.1351,4772,-332.19,0.19712
3.1401,4771,-334.07,0.19691
3.1451,4777,-330.22,0.19814
3.1501,4774,-334.16,0.19753
3.1551,4766,-341.21,0.19589
3.1601,4776,-332.97,0.19794
3.1651,4777,-333.44,0.19814
3.1701,4768,-341.58,0.1963
3.1751,4774,-336.53,0.19753
3.1801,4776,-335.67,0.19794
3.1851,4770,-341.21,0.19671
3.1901,4770,-341.05,0.19671
3.1951,4777,-335.58,0.19814
3.2001,4771,-341.32,0.19691
3.2051,4772,-340.54,0.19712
3.2101,4777,-336.9,0.19814
3.2151,4771,-342.54,0.19691
3.2201,4770,-343.23,0.19671
3.2251,4778,-336.9,0.19834
3.2301,4772,-342.72,0.19712
3.2351,4767,-346.64,0.19609
3.2401,4776,-339.01,0.19794
3.2451,4774,-341.49,0.19753
3.2501,4764,-349.71,0.19548
3.2551,4801,-320.17,0.20301
3.2601,4823,-308.51,0.20742
3.2651,4822,-316.67,0.20722
3.2701,4818,-325.44,0.20642
3.2751,4808,-337,0.20442
3.2801,4797,-347.05,0.2022
3.2851,4780,-359.74,0.19875
3.2901,4781,-356.12,0.19896
3.2951,4771,-361.79,0.19691
3.3001,4771,-358.67,0.19691
3.3051,4778,-350.86,0.19834
3.3101,4769,-357.06,0.1965
3.3151,4768,-355.89,0.1963
3.3201,4777,-347.31,0.19814
3.3251,4782,-343.65,0.19916
3.3301,4767,-356.2,0.19609
3.3351,4776,-347.73,0.19794
3.3401,4793,-334.97,0.20139
3.3451,4789,-340.98,0.20058
3.3501,4770,-357.34,0.19671
3.3551,4796,-335.85,0.202
3.3601,4786,-346.42,0.19997
3.3651,4772,-358,0.19712
3.3701,4793,-340.37,0.20139
3.3751,4782,-350.97,0.19916
3.3801,4773,-357.94,0.19732
3.3851,4777,-353.54,0.19814
3.3901,4779,-351.64,0.19855
3.3951,4769,-359.44,0.1965
3.4001,4777,-351.83,0.19814
3.4051,4780,-349.69,0.19875
3.4101,4766,-361.16,0.19589
3.4151,4758,-365.74,0.19424
3.4201,4753,-367.13,0.19321
3.4251,4738,-376.14,0.1901
3.4301,4752,-360.69,0.193
3.4351,4771,-344.68,0.19691
3.4401,4769,-348.3,0.1965
3.4451,4772,-347.36,0.19712
3.4501,4780,-342.81,0.19875
3.4551,4770,-353.11,0.19671
3.4601,4773,-351.32,0.19732
3.4651,4778,-348.42,0.19834
3.4701,4773,-353.86,0.19732
3.4751,4770,-356.7,0.19671
3.4801,4777,-351.29,0.19814
3.4851,4777,-352.45,0.19814
3.4901,4767,-361.13,0.19609
3.4951,4774,-354.97,0.19753
3.5001,4776,-353.99,0.19794
3.5051,4769,-360.2,0.1965
3.5101,4773,-356.7,0.19732
3.5151,4775,-355.52,0.19773
3.5201,4771,-359.26,0.19691
3.5251,4772,-358.43,0.19712
3.5301,4776,-355.51,0.19794
3.5351,4769,-361.72,0.1965
3.5401,4771,-359.77,0.19691
3.5451,4778,-354.42,0.19834
3.5501,4770,-361.78,0.19671
3.5551,4768,-363.06,0.1963
3.5601,4778,-354.88,0.19834
3.5651,4775,-358.45,0.19773
3.5701,4765,-366.74,0.19568
3.5751,4776,-357.17,0.19794
3.5801,4776,-358.12,0.19794
3.5851,4768,-365.09,0.1963
3.5901,4773,-360.64,0.19732
3.5951,4776,-358.71,0.19794
3.6001,4768,-365.72,0.1963
3.6051,4774,-360.53,0.19753
3.6101,4775,-360.31,0.19773
3.6151,4768,-366.37,0.1963
3.6201,4772,-362.74,0.19712
3.6251,4780,-356.84,0.19875
3.6301,4769,-366.83,0.1965
3.6351,4770,-365.58,0.19671
3.6401,4778,-359.23,0.19834
3.6451,4782,-357.34,0.19916
3.6501,4769,-368.96,0.1965
3.6551,4776,-362.84,0.19794
3.6601,4790,-352.68,0.20078
3.6651,4768,-372.31,0.1963
3.6701,4773,-367.18,0.19732
3.6751,4795,-350.14,0.2018
3.6801,4785,-361.17,0.19977
3.6851,4774,-370.79,0.19753
3.6901,4790,-357.74,0.20078
3.6951,4779,-368.14,0.19855
3.7001,4774,-371.86,0.19753
3.7051,4790,-358.75,0.20078
3.7101,4779,-369.09,0.19855
3.7151,4770,-375.86,0.19671
3.7201,4780,-366.65,0.19875
3.7251,4778,-368.63,0.19834
3.7301,4769,-375.66,0.1965
3.7351,4776,-368.95,0.19794
3.7401,4780,-366,0.19875
3.7451,4766,-377.58,0.19589
3.7501,4775,-369.08,0.19773
3.7551,4776,-368.56,0.19794
3.7601,4771,-372.82,0.19691
3.7651,4761,-380.14,0.19486
3.7701,4752,-385.28,0.193
3.7751,4739,-392.58,0.19031
3.7801,4750,-379.67,0.19259
3.7851,4772,-361.01,0.19712
3.7901,4767,-367.15,0.19609
3.7951,4770,-365.89,0.19671
3.8001,4777,-361.86,0.19814
3.8051,4772,-367.94,0.19712
3.8101,4768,-372.05,0.1963
3.8151,4777,-365.32,0.19814
3.8201,4775,-368.51,0.19773
3.8251,4767,-375.72,0.19609
3.8301,4774,-369.91,0.19753
3.8351,4775,-369.97,0.19773
3.8401,4769,-375.47,0.1965
3.8451,4774,-371.4,0.19753
3.8501,4774,-372.06,0.19753
3.8551,4768,-377.27,0.1963
3.8601,4772,-373.73,0.19712
3.8651,4778,-369.43,0.19834
3.8701,4769,-377.63,0.1965
3.8751,4770,-376.47,0.19671
3.8801,4779,-369.43,0.19855
3.8851,4771,-376.98,0.19691
3.8901,4770,-377.64,0.19671
3.8951,4777,-372.04,0.19814
3.9001,4771,-377.65,0.19691
3.9051,4768,-379.85,0.1963
3.9101,4775,-373.93,0.19773
3.9151,4773,-376.21,0.19732
3.9201,4768,-380.38,0.1963
3.9251,4774,-375.26,0.19753
3.9301,4774,-375.86,0.19753
3.9351,4767,-381.79,0.19609
3.9401,4773,-376.5,0.19732
3.9451,4777,-373.9,0.19814
3.9501,4768,-381.9,0.1963
3.9551,4764,-384.46,0.19548
3.9601,4761,-385.77,0.19486
3.9651,4751,-392.31,0.1928
3.9701,4741,-397.61,0.19072
3.9751,4766,-374.57,0.19589
3.9801,4785,-361.16,0.19977
3.9851,4766,-379.8,0.19589
3.9901,4774,-373.83,0.19753
3.9951,4792,-361.49,0.20119
4.0001,4767,-384.75,0.19609
4.0051,4775,-377.88,0.19773
4.0101,4788,-368.66,0.20038
4.0151,4778,-379.02,0.19834
4.0201,4774,-382.7,0.19753
4.0251,4786,-373.37,0.19997
4.0301,4776,-382.89,0.19794
4.0351,4770,-387.45,0.19671
4.0401,4788,-372.66,0.20038
4.0451,4777,-383.22,0.19814
4.0501,4771,-387.84,0.19691
4.0551,4779,-380.77,0.19855
4.0601,4778,-382.13,0.19834
4.0651,4767,-390.97,0.19609
4.0701,4775,-383.38,0.19773
4.0751,4774,-384.34,0.19753
4.0801,4769,-388.24,0.1965
4.0851,4760,-394.49,0.19465
4.0901,4749,-401.1,0.19238
4.0951,4736,-408.03,0.18968
4.1001,4751,-391.67,0.1928
4.1051,4769,-376.48,0.1965
4.1101,4765,-381.52,0.19568
4.1151,4770,-378.6,0.19671
4.1201,4780,-372.48,0.19875
4.1251,4772,-381.51,0.19712
4.1301,4770,-384.1,0.19671
4.1351,4778,-378.49,0.19834
4.1401,4771,-385.63,0.19691
4.1451,4772,-385.17,0.19712
4.1501,4778,-381,0.19834
4.1551,4772,-386.96,0.19712
4.1601,4769,-389.44,0.1965
4.1651,4759,-396.88,0.19445
4.1701,4746,-405.22,0.19176
4.1751,4729,-415.13,0.18822
4.1801,4752,-391.67,0.193
4.1851,4766,-380.23,0.19589
4.1901,4764,-383.61,0.19548
4.1951,4770,-380.13,0.19671
4.2001,4778,-375.87,0.19834
4.2051,4771,-384.08,0.19691
4.2101,4771,-385.24,0.19691
4.2151,4778,-380.8,0.19834
4.2201,4773,-386.56,0.19732
4.2251,4770,-389.63,0.19671
4.2301,4776,-385.17,0.19794
4.2351,4772,-389.37,0.19712
4.2401,4769,-391.98,0.1965
4.2451,4778,-384.84,0.19834
4.2501,4772,-390.76,0.19712
4.2551,4766,-395.52,0.19589
4.2601,4775,-387.76,0.19773
4.2651,4776,-387.81,0.19794
4.2701,4768,-394.83,0.1963
4.2751,4772,-391.19,0.19712
4.2801,4778,-386.8,0.19834
4.2851,4779,-387.21,0.19855
4.2901,4769,-396.04,0.1965
4.2951,4790,-379.25,0.20078
4.3001,4790,-382.08,0.20078
4.3051,4771,-398.96,0.19691
4.3101,4776,-393.96,0.19794
4.3151,4794,-380.09,0.2016
4.3201,4771,-400.55,0.19691
4.3251,4776,-395.34,0.19794
4.3301,4785,-388.19,0.19977
4.3351,4766,-404.09,0.19589
4.3401,4775,-395.18,0.19773
4.3451,4787,-385.88,0.20018
4.3501,4774,-397.73,0.19753
4.3551,4761,-407.26,0.19486
4.3601,4760,-405.59,0.19465
4.3651,4747,-413.67,0.19197
4.3701,4740,-415.49,0.19051
4.3751,4776,-383.53,0.19794
4.3801,4771,-390.01,0.19691
4.3851,4769,-392.87,0.1965
4.3901,4776,-388.24,0.19794
4.3951,4775,-390.76,0.19773
4.4001,4768,-397.42,0.1963
4.4051,4775,-391.95,0.19773
4.4101,4774,-393.81,0.19753
4.4151,4767,-399.95,0.19609
4.4201,4777,-391.75,0.19814
4.4251,4777,-392.99,0.19814
4.4301,4767,-401.72,0.19609
4.4351,4772,-397.12,0.19712
4.4401,4778,-392.74,0.19834
4.4451,4769,-400.86,0.1965
4.4501,4771,-398.86,0.19691
4.4551,4779,-392.69,0.19855
4.4601,4771,-400.15,0.19691
4.4651,4772,-399.18,0.19712
4.4701,4778,-394.6,0.19834
4.4751,4770,-401.78,0.19671
4.4801,4771,-400.58,0.19691
4.4851,4777,-395.82,0.19814
4.4901,4773,-399.77,0.19732
4.4951,4768,-403.73,0.1963
4.5001,4777,-396.11,0.19814
4.5051,4773,-400.12,0.19732
4.5101,4767,-404.89,0.19609
4.5151,4773,-399.45,0.19732
4.5201,4775,-398.26,0.19773
4.5251,4767,-405.06,0.19609
4.5301,4772,-400.47,0.19712
4.5351,4776,-397.63,0.19794
4.5401,4771,-402.35,0.19691
4.5451,4771,-402.28,0.19691
4.5501,4776,-398.41,0.19794
4.5551,4771,-403.08,0.19691
4.5601,4771,-402.96,0.19691
4.5651,4777,-398.29,0.19814
4.5701,4771,-403.85,0.19691
4.5751,4767,-406.78,0.19609
4.5801,4760,-411.47,0.19465
4.5851,4747,-419.95,0.19197
4.5901,4731,-429.16,0.18864
4.5951,4754,-405.96,0.19342
4.6001,4767,-395.49,0.19609
4.6051,4775,-391.11,0.19773
4.6101,4772,-396.14,0.19712
4.6151,4787,-386.33,0.20018
4.6201,4786,-390.84,0.19997
4.6251,4774,-402.91,0.19753
4.6301,4795,-387.2,0.2018
4.6351,4792,-393.14,0.20119
4.6401,4772,-410.94,0.19712
4.6451,4778,-405.15,0.19834
4.6501,4785,-399.83,0.19977
4.6551,4768,-414.1,0.1963
4.6601,4776,-406.22,0.19794
4.6651,4785,-399.25,0.19977
4.6701,4766,-415.3,0.19589
4.6751,4774,-407.28,0.19753
4.6801,4785,-398.66,0.19977
4.6851,4775,-407.99,0.19773
4.6901,4771,-410.83,0.19691
4.6951,4782,-401.58,0.19916
4.7001,4775,-408.11,0.19773
4.7051,4772,-410.26,0.19712
4.7101,4783,-401.23,0.19936
4.7151,4774,-409.47,0.19753
4.7201,4773,-409.91,0.19732
4.7251,4778,-405.67,0.19834
4.7301,4773,-410.03,0.19732
4.7351,4768,-413.55,0.1963
4.7401,4778,-404.8,0.19834
4.7451,4776,-407.14,0.19794
4.7501,4766,-415.21,0.19589
4.7551,4776,-406.22,0.19794
4.7601,4777,-406.06,0.19814
4.7651,4768,-413.68,0.1963
4.7701,4773,-408.96,0.19732
4.7751,4775,-407.56,0.19773
4.7801,4771,-411.12,0.19691
4.7851,4773,-409.34,0.19732
4.7901,4777,-406.43,0.19814
4.7951,4770,-412.62,0.19671
4.8001,4772,-410.64,0.19712
4.8051,4778,-406.01,0.19834
4.8101,4770,-413.16,0.19671
4.8151,4770,-412.7,0.19671
4.8201,4777,-406.98,0.19814
4.8251,4773,-410.94,0.19732
4.8301,4767,-415.67,0.19609
4.8351,4775,-408.65,0.19773
4.8401,4775,-409.29,0.19773
4.8451,4769,-414.45,0.1965
4.8501,4774,-410.1,0.19753
4.8551,4775,-409.76,0.19773
4.8601,4770,-414.15,0.19671
4.8651,4772,-412.26,0.19712
4.8701,4777,-408.49,0.19814
4.8751,4769,-415.55,0.1965
4.8801,4773,-411.93,0.19732
4.8851,4778,-408.32,0.19834
4.8901,4771,-414.73,0.19691
4.8951,4767,-417.55,0.19609
4.9001,4758,-423.71,0.19424
4.9051,4744,-432.59,0.19134
4.9101,4734,-436.62,0.18926
4.9151,4762,-410.14,0.19507
4.9201,4771,-404.05,0.19691
4.9251,4765,-410.83,0.19568
4.9301,4773,-405.42,0.19732
4.9351,4782,-400.4,0.19916
4.9401,4786,-400.29,0.19997
4.9451,4774,-412.51,0.19753
4.9501,4791,-399.97,0.20099
4.9551,4789,-404.61,0.20058
4.9601,4773,-419.08,0.19732
4.9651,4801,-396.87,0.20301
4.9701,4785,-412.91,0.19977
4.9751,4768,-426.55,0.1963
4.9801,4779,-415.86,0.19855
4.9851,4782,-413.58,0.19916
4.9901,4769,-424.11,0.1965
4.9951,4775,-417.87,0.19773
5.0001,4781,-412.97,0.19896
5.0051,4768,-423.73,0.1963
5.0101,4774,-417.67,0.19753
5.0151,4779,-413.67,0.19855
5.0201,4773,-418.99,0.19732
5.0251,4775,-417.09,0.19773
5.0301,4780,-413.3,0.19875
5.0351,4773,-419.56,0.19732
5.0401,4774,-418.4,0.19753
5.0451,4783,-411.36,0.19936
5.0501,4771,-421.95,0.19691
5.0551,4769,-422.7,0.1965
5.0601,4780,-413.32,0.19875
5.0651,4774,-418.98,0.19753
5.0701,4768,-423.53,0.1963
5.0751,4777,-415.59,0.19814
5.0801,4776,-417.03,0.19794
5.0851,4768,-423.61,0.1963
